<?xml version="1.0" standalone="yes"?>
<svg width="551" height="1000">
<path style="stroke:#000000; fill:none;" d="M124 414C131.458 387.922 157.25 368.885 181 358.72C196.641 352.026 213.256 349.197 230 346.87C284.086 339.351 366.892 337.901 396.572 395C411.006 422.768 413.989 454.332 416.09 485C418.9 526.043 417 567.82 417 609L417 661C417 667.326 418.854 677.236 415.972 683C403.469 708.007 366.746 714.655 344 724.969C331.901 730.456 322.469 741.835 310 747.702C269.368 766.821 215.128 772.721 174 753.691C100.627 719.74 101.345 605.623 164 562.205C191.162 543.383 225.734 535.407 258 530.87C310.298 523.515 363.22 524 416 524M416 684C420.766 690.55 419.445 697.384 420.17 705C421.503 719.01 424.664 732.211 427 746"/>
</svg>
