<?xml version="1.0" standalone="yes"?>
<svg width="378" height="1000">
<path style="stroke:#000000; fill:none;" d="M132 139L170.035 205L175.514 222L193 240L211.486 221L217.59 204L255 139M193 240C193 244.062 192.159 249.263 194.028 253C198.209 261.362 208.533 265.557 212.683 274C214.525 277.747 214.178 282.173 215.883 286C226.102 308.929 240.985 333.205 255 354M66 247L241 247L295 247L322 246M193 253L175.514 271L170.096 288L132 354"/>
</svg>
