<?xml version="1.0" standalone="yes"?>
<svg width="499" height="1000">
<path style="stroke:#000000; fill:none;" d="M403 680C395.211 730.121 347.129 751.55 303 757.282C250.6 764.088 182.552 761.082 147.619 714.911C136.642 700.403 129.39 683.448 124.556 666C107.744 605.324 109.43 540.763 116.845 479C121.186 442.841 129.59 405.557 155.246 378.174C178.796 353.038 212.276 346.103 245 342.831C282.903 339.041 333.373 340.954 365 364.9C383.502 378.908 395.951 400.832 402 423"/>
</svg>
