<?xml version="1.0" standalone="yes"?>
<svg width="515" height="1000">
<path style="stroke:#000000; fill:none;" d="M254 341.424C267.071 339.708 280.967 342.713 294 343.925C314.501 345.831 336.583 350.038 354 361.749C384.239 382.082 396.008 416.993 403.12 451C414.76 506.666 415.605 562.782 408.282 619C402.157 666.018 390.644 723.442 343 745.677C330.3 751.604 315.869 754.99 302 756.715C256.743 762.346 194.288 764.96 158.09 731.7C135.356 710.812 127.925 679.736 121.116 651C105.958 587.03 106.693 512.97 121.349 449C127.453 422.354 134.542 394.416 154.039 374C181.097 345.667 218.028 346.148 254 341.424"/>
</svg>
