<?xml version="1.0" standalone="yes"?>
<svg width="430" height="1000">
<path style="stroke:#000000; fill:none;" d="M110 740L110 502C110 478.14 108.571 453.737 110.83 430C111.469 423.287 109.733 413.149 113.028 407.093C116.292 401.092 126.281 397.133 132 393.85C150.683 383.126 169.99 375.943 190 368.293C199.286 364.743 206.757 357.322 216 353.336C229.014 347.725 244.11 345.917 258 343.586C270.997 341.406 286.832 336.652 300 338.185C319.183 340.419 333.516 357.581 341.113 374C346.229 385.056 349.538 397.101 352 409M110 361C110 373.273 105.694 395.844 113 406"/>
</svg>
