<?xml version="1.0" standalone="yes"?>
<svg width="1012" height="1000">
<path style="stroke:#000000; fill:none;" d="M511 148L511 239C511 250.05 514.379 267.649 510.397 277.961C508.187 283.681 499.837 287.441 495 290.667C481.564 299.628 468.771 305.601 464.884 322C449.665 386.215 435.413 450.678 420.651 515C414.22 543.025 410.646 573.972 400.856 600.996C398.816 606.625 392.706 609.528 388 612.667C378.164 619.227 358.121 628.17 352.028 638.326C347.924 645.166 351.244 661.178 351.45 669C352.124 694.65 352.539 720.352 353 746M189 152C190.834 164.467 195.569 176.768 198.627 189C205.637 217.041 212.767 245.049 220.116 273C237.552 339.318 254.211 405.935 272.576 472C281.432 503.86 289.606 535.919 297.627 568C300.651 580.097 302.06 599.901 309.513 609.96C318.904 622.634 338.979 628.754 351 639M833 152L724.849 564L715.884 597L710.697 611.482L682 630.656L671.109 639.093L670 670L669 743M511 280C523.118 289.611 543.49 297.441 552.436 310.04C556.489 315.748 556.721 325.299 558.374 332C562.719 349.604 566.596 367.328 570.651 385C582.36 436.023 594.04 487.063 606.116 538C609.505 552.298 612.922 566.633 616 581C617.482 587.915 618.171 597.867 621.938 603.907C625.089 608.96 632.19 612.071 637 615.344C648.03 622.85 658.94 630.537 670 638"/>
</svg>
