<?xml version="1.0" standalone="yes"?>
<svg width="774" height="1000">
<path style="stroke:#000000; fill:none;" d="M547 143C534.227 160.887 524.79 181.798 514.139 201C486.467 250.891 460.232 302.834 429.676 350.996C420.12 366.058 394.405 363.251 386.028 380C383.365 385.323 385 394.172 385 400L385 447C385 453.078 386.745 462.455 383.972 468C375.383 485.178 352.007 483.849 342.865 499.001C291.646 583.89 248.367 673.594 198 759M220 146L295.719 275L327.8 329L344.379 355.787L385 381M385 469L405 484.745L427.096 496.214L462.8 558L548.989 707L577 756"/>
</svg>
