<?xml version="1.0" encoding="UTF-8" standalone="no"?>
<!-- Created with Inkscape (http://www.inkscape.org/) -->

<svg
   width="210mm"
   height="297mm"
   viewBox="0 0 210 297"
   version="1.1"
   id="svg5"
   inkscape:version="1.1.2 (0a00cf5339, 2022-02-04, custom)"
   sodipodi:docname="tramos.svg"
   inkscape:export-filename="/home/tumtum/data/BOULOT/2022/NEXTCLOUD/PROJET-M2/cases-bd/fusion/tramos.png"
   inkscape:export-xdpi="300"
   inkscape:export-ydpi="300"
   xmlns:inkscape="http://www.inkscape.org/namespaces/inkscape"
   xmlns:sodipodi="http://sodipodi.sourceforge.net/DTD/sodipodi-0.dtd"
   xmlns="http://www.w3.org/2000/svg"
   xmlns:svg="http://www.w3.org/2000/svg">
  <sodipodi:namedview
     id="namedview7"
     pagecolor="#505050"
     bordercolor="#eeeeee"
     borderopacity="1"
     inkscape:pageshadow="0"
     inkscape:pageopacity="0"
     inkscape:pagecheckerboard="0"
     inkscape:document-units="mm"
     showgrid="false"
     inkscape:zoom="1.572381"
     inkscape:cx="192.70139"
     inkscape:cy="482.07147"
     inkscape:window-width="675"
     inkscape:window-height="364"
     inkscape:window-x="685"
     inkscape:window-y="398"
     inkscape:window-maximized="1"
     inkscape:current-layer="layer1"
     showguides="false" />
  <defs
     id="defs2">
    <marker
       style="overflow:visible;"
       id="Arrow1Mend"
       refX="0.0"
       refY="0.0"
       orient="auto"
       inkscape:stockid="Arrow1Mend"
       inkscape:isstock="true">
      <path
         transform="scale(0.4) rotate(180) translate(10,0)"
         style="fill-rule:evenodd;fill:context-stroke;stroke:context-stroke;stroke-width:1.0pt;"
         d="M 0.0,0.0 L 5.0,-5.0 L -12.5,0.0 L 5.0,5.0 L 0.0,0.0 z "
         id="path1299" />
    </marker>
    <marker
       style="overflow:visible"
       id="Arrow1Lstart"
       refX="0.0"
       refY="0.0"
       orient="auto"
       inkscape:stockid="Arrow1Lstart"
       inkscape:isstock="true">
      <path
         transform="scale(0.8) translate(12.5,0)"
         style="fill-rule:evenodd;fill:context-stroke;stroke:context-stroke;stroke-width:1.0pt"
         d="M 0.0,0.0 L 5.0,-5.0 L -12.5,0.0 L 5.0,5.0 L 0.0,0.0 z "
         id="path1290" />
    </marker>
    <clipPath
       clipPathUnits="userSpaceOnUse"
       id="clipPath1621">
      <path
         d="M 0,0 H 2479.1667 V 3507.7236 H 0 Z"
         clip-rule="evenodd"
         id="path1619" />
    </clipPath>
  </defs>
  <g
     inkscape:label="Calque 1"
     inkscape:groupmode="layer"
     id="layer1">
    <path
       style="fill:none;stroke:#0a0a0a;stroke-width:1.343;stroke-linecap:round;paint-order:markers fill stroke;stroke-linejoin:round;stroke-miterlimit:4;stroke-dasharray:none;marker-start:"
       d="m 108.84866,6.3631594 h 87.99204 m -89.07836,2.1726427 h 25.52855 10.32006 54.31607 m -73.3267,1.0863223 0.54316,2.1726436 c 2.74242,-0.6802 3.96019,-0.375324 7.06109,-0.404872 4.10738,-0.03905 8.26148,-0.124221 12.4927,-0.137854 17.55713,-0.05654 35.12837,-4.35e-4 52.68659,-4.35e-4 m -76.0425,-1.086322 2.7158,1.629483 m -15.2085,-0.543161 c 1.63709,-9.23e-4 2.81901,-0.02792 4.34529,-0.06284 3.48818,-0.07984 4.09,-0.432844 7.60425,0.606005 m -13.03586,1.629483 h 90.16468 m -89.62152,2.172644 c 19.57117,0 39.16569,0 58.66136,0 1.81741,0 3.24049,0 4.88844,0 3.29699,0 6.49077,0 10.32006,0 1.9809,0 3.61473,0 5.4316,0 4.35235,0 4.79666,0 9.7769,0 m -119.495384,0.543161 3.25897,1.086321 -2.71581,1.086322 m -29.87384,-1.086326 c 2.80304,1.18773 6.8579,0.91691 9.23374,1.118151 3.06989,0.260065 3.38986,1.332862 4.34528,2.140814 l -4.34528,1.618999 -4.34529,-0.283747 -4.34529,-1.335252 m 32.04649,-3.258965 c 2.3899,0 8.11916,-0.17745 9.77689,0.08044 1.65555,0.257513 2.44096,0.579336 4.2649,2.645845 1.06188,1.20321 1.47902,2.438629 1.6398,3.248482 0.79736,4.00858 1.9532,4.225356 3.329034,4.888446 m -80.930944,-7.061089 0.54316,2.172643 2.7158,-1.629483 c -0.83967,-0.403188 -1.02462,-0.596119 -3.80212,-1.086321 1.01337,-1.837785 7.36449,-2.246296 8.69057,-1.956791 1.69439,0.369892 1.59841,1.749901 4.34528,2.077916 2.17737,0.260011 3.29943,-2.704832 5.09338,-1.655065 0.85304,0.499164 0.54827,1.374088 0.50503,1.566204 -0.1378,0.612468 -0.059,4.99496 -2.57496,6.546879 -1.59711,0.985076 -3.233,-0.03987 -4.10977,-0.07631 -3.28558,-0.136496 -6.69804,-1.542794 -12.4927,-1.614382 m 152.628184,-7.06109 h 1.08632 m 13.57902,0 h 2.7158 m 6.51793,0 h 0.54316 M 25.745046,18.85586 c 0.19668,2.524502 2.04674,3.680294 4.88845,2.172643 m 64.09296,-1.086322 c -1.00865,0.853034 -1.67565,2.02474 -4.88844,2.16216 -1.71693,0.07343 -4.3844,0.153009 -5.97477,-0.283747 -2.05098,-0.563149 -2.12322,-1.034341 -5.43161,-1.335252 m -16.29482,0 c 4.81512,0.364243 4.64511,4.745324 5.43161,5.431607 h 0.54316 0.54316 0.54316 M 184.89116,20.485342 h 3.25896 m 4.88845,0 h 1.62948 m 1.08632,0 h 0.54317 m -162.948244,0.543161 2.71581,2.172643 m 13.57902,-2.172643 c 0.86471,2.671862 1.86907,1.492008 2.7158,1.086321 v 0 m 27.70119,-1.086321 c 0.86472,2.671916 1.86902,1.492062 2.71581,1.086321 v 0 m -60.29084,-0.543161 2.7158,0.543161 m 7.06109,-0.543161 c 0,1.268878 0,2.138044 0,4.888447 m 46.16866,-3.258964 h 1.08632 m 47.798174,0 h 16.83798 8.69057 m 38.56441,0 h 2.7158 m 1.08632,0 h 0.54316 m -148.282894,2.172643 7.60425,0.08381 3.80213,1.251443 6.51793,0.29423 c 0.22052,1.383811 0.076,2.752087 3.25896,3.258964 m 8.69057,-4.888446 c 2.9461,0.0062 7.75471,-0.482653 10.86321,0.162187 1.31337,0.27245 3.52838,1.018318 5.43161,2.01252 1.27371,0.665372 1.81742,1.257308 2.17264,1.486576 1.22809,0.793015 2.51267,1.167687 4.345294,1.227163 m 27.70122,-4.888446 c 0.71371,2.771532 0.61866,6.832582 0,9.776893 m 17.9243,-7.06109 c 0.4253,-2.547206 1.46599,-2.639109 3.80213,-2.715803 m 3.80212,0 11.94954,0.54316 m 20.09694,0 c 1.57951,-0.158657 1.67945,-0.158657 3.25897,0 m 3.80212,-0.54316 h 1.62948 m -127.642784,0.54316 -1.08632,1.086322 m 31.50332,-1.086322 c -3.81136,3.100742 -3.48655,3.552761 -5.97477,4.172616 -0.79845,0.198851 -8.51405,0.17267 -10.32006,0.17267 m -54.31607,-3.258964 c -1.07192,0.419048 -2.53351,1.049332 -7.06108,1.086321 m 38.56441,-1.086321 c -1.78288,0.879812 -3.64277,1.070896 -9.23374,1.086321 m 41.82338,-1.086321 c -2.09606,1.117064 -6.37019,1.08567 -12.4927,1.086321 m -42.90969,-0.54316 3.80212,2.715803 m 23.89907,-2.715803 c 0.16947,1.009681 -0.10483,2.78951 2.71581,1.629482 M 185.97748,27.546432 h 2.17264 m -154.800824,0.54316 c -1.32026,1.116522 -4.22117,2.173838 -15.2085,2.172643 M 162.62157,28.089592 h 1.62948 m 28.24436,0 h 0.54316 M 35.521946,29.175914 c 0.0481,0.623114 -1.66251,2.775823 3.25896,3.802125 m 9.23373,-2.715804 c 5.3138,0 9.60097,0 14.12218,0 m 15.2085,0 h 0.54316 m 67.895114,0 v 4.888447 m 6.51793,-4.888447 h 1.08632 m 21.18327,0 h 2.17264 M 35.521946,31.891718 c -3.11242,1.660985 -5.08105,0.739785 -9.23374,1.086321 m 30.417,0 c 3.71169,-0.252352 8.87851,-0.561628 11.94954,0 m 8.69057,-0.543161 v 0.543161 m 9.23373,-0.543161 c 4.55984,0.161048 10.18698,0.14258 13.579024,0.543161 m 52.68661,-0.543161 1.62948,0.543161 m -136.333364,0 h 0.54317 m 72.78353,2.172643 c 2.6919,-0.0015 5.25454,-0.07664 8.690574,0 m -82.017274,0 h 0.54317 m 11.94953,0 c 2.5433,0.133346 4.37206,0 8.14741,0 m 22.26959,0 c 2.61152,0 5.53589,0 8.14741,0 m 83.646774,0 h 5.43161 m 35.30544,0 h 0.54316 M 31.719816,37.866486 c 2.58795,-0.511875 5.64762,-0.729465 7.06109,1.629482 l -2.7158,0.543161 m 26.07171,-2.172643 5.43161,-0.543161 c 0.1586,1.668862 -0.19065,2.52032 -2.17264,3.258965 m 27.15803,-2.715804 c 2.16341,-0.35023 5.58152,-0.396073 7.604254,0 M 123.514,37.323325 h 0.54316 m 3.80213,0 v 2.715804 m 17.9243,-2.715804 v 2.715804 m 5.97477,-2.172643 1.08632,-0.543161 m 3.80212,0 h 1.62949 M 18.140796,37.866486 h 0.54317 m -0.54317,2.172643 h 0.54317 m 58.66135,0 h 0.54316 m 18.46747,0.543161 c 1.6952,-0.40786 2.07487,-0.465706 3.802124,-0.543161 m 50.51397,0 h 1.08632 m 4.88844,0 h 1.62949 M 18.140796,42.211772 h 0.54317 m 16.29482,0 c 3.00264,0.09858 3.60294,0.702741 3.80212,3.258964 m 26.61488,-3.258964 h 2.7158 m 9.23373,0 v 0.543161 m 18.46746,-0.543161 c 2.43934,0.05111 3.01998,0.226281 4.345294,0.543161 m 27.15806,-0.543161 c 4.97209,0.923047 14.03853,0.923047 19.01062,0 m 3.25897,0.543161 1.62948,-0.543161 m 6.51793,0 h 1.08632 m 9.77689,0 h 1.62948 m 5.97477,1.086321 2.17264,-0.54316 m 2.17265,0.54316 0.54316,1.629483 0.54316,-2.172643 2.7158,2.172643 M 77.345316,44.384415 v 0.543161 M 182.71852,44.384415 181.6322,45.470736 M 18.140796,44.927576 h 0.54317 m 74.41301,0 h 0.54316 m 4.88845,0 h 1.629484 m 26.07174,0 5.97476,0.02721 13.03586,-0.02721 m 3.80212,0 h 1.08633 m 10.86321,0 h 3.80212 m 16.83799,0.54316 c 0.39596,1.394729 1.24112,2.535746 -0.54316,3.802126 m -47.25499,-2.172643 h 11.94954 m -127.642794,0 h 0.54317 m 1.08632,0 h 0.54316 m 18.46746,0 v 3.258964 m 61.377164,-3.258964 v 0.54316 m 22.81277,0 1.62948,-0.54316 m 1.62949,0 h 5.4316 m 16.83798,0 h 1.08633 m 14.66533,0 3.80213,0.54316 m 4.88845,-0.54316 h 0.54316 m 2.7158,0 h 4.88845 M 77.345316,49.272862 v 0.54316 m 22.812754,-0.54316 v 0.54316 m 28.78754,0 c 3.97974,-0.208682 11.07667,0 16.83798,0 m 2.7158,-0.54316 -0.54316,0.54316 m -129.815434,0 h 0.54317 m 102.657394,0 h 1.62948 m 1.08632,0 h 1.08632 m 1.08633,0 h 0.54316 m 40.19389,0 h 3.25896 m 14.12218,0 h 1.08632 M 18.140796,51.988665 h 4.34529 m 1.62948,0 h 2.17264 m 12.4927,0 c 0,2.626183 0.76102,6.740625 -1.70992,7.819886 -3.9364,1.71856 -15.19612,0.823431 -18.93019,-0.758796 m 30.96016,-7.06109 h 2.17265 m 1.62948,0 h 2.7158 m 23.35591,0 h 4.88845 m 16.294824,0 v 0.543161 m 21.72645,-0.543161 h 16.29482 m 3.25896,0 h 7.06109 m 18.46747,0 h 4.34528 m 9.23374,0.543161 h 2.17264 M 77.345316,54.161308 v 0.543161 m 22.812754,-0.543161 v 0.543161 m 80.38781,-0.543161 h 2.17264 m -59.74768,0.543161 h 5.97477 m 40.19389,0 h 1.08632 M 18.140796,56.877112 c 5.21848,0 11.75846,0 17.38115,0 m 12.49269,0 h 11.40638 m 4.88844,0 h 1.08633 m 1.62948,0 h 1.08632 m 9.23373,0 h 11.94954 m 8.14741,0 h 2.715804 m 23.35593,0 h 5.97477 m 1.08632,0 h 7.60425 m 5.43161,0 h 13.03585 m 11.94954,0 h 1.62948 m 10.86322,0 h 1.62948 M 77.345316,59.049755 v 0.543161 m 22.812754,-0.543161 v 0.543161 m 32.58966,-0.543161 h 3.25897 m 46.71182,0 0.54316,0.543161 m 9.23373,-0.543161 h 1.62948 m -24.44223,0.543161 h 7.60425 M 48.557796,61.765559 h 19.55379 m 9.23373,0 c 3.9276,1.329657 17.67065,2.454543 22.269587,0 m 18.467487,0 h 0.54317 m 1.62948,0 h 0.54316 m 8.14741,0 h 7.60425 m 1.08632,0 h 4.34529 m 2.17264,0 h 1.08632 m 1.62948,0 h 1.08632 m 32.04648,0 h 2.17265 m 1.08632,0 h 1.62948 m -76.58566,2.172643 h 1.08632 m 19.55379,0 h 3.25896 m 1.08632,0 h 3.80213 m 11.94953,0 h 4.88845 m 27.7012,0.543161 2.17264,-0.543161 m -58.1182,2.715804 h 13.57902 m 2.71581,0 h 1.62948 m 12.49269,0 c 2.20361,0.04563 2.86083,0.166207 4.88845,0.54316 m 19.01062,-0.54316 h 1.62949 m -79.30148,2.172643 h 1.62949 m 30.96017,0 h 10.86321 m 14.66534,0 c 2.02762,0.626807 5.60433,2.560459 8.14741,2.715803 m 9.77689,-2.715803 h 1.08632 m -4.88844,2.172643 -1.62948,0.54316 m -98.855274,0 h 4.88844 m 45.082364,0 h 0.54316 m 8.69057,0 h 11.94954 m 24.98539,0 h 1.62948 m 15.75166,0 h 5.43161 m -40.73705,5.974769 c -3.09059,1.649036 -13.16948,1.086321 -19.01063,1.086321 m -75.499354,0 c 1.7959,1.786999 -1.17215,2.684844 -3.80213,2.715804 m 104.286884,-3.258965 0.54316,0.543161 h -1.08632 l 0.54316,-0.543161 M 14.338675,78.603542 h 21.183271 m 9.77689,0.543161 c 3.05919,-0.728379 9.14096,-0.543161 12.4927,-0.543161 m 1.08632,0 c 2.98792,0.0081 6.75855,-0.552937 11.40637,0.543161 m 6.51793,-0.543161 h 5.97477 m 10.32005,0 h 10.863234 m 4.34529,0 h 1.08632 m 1.08632,0 h 20.64011 m 20.64011,0 h 5.97477 m 1.08632,0 4.88844,0.20097 10.86322,-0.20097 m 1.62948,0 h 21.18327 M 14.338675,81.319346 25.745046,80.776185 m 5.97477,0 -0.54316,0.543161 m 9.77689,0 c 4.88992,0 6.80021,-0.454082 10.86322,0 m 7.06109,-0.543161 2.7158,1.629482 c -0.85933,0.456799 -1.54486,0.887525 -4.34529,1.054819 -2.81721,0.168379 -4.19803,0.09179 -6.51792,0.03965 -2.56095,-0.05757 -4.20325,0.234103 -6.51793,0.212376 -3.64504,-0.03476 -3.79811,-0.32481 -6.51793,0.322638 m 33.67596,-0.543161 c -4.17093,0.0516 -7.33755,-0.0049 -9.23373,-1.086322 1.77722,-1.012451 3.2758,-1.086864 8.69057,-1.086321 m 68.981434,0.543161 c 2.45074,-1.856524 8.95564,-1.856524 11.40638,0 M 93.640136,81.319346 h 10.320074 m 47.25499,1.629482 V 84.03515 M 14.338675,83.491989 h 13.579021 m 59.20451,0 h 16.838004 m 4.34529,0 h 23.35591 m 8.14741,0 v 0.543161 m 3.80213,-0.543161 h 0.54316 m 3.25896,0 h 0.54316 m 27.7012,0 h 21.72643 m -132.531244,0.543161 0.54317,3.258964 c 1.13629,-0.794101 1.73159,-1.104246 8.14741,-1.086321 m -26.977,-0.724034 c 0.1574,-0.07876 0.65326,0.126014 0.18109,0.361746 -0.15747,0.07876 -0.65326,-0.126014 -0.18109,-0.361746 m 93.242624,0.180873 c 2.74296,0.837011 8.57651,0.878291 11.40638,0 m -136.876525,0 h 10.320051 m 14.12218,0 -4.34528,0.543161 m 5.97476,-0.543161 c 2.51945,0.426381 3.29291,0.04291 5.43161,0 m 1.62948,0 c 1.04901,0.198254 4.08691,1.014081 5.43161,1.081976 3.1411,0.15806 3.00069,-1.445351 5.61014,-0.12547 l 0.90779,0.672976 c -2.22495,1.180289 -3.34859,1.104789 -5.43161,0 m 33.1328,-1.629482 16.838004,0.543161 m 39.65074,0.54316 v 1.629483 m 4.88844,-1.629483 c 0.14937,2.086281 0.0196,4.467498 0.15752,6.517929 0.28353,4.212756 0.52143,5.996496 0.38564,9.776908 m -96.682624,-15.751676 -1.17269,0.604538 c -3.17526,0.959222 -6.32087,0.159689 -10.77685,0.500794 -1.54518,0.117866 -2.3074,0.20097 -3.80212,0.08745 -3.76036,-0.285702 -3.44739,-0.294393 -6.51793,0.436701 m 29.33068,-1.629482 h 4.88844 m 1.08633,0 c 0.2895,3.836888 1.33726,4.004181 2.20468,4.715722 1.30848,1.073829 1.53769,1.259046 7.02905,1.259046 M 14.338675,88.380436 h 8.690571 m 43.45286,1.629482 c 0.80605,-0.443762 0.95216,-1.345952 4.88844,-1.629482 m 11.94954,0 h 20.640124 m 4.34529,0 h 23.35591 m 26.61488,0 h 1.08632 m 5.97477,0 -0.54317,0.54316 m 10.86322,-0.54316 h 21.72643 m -149.912384,1.629482 0.54316,0.543161 c -1.30891,0.300911 -1.18784,0.405198 -3.25896,0 -0.30683,1.90758 -0.0923,1.992313 1.08632,3.258964 1.13966,-2.035223 1.08627,-2.310062 1.62948,-3.802125 m -33.132801,0.543161 h 8.690571 m 3.80213,0.54316 5.97476,-0.243879 4.34529,-0.25094 7.06109,1.03798 m 3.80212,-1.086321 c 0.7972,0.311774 1.42803,1.184633 4.34529,1.549637 2.13929,0.267235 4.91973,-0.500794 7.06109,-0.2303 1.059,0.133618 3.30296,0.53447 4.34528,1.178116 2.7522,1.699007 2.14983,2.212294 4.34529,2.761429 1.58603,0.397051 9.25926,-0.370436 11.94953,-0.370436 m -11.94953,-4.888446 c 0.99235,0 1.53932,0 4.34528,0 m 10.32006,0 h 21.183284 m 39.65074,0 -0.82506,11.406381 -4.18886,5.97478 -2.04717,7.06109 m 17.9243,-23.899091 h 1.62948 m -90.707854,0 -1.08633,1.629483 m -17.38114,0 3.25897,-0.543161 m 104.286874,1.086321 h 3.80213 m 8.69057,0 2.7158,-0.54316 m 1.62948,0.54316 h 1.62949 m -158.602955,0 c 7.007531,0 12.487541,0.254743 19.010621,0.02118 4.13769,-0.14774 6.28812,-0.02064 10.32006,-0.02118 m 20.6401,0 c -1.12488,1.835341 -2.00806,3.53652 -4.34778,3.843406 -1.3289,0.17381 -3.72592,1.19332 -5.97227,1.02006 -2.4949,-0.19283 -2.21523,-0.97335 -4.88845,-1.372571 -3.44678,-0.514374 -2.77598,-2.11018 -6.51792,-0.23193 2.38637,2.402941 3.1581,1.141181 4.34528,0.543161 m 36.39177,-3.802126 h 5.43161 m 7.60425,0 h 7.604264 m 28.24436,0 h 0.54316 m 26.61488,0 h 3.25896 m -10.32005,1.629483 -2.7158,1.086321 M 14.338675,95.441525 c 2.654701,0 6.146511,0 8.690571,0 2.08107,0 3.13072,-0.0049 5.43161,0 5.91035,0.01195 8.32002,4.665205 13.57902,1.086322 -2.50821,-1.248183 -5.6907,-1.267737 -8.14742,-0.543161 m 17.38115,0.543161 c 2.55166,-1.225914 4.21992,-1.108048 6.51793,0.543161 m 23.35591,-1.086322 c 4.75863,-5.43e-4 7.12952,-0.750648 10.32005,0 m 5.97477,-0.543161 h 6.517944 m 4.34529,0 h 1.08632 m 1.08632,0 h 20.64011 m 1.08632,0 h 3.25897 m 23.35591,0 h 1.62948 m 5.43161,0 h 2.7158 m 7.06109,0 h 21.72643 M 39.324066,95.984686 v 1.629482 m 23.89907,-1.086321 3.25897,1.629481 m -52.143431,0 c 6.987271,0 13.790741,-0.83103 19.010621,0 m 28.24436,-0.54316 c 0.3259,1.09773 0.31721,2.589782 3.26168,3.135122 1.43014,0.26452 8.00021,-0.54914 9.2207,-0.24443 3.486,0.87016 2.66637,2.87226 2.72612,4.71358 -0.89187,-0.35197 -1.72834,-0.74793 -2.72938,-0.69633 -0.65125,0.0331 -1.3063,0.31558 -2.15907,0.49536 -3.62451,0.76423 -13.04194,1.01517 -16.29482,-0.32752 -0.60714,-0.2504 -1.63339,-0.85385 -3.25896,-1.79896 -1.72579,-1.00377 -2.71716,-2.23621 -4.34529,-2.06348 -2.00806,0.21292 -1.58863,1.87391 -4.34528,1.87391 -2.67306,-5.4e-4 -3.45309,-1.93529 -4.88046,-2.16722 -0.96411,-0.15698 -2.30762,0.55294 -3.42203,1.26991 -3.13289,2.01461 -5.89074,1.24113 -10.16498,1.24168 M 158.81945,97.614168 v 0.54316 m 11.40637,-0.54316 v 0.54316 m -102.657394,0 h 20.09694 4.88845 m -31.50332,1.629477 c -0.66396,4.490885 5.41151,2.772855 9.76331,3.326335 1.64524,0.20966 2.04609,0.65452 2.72939,1.01898 m 76.585684,-3.80216 c 2.67941,-0.647435 2.5686,0.37262 5.04324,0.88374 0.9098,0.18739 1.53606,-0.16295 2.51429,-0.0386 1.41548,0.18033 1.94506,1.11675 3.35456,1.63819 1.51108,0.55891 2.59197,-0.0804 3.89338,1.49207 4.24209,5.12418 -2.48007,13.53774 -0.14014,17.75103 M 14.338675,100.32996 h 11.949531 l 9.7769,1.08634 m 40.73705,0 c 3.97159,-2.119425 13.54588,-1.585495 17.9243,-0.54316 m 13.579044,-0.54318 h 1.08632 m 1.08632,0 h 20.64011 m 6.51793,0 1.08632,0.54318 m 36.93493,-0.54318 h 21.72643 m -144.480774,2.71583 c 1.89644,-1.36009 2.70032,-1.42201 7.06109,-1.62949 m -24.44223,0.54316 2.17264,2.17266 c -3.82369,2.04065 -13.26377,1.08632 -23.355911,1.08632 m 43.452861,-3.25898 c 0,1.26503 0,1.94508 0,5.43162 -0.97335,0.18468 -3.1945,1.32803 -4.88845,1.21234 -1.72741,-0.11841 -1.95408,-0.97009 -3.80213,-0.969 -2.53916,10e-4 -3.32506,2.03522 -7.06108,1.11728 -2.72428,-0.66917 -2.56666,-1.00267 -5.97477,-0.90762 -6.5572,0.18305 -14.8354,-0.453 -21.726431,-0.453 m 140.678645,-5.43162 v 1.08633 M 14.338675,102.50263 v 0.54316 m 45.625501,-0.54316 -0.54316,2.17265 m 17.9243,1.08632 c 0.57086,-0.55076 1.07437,-1.14498 1.71639,-1.62839 0.45137,-0.33894 0.7702,-0.73763 1.54529,-0.98259 1.84457,-0.58281 6.6711,0.0733 11.40366,-0.12602 1.28892,-0.0543 2.40403,-0.34707 3.80104,-0.25311 1.24275,0.0831 2.67452,0.56 3.803207,0.81746 m 40.737077,-1.08632 1.62949,1.08632 m 26.61487,-1.08632 -0.54316,0.54316 m -126.013304,0 -4.34529,1.08633 m 7.60425,-1.08633 c 2.42478,1.29219 3.54999,1.29219 5.97477,0 m 91.794184,0.54316 -0.54316,5.97478 m 17.9243,-5.43161 v 1.08632 m -56.48872,2.17264 c -2.61696,0.0538 -3.62561,0.41878 -5.974784,0.52198 -6.39952,0.28027 -12.55571,-0.69144 -14.66534,0.0467 -0.72241,0.25257 -1.08958,0.65451 -1.62677,0.93967 -1.01028,0.53556 -2.03413,0.5877 -3.26168,0.12113 l 1.70444,-2.1167 3.18401,-1.60504 5.43161,-0.0804 h 15.208514 m 4.34529,0 h 21.72643 m 1.08632,0 h 0.54316 m 43.45286,0 h 22.26959 m -127.099634,0.54316 v 3.80213 c -1.12977,-0.62138 -2.23239,-1.62949 -11.94953,-1.62949 m 19.01062,-2.17264 1.08632,3.25897 m 89.621544,-1.62949 h 0.54316 m 1.08632,0.54316 h 1.08632 m -92.880504,0.54317 c -3.00639,2.26009 -4.00309,2.56752 -5.2768,4.32138 -0.0869,0.12004 -1.02495,1.54095 -1.8625,1.54095 -2.19274,0 -2.21447,-1.18029 -2.63759,-1.54095 -1.07872,-0.91957 -1.02712,-2.09551 -4.34529,-2.61151 -3.73689,-0.58119 -8.68921,-0.87612 -9.23373,-1.16671 m -13.57902,0 c -4.10075,2.18839 -15.90206,1.08632 -26.614871,1.08632 m 32.046481,-1.08632 c 2.0985,1.16182 3.25804,1.10153 5.43161,0 m 18.46746,0.54316 2.17264,2.17264 m 101.027924,-2.17264 -0.54316,0.54316 m -91.794184,0 1.62948,2.17264 3.80321,-2.0928 4.88736,-0.0798 h 12.492714 m 4.34529,0 h 23.35591 m 4.34529,0 h 1.62948 m 31.50332,0 h 0.54316 m 5.97477,0 h 21.72643 m -183.045185,2.17264 18.467461,0.54208 7.60344,-0.1635 3.80294,0.70774 c -0.37772,0.27158 -0.83484,0.95488 -2.19698,1.3264 -5.62171,1.53389 -20.24181,0.30308 -27.676861,0.30308 m 0,16.83799 h 14.665341 8.14741 l 15.75166,-0.032 4.34528,-2.16449 3.80213,-3.38987 1.6159,-1.48283 2.72939,-2.70766 c -0.19446,-0.19771 -1.45296,-1.47957 -2.863,-2.71852 -1.19333,-1.0483 -1.81824,-1.88096 -1.93197,-2.19925 -0.42345,-1.18572 -0.65169,-3.29373 2.62504,-4.12802 1.18083,-0.30092 2.14874,0.53229 2.16993,0.54696 1.48445,1.00702 2.78695,1.83208 4.34528,1.43774 m 13.03586,-2.7158 1.08632,3.25897 c 1.08035,-1.04505 0.87775,-3.03899 5.43161,-3.03736 3.09493,0.001 10.570987,0.98855 14.665354,-0.22161 m 67.89509,0 -0.54316,0.54316 m -37.47809,0 h 1.62949 m 17.9243,0 h 1.62948 m 1.62948,0 h 1.62949 m -114.063774,0.54316 c 6.32277,1.17377 9.03091,-0.21781 12.49269,1.62948 -0.31476,0.27593 -1.13846,1.23678 -3.26146,2.48008 -1.32705,0.7778 -1.99682,1.03417 -3.79962,1.21342 -2.79093,0.27755 -2.39252,0.82234 -4.88845,1.09012 -2.20295,0.23628 -6.65312,0.10483 -9.23373,0.10483 H 14.338675 m 75.499341,3.80213 c -1.63166,1.62459 -2.56046,3.03138 -4.34529,3.53978 -0.66483,0.18956 -2.76469,-0.10755 -3.80212,-0.33242 -3.77932,-0.81963 -3.53163,-1.84403 -4.25947,-2.67452 -0.25094,-0.28679 -0.83429,-0.68764 -1.60558,-2.70549 -0.4883,-1.27697 -0.62409,-2.46812 -0.59313,-2.7158 0.16349,-1.31934 0.87231,-1.89889 1.60395,-2.60337 0.0864,-0.0831 0.55511,-0.71806 1.59581,-0.85602 0.9967,-0.13199 1.62024,0.44756 1.62893,0.45354 0.29657,0.20749 1.15911,0.93098 2.71581,2.46269 0.95759,0.94238 1.51433,1.49423 1.62948,1.59798 0.73109,0.65722 0.78704,0.96302 2.7158,2.03088 1.09013,0.60345 2.36058,1.01028 3.80213,1.54855 1.49152,0.55619 2.12267,0.94618 3.25896,1.17866 1.3704,0.28081 7.786754,0.16186 9.776914,0.16186 m -47.255004,-9.7769 3.25897,1.08633 m 11.94953,-1.08633 2.71581,2.71581 m 8.69057,0 7.06109,-2.63542 7.60425,-0.0804 h 5.974784 m 45.62551,0 h 0.54316 m 1.62948,0 v 0.54317 m 2.17264,-0.54317 h 3.80213 m -73.869884,0.54317 v 1.08632 m 54.316094,-1.08632 c 2.01295,5.85527 8.43909,12.07663 15.2085,11.87892 4.26055,-0.12438 6.41093,-2.91677 9.77689,-3.18835 m -95.596304,-8.14741 c -2.81683,1.93419 -3.43767,2.46214 -4.34529,3.25896 m -48.884461,-2.1727 c 10.161021,0 27.905911,-0.69851 33.132801,0.54316 m 39.10757,0 c 1.2547,0.57955 2.43825,-0.16349 6.51793,-0.43616 2.24706,-0.15046 8.210964,-0.107 10.863234,-0.107 m 4.34529,0 h 1.08632 m 1.08632,0 h 21.18327 m 16.29482,0 h 1.08632 m 1.08633,0 h 1.08632 m 2.17264,0 h 1.62948 m 1.62948,0 h 1.62949 m 10.32005,0 1.62948,0.54316 m 2.17264,-0.54316 h 2.71581 m 1.08632,0 h 21.18327 M 82.776926,118.2543 c -2.61043,2.0412 -3.79018,2.6289 -6.51793,2.7158 m -23.89907,-2.17264 c 2.35036,2.33396 2.52417,2.74296 3.80294,3.21768 1.65577,0.61432 4.19993,-1.52356 5.43079,-2.67452 m 28.24436,-0.54316 c 2.59359,1.4774 7.06978,1.08632 14.122194,1.08632 m 66.80877,-0.54316 0.54316,0.54316 m -78.758324,0.54316 -0.54316,2.71581 m -11.94954,-2.17265 c 0.87558,0.86526 1.58984,1.70933 2.72939,2.55666 1.36224,1.013 2.60934,1.0923 4.87486,1.78863 m 76.042524,-3.80213 -1.62948,1.62949 M 14.338675,122.05642 c 5.964881,0 14.434391,-0.0554 20.096951,0.36664 1.27224,0.0951 2.03191,-0.10646 3.25896,-0.16349 1.28892,-0.0597 2.04147,0.16186 3.25896,0.15588 5.35617,-0.0255 8.71724,-0.12818 10.32006,0.7273 l -2.72922,1.42959 -9.22032,0.19989 H 14.338675 m 78.758301,-2.71581 c 2.97652,0 7.310944,0 10.863234,0 m 4.34529,0 h 1.08632 m 1.08632,0 h 19.55379 m 1.08632,0 h 0.54316 m 40.73705,0 h 1.08633 m 1.08632,0 h 0.54316 m 1.08632,0 h 21.18327 m -146.110254,1.08633 c 0.85982,0.26397 3.41257,2.98629 5.4316,0 m 9.23374,0 c 0.20314,0.59802 0.99561,2.42032 2.23184,3.80321 1.32314,1.47957 1.90976,1.96787 2.11398,2.16123 0.99996,0.94673 0.67733,2.27639 4.88791,2.67018 2.108,0.19663 3.92216,0.36881 5.4316,-0.35848 1.47957,-0.71263 3.4192,-2.22044 4.88845,-3.3877 3.10036,1.86359 4.73962,1.1276 9.77689,1.08632 m -19.55378,-5.97476 c -3.73043,3.6093 -3.96833,1.4926 -7.54505,4.51801 -1.70878,1.4448 -2.15634,3.87545 -2.23184,5.25888 -4.30184,0.0511 -4.89366,1.27045 -5.43161,1.67837 -0.80111,0.60671 -0.7349,1.61481 -3.80213,2.01621 -2.08074,0.27212 -10.65746,0.10754 -13.57901,0.10754 -2.29497,0 -3.3154,0 -5.43161,0 -2.38013,0 -3.30084,0 -5.43161,0 -1.80927,0 -3.04376,0 -4.88844,0 -4.0761,0 -8.8866,0 -13.035861,0 M 171.31214,124.22907 h 2.17265 m -119.495384,0.54316 c -0.65505,0.55402 -0.6123,1.61373 -3.80294,2.0928 -1.68152,0.25311 -9.52144,0.0798 -11.94872,0.0798 -3.63011,0 -4.94238,0 -8.14741,0 -4.91419,0 -10.7479,0 -15.751661,0 m 122.754345,-2.1726 h 1.08632 m 3.80213,0 1.62948,-0.54316 m -86.905744,1.08632 c -1.3233,1.85652 -1.44779,3.26439 -5.4316,3.92977 -2.62781,0.43887 -7.23398,0.41551 -10.86322,0.41551 H 14.338675 m 73.869851,-4.34528 3.26168,1.55181 7.60154,0.0777 m -26.07171,-1.08632 c 1.01299,0.99833 0.85493,2.54036 5.4316,3.41376 1.02712,0.19609 2.61641,1.07818 3.80213,1.72182 3.23343,1.75496 8.19303,0.83919 10.32005,0.83919 m -36.39177,-5.43161 1.08632,2.17264 m 4.34529,-2.17264 4.34529,4.34529 m 35.848604,-3.80213 h 2.17266 m 4.34529,0 h 23.35591 m 1.08632,0 h 3.25897 m 23.35591,0 h 1.08632 m 15.2085,0 h 21.72643 m -35.30545,2.17264 0.54316,0.54316 m 11.94954,-0.54316 v 0.54316 m -116.779574,0 4.34528,3.25897 m 14.66534,-3.25897 v 1.62949 m 25.528564,-1.62949 h 1.62949 m -44.539194,1.62949 c -0.85716,0.79301 -0.89714,2.09062 -4.34529,2.69842 -1.30049,0.22921 -4.76493,-0.0201 -6.51793,0.069 -1.76902,0.0902 -3.05147,0.34599 -4.88844,0.44865 -8.55,0.47798 -20.45261,0.0429 -29.330681,0.0429 m 158.059785,-3.25896 -2.17264,0.54316 m -67.8951,0 h 1.62949 m 4.34529,0 h 23.35591 m 43.99602,0 h 21.72643 m -117.322744,0.54316 c 1.89564,2.95479 5.59456,1.63763 8.69058,1.62948 m -22.81275,-1.08632 c 1.90323,1.7593 3.1449,2.08954 13.57901,1.08632 m -17.38114,0 c -0.0358,1.10207 1.66153,3.56585 -2.72629,4.71572 -2.2143,0.5801 -11.95257,0.17164 -15.19801,0.17273 -3.38612,0.001 -4.7387,0.45843 -7.60425,0.51383 -2.24125,0.0435 -3.21312,-0.49862 -5.43161,-0.44376 -1.69987,0.0418 -2.71162,0.38021 -4.34528,0.45191 -3.5777,0.15643 -8.74603,0.0212 -12.492701,0.0212 m 85.819395,-4.88845 3.80214,-0.54316 m 42.36654,0 h 0.54316 m 10.86322,0.54316 2.17264,-0.54316 m 7.06109,0.54316 c 2.02544,-0.46549 2.863,-0.46549 4.88844,0 m -117.865894,0.54316 0.54316,0.54316 m 21.18327,-0.54316 c -6.12142,5.27627 5.13124,3.83254 7.60425,3.80213 m -11.40638,-3.25897 1.08633,1.08632 m 2.17264,-1.08632 c 1.08306,0.58662 2.3861,1.16182 4.34528,1.26883 3.47297,0.18902 3.26386,-0.16404 6.51793,-0.18251 m 10.32006,0.54317 c 2.16449,-0.51546 3.898264,-0.54317 7.604264,-0.54317 m 62.46349,0 h 5.4316 m -110.261644,1.08633 3.80104,2.62346 7.06217,-1.53714 m 96.139474,-0.54316 h 1.62948 m -77.128844,1.08632 c 3.13187,-0.58118 6.29197,-0.54316 10.863234,-0.54316 m 30.41701,0 v 0.54316 m 1.08632,-0.54316 v 0.54316 m 10.86321,0 1.08632,-0.54316 m -83.646774,1.08632 c -1.66044,1.19441 -5.73251,1.62948 -13.57901,1.62948 -2.70625,0 -3.99495,0 -7.06109,0 -1.72454,0 -2.70402,0 -4.34529,0 -7.4363,0 -16.76427,0 -24.442231,0 m 54.316071,-1.08632 2.72938,1.01897 4.33062,0.0674 h 3.80321 m -14.12217,-0.54316 c -0.43616,0.86417 -0.52524,2.20904 -3.26168,2.63542 -2.60576,0.40628 -9.90492,0.0804 -13.03315,0.0804 -8.15898,0 -18.13081,-0.30036 -26.07171,0.0217 -3.41349,0.13851 -4.7853,0.52144 -8.690571,0.52144 m 74.956181,-2.17265 2.19708,-0.44648 4.32084,-0.0967 h 8.147434 m -38.564424,1.08632 c 2.37415,1.26665 5.35665,1.43666 10.32005,1.08632 m 10.86321,0.54317 c 3.32686,-0.79193 4.32899,-0.23791 8.68949,-0.17816 1.71747,0.0233 2.09062,-0.13253 3.80321,-0.36501 m 3.258974,0 v 0.54317 m 1.62949,-0.54317 v 0.54317 m 4.34529,-0.54317 h 1.08632 m 1.08632,0 h 21.18327 m 43.99602,0 h 9.77689 m 1.08632,0 5.97477,0.54317 m 4.88845,-0.54317 h 0.54316 m -45.08234,4.88845 0.54316,0.54316 m 24.44223,-0.54316 v 0.54316 m 5.43161,-0.54316 0.54316,0.54316 m 8.69057,-0.54316 -0.54316,0.54316 m -64.09296,1.62948 v 0.54316 m 27.15803,-0.54316 0.54316,0.54316 m -49.97078,0 h 0.54316 m 82.56043,1.62949 -7.06109,0.54316 m -91.251024,0 h 15.751684 m 9.23373,0 h 6.51793 m 3.25896,0.54316 3.25897,-0.54316 m 43.45285,0 h 0.54316 m 7.60425,0 h 0.54317 m -74.95618,2.17264 v 0.54316 m 19.01062,-0.54316 v 0.54316 m 2.17265,-0.54316 h 1.62948 m 1.08632,0 0.54316,0.54316 m 20.09695,-0.54316 h 2.7158 m 15.75166,0 h 9.23373 m -29.87384,0.54316 h 1.08632 m -25.52855,2.17264 8.14741,0.54317 m 9.77689,-0.54317 2.17265,-0.54316 m -42.36656,0.54316 h 1.62949 m 1.08633,0 h 1.62949 m 15.75166,0 h 0.54316 m -16.83798,2.17265 v 0.54316 m 17.38114,0 1.08632,-0.54316 m 1.08632,0 8.69057,0.54316 m 3.80213,0 1.08632,-0.54316 m -57.031894,0.54316 h 1.08632 m 39.650754,1.62948 v 0.54316 m -45.625524,0.54316 c 4.84499,-0.89947 8.90566,-1.26828 14.12218,0 m 32.589664,-0.54316 h 9.77689 m -61.377184,2.71581 c 5.65539,-0.7148 18.24368,-0.7148 23.89907,0 m 8.690594,-0.54317 h 0.54317 m 17.9243,0 h 9.77689 m -27.70119,2.17265 v 0.54316 m 25.52855,-0.54316 -0.54316,0.54316 m -64.092984,0 h 10.86321 23.355907 m -38.021247,2.17264 h 0.54316 m 3.80213,0 h 25.52855 c 4.5066,0 8.166957,-0.0988 10.863224,0.54316 m 2.71582,-0.54316 0.54316,0.54316 m 11.94953,-0.54316 h 1.08633 m 2.7158,0 2.7158,0.54316 m 1.08632,-0.54316 h 1.62949 m 39.10757,0 h 0.54316 m -108.089004,2.7158 1.08632,-0.54316 m 66.265624,0 1.08633,0.54316 m 41.28021,-0.54316 0.54316,0.54316 m -103.743724,0 h 40.193924 m 2.17264,0 1.08632,0.54317 m 5.97477,-0.54317 h 1.08632 m -74.413044,1.62949 -0.54316,0.54316 m 10.32006,-0.54316 3.80212,0.54316 m 1.08632,0 h 0.54316 m 8.14741,0 c 7.4576,0 15.40567,-0.0874 22.81275,0.006 2.13951,0.0266 3.43658,0.0706 5.43161,0.0212 1.70661,-0.0418 2.74242,-0.0272 4.34529,-0.0272 3.724994,0 9.826884,0.038 11.949554,0.54316 m 57.57504,-0.54316 h 0.54316 m -128.729114,2.17264 -0.54316,0.54316 m 78.215164,-0.54316 1.08632,0.54316 m 8.69057,-0.54316 v 0.54316 m 53.22975,0 h 14.66534 m -130.358594,0 h 47.798174 m -74.956204,1.62948 -0.54316,0.54316 m 45.08233,-0.54316 11.94954,0.54316 h 18.467494 m 4.88844,-0.54316 -0.54316,0.54316 m 2.17264,-0.54316 8.14741,0.54316 m -81.474124,0 h 1.62948 m 115.150094,0 h 5.43161 m 3.25896,0 h 4.34529 m 9.23373,0 h 14.12218 m -110.804814,1.62949 c 6.33652,2.67398 15.463244,1.08632 22.269614,1.08632 m 17.38115,-1.08632 0.54316,1.08632 m -93.423674,-0.54316 -0.54316,0.54316 m 15.2085,-0.54316 v 0.54316 m 68.981434,-0.54316 h 0.54316 m 5.43161,0 -0.54316,0.54316 m 22.26959,0 h 6.51793 m 24.98539,-0.54316 v 0.54316 m 7.06109,-0.54316 -0.54316,0.54316 m 1.62948,-0.54316 h 13.03586 m -149.912384,2.17264 -0.54316,0.54316 m 80.930974,-0.54316 h 11.40637 m 40.73705,1.08632 17.38115,-0.54316 m -105.373204,0 h 19.010654 m 36.93492,0 h 1.08632 m 2.17265,0 h 1.08632 m 1.62948,0 2.17264,0.54316 m 19.55379,-0.54316 h 0.54316 m -143.394454,2.17264 v 0.54317 m 8.69057,-0.54317 h 0.54317 m 2.7158,0 h 0.54316 m 49.97078,0 19.553814,0.54317 m 35.84861,-0.54317 h 2.7158 m 1.08632,0 h 2.17264 m 1.08633,0 1.08632,0.54317 m 16.83798,0 22.26959,-0.54317 m -99.398434,2.71573 h 10.863234 m 1.62949,0 h 6.51792 m 43.99602,0 1.62948,0.54316 m 21.72643,-0.54316 h 0.54316 m 7.60425,0 h 0.54316 m 3.25897,0 h 0.54316 M 33.349296,191.581 v 0.54316 m 66.808774,0 h 9.77691 m 1.62949,0 h 0.54316 m 1.62948,0 c 3.55607,0.77292 4.32627,-0.0516 7.06109,0.54316 m 4.34528,0 h 4.88845 m 27.15804,-0.54316 h 6.51792 m 1.08632,0 1.08633,0.54316 m 7.06109,0 1.08632,-0.54316 m 1.08632,0 h 22.81275 m -164.034564,2.7158 h 2.17265 m 80.387804,-0.54316 4.34529,0.54316 m -18.46748,0 h 4.3453 m 3.25896,0 h 3.25897 m 11.40637,0 h 7.60425 m -93.966824,2.17265 1.08632,0.54316 m 31.50332,-0.54316 2.17265,0.54316 m 30.960174,-0.54316 h 4.34529 m 2.17264,0 h 4.34529 m 5.97477,0 1.62948,0.54316 m 3.80213,-0.54316 h 5.4316 m 31.50332,0 h 0.54316 m 1.08632,0 h 33.13281 m -156.430314,2.17264 0.54317,0.54316 m 28.78751,-0.54316 5.43161,1.08632 m 53.772934,-1.08632 h 1.08632 m -24.98539,0.54316 h 1.62948 m 11.40638,0 h 4.88844 m -81.474124,2.17264 h 0.54316 m 30.417,0 c 2.16612,0.006 3.28992,0.0331 5.4316,0.54317 m 28.787544,-0.54317 2.7158,0.54317 m 1.08633,-0.54317 18.46746,0.54317 m 37.47809,-0.54317 h 1.08632 m 1.08632,0 h 28.24436 M 77.345316,204.0737 h 2.7158 m 29.330704,0.54316 h 26.61488 m 44.53918,-0.54316 h 1.08632 m 1.08632,0 h 0.54316 m 1.08632,0 h 0.54316 m 1.62948,0 h 2.71581 m 2.7158,0 h 0.54316 m 1.62948,0 h 0.54316 m 1.08632,0 h 1.08633 m -95.05315,2.7158 5.43163,0.54316 m 2.7158,-0.54316 h 29.87384 m 35.84861,0 h 22.26959 m -98.855274,1.62948 -1.62948,1.08633 m 11.406394,-0.54317 c 5.82486,0.98638 14.81906,1.72074 20.64011,0 m 1.08632,0 h 1.62948 m 3.80213,0 7.06109,0.54317 m 34.21912,-0.54317 h 20.09695 m -139.049164,0.54317 h 0.54316 m 87.448894,0 h 5.97477 m -109.718484,1.62948 v 0.54316 m 53.22974,-0.54316 -0.54316,0.54316 m -38.56441,0 h 4.88845 m 49.427654,0 c 2.69081,0 14.14716,0 16.83798,0 m 5.4316,0 h 3.25897 m 2.7158,0 h 16.29482 m 33.67597,0 h 1.08632 m 1.08632,0 h 0.54316 m 1.62948,0 h 3.80213 m -63.54981,1.62948 3.80213,0.54316 m -123.297505,0 h 0.543161 m 45.6255,0 c 2.43933,0.0511 3.01997,0.2265 4.34528,0.54316 m 43.452884,-0.54316 h 0.54316 m 5.43161,0 9.23373,0.0755 6.51793,-0.0755 m 9.23373,0 18.46747,0.54316 m 22.26958,-0.54316 h 17.92431 m -105.373204,2.17264 v 0.54316 m 17.381164,-0.54316 v 0.54316 m 3.25897,-0.54316 0.54316,0.54316 m -50.513974,0 h 3.80213 m 50.513964,0 h 13.03586 m 9.23373,0 h 20.09695 m -145.567095,2.17265 h 7.061091 m 61.37716,0.54316 c 2.02544,-0.46549 2.863,-0.46549 4.88844,0 m 22.269614,-0.54316 h 0.54316 m 3.80213,0 v 0.54316 m 5.97477,-0.54316 29.33068,0.0435 11.94953,-0.0435 m 24.98539,0 h 11.40638 m -150.998704,2.17264 v 0.54316 m 34.76229,-0.54316 c 2.49256,0.6317 3.68371,0.36989 6.51792,0 m 2.17265,0 v 0.54316 m 24.442254,-0.54316 v 0.54316 m 23.35591,-0.54316 25.52855,0.54316 m -149.369215,2.17264 h 11.406371 m 22.81275,0 h 0.54316 m 40.1939,0 h 0.54316 m 20.640124,0 h 0.54317 m 4.34528,0 v 0.54317 m 27.15804,-0.54317 h 12.49269 9.77689 m 24.9854,0 h 8.14741 m -183.588345,2.17265 h 0.543161 m 3.25896,0 h 1.08633 m 29.33067,0 v 0.54316 m 57.031904,-0.54316 h 1.08632 m 1.08632,0 h 1.08632 m 36.93493,0 20.64011,0.54316 m -113.520614,1.62948 0.54316,0.54316 m -39.107571,0 h 17.924301 m 83.646774,0 0.54316,0.54316 m 32.58964,-0.54316 h 17.92431 m 26.07171,0 h 4.34529 m -80.93095,1.62948 v 1.08633 M 14.338675,230.68857 h 15.208501 m 1.08632,0 h 0.54316 m 15.2085,0 v 0.54317 m 9.23373,-0.54317 1.08632,0.54317 m 30.96016,-0.54317 v 0.54317 m 32.046514,-0.54317 h 0.54316 m 12.49269,0 h 0.54316 m 19.01063,0.54317 c 4.9949,0 10.65573,0.54098 15.2085,-0.54317 m -121.668024,2.17265 -0.54316,0.54316 m 11.40637,0 h 3.25897 m 27.15803,-0.54316 v 0.54316 m -72.783531,0 h 16.837981 m 109.175324,0 h 0.54316 m 13.57902,0 h 12.4927 m -152.628185,2.17264 h 28.787521 m 19.55378,0 2.17264,0.54316 m 52.143454,-0.54316 v 0.54316 m 27.7012,-0.54316 h 0.54316 m 11.40637,0 c 4.01994,0.98529 6.42885,0.38836 9.7769,0 m -122.754344,2.17264 v 0.54316 m 22.81275,-0.54316 v 0.54316 m 2.7158,-0.54316 h 0.54316 m 16.83798,0 v 0.54316 m -15.75166,0 h 1.62948 m 11.40638,0 h 0.54316 m 9.77689,0 h 0.54316 m 30.417024,0.54317 1.08633,-0.54317 m 32.04648,0 h 7.06109 m -47.79815,1.62949 v 1.08632 M 14.338675,240.46547 h 27.158031 m 1.08633,0 h 0.54316 m 22.81275,0 -0.54316,0.54316 m 8.14741,-0.54316 h 0.54316 m 9.77689,0 1.08632,0.54316 m 37.478114,-0.54316 h 0.54316 m 1.08632,0 c 2.16613,0.006 3.28993,0.0331 5.43161,0.54316 m 21.18327,-0.54316 h 0.54316 m 8.14741,0 h 4.88844 m -99.398434,2.17264 v 0.54316 m 8.14742,-0.54316 v 0.54316 m 13.03585,-0.54316 v 0.54316 m 41.280244,-0.54316 4.88844,0.54316 m -14.66534,0 h 0.54316 m 41.28022,0 h 4.34528 m -149.369215,2.17264 h 26.614871 m 30.96016,0 h 0.54316 m 13.57902,0 v 0.54317 m 15.208504,-0.54317 h 0.54316 m 16.29484,0 v 0.54317 m 12.4927,-0.54317 c 2.03685,0.0168 2.87549,0.0635 4.88845,0.54317 m 22.26959,-0.54317 h 0.54316 m 1.62948,0 h 2.7158 m -44.53918,1.62949 v 1.08632 m -78.215164,-0.54316 v 0.54316 m 31.50332,-0.54316 v 0.54316 m 14.66534,-0.54316 v 0.54316 m 47.255004,-0.54316 h 2.17265 m 24.44223,0.54316 h 2.17264 m -91.251024,1.62948 v 0.54316 m 15.2085,-0.54316 v 0.54316 m 32.046504,-0.54316 v 1.08632 M 14.338675,250.24236 h 24.985391 m 25.52855,0 h 0.54317 m 95.053144,0 h 0.54316 m -98.312114,1.62948 v 1.08633 m 55.402414,-1.08633 v 1.08633 M 14.338675,252.415 h 20.640111 m 1.08632,0 h 1.08632 m 32.58964,0 v 0.54317 m 16.83798,1.62948 v 0.54316 m -72.240371,0 h 23.355911 m 24.44223,0 h 3.25897 m 1.62948,0 h 0.54316 m 51.057134,0 h 0.54316 m 39.65073,0 h 1.08632 m -145.567095,2.17264 h 22.812751 m 11.40637,0 h 0.54316 m 8.69058,0 h 0.54316 m 3.80212,0 5.43161,0.54316 m 51.057134,-0.54316 3.80212,0.54316 m 39.10757,-0.54316 1.08632,0.54316 m -100.484754,1.62948 v 1.08633 m 101.027914,-1.08633 v 0.54317 m -145.023934,0 h 0.54317 m 3.80212,0 h 0.54316 m 13.03586,0 h 0.54316 m 29.33068,0 h 1.08632 m 51.600294,0 v 0.54316 m 20.09694,0 c 1.64198,-0.36447 1.61319,-0.33459 3.25897,0 m -23.35591,1.08632 v 1.08632 M 14.338675,262.1919 h 21.726431 m 26.07171,0 h 2.7158 m 1.08633,0 h 0.54316 m 13.57901,0 h 2.17265 m 4.88844,0 h 0.54316 m 49.427654,0 h 6.51793 m 20.09694,0 v 0.54316 m -45.08233,1.08632 v 1.08632 m 20.6401,-1.08632 2.71581,0.54316 m -106.459524,0 v 0.54316 m 128.729104,-0.54316 v 0.54316 m -8.69057,1.62948 -0.54316,0.54316 m -140.678645,0 h 21.183271 m 27.15803,0 h 1.62948 m 100.484754,0 v 0.54317 m -101.571074,1.08632 v 1.08632 m 24.44223,-0.54316 v 0.54316 m 31.503354,-0.54316 v 0.54316 m 46.16866,-0.54316 v 0.54316 m -130.358594,0 h 0.54316 m 27.70119,1.62948 v 0.54316 m -48.884461,0 h 21.183271 m 52.14342,0 h 0.54316 m 31.503354,0 v 0.54316 m 30.417,-0.54316 h 0.54316 m 2.7158,0 h 1.08632 m 8.14741,0 h 0.54316 m -148.826055,2.17264 h 4.345291 m 1.62948,0 h 4.34528 m 1.08632,0 h 1.62949 m 1.08632,0 h 1.62948 m 1.62948,0 h 2.17264 m 1.08633,0 h 0.54316 m 28.24435,0 v 0.54317 m 55.945584,0 h 0.54316 m -105.916365,2.17264 h 21.183271 m -21.183271,2.17264 h 21.183271 m 28.24435,0 h 0.54316 m 58.661384,0 2.7158,0.54316 m 13.57902,0 h 2.17264 m 3.25897,-0.54316 h 1.62948 m 9.77689,0 -0.54316,0.54316 m -34.21912,1.08632 0.54316,1.62949 M 14.338675,281.74569 h 0.543161 m 2.17264,0 h 2.71581 m 1.08632,0 h 3.80212 m 1.08632,0 h 1.08633 m 1.08632,0 h 3.80212 m 1.08632,0 h 1.08632 m 99.941594,0 h 40.73706 m 1.62948,0 h 21.72643 m -183.588345,2.17264 h 21.183271 m 51.0571,0 v 0.54316 m 35.305474,-0.54316 0.54316,0.54316 m 9.23373,-0.54316 h 10.86322 m 9.23373,0 h 0.54316 m 3.25896,0 h 1.08632 m 7.60425,0 h 0.54316 m 4.34529,0 h 0.54316 m 15.2085,0 h 0.54316 m 11.94954,0 h 0.54316 m -145.567094,2.17264 h 5.43161 m 5.97476,0 v 0.54316 m 22.26959,-0.54316 v 0.54316 m 45.625524,-0.54316 h 5.97477 m 10.86321,0 h 0.54316 m 2.17265,0 h 0.54316 m 2.17264,0 h 0.54316 m 1.62948,0 h 0.54316 m 3.80213,0 h 7.06109 m 1.08632,0 h 0.54316 m 2.7158,0 h 3.80213 m 5.43161,0 h 2.7158 m 1.08632,0 h 1.08632 m 4.88845,0 h 2.7158 m 2.17264,0 h 1.62949 m -162.405074,0.54316 h 0.54316 m -21.183271,7.06109 h 18.467461"
       id="path852" />
    <path
       d="M 13.9533,72.318479 V 10.380006 c 0,-0.24332 0.0237,-0.4843107 0.0712,-0.7229507 0.0475,-0.2386497 0.11776,-0.4703697 0.210881,-0.6951697 0.0931,-0.2248003 0.20726,-0.4383603 0.34244,-0.6406703 0.13518,-0.20232 0.2888,-0.3895 0.46086,-0.56155 0.17205,-0.17206 0.35923,-0.32568 0.56155,-0.46086 0.20231,-0.13518 0.415871,-0.24933 0.640671,-0.34244 0.2248,-0.0931 0.45652,-0.16341 0.695167,-0.21088 0.23864,-0.0475 0.47963,-0.0712 0.72295,-0.0712 h 84.172791 c 0.24332,0 0.48431,0.0237 0.72295,0.0712 0.23865,0.0475 0.47036,0.11776 0.69516,0.21088 0.2248,0.0931 0.43835,0.20726 0.64067,0.34244 0.20232,0.13518 0.38951,0.2888 0.56157,0.46086 0.17205,0.17205 0.32567,0.35923 0.46085,0.56155 0.13518,0.20231 0.24933,0.41587 0.34244,0.6406703 0.0931,0.2248 0.16341,0.45652 0.21088,0.6951697 0.0475,0.23864 0.0712,0.4796307 0.0712,0.7229507 v 61.938473 c -1e-5,0.24333 -0.0238,0.48431 -0.0712,0.72295 -0.0475,0.23865 -0.11776,0.470371 -0.21089,0.695171 -0.0931,0.2248 -0.20725,0.43836 -0.34243,0.64067 -0.13518,0.20231 -0.2888,0.389486 -0.46085,0.561546 -0.17206,0.17206 -0.35925,0.32567 -0.56157,0.46086 -0.20232,0.13518 -0.41587,0.24933 -0.64067,0.34244 -0.2248,0.0931 -0.45651,0.1634 -0.69516,0.21087 -0.23864,0.0475 -0.47963,0.0712 -0.72295,0.0712 H 17.659019 c -0.24332,0 -0.48431,-0.0238 -0.72295,-0.0712 -0.238647,-0.0475 -0.470367,-0.11776 -0.695167,-0.21087 -0.2248,-0.0931 -0.438361,-0.20727 -0.640671,-0.34245 -0.20232,-0.13518 -0.3895,-0.28879 -0.56155,-0.46085 -0.17206,-0.17206 -0.32568,-0.359236 -0.46086,-0.561546 -0.13518,-0.20231 -0.24933,-0.41587 -0.34244,-0.64067 -0.0931,-0.2248 -0.163411,-0.456521 -0.210881,-0.695171 -0.0475,-0.23864 -0.0712,-0.47962 -0.0712,-0.72295 z"
       style="fill:none;stroke:#000000;stroke-width:0.264695;stroke-linecap:butt;stroke-linejoin:miter;stroke-miterlimit:10;stroke-dasharray:none;stroke-opacity:1"
       id="path1629" />
    <path
       d="M 13.9533,144.31537 V 82.112173 c 0,-0.24333 0.0237,-0.48431 0.0712,-0.72296 0.0475,-0.23865 0.11776,-0.47037 0.210881,-0.69517 0.0931,-0.2248 0.20726,-0.43835 0.34244,-0.64067 0.13518,-0.202306 0.2888,-0.389486 0.46086,-0.561536 0.17205,-0.17206 0.35923,-0.32568 0.56155,-0.46086 0.20231,-0.13518 0.415871,-0.249341 0.640671,-0.342451 0.2248,-0.0931 0.45652,-0.1634 0.695167,-0.21087 0.23864,-0.0475 0.47963,-0.0712 0.72295,-0.0712 h 84.172791 c 0.24332,0 0.48431,0.0237 0.72295,0.0712 0.23865,0.0475 0.47036,0.11776 0.69516,0.21087 0.2248,0.0931 0.43835,0.207261 0.64067,0.342441 0.20232,0.13519 0.38951,0.28881 0.56157,0.46087 0.17205,0.17205 0.32567,0.35923 0.46085,0.561536 0.13518,0.20232 0.24933,0.41587 0.34244,0.64067 0.0931,0.2248 0.16341,0.45652 0.21088,0.69517 0.0475,0.23865 0.0712,0.47963 0.0712,0.72296 v 62.203197 c -1e-5,0.24332 -0.0238,0.48432 -0.0712,0.72295 -0.0475,0.23864 -0.11776,0.47036 -0.21089,0.69515 -0.0931,0.2248 -0.20725,0.43835 -0.34243,0.64067 -0.13518,0.20232 -0.2888,0.38951 -0.46085,0.56157 -0.17206,0.17206 -0.35925,0.32568 -0.56157,0.46085 -0.20232,0.13518 -0.41587,0.24934 -0.64067,0.34244 -0.2248,0.0931 -0.45651,0.16342 -0.69516,0.21088 -0.23864,0.0475 -0.47963,0.0712 -0.72295,0.0712 H 17.659019 c -0.24332,0 -0.48431,-0.0237 -0.72295,-0.0712 -0.238647,-0.0475 -0.470367,-0.11776 -0.695167,-0.21088 -0.2248,-0.0931 -0.438361,-0.20726 -0.640671,-0.34245 -0.20232,-0.13518 -0.3895,-0.28878 -0.56155,-0.46084 -0.17206,-0.17206 -0.32568,-0.35925 -0.46086,-0.56157 -0.13518,-0.20232 -0.24933,-0.41587 -0.34244,-0.64067 -0.0931,-0.22479 -0.163411,-0.45651 -0.210881,-0.69515 -0.0475,-0.23863 -0.0712,-0.47963 -0.0712,-0.72295 z"
       style="fill:none;stroke:#000000;stroke-width:0.264695;stroke-linecap:butt;stroke-linejoin:miter;stroke-miterlimit:10;stroke-dasharray:none;stroke-opacity:1"
       id="path1631" />
    <path
       d="m 14.21799,135.58045 h 90.79017 v 11.91126 H 14.21799 Z"
       style="fill:#000000;fill-opacity:1;fill-rule:nonzero;stroke:none;stroke-width:0.264695"
       id="path1633" />
    <text
       style="font-style:italic;font-variant:normal;font-size:3.52838px;font-family:'Liberation Sans';-inkscape-font-specification:LiberationSans-Italic;writing-mode:lr-tb;fill:#ffffff;fill-opacity:1;fill-rule:nonzero;stroke:none;stroke-width:0.264695"
       id="text1637"
       x="15.003994"
       y="139.02141"><tspan
         x="15.003994 17.551706 18.225254 20.187298 22.149338 24.11137 24.895176 25.678982 27.64101 28.621176 30.583212 32.545288 34.309204 35.289337 37.251442 39.213482 40.19363 40.977436 42.939449 44.901489 46.076309 47.056488 49.018501 50.980572 53.919346 55.881386 57.84343 59.805458 61.767513 62.94236 63.922478 64.706253 66.66832 67.648521 70.587242 72.549294 73.529449 74.509613 76.471649 78.433708 79.413864 81.375908 83.337944 85.101898 86.865837 88.827896 89.808052 91.572006 92.245506 93.02932 93.81311 94.793266 96.55719 97.537376 99.499413"
         y="139.02141"
         sodipodi:role="line"
         id="tspan1635"
         style="stroke-width:0.264695">N'oublie pas de leur demander le mot de passe s'il y en</tspan></text>
    <text
       style="font-style:italic;font-variant:normal;font-size:3.52838px;font-family:'Liberation Sans';-inkscape-font-specification:LiberationSans-Italic;writing-mode:lr-tb;fill:#ffffff;fill-opacity:1;fill-rule:nonzero;stroke:none;stroke-width:0.264695"
       id="text1641"
       x="15.003994"
       y="142.72714"><tspan
         x="15.003994 16.966028 17.946175 19.90823 21.870308 22.850456 23.830585 26.37833 28.340387 29.320532 31.084488 33.046524 34.221352 36.183403 36.967194 37.947342 38.927505 40.889576 42.851589 45.790359 48.729103 50.691135 52.653202 54.615261 55.595413 57.55748 58.230995 60.193024 61.173191 62.348042 64.310074 65.290237 67.252312 69.214317 69.998108 71.960144 72.940315 74.902344 75.68615 77.648193 79.610237 81.572273 83.534332 84.709122 86.671158 87.651321 89.613396 91.575432 93.53746 95.30143 96.281586 97.261765"
         y="142.72714"
         sodipodi:role="line"
         id="tspan1639"
         style="stroke-width:0.264695">a un. Ce serait dommage d'être déjà bloqué·e dans ta</tspan></text>
    <text
       style="font-style:italic;font-variant:normal;font-size:3.52838px;font-family:'Liberation Sans';-inkscape-font-specification:LiberationSans-Italic;writing-mode:lr-tb;fill:#ffffff;fill-opacity:1;fill-rule:nonzero;stroke:none;stroke-width:0.264695"
       id="text1645"
       x="15.003994"
       y="146.16817"><tspan
         x="15.003994 16.966028 18.928074 21.866852 23.828892 25.003712 26.767635 28.729696 30.691748"
         y="146.16817"
         sodipodi:role="line"
         id="tspan1643"
         style="stroke-width:0.264695">démarche.</tspan></text>
    <path
       d="M 107.65511,72.318479 V 10.380006 c -10e-6,-0.24332 0.0237,-0.4843107 0.0712,-0.7229507 0.0475,-0.2386497 0.11776,-0.4703697 0.21087,-0.6951697 0.0931,-0.2248003 0.20727,-0.4383603 0.34245,-0.6406703 0.13519,-0.20232 0.28881,-0.3895 0.46086,-0.56155 0.17205,-0.17206 0.35924,-0.32568 0.56155,-0.46086 0.20231,-0.13518 0.41587,-0.24933 0.64068,-0.34244 0.22479,-0.0931 0.45651,-0.16341 0.69516,-0.21088 0.23865,-0.0475 0.47964,-0.0712 0.72297,-0.0712 h 84.17285 c 0.24332,0 0.4843,0.0237 0.72293,0.0712 0.23864,0.0475 0.47036,0.11776 0.69517,0.21088 0.22479,0.0931 0.43835,0.20726 0.64066,0.34244 0.20232,0.13518 0.3895,0.2888 0.56156,0.46086 0.17204,0.17205 0.32567,0.35923 0.46084,0.56155 0.13517,0.20231 0.24933,0.41587 0.34245,0.6406703 0.0931,0.2248 0.16342,0.45652 0.2109,0.6951697 0.0475,0.23864 0.0712,0.4796307 0.0712,0.7229507 v 61.938473 c -1e-5,0.24333 -0.0237,0.48431 -0.0712,0.72295 -0.0475,0.23865 -0.11779,0.470371 -0.2109,0.695171 -0.0931,0.2248 -0.20728,0.43836 -0.34245,0.64067 -0.13517,0.20231 -0.2888,0.389486 -0.46084,0.561546 -0.17206,0.17206 -0.35924,0.32567 -0.56156,0.46086 -0.20231,0.13518 -0.41587,0.24933 -0.64066,0.34244 -0.22481,0.0931 -0.45653,0.1634 -0.69517,0.21087 -0.23863,0.0475 -0.47961,0.0712 -0.72293,0.0712 h -84.17285 c -0.24333,0 -0.48432,-0.0238 -0.72297,-0.0712 -0.23865,-0.0475 -0.47037,-0.11776 -0.69517,-0.21087 -0.22481,-0.0931 -0.43837,-0.20727 -0.64068,-0.34245 -0.20231,-0.13518 -0.38949,-0.28879 -0.56154,-0.46085 -0.17205,-0.17206 -0.32567,-0.359236 -0.46086,-0.561546 -0.13518,-0.20231 -0.24933,-0.41587 -0.34245,-0.64067 -0.0931,-0.2248 -0.16339,-0.456521 -0.21087,-0.695171 -0.0475,-0.23864 -0.0712,-0.47962 -0.0712,-0.72295 z"
       style="fill:none;stroke:#000000;stroke-width:0.264695;stroke-linecap:butt;stroke-linejoin:miter;stroke-miterlimit:10;stroke-dasharray:none;stroke-opacity:1"
       id="path1647" />
    <path
       d="M 107.65511,144.31537 V 82.112173 c -10e-6,-0.24333 0.0237,-0.48431 0.0712,-0.72296 0.0475,-0.23865 0.11776,-0.47037 0.21087,-0.69517 0.0931,-0.2248 0.20727,-0.43835 0.34245,-0.64067 0.13519,-0.202306 0.28881,-0.389486 0.46086,-0.561536 0.17205,-0.17206 0.35924,-0.32568 0.56155,-0.46086 0.20231,-0.13518 0.41587,-0.249341 0.64068,-0.342451 0.22479,-0.0931 0.45651,-0.1634 0.69516,-0.21087 0.23865,-0.0475 0.47964,-0.0712 0.72297,-0.0712 h 84.17285 c 0.24332,0 0.4843,0.0237 0.72293,0.0712 0.23864,0.0475 0.47036,0.11776 0.69517,0.21087 0.22479,0.0931 0.43835,0.207261 0.64066,0.342441 0.20232,0.13519 0.3895,0.28881 0.56156,0.46087 0.17204,0.17205 0.32567,0.35923 0.46084,0.561536 0.13517,0.20232 0.24933,0.41587 0.34245,0.64067 0.0931,0.2248 0.16342,0.45652 0.2109,0.69517 0.0475,0.23865 0.0712,0.47963 0.0712,0.72296 v 62.203197 c -1e-5,0.24332 -0.0237,0.48432 -0.0712,0.72295 -0.0475,0.23864 -0.11779,0.47036 -0.2109,0.69515 -0.0931,0.2248 -0.20728,0.43835 -0.34245,0.64067 -0.13517,0.20232 -0.2888,0.38951 -0.46084,0.56157 -0.17206,0.17206 -0.35924,0.32568 -0.56156,0.46085 -0.20231,0.13518 -0.41587,0.24934 -0.64066,0.34244 -0.22481,0.0931 -0.45653,0.16342 -0.69517,0.21088 -0.23863,0.0475 -0.47961,0.0712 -0.72293,0.0712 h -84.17285 c -0.24333,0 -0.48432,-0.0237 -0.72297,-0.0712 -0.23865,-0.0475 -0.47037,-0.11776 -0.69517,-0.21088 -0.22481,-0.0931 -0.43837,-0.20726 -0.64068,-0.34245 -0.20231,-0.13518 -0.38949,-0.28878 -0.56154,-0.46084 -0.17205,-0.17206 -0.32567,-0.35925 -0.46086,-0.56157 -0.13518,-0.20232 -0.24933,-0.41587 -0.34245,-0.64067 -0.0931,-0.22479 -0.16339,-0.45651 -0.21087,-0.69515 -0.0475,-0.23863 -0.0712,-0.47963 -0.0712,-0.72295 z"
       style="fill:none;stroke:#000000;stroke-width:0.264695;stroke-linecap:butt;stroke-linejoin:miter;stroke-miterlimit:10;stroke-dasharray:none;stroke-opacity:1"
       id="path1649" />
    <path
       d="m 108.1845,142.46251 h 77.55549 v 5.0292 H 108.1845 Z"
       style="fill:#000000;fill-opacity:1;fill-rule:nonzero;stroke:none;stroke-width:0.264695"
       id="path1651" />
    <text
       style="font-style:italic;font-variant:normal;font-size:3.52838px;font-family:'Liberation Sans';-inkscape-font-specification:LiberationSans-Italic;writing-mode:lr-tb;fill:#ffffff;fill-opacity:1;fill-rule:nonzero;stroke:none;stroke-width:0.264695"
       id="text1655"
       x="108.87143"
       y="146.16817"><tspan
         x="108.87143 110.83347 112.79553 114.75758 116.52152 118.48354 119.46372 120.24749 122.20956 123.18971 126.12846 128.09053 131.02928 132.99133 133.97151 134.75528 135.7354 136.5192 138.48126 140.4433 141.61812 143.58015 144.36394 145.53877 147.50082 148.48099 150.2449 152.20699 153.38179 154.36195 156.1259 158.08795 160.04999 161.81393 163.77599 165.73802 166.71819 168.68024 169.35379 171.31583 173.27788 174.25804 175.43285 177.39488 178.37506 180.33713 182.29916 184.06313"
         y="146.16817"
         sodipodi:role="line"
         id="tspan1653"
         style="stroke-width:0.264695">Lance le même itinéraire sur chacun d'entre eux.</tspan></text>
    <path
       d="M 13.9533,286.4564 V 153.84437 c 0,-0.24332 0.0237,-0.48431 0.0712,-0.72296 0.0475,-0.23864 0.11776,-0.47037 0.210881,-0.69518 0.0931,-0.22479 0.20726,-0.43834 0.34244,-0.64066 0.13518,-0.20231 0.2888,-0.38949 0.46086,-0.56155 0.17205,-0.17206 0.35923,-0.32568 0.56155,-0.46087 0.20231,-0.13518 0.415871,-0.24932 0.640671,-0.34242 0.2248,-0.0931 0.45652,-0.16342 0.695167,-0.21088 0.23864,-0.0475 0.47963,-0.0712 0.72295,-0.0712 H 195.53369 c 0.24332,0 0.4843,0.0237 0.72293,0.0712 0.23864,0.0475 0.47036,0.11776 0.69517,0.21088 0.22479,0.0931 0.43835,0.20724 0.64066,0.34242 0.20232,0.13519 0.3895,0.28881 0.56156,0.46087 0.17204,0.17206 0.32567,0.35924 0.46084,0.56155 0.13517,0.20232 0.24933,0.41587 0.34245,0.64066 0.0931,0.22481 0.16342,0.45654 0.2109,0.69518 0.0475,0.23865 0.0712,0.47964 0.0712,0.72296 V 286.4564 c -1e-5,0.24333 -0.0237,0.48431 -0.0712,0.72293 -0.0475,0.23865 -0.11779,0.47037 -0.2109,0.69515 -0.0931,0.2248 -0.20728,0.43833 -0.34245,0.64064 -0.13517,0.2023 -0.2888,0.38952 -0.46084,0.5616 -0.17206,0.17205 -0.35924,0.32568 -0.56156,0.46083 -0.20231,0.13518 -0.41587,0.24934 -0.64066,0.34246 -0.22481,0.0931 -0.45653,0.16342 -0.69517,0.21091 -0.23863,0.0475 -0.47961,0.0712 -0.72293,0.0712 H 17.659019 c -0.24332,-2e-5 -0.48431,-0.0238 -0.72295,-0.0712 -0.238647,-0.0475 -0.470367,-0.11779 -0.695167,-0.21091 -0.2248,-0.0931 -0.438361,-0.20728 -0.640671,-0.34246 -0.20232,-0.13515 -0.3895,-0.28878 -0.56155,-0.46083 -0.17206,-0.17208 -0.32568,-0.3593 -0.46086,-0.5616 -0.13518,-0.20231 -0.24933,-0.41584 -0.34244,-0.64064 -0.0931,-0.22478 -0.163411,-0.4565 -0.210881,-0.69515 -0.0475,-0.23862 -0.0712,-0.4796 -0.0712,-0.72293 z"
       style="fill:none;stroke:#000000;stroke-width:0.264695;stroke-linecap:butt;stroke-linejoin:miter;stroke-miterlimit:10;stroke-dasharray:none;stroke-opacity:1"
       id="path1657" />
    <path
       d="M 15.981932,15.497433 V 9.4976853 c 0,-0.1043197 0.0102,-0.2076497 0.0305,-0.3099697 0.0204,-0.10232 0.0505,-0.20167 0.0904,-0.2980603 0.0399,-0.0964 0.0889,-0.18794 0.14683,-0.27469 0.058,-0.0867 0.12383,-0.167 0.1976,-0.24077 0.0738,-0.0738 0.15402,-0.13963 0.24077,-0.19759 0.0867,-0.058 0.1783,-0.1069 0.274687,-0.14683 0.0964,-0.0399 0.19574,-0.0701 0.29806,-0.0904 0.10232,-0.0204 0.20564,-0.0305 0.30997,-0.0305 h 85.937421 c 0.10433,0 0.20765,0.0102 0.30997,0.0305 0.10232,0.0203 0.20167,0.0505 0.29805,0.0904 0.0964,0.0399 0.18795,0.0889 0.27469,0.14683 0.0867,0.058 0.16701,0.12382 0.24079,0.19759 0.0738,0.0738 0.13962,0.15403 0.19759,0.24077 0.058,0.0867 0.10689,0.17831 0.14682,0.27469 0.0399,0.0964 0.0701,0.1957403 0.0904,0.2980603 0.0204,0.10232 0.0305,0.20565 0.0305,0.3099697 v 5.9997477 c -1e-5,0.10432 -0.0102,0.20765 -0.0305,0.30997 -0.0204,0.10232 -0.0505,0.20167 -0.0904,0.29805 -0.0399,0.0964 -0.0889,0.18795 -0.14683,0.2747 -0.058,0.0867 -0.12382,0.166996 -0.19758,0.240766 -0.0738,0.0738 -0.15403,0.13963 -0.24078,0.19759 -0.0867,0.058 -0.17831,0.1069 -0.2747,0.14683 -0.0964,0.0399 -0.19573,0.0701 -0.29805,0.0904 -0.10232,0.0204 -0.20564,0.0305 -0.30997,0.0305 H 17.570749 c -0.10433,0 -0.20765,-0.0102 -0.30997,-0.0305 -0.10232,-0.0204 -0.20168,-0.0505 -0.29806,-0.0904 -0.0964,-0.0399 -0.187947,-0.0889 -0.274687,-0.14683 -0.0868,-0.058 -0.167,-0.12383 -0.24077,-0.1976 -0.0738,-0.0738 -0.13964,-0.15402 -0.1976,-0.240766 -0.058,-0.0867 -0.1069,-0.1783 -0.14683,-0.27469 -0.0399,-0.0964 -0.0701,-0.19573 -0.0904,-0.29806 -0.0204,-0.10232 -0.0305,-0.20564 -0.0305,-0.30996 z"
       style="fill:#ffffff;fill-opacity:1;fill-rule:nonzero;stroke:none;stroke-width:0.264695"
       id="path1661" />
    <path
       d="M 15.938512,15.497433 V 9.4976853 c -10e-6,-0.1071697 0.0104,-0.2133197 0.0314,-0.3184397 0.0209,-0.10512 0.0519,-0.20719 0.0929,-0.3062103 0.041,-0.099 0.0913,-0.19308 0.15084,-0.28219 0.0596,-0.0891 0.12721,-0.17157 0.203,-0.24735 0.0758,-0.0758 0.15823,-0.14346 0.24735,-0.203 0.0891,-0.0595 0.18318,-0.10983 0.282197,-0.15084 0.099,-0.041 0.20109,-0.072 0.3062,-0.0929 0.10512,-0.0209 0.21127,-0.0314 0.31845,-0.0314 h 85.937421 c 0.10717,0 0.21332,0.0105 0.31843,0.0314 0.10512,0.0209 0.20719,0.0519 0.30621,0.0929 0.099,0.041 0.19309,0.0913 0.28221,0.15084 0.0891,0.0595 0.17156,0.12721 0.24736,0.203 0.0758,0.0758 0.14344,0.15823 0.20299,0.24735 0.0595,0.0891 0.10982,0.18318 0.15083,0.2822 0.041,0.099 0.072,0.2010803 0.0929,0.3062003 0.0209,0.10512 0.0314,0.21127 0.0314,0.3184397 v 5.9997477 c 0,0.10717 -0.0104,0.21332 -0.0314,0.31844 -0.0209,0.10512 -0.0519,0.20718 -0.0929,0.3062 -0.041,0.099 -0.0913,0.19309 -0.15084,0.2822 -0.0596,0.0891 -0.12721,0.171566 -0.20299,0.247346 -0.0758,0.0758 -0.15825,0.14345 -0.24736,0.203 -0.0891,0.0595 -0.1832,0.10982 -0.28221,0.15084 -0.099,0.041 -0.20109,0.072 -0.30621,0.0929 -0.10511,0.0209 -0.21126,0.0314 -0.31843,0.0314 H 17.570839 c -0.10718,0 -0.21333,-0.0105 -0.31845,-0.0314 -0.10511,-0.0209 -0.20718,-0.0519 -0.3062,-0.0929 -0.099,-0.041 -0.193087,-0.0913 -0.282197,-0.15084 -0.0891,-0.0596 -0.17157,-0.12721 -0.24735,-0.203 -0.0758,-0.0758 -0.14345,-0.15823 -0.203,-0.247346 -0.0595,-0.0891 -0.10982,-0.18318 -0.15084,-0.2822 -0.041,-0.099 -0.072,-0.20109 -0.0929,-0.3062 -0.0209,-0.10512 -0.0314,-0.21127 -0.0314,-0.31844 z"
       style="fill:none;stroke:#ffffff;stroke-width:0.264695;stroke-linecap:butt;stroke-linejoin:miter;stroke-miterlimit:10;stroke-dasharray:none;stroke-opacity:1"
       id="path1663" />
    <text
       style="font-variant:normal;font-weight:bold;font-size:3.52838px;font-family:'Liberation Sans';-inkscape-font-specification:LiberationSans-Bold;writing-mode:lr-tb;fill:#000000;fill-opacity:1;fill-rule:nonzero;stroke:none;stroke-width:0.264695"
       id="text1667"
       x="16.94371"
       y="11.968169"><tspan
         x="16.94371"
         y="11.968169"
         id="tspan1665"
         style="stroke-width:0.264695">1</tspan></text>
    <text
       style="font-variant:normal;font-weight:bold;font-size:3.52838px;font-family:'Liberation Sans';-inkscape-font-specification:LiberationSans-Bold;writing-mode:lr-tb;fill:#000000;fill-opacity:1;fill-rule:nonzero;stroke:none;stroke-width:0.264695"
       id="text1671"
       x="18.90411"
       y="11.968169"><tspan
         x="18.90411"
         y="11.968169"
         id="tspan1669"
         style="stroke-width:0.264695">.</tspan></text>
    <text
       style="font-variant:normal;font-weight:bold;font-size:3.52838px;font-family:'Liberation Sans';-inkscape-font-specification:LiberationSans-Bold;writing-mode:lr-tb;fill:#000000;fill-opacity:1;fill-rule:nonzero;stroke:none;stroke-width:0.264695"
       id="text1675"
       x="21.64205"
       y="11.968169"><tspan
         x="21.64205 24.189739 26.344776 27.324902 28.305048 30.267126 32.229164 33.403984 35.366028 36.346184 38.501152 40.463192 42.425282 43.405399 45.36747 48.504318 50.466366 51.839306 53.014095 55.16906 57.324043 59.479004 61.634022 63.596054 65.558098 66.538261 67.518425 70.066162 72.028183 75.165039 77.127068 79.282089 81.437057 83.399101 84.379257 86.341316 87.321472 88.496292 90.651268"
         y="11.968169"
         sodipodi:role="line"
         id="tspan1673"
         style="stroke-width:0.264695">Collecte des smartphones. Demande à ton</tspan></text>
    <text
       style="font-variant:normal;font-weight:bold;font-size:3.52838px;font-family:'Liberation Sans';-inkscape-font-specification:LiberationSans-Bold;writing-mode:lr-tb;fill:#000000;fill-opacity:1;fill-rule:nonzero;stroke:none;stroke-width:0.264695"
       id="text1679"
       x="16.94371"
       y="15.409214"><tspan
         x="16.94371 18.90575 21.06072 22.235558 24.390522 26.545506 27.9184 29.880476 32.035454 33.997482 34.977638 37.132622 39.094658 40.467602 41.44775 43.409794 45.371834 47.333878 50.470745 52.625721 53.605907 55.56794 56.548103"
         y="15.409214"
         sodipodi:role="line"
         id="tspan1677"
         style="stroke-width:0.264695">entourage par exemple !</tspan></text>
    <path
       d="M 109.68375,12.056402 V 9.4976853 c -1e-5,-0.1043197 0.0102,-0.2076497 0.0305,-0.3099697 0.0203,-0.10232 0.0505,-0.20167 0.0904,-0.2980603 0.0399,-0.0964 0.0889,-0.18794 0.14683,-0.27469 0.058,-0.0867 0.12383,-0.167 0.1976,-0.24077 0.0738,-0.0738 0.15402,-0.13963 0.24077,-0.19759 0.0867,-0.058 0.1783,-0.1069 0.27469,-0.14683 0.0964,-0.0399 0.19573,-0.0701 0.29805,-0.0904 0.10233,-0.0204 0.20566,-0.0305 0.30999,-0.0305 h 77.20256 c 0.10432,0 0.20764,0.0102 0.30995,0.0305 0.10232,0.0203 0.20167,0.0505 0.29807,0.0904 0.0964,0.0399 0.18794,0.0889 0.27468,0.14683 0.0867,0.058 0.167,0.12382 0.24079,0.19759 0.0738,0.0738 0.13963,0.15403 0.19758,0.24077 0.058,0.0867 0.10692,0.17831 0.14684,0.27469 0.0399,0.0964 0.0701,0.1957403 0.0904,0.2980603 0.0204,0.10232 0.0305,0.20565 0.0305,0.3099697 v 2.5587167 c 0,0.10432 -0.0102,0.20765 -0.0305,0.30997 -0.0204,0.10232 -0.0505,0.20167 -0.0904,0.29806 -0.0399,0.0964 -0.0889,0.18794 -0.14684,0.27469 -0.058,0.0867 -0.12382,0.167 -0.19758,0.24077 -0.0738,0.0738 -0.15405,0.13963 -0.24079,0.19759 -0.0867,0.058 -0.17831,0.10691 -0.27469,0.14683 -0.0964,0.0399 -0.19574,0.0701 -0.29806,0.0904 -0.10231,0.0204 -0.20563,0.0305 -0.30995,0.0305 h -77.20256 c -0.10433,0 -0.20766,-0.0102 -0.30999,-0.0305 -0.10232,-0.0204 -0.20167,-0.0505 -0.29805,-0.0904 -0.0964,-0.0399 -0.18795,-0.0889 -0.27469,-0.14683 -0.0868,-0.058 -0.167,-0.12382 -0.24077,-0.19759 -0.0738,-0.0738 -0.13965,-0.15403 -0.1976,-0.24077 -0.058,-0.0867 -0.10691,-0.17831 -0.14683,-0.2747 -0.0399,-0.0964 -0.0701,-0.19573 -0.0904,-0.29805 -0.0204,-0.10232 -0.0305,-0.20565 -0.0305,-0.30997 z"
       style="fill:#ffffff;fill-opacity:1;fill-rule:nonzero;stroke:none;stroke-width:0.264695"
       id="path1681" />
    <path
       d="M 109.64032,12.056402 V 9.4976853 c 0,-0.1071697 0.0105,-0.2133197 0.0314,-0.3184397 0.0209,-0.10512 0.0519,-0.20719 0.0929,-0.3062103 0.041,-0.099 0.0913,-0.19308 0.15084,-0.28219 0.0596,-0.0891 0.12721,-0.17157 0.203,-0.24735 0.0758,-0.0758 0.15823,-0.14346 0.24734,-0.203 0.0891,-0.0595 0.18319,-0.10983 0.28219,-0.15084 0.099,-0.041 0.2011,-0.072 0.30621,-0.0929 0.10513,-0.0209 0.21128,-0.0314 0.31846,-0.0314 h 77.20256 c 0.10717,0 0.21331,0.0105 0.31843,0.0314 0.10513,0.0209 0.2072,0.0519 0.30622,0.0929 0.099,0.041 0.19309,0.0913 0.28219,0.15084 0.0891,0.0595 0.17156,0.12721 0.24734,0.203 0.0758,0.0758 0.14346,0.15823 0.203,0.24735 0.0595,0.0891 0.10982,0.18318 0.15084,0.2822 0.041,0.099 0.072,0.2010803 0.0929,0.3062003 0.0209,0.10512 0.0314,0.21127 0.0314,0.3184397 v 2.5587167 c 0,0.10717 -0.0105,0.21332 -0.0314,0.31844 -0.0209,0.10512 -0.0519,0.20719 -0.0929,0.3062 -0.041,0.099 -0.0913,0.19309 -0.15083,0.2822 -0.0596,0.0891 -0.12722,0.17157 -0.20301,0.24736 -0.0758,0.0758 -0.15823,0.14345 -0.24734,0.20299 -0.0891,0.0596 -0.18317,0.10983 -0.28221,0.15084 -0.099,0.041 -0.20109,0.072 -0.3062,0.0929 -0.10512,0.0209 -0.21126,0.0314 -0.31843,0.0314 h -77.20256 c -0.10718,0 -0.21333,-0.0104 -0.31845,-0.0314 -0.10512,-0.0209 -0.20719,-0.0519 -0.30622,-0.0929 -0.099,-0.041 -0.19307,-0.0913 -0.28219,-0.15084 -0.0891,-0.0595 -0.17156,-0.12721 -0.24734,-0.20299 -0.0758,-0.0758 -0.14345,-0.15824 -0.20299,-0.24736 -0.0596,-0.0891 -0.10983,-0.18318 -0.15085,-0.2822 -0.041,-0.099 -0.072,-0.20108 -0.0929,-0.3062 -0.0209,-0.10512 -0.0314,-0.21127 -0.0314,-0.31844 z"
       style="fill:none;stroke:#ffffff;stroke-width:0.264695;stroke-linecap:butt;stroke-linejoin:miter;stroke-miterlimit:10;stroke-dasharray:none;stroke-opacity:1"
       id="path1683" />
    <text
       style="font-variant:normal;font-weight:bold;font-size:3.52838px;font-family:'Liberation Sans';-inkscape-font-specification:LiberationSans-Bold;writing-mode:lr-tb;fill:#000000;fill-opacity:1;fill-rule:nonzero;stroke:none;stroke-width:0.264695"
       id="text1687"
       x="110.81117"
       y="11.968169"><tspan
         x="110.81117"
         y="11.968169"
         id="tspan1685"
         style="stroke-width:0.264695">2</tspan></text>
    <text
       style="font-variant:normal;font-weight:bold;font-size:3.52838px;font-family:'Liberation Sans';-inkscape-font-specification:LiberationSans-Bold;writing-mode:lr-tb;fill:#000000;fill-opacity:1;fill-rule:nonzero;stroke:none;stroke-width:0.264695"
       id="text1691"
       x="112.77153"
       y="11.968169"><tspan
         x="112.77153"
         y="11.968169"
         id="tspan1689"
         style="stroke-width:0.264695">.</tspan></text>
    <text
       style="font-variant:normal;font-weight:bold;font-size:3.52838px;font-family:'Liberation Sans';-inkscape-font-specification:LiberationSans-Bold;writing-mode:lr-tb;fill:#000000;fill-opacity:1;fill-rule:nonzero;stroke:none;stroke-width:0.264695"
       id="text1695"
       x="115.50948"
       y="11.968169"><tspan
         x="115.50948 116.48966 118.6446 120.60667 121.78153 123.74355 124.72369 125.70387 127.66593 128.6461 131.3902 133.54518 135.70012 137.8551 138.83527 140.7973 141.77748 144.71623 146.67828 148.83325 150.79529 151.77547 153.7375 155.8925 157.26541 158.24557 159.42038 161.57538 163.73036 165.6924 166.67256 167.65274 169.61478 171.57681 172.55698 174.51903 176.674 178.82898 180.79105 182.16394 184.12599 185.10616 186.08632 188.04836"
         y="11.968169"
         sodipodi:role="line"
         id="tspan1693"
         style="stroke-width:0.264695">Installe Google Maps sur tous les appareils.</tspan></text>
    <path
       d="m 16.511322,156.31485 v -2.5587 c 0,-0.10434 0.0102,-0.20765 0.0305,-0.30996 0.0204,-0.10235 0.0505,-0.20171 0.0904,-0.29809 0.0399,-0.0964 0.0889,-0.18796 0.14683,-0.2747 0.058,-0.0867 0.12383,-0.167 0.197597,-0.24077 0.0738,-0.0738 0.15402,-0.13963 0.24076,-0.1976 0.0867,-0.058 0.17831,-0.1069 0.2747,-0.14682 0.0964,-0.0399 0.19573,-0.0701 0.29806,-0.0904 0.10232,-0.0204 0.20564,-0.0305 0.30997,-0.0305 H 159.09403 c 0.10434,0 0.20765,0.0102 0.30997,0.0305 0.10231,0.0203 0.20165,0.0505 0.29804,0.0904 0.0964,0.0399 0.18795,0.0889 0.27469,0.14682 0.0868,0.058 0.16702,0.12384 0.24079,0.1976 0.0738,0.0738 0.13963,0.15403 0.19758,0.24077 0.058,0.0867 0.10692,0.17831 0.14684,0.2747 0.0399,0.0964 0.0701,0.19574 0.0904,0.29807 0.0204,0.10231 0.0305,0.20564 0.0305,0.30998 v 2.5587 c 0,0.10432 -0.0102,0.20765 -0.0305,0.30996 -0.0204,0.10232 -0.0505,0.20166 -0.0904,0.29806 -0.0399,0.0964 -0.0889,0.18794 -0.14684,0.27469 -0.058,0.0867 -0.12382,0.167 -0.19758,0.24077 -0.0738,0.0738 -0.15403,0.13964 -0.24077,0.19759 -0.0868,0.058 -0.17833,0.1069 -0.2747,0.14682 -0.0964,0.0399 -0.19574,0.0701 -0.29805,0.0904 -0.10232,0.0204 -0.20563,0.0305 -0.30997,0.0305 H 18.100179 c -0.10433,-1e-5 -0.20765,-0.0102 -0.30997,-0.0305 -0.10233,-0.0204 -0.20168,-0.0505 -0.29806,-0.0904 -0.0964,-0.0399 -0.18795,-0.0889 -0.2747,-0.14682 -0.0867,-0.058 -0.167,-0.1238 -0.24076,-0.19759 -0.0738,-0.0738 -0.139637,-0.15403 -0.197597,-0.24077 -0.058,-0.0867 -0.1069,-0.17832 -0.14683,-0.27469 -0.0399,-0.0964 -0.0701,-0.19574 -0.0904,-0.29806 -0.0204,-0.10231 -0.0305,-0.20564 -0.0305,-0.30996 z"
       style="fill:#ffffff;fill-opacity:1;fill-rule:nonzero;stroke:none;stroke-width:0.264695"
       id="path1697" />
    <path
       d="m 16.467892,156.31485 v -2.5587 c 0,-0.10719 0.0105,-0.21334 0.0314,-0.31845 0.0209,-0.10512 0.0519,-0.20719 0.0929,-0.30621 0.041,-0.099 0.0913,-0.19308 0.15084,-0.28219 0.0596,-0.0891 0.12721,-0.17158 0.202997,-0.24736 0.0758,-0.0758 0.15823,-0.14346 0.24735,-0.203 0.0891,-0.0595 0.18318,-0.10981 0.2822,-0.15083 0.099,-0.041 0.20109,-0.072 0.3062,-0.0929 0.10512,-0.0209 0.21127,-0.0314 0.31845,-0.0314 H 159.09412 c 0.10716,0 0.21331,0.0105 0.31843,0.0314 0.10513,0.0209 0.2072,0.0519 0.30622,0.0929 0.099,0.041 0.19307,0.0913 0.2822,0.15083 0.0891,0.0595 0.17156,0.12721 0.24735,0.203 0.0758,0.0758 0.14344,0.15823 0.20298,0.24736 0.0595,0.0891 0.10982,0.18317 0.15084,0.28219 0.041,0.099 0.072,0.20109 0.0929,0.30621 0.0209,0.10511 0.0314,0.21126 0.0314,0.31845 v 2.5587 c -1e-5,0.10718 -0.0104,0.21332 -0.0314,0.31843 -0.0209,0.10512 -0.0519,0.20719 -0.0929,0.30621 -0.041,0.099 -0.0913,0.19308 -0.15085,0.28221 -0.0595,0.0891 -0.12719,0.17156 -0.20298,0.24734 -0.0758,0.0758 -0.15824,0.14345 -0.24734,0.203 -0.0891,0.0595 -0.18319,0.10981 -0.28221,0.15083 -0.099,0.041 -0.20109,0.072 -0.3062,0.0929 -0.10512,0.0209 -0.21127,0.0314 -0.31843,0.0314 H 18.100179 c -0.10718,-2e-5 -0.21333,-0.0105 -0.31845,-0.0314 -0.10511,-0.0209 -0.20718,-0.0519 -0.3062,-0.0929 -0.099,-0.041 -0.19309,-0.0913 -0.2822,-0.15083 -0.0891,-0.0596 -0.17157,-0.12721 -0.24735,-0.203 -0.0758,-0.0758 -0.143447,-0.15824 -0.202997,-0.24735 -0.0595,-0.0891 -0.10982,-0.18319 -0.15084,-0.28221 -0.041,-0.099 -0.072,-0.20108 -0.0929,-0.3062 -0.0209,-0.10511 -0.0314,-0.21125 -0.0314,-0.31843 z"
       style="fill:none;stroke:#ffffff;stroke-width:0.264695;stroke-linecap:butt;stroke-linejoin:miter;stroke-miterlimit:10;stroke-dasharray:none;stroke-opacity:1"
       id="path1699" />
    <text
       style="font-variant:normal;font-weight:bold;font-size:3.52838px;font-family:'Liberation Sans';-inkscape-font-specification:LiberationSans-Bold;writing-mode:lr-tb;fill:#000000;fill-opacity:1;fill-rule:nonzero;stroke:none;stroke-width:0.264695"
       id="text1703"
       x="17.646791"
       y="156.22658"><tspan
         x="17.646791"
         y="156.22658"
         id="tspan1701"
         style="stroke-width:0.264695">3</tspan></text>
    <text
       style="font-variant:normal;font-weight:bold;font-size:3.52838px;font-family:'Liberation Sans';-inkscape-font-specification:LiberationSans-Bold;writing-mode:lr-tb;fill:#000000;fill-opacity:1;fill-rule:nonzero;stroke:none;stroke-width:0.264695"
       id="text1707"
       x="19.607204"
       y="156.22658"><tspan
         x="19.607204"
         y="156.22658"
         id="tspan1705"
         style="stroke-width:0.264695">.</tspan></text>
    <text
       style="font-variant:normal;font-weight:bold;font-size:3.52838px;font-family:'Liberation Sans';-inkscape-font-specification:LiberationSans-Bold;writing-mode:lr-tb;fill:#000000;fill-opacity:1;fill-rule:nonzero;stroke:none;stroke-width:0.264695"
       id="text1711"
       x="22.345146"
       y="156.22658"><tspan
         x="22.345146 23.325306 25.480289 27.442326 29.404356 31.366409 32.54126 33.521378 35.483452 36.463608 38.618576 40.580616 42.7356 44.697639 45.677788 47.832779 49.794811 51.756878 52.737026 55.873894 58.02887 59.009033 60.183838 61.163998 63.318977 64.691902 65.672081 67.634125 69.596153 71.558189 72.538376 73.518539 74.498695 75.478859 76.459038 78.421074 80.383118 81.363274 82.538063 84.500122 85.480278 86.460442 88.615417 89.595596 90.968506 91.948662 94.103661 96.065681 97.438606 99.593575 101.55563 102.92851 103.90868 105.87074 107.83279 109.79482 110.77499 111.94978 113.91182 114.89201 116.85404 119.00903 121.16403 123.31899 125.47395 127.43602 129.39806 130.37822 132.53323 133.51338 135.47539 136.45557 138.61053 139.5907 141.74568 143.70772 144.68788 146.84286 148.80493 149.97974 151.15454 153.11659 154.48952 155.46968 157.43173 158.4119"
         y="156.22658"
         sodipodi:role="line"
         id="tspan1709"
         style="stroke-width:0.264695">Investis dans des multiprises. Il va falloir garder ces téléphones plein de batterie !</tspan></text>
  </g>
</svg>
