<?xml version="1.0" standalone="yes"?>
<svg width="728" height="546" viewBox="0 0 728 546">
<path style="stroke:#000000; fill:none;" d="M116 1L112 20L154 20L248 20M118 1L117 2M263 1C262.868 7.31165 256.344 18.4737 250 20M265 1L264 2M530 18C533.588 18.074 540.737 17.7325 543.356 20.6027C548.449 26.1816 532.929 40.3591 528.603 28.9962C527.776 26.8235 528.008 24.2779 528 22M111 19C108.696 22.9954 104.078 34.4494 109.318 37.8326C117.56 43.1541 136.497 40 146 40L237 40M251 24L241 39M109 34L110 37M532 34C530.465 35.5863 528.753 37.1304 527.579 39.0247C525.62 42.1845 524.624 53.1405 530.99 52.2176C538.648 51.1074 538.152 39.3984 535 35M106 38L108 39M105 42L105 60L106 54M239 43C235.41 47.67 232.076 55.9999 226.816 58.8565C218.781 63.2192 202.019 60 193 60C164.639 60 136.283 60.2145 108 59M529 52L535 48M375 84C386.109 95.1004 410.415 96.6435 425.996 92.6821C436.557 89.9972 433.232 78.6549 428 73L433 68C425.69 55.6715 438.045 52.0819 448 49.9491C456.823 48.0587 459.374 52.7794 467 55.0625C476.272 57.8385 489.253 54.9636 496.866 62.2276C501.007 66.1795 500.397 72.5086 493.999 73.5123C479.339 75.8121 457.952 75.0797 447 65C446.254 70.2768 449.845 73.9571 455 72M391 62C392.126 59.8885 388.862 64.5626 390.333 64C404.214 58.6925 415.567 55.4061 431 55M426 56L430 65M447 64C451.49 58.4294 457.096 56.9297 464 56M226 57L225 58M231 57L231 79M103 60L103 100L131 100L192 100M440 63L433 68M451 63L452 69M524 63C526.311 65.9966 528.809 67.4351 530 63L530 63M225 64C217.461 73.5065 215.782 76.9308 228 80M391 64C402.276 75.2677 412.98 73.0016 428 73M387 65L389 65L387 65M390 66L398 73M387 67C388.348 71.7468 391.041 74.0929 396 73M450 73C447.101 75.0641 442.843 76.5993 440.603 79.3904C437.061 83.8058 440.657 89.6783 445.005 91.8333C450.024 94.3214 473.738 95.5898 477.302 90.6821C479.724 87.3486 475.016 78.3997 475 74M497 73L513 79M373 81L389 74M413 74L413 83C416.655 80.8649 416.902 78.0508 417 74M478 74L478 83M218 79L221 77M529 79C519.492 95.0983 512.869 70.0995 529 79M217 77C207.908 82.6737 193.396 80 183 80C156.301 80 129.625 79.5497 103 79M532 78C540.128 82.3374 552.92 80 562 80M530 79L532 80M511 80C512.161 86.1384 509.172 88.8015 505 93C509.618 93.7086 512.34 90.4786 512 86M213 81C210.53 84.6316 203.859 91.1019 204.979 95.8511C206.347 101.655 222.308 101.153 225 97M230 82L228 99M413 83L411 92M446 92L448 83C452.452 84.8319 454.358 87.2142 455 92M372 84C373.44 89.1251 376.719 92.185 382 93M429 93L444 93M478 93L505 93M372 114C385.2 110.106 403.199 113 417 113C422.336 113 429.77 111.568 434.852 113.238C438.449 114.419 437.594 118.08 438.563 121C441.135 128.749 445.888 129.793 439 137C428.964 128.513 409.449 134.007 397 133.096C392.099 132.738 388.066 129.86 383 129.88C379.112 129.896 374.581 133.714 371.019 132.67C361.68 129.931 366.91 118.263 371 114C361.199 103.87 366.346 98.5866 377 93M468 94C468.013 98.7822 467.669 107.545 470.988 111.397C473.124 113.874 478.104 113.022 481 112.976C488.929 112.849 505.886 116.317 512.409 111.397C519.812 105.812 517.243 98.8 510 95M484 94L485 104L487 94M204 95L201 99M431 95C431.076 101.47 435.934 106.273 432 112M434 95L434 103M437 95L435 105M544 119C544 114.117 541.448 99.2023 545.579 96.0278C548.256 93.9702 553.834 95 557 95L587 95C614.306 95 641.633 96 669 96C684.039 96 702.521 93.7203 717 98L714.972 116.527L701 120M694 97L689 100M699 98L695 100M194 100L201 99M101 100L99.1343 142L97.2361 157L85 170.847L81 175M520 100L543 100M227 102L220 139M197 104C195.114 106.626 191.003 110.531 191.167 113.981C191.582 122.692 212.475 120 218 120M485 105L486 112M439 113L469 113M487 113L488 123L489 114M382 114L383 125L386 114M442 114L443 123L444 114M449 114L450 124L452 114M513 114C521.531 120.211 519.644 126.272 513 133C516.464 136.58 520.556 140.664 517.972 146C516.706 148.616 513.326 150.823 513.612 154C514.214 160.682 521.439 165.787 512.98 171.397C504.288 177.161 482.775 174.505 481 163M190 115L188 118L192 119M565 140C565 134.8 563.061 120.616 567.603 117.028C572.019 113.54 585.525 116 591 116L656 116L686 116C690.54 116 695.345 115.013 697 120M104 119C128.676 123.581 156.905 120 182 120M217 138C210.79 142.704 193.586 140.672 186 139.565C183.183 139.154 177.438 139.16 176.331 135.827C174.841 131.342 183.913 121.829 187 119M522 119L541 119M543 122L543 139M697 122L698 140L713 135M716 122L716 139M443 123L441 125M487 124C488.081 137.096 502.943 133 513 133M450 125L445 130M383 126L382 129M488 132C478.038 135.826 455.212 135.145 445 132M375 133C376.85 134.954 379.44 137.105 379.675 140.002C380.587 151.254 358.072 156.526 360 143M394 133C388.074 139.41 389.158 142.962 395 149L385 160L382 147M397 134L397 153L409 157C404.085 161.897 394.883 168.155 393 157L390 159L389 160M425 134C425 143.613 423.914 150.677 431 158C437.896 151.041 439 146.525 439 137M452 134C451.976 140.791 447.484 152.794 439 148M467 134L469 145L471 134M469 134C469 143.597 471.782 157.962 466 166L460.397 154.029L444 151M483 134C483.067 154.144 495.697 153 512 153M486 134L485 143M175 136L159 160L160 157M377 137L377 144M522 137C525.188 141.765 535.054 140.462 540 139M173 138L177 138M103 139C124.341 142.962 150.699 133.935 171 141M382 139L384 140M696 140L696 159M543 142L542 199M565 142L566.028 158.393L585 160M716 143L715 199M219 144L215 159M397 153L393 157M463 153L488 153M370 158L370 173C358.622 169.129 361.165 161.044 368 154L374 158M450 154L451 165L453 154M465 154L465 163M101 157L103 159L99 159M165 159L163 157L209 160M396 156L396 160M621 159L625 156M698 156L699 156M385 157L386 158M410 157C416.738 159.131 425.396 164.58 431 159M540 157C536.998 160.817 524.662 159.87 520 159M648 160L657 158M666 158L665 159M154 159L154 160M675 159L690 159M104 160L152 160M211 160L212 160M372 160L372 163M376 160L378 160M564 160C564 164.134 562.05 175.158 565.603 177.972C569.986 181.443 584.46 180 590 180C613.084 180 635.549 180.857 658 176M214 162C212.339 170.046 211.884 179.678 202 180M382 162L385 162M429 162C432.736 169.16 422.61 181.753 415.019 183.052C407.955 184.261 411.895 176.436 414.059 174C415.297 172.605 416.681 171.321 417.998 170.002L425 163M696 162L694 219M155 163L148 175L151 174M394 163L396 164M451 165C444.076 171.923 439.542 177.897 431 170M466 167C470.272 174.193 478.316 175.822 486 173M369 173L365 182M370 173C377.908 181.585 368.541 185.309 370.149 194.867C370.681 198.029 373.903 199.639 375.692 202.108C383.221 212.497 389.983 216.579 402 219L363 234L368 238L372 235M447 203L452 204C451.189 197.672 441.455 179.736 445.774 174.603C449.292 170.424 463.867 173.298 469 173M442 174L444 176M459 174C459 177.58 457.269 187.596 460.564 189.914C467.652 194.899 468 176.794 468 174M488 174C487.997 178.182 483.165 188.76 485.623 191.397C487.592 193.509 491.414 192.987 494 193.001C501.553 193.041 513.699 195.348 520.714 192.397C525.272 190.479 528.647 184.081 525.022 179.815C522.326 176.641 516.579 175.089 513 173M79 177L79 175M150 175C159.715 185.09 186.882 180 200 180M479 175C479.02 180.702 480.08 183.76 484 188M483 175L483 185M79 177L76 180L77 176M147 176L149 177M608 176L611 176M74 177C65.4938 182.934 54.9238 188.872 51 199L52 196M413 177L413 183M637 177L637 178M146 178L147 180L151 179M527 178L538 179M78 179C95.1421 183.437 117.264 180 135 180M146 179C142.116 184.682 137.257 193.021 139 200L158 200L200 200M379 180L405 180M137 180L138 180M140 180L142 180M341 180L344 180M350 180L359 180M558 180L561 180M652 180L695 180M564 182L563 219M209 183C204.484 193.633 202.6 205.871 199.441 217C194.358 234.91 188.362 252.525 185.729 271C183.768 284.763 184.526 299.114 201 300M367 183L371 187M82 186L72.787 198.15L55 199M451 191L458 191M450 192L445 201M454 192C454.006 199.357 455.801 202.739 461 208C451.454 217.434 439.553 213.224 427 215.147C416.666 216.729 412.603 221.731 402 216M465 192C469.071 203.975 485.899 218.193 499 213L493 204M474 202L484 193M502 194C502 198.484 500.261 209.075 504.434 211.972C506.599 213.474 509.641 212.869 512 214.026C514.294 215.152 516.576 218.404 519 218M523 194L538 199M448 196L448 200M70 199L73 198M202 198L204 200M368 200L369 199M565 198L650 199L691 198M337 200L367 199M378 200L404 199M437 200L439 200M529 199C527.945 208.465 519.828 208.76 513 213M77 200L128 200M130 200L131 200M133 200L134 200M137 200C135.312 206.006 132.641 214.087 135 220L179 220L196 218M331 200L333 200M407 200L435 200M470 200L462 208M720 200L722 200M451 201L449 203M73 202L73 212M453 202L453 204M471 202C464.756 208.244 449.693 227.102 439 218M541 202L542 240C547.356 238.351 554.873 237.668 560 240L562 222M714 202L715 219M48 203L49 220C55.5897 217.905 62.2205 219.989 69 220C88.8157 220.032 112.719 223.59 132 219M402 204L400 217M474 204C467.184 210.816 460.828 216.015 468 225L469 211M454 205L458 207M476 208C476 215.499 473.033 226.673 483 227L482 212M499 213L502 213M463 214L455 218M486 214L483 226M492 215L495 225L497 215M494 215L494 222M410 217L432 218L424 219M571 218L603 216M390 217C381.844 222.383 368.417 219.674 359 219.09C347.145 218.354 334.923 220 323 220M437 217L437 219L432 220M538 217C534.854 221 524.864 219 520 219M625 220L623 220L647 218M432 218L434 218M544 219L559 218M612 220L623 218M691 218C681.656 225.079 660.635 217.23 649 220M399 219L401 221M402 219L404 219M390 220L393 220M625 220C630.321 223.123 643.281 221.401 646.248 226.277C651.501 234.908 626.398 232.519 623.17 233.343C620.174 234.107 617.821 238.473 615 238M633 220L635 219M717 220L727 220M132 222L128 239M616 222L618 222M694 222L692 299M714 222L712 319M48 223L55 240L77 240L125 240M135 223L139.589 238.062L154 240L190 240M513 223C504.3 234.417 498.743 230.258 487 233.847C484.259 234.685 481.594 238.433 479 238M620 232C615.056 231.92 605.532 225.306 614 223M638 224L633 232M643 224L643 232M605 226L604 232L610 231L606 226L607 225L608 226L609 227L610 228M634 225L634 229M470 226L475 227M495 226L498 233M484 228L485 232M645 233L661 231.542L673 237.856L690 239M613 231L610 232M505 233C508.183 236.135 510.427 239.158 515 238L509 235M602 254L591 254L589.376 243.047L603 233M611 233C609.942 239.678 606.198 237.402 602 240M366 237L361 236L363 234M488 234L485 244L483 238M490 234C490.006 242.097 492.273 243.833 499 248L499 236L493 243L492 234M499 234L499 236M628 234C628.149 247.509 636.879 246.737 646 253C645.231 253.909 644.024 255.028 643.444 256.16C636.794 269.164 657.486 260.446 646 253M360 235L344 240M485 236L486 242M513 236L511 238M519 236C518.99 241.488 532.146 263.246 537 257M587 236L588 236M538 237C534.854 241 524.864 239 520 239M599 237L601 239M135 238L131 240M364 238L402 239L478 239M515 238L518 241M576 238L576 239M597 238L593 244L595 242M668 238L667 243M139 239L138 260L142 259M324 240L343 239M359 239L362 238M594 239L594 241M611 240L614 239M680 239L680.511 248.998L678 255M55 240L56 260L57 255M512 240L507 263L510 258M562 240C562 258.349 562.569 277.735 560.83 296C559.692 307.965 556.573 324.406 560 336L569 320L562 316M720 240L727 240M127 242C124.138 254.483 120.118 266.869 116.025 279C114.617 283.176 110.519 291.522 111.788 295.852C113.149 300.496 121.626 299.552 124.157 296.602C127.305 292.933 127.798 286.431 129.7 282.031C132.764 274.941 136.874 273.907 138 265M487 242L489 244M597 242L596 244M344 254C341.077 256.341 332.293 258.152 335.867 251.289C337.714 247.743 342.719 245.05 346 243M670 243L666 243C661.09 247.909 657.312 252.763 650 253M541 244L540 259M671 244C673.81 247.014 675.066 248.808 679 247L680 246M666 245C668.074 251.569 669.642 255.551 676 250L676 250M593 246L592 249M500 247L508 250M669 247L668 248M613 252C617.639 249.809 620.61 250.544 625 253M609 252L609 253M334 253C332.878 255.66 332.606 256.334 335 258M336 254L339 257M677 254C677.029 262.434 679.454 266.324 673 273C671.53 269.508 672.14 253.305 675 255M591 254L589 263C584.696 265.479 588.593 267.131 588.611 271C588.642 277.73 584.992 289.942 592.083 294.639C594.879 296.49 607.018 291.933 611 291.389C627.301 289.163 636.244 301.664 649 286M655 266C650.255 258.671 661.667 254.376 667 254M661 255C660.951 259.152 660.947 263.347 656 261M663 255C662.985 259.338 663.231 262.955 659 265M671 255L671 262M590 256L595 259M679 256L679 262M341 258C356.26 262.511 377.074 259 393 259L503 259M582 257L584 260L587 257M604 257L606 258M644 257L644 263M125 258L136 260M134 258L134 259M185 258C176.849 264.176 154.181 260 144 260M318 273L320 275C319.448 267.488 324.016 260.866 331 258M510 258L512 258M529 258L529 260L529 258M584 258L585 259M596 259L600 274M607 260C612.504 258.889 616.132 259.868 620 264M617 258L618 258M59 259C77.4141 263.384 100.079 260 119 260M513 259L528 259M591 259L589 267M54 260C53.4582 264.287 50.348 273.648 53.0316 277.37C55.9968 281.483 64.6654 280 69 280L113 280M601 260L599 262M620 260L625 260M627 260L636 260M716 260L727 260M540 262L542 279M683 262C682.508 267.425 680.192 273.418 674 273M135 263L134 277M507 263L503 274M535 263L538 269M604 263L600 265M649 263L651 263M461 265L463 280L463 276M644 265C643.726 268.466 644.096 274.794 642.111 277.682C635.662 287.067 611.639 273.334 605 282L604 284L604 284M660 266C661.614 271.718 665.261 273.633 671 273M679 267L682 267M649 271L652 270L647 273M603 271L605 272M648 271L649 271M664 273L661 286C654.798 280.84 657.271 277.128 648 279M581 277L583 280L587 274M665 274L666 286L669 274M667 274L667 283M132 275L132 277M474 275C476.582 282.831 493.293 278.11 500 279L501 278L500 276M676 275L676 292C681.162 289.387 685.742 288.163 687 282M54 276L54 278M468 276L473 279M657 278L661 276M663 276L665 287M136 277L142 280M316 284L314 289C309.79 272.102 336.892 279 346 279C383.78 279 422.417 276.614 460 278M468 277L466 279M495 278L497 280M590 278L592 280M135 279L137 279M501 279L540 279M594 280L603 280M644 279L643 280M119 280L127 280M144 280L182 280M543 280L547 299L492 299L471 300M562 280L566 280M715 280L727 280M465 282C465.292 285.697 467.69 292.283 465.802 295.667C464.276 298.405 459.604 297.36 457 297.9C447.888 299.792 438.293 299 429 299C390.763 299 349.782 302.958 312 298C309.613 306.074 309.452 315.352 319 318.347C328.839 321.433 342.721 319 353 319L426 319C438.087 319 452.907 321.777 463 314L466 318L464 320L460 317M473 282L472 297M50 283L51.0278 297.331L66 300L107 300M663 286C661.003 288.622 656.493 299.572 664.13 298.534C668.061 298 671.101 294.089 675 293M665 287L671 293M312 289C312.408 291.64 313.951 296.942 317 294M314 289L314 293M469 294L469 298M312 295L312 298M594 296L591 299L594 298M595 296L599 300L598 296M638 296L638 300L600 299M643 296L640 300M187 297L188 298M599 297L594 298M659 297L654 299M110 298L112 299M471 298L469 315M564 298L578 300M642 299L650 298M669 298L669 303L666 299M582 299L590 299M646 299L649 300M683 299L683 300M704 300L712 299M126 300L184 300M186 300L190 299M211 300L212 300M286 300L287 300M291 300L308 300M466 300L466 313M548 300L550 319L506 319L466 318M651 300L652 300M660 300L673 320L672 318M715 300L727 300M109 302C107.174 308.18 112.402 327.384 121.307 317.397C123.585 314.842 122.72 305.553 123 302M586 302L574 317L577 313M680 302C681.088 309.494 684.584 319.038 674 319M49 303C50.4821 306.864 53.6306 318.903 59 318M193 303C205.768 319.552 220.114 328.329 238 338C237.711 342.089 242.73 347.282 246 343M651 303L660 307M670 304L679 306L680 305M692 304L693 320L708 319M638 309C639.083 322.128 660.802 322.159 671 318M678 309L680 309M466 313L464 315M310 314L309 319L314 317M58 315C52.8628 321.167 37.874 316.492 40 328L46 329L42 336C38.1458 334.561 35.5752 331.496 40 329M70 315L71 319L72 316M569 316L574 317M677 316L678 319M306 317C302.523 322.364 290.819 320 285 320M569 317L567 319M575 317C586.639 323.212 608.876 319 622 319C627.818 319 633.759 319.797 639 317M108 318L100 320M122 318L128 328L124 326M124 319L178 320L206 319M60 319L68 320M308 320L308 339L330 339L380 339L454 337.296L553 339C552.873 332.831 546.664 314.557 559 321M26 320L39 320M57 320L53 335C65.9023 340.444 69.9051 334.288 70 322M73 320L98 320M108 320L109 320M211 320L240 320M464 320L461 337M715 320L727 320M114 322L127 336C123.503 339.466 115.384 348.352 111 342M682 322L681 325M691 322C691 339.954 685.874 362.66 691 380L692 375M712 322L711.96 348L709.486 357.971L691 359M99 323C99.5888 328.718 102.89 336.857 109 338M217 323L218 324M673 323L680 338L647 339.153L637 338M80 324L79 340M638 324L639 334L641 329M47 326L46 328M90 327L93 339M38 328L38 329M43 328L43 330M129 328C134.317 338.4 151.44 340.072 163 338L163 335M218 328L219 329M124 331L126 329L130 333M40 330L42 332M635 334L635 336M637 334L637 337M640 334L639 337M107 335L108 336M556 335L557 339L591 338L586 338M641 335L641 337M693 335C695.77 339.554 703.092 338.089 708 339M42 336L52 336M127 336L130 336M164 336C170.555 341.543 178.856 340 187 340L236 340M466 336L466 338M597 336L621 339L597 336M68 337C71.5838 340.133 81.9194 348.617 81 338M244 337L247 338M592 338L596 337M626 337L627 340L621 339M714 337C716.739 341.224 722.43 340 727 340M73 338L77 339M109 340L117 340M120 340L122 340M239 338L238 340M304 338L287 340M556 338L554 340M12 340L29 339M96 340L106 339M163 339L177 356L164 358L169 358M240 339L245 340M459 339L459 352M628 339L636 342M638 339L639 340M84 340L89 340M249 340L266 340M554 340L556 359C531.829 360.267 507.219 359 483 359C474.83 359 462.317 361.636 458 353M600 341L602 341M307 342L303.697 374.902L312 382M559 342L560 360C570.902 356.948 569.176 368.637 567 376L552 379.026L504 379L464 379.057L454 376.035L428 379.957L339 380M589 342L594 342M605 342L610 342M681 342C681.783 345.797 685.367 354.02 682.933 357.512C681.04 360.228 674.831 359.001 672 359C662.788 358.997 646.282 362.181 638.005 357.972C634.318 356.098 632.764 352.214 629.741 349.638C625.121 345.702 617.883 343.796 612 343M32 343L33 354L30 349M81 343C84.2928 346.604 95.4371 352.488 94 343M582 344L587 343M233 344C236.299 347.416 244.302 351.961 246.079 356.105C249.714 364.579 233.284 371.08 229 375C233.165 376.123 235.063 375.294 236 371M634 344L634 353M111 345C109.114 348.134 107.626 352.506 112.097 354.397C116.818 356.393 123.135 354.423 128 354.09C136.718 353.492 147.625 356.221 155.999 354.111C159.602 353.203 161.545 350.109 163 347M570 346L570 351L580 345M95 346L107 348M245 346L251 357M37 349L35 351M58 349C53.2466 353.599 46.7992 357.061 40 357.564C33.7179 358.029 31.5921 355.483 26 360M227 349C232.046 352.551 236.443 359.233 243 359M106 350L108 352M214 350L230 352M570 351L569 359M169 353L168 354M171 353L173 357M453 353L454 357L456 353M53 355C60.3922 359.879 73.2249 359.73 80 354C87.032 359.928 101.898 358.966 110 355M158 354L164 357M175 355L173 357M181 355L181 359L183 356M632 355C632.787 357.889 633.253 358.082 636 357M178 356L179 358M456 356L456 360C445.153 354.854 425.17 359 413 359C378.439 359 342.265 355.848 308 358M184 357L200 367M236 357L233 371M78 358L82 358M187 359L205 359.985L235 360M253 358L278 360M165 359C168.449 364.341 180.09 364.005 186 365.475C201.259 369.272 218.622 385.27 231 369M176 359L178 359M184 360L186 359M453 359L453 375M556 359L557 366L556 362M628 359L628 360M714 359L727 360M1 360L23 360M249 360L253 360M293 360L303 360M572 360L626 360M684 360L684 380L668 377L675 366M236 377C240.112 376.986 259.626 375.025 254.914 384.867C252.724 389.44 246.184 388.993 242 389C228.827 389.021 215.113 390.078 202 388.83C159.428 384.779 114.789 387 72 387C60.6314 387 49.3056 386.055 38 386.001C33.3195 385.978 26.1335 387.309 22.1674 384.258C18.4975 381.435 20.9742 377.114 25.0046 376.504C38.9493 374.392 55.8304 376.996 70 373.825C83.3054 370.847 93.1625 362.306 108 362M244 362C246.829 365.973 247.938 368.378 246 373L246 374L246 375M631 362C629.033 369.986 631.253 384.524 643 377M711 362L709.92 416L709.397 436.762L688.603 440.035L687 451L687 479C691.521 478.48 704.22 480.556 707.397 478.096C709.579 476.407 708.995 472.399 709 470C709.029 455.608 701.137 459.773 690 458M25 364L26 374L23 368M170 380C166.143 376.717 153.191 379 148 379C131.356 379 108.793 382.103 94 373C99.1205 366.698 107.474 366.601 115 365.576C133.382 363.074 155.125 362.339 173 368.029C184.068 371.551 190.835 382.371 204 376L200 370M333 380L326 379C333.819 375.076 343.463 374.107 352 372.4C370.592 368.681 391.048 364.388 410 366.715C415.906 367.441 441.301 368.725 437 378M557 366L557 376M29 367L28 371M137 367L139 375M140 367L138 373M241 369L244 371L246 368M204 368L206 372M246 368L246 370M97 372L101 371M118 371L114 375M133 371L133 376M174 371L177 373M244 371L246 373M654 377L660 371M103 373L109 374M152 372L154 375M168 375L166 372L174 374M441 372L439 374M661 380L662 377C665 379.834 667.677 373.934 670 372M441 375L447 375L444 378M88 374L97 375M120 374L119 375M130 374L130 375M143 374L143 376M159 375L165 374M560 374L561 374M72 375C77.3683 378.095 83.0853 379.341 88 375M146 375L147 376M149 375L150 376M193 375L192 376M442 375L444 377M662 377L666 375M89 376C90.8511 378.625 92.1276 378.198 95 377M92 376L92 378M99 376C101.497 380.274 104.885 380.159 109 378M182 377L179 379L181 376M454 376C455.977 382.561 451.311 386.313 449 379M628 376L628 379L631 378M650 381L653 376M657 376L660 379M663 376L665 378M109 380C127.737 382.542 150.259 386.48 169 381.687C172.64 380.756 175.355 378.01 179 377M325 378L316 379L318 377M458 377L456 379M683 377L683 379M713 377C715.853 381.4 722.255 380 727 380M192 379L183 378M299 378L299 379M302 378L304 379M314 378L316 378M563 378L564 378M694 379L710 379M87 379L88 379M95 379L98 379M172 379L173 380M335 380L337 379M451 379L453 379M643 380L650 379M651 380L658 379M176 380L178 380M259 380L277 380M303 380C304.841 383.144 306.882 384.132 310 382M563 380L624 380M627 380C624.81 386.731 623.286 391.035 625 398L622 395M646 382L648 382M685 382C684.565 384.304 683.371 401.068 680 398M689 382L689 419L709 419M18 383L19 399M443 383L442 398L552 399M557 383L553 420L554 417M642 383L644 383M310 385L311 393L291 400L293 398M257 387C257 397.741 258.06 407.844 246 411.895C230.934 416.955 208.854 413 193 413C154.685 413 115.226 414.528 77 411.91C62.3291 410.906 47.7253 411.172 33 410.996C26.0555 410.913 19.877 409.803 19 402M626 392L626 395M312 394L310 398L355 400L441 399M312 396L312 398M626 397L679 399M713 397C715.874 401.278 722.375 399.036 727 399M298 398L299 400L294 399M310 398L305 400M557 398L577 400L616 400M692 398L709 399M274 404L290 399M21 400L254 400M302 400L303 400M316 402L334 415M557 402L558.028 418.4L570 420.707L603 419L602 416M441 403C439.36 408.187 438.38 413.065 441 418L376 420L272 420M629 408L642 403M681 403L675 420C661.519 415.362 642.449 419 628 419C619.52 419 612.692 419.946 606 414L605 415L608 418M617 404L607 414M647 405L648 405M632 408L645 406M618 408L619 408M664 408L663 417M621 409L625 409M613.667 414L613.333 415L613.667 414M431 418L434 417M439 416L437 418M612 416L610 418M674 419L676 417M442 418C468.196 418.431 494.654 419 521 419C526.668 419 544.375 416.101 548.303 420.603C551.29 424.026 546.104 434.577 546 439C519.179 440.406 491.873 439 465 439C453.714 439 441.577 441.827 434 432L437 437M554 418L556 420M571 418L573 418M601 418L598 419M434 419L434 432M713 419L727 419M556 420L557 439L574 433L575 434L572 438M675 420C673.223 429.967 670.885 434.188 663 438L663 439L665 439M688 420L688 439M662 424L666 437M612 426L620 426M575 433C600.416 424.396 627.38 433.929 653 434M439 432L438 435M665 434L665 436M429 435C420.844 444.054 399.226 440 388 440L275 440M432 436L431 438L435 438M573 437L594 439L638.999 439.079L662 437M427 438L427 452M547 440L556 438M670 438L687 440M713 439L727 439M556 442C556 445.676 554.366 454.663 558.318 456.687C566.522 460.888 580.961 459 590 459L648 459C657.568 459 668.98 460.61 678 457L671 444M709 442L707 459M545 443C543.771 446.885 541.036 455.102 545.318 457.972C548.302 459.973 552.651 458.15 554.397 462.148C556.569 467.125 554.432 473.695 556 479L590 479L651 479L681 480C683.598 473.578 680.255 463.865 677 458M425 452L425 459L426 456M432 455L428 458M283 460L380 460L421 459C417.028 464.821 411.216 469.546 413 477C407.806 478.959 405.075 477.527 401 474C394.385 482.01 381.427 478.627 372 479.039C345.38 480.205 318.694 480 292 480M430 458C438.561 460.531 449.099 459 458 459C483.012 459 511.377 455.1 535.977 459.148C544.811 460.602 540.32 476.995 551 479M542 458L544 459M557 458L555 460M418 459L420 461M711 459L727 459M683 460L684 460M524 468L515 474M414 478L501 478.606L512 474L513 475L514 476L515 475M407 478L409 474L412 477M511 474L509 478L514 479L512 478M403 476L401 478M517 477C520.346 481.27 540.064 480.006 545 478M398 478L403 478M508 478L509 478M514 478L516 480M546 479C546.061 486.365 547.847 490.677 553 496C542.202 503.767 522.458 497.762 510 497.785C504.109 497.796 498.383 499.828 493 497M712 479L727 479M505 480L481.18 492.539L472.988 497.982L467 494C465.515 497.566 464.649 498.689 461 497L466 495M683 480L685 495L686 480M400 481L365 494C369.072 501.384 384.773 497.466 392 497.093C403.785 496.483 416.905 499.129 429 499.29C439.728 499.433 450.3 497.008 461 497M554 482L556 498M708 482L706.833 497.833L693 498L649 499L633 498M524 486L522 488M520 490L515 498M381 496L383 492L384 497M473 497L473 492L475 495M509 497L510 493L518 492M596 492L597 492M376 497L380 495L380 495M516 493L518 495M556 495C557.925 496.065 559.684 499.33 562 498.944C564.286 498.563 565.04 496.073 567.111 495.333C572.267 493.492 591.911 493.298 593 499L609 493M365 498L360 498L365 494M476 494L478 494M345 498L354 497C349.545 499.341 341.741 499.56 337 498L341 497M354 496L360 495M473 495L475 495M560 495L565 497M594 495L598 499L598 499M685 495L685 498M303 496C312.453 501.605 326.538 498.087 337 498M470 496L472 496M573 496L571 500L574 499M586 496L592 500M589 496L589 498M596 496L596 498M599 496L601 496M612 498L619 498L604 497M467 497L469 497M557 497L556 498M627 498L621 498L631 499M659 497L660 497M664 497L676 497M464 498L466 499M470 498L467 500M554 498L551 499M565 498L570 499M567 499L569 499M560 516L566 512C570.466 519.659 582.187 522.266 581.677 510C581.497 505.65 577.349 502.352 575 499L585 499M619 498L621 498M355 499L359 499M450 499C443.492 503.961 434.026 504.655 426 505M476 499L493 500M710 500L727 499M298 500L305 500M556 500L557 504L566 508L572 502M685 500L687 519C693.116 517.544 700.359 516.989 706 520C709.097 514.197 708.848 505.252 707 499M568 501L568 504M488 513C479.437 517.391 465.425 519.76 456 517C458.715 511.955 463.905 512.009 469 510.572C477.49 508.176 485.659 504.822 494 502M588 502L591 502M682 503L669 514L676 520M421 506L424 506M559 506L566 509M414 507L417 507M567 510L567 511M601 512L669 514M440 514C431.092 521.533 412.308 517 401 517C375.13 517 348.826 515.605 323 517.043C314.623 517.51 306.563 519.976 298 520M455 518L450 517L456 516M444 518L450 517L438 518M665 515L665 523M567 516C561.105 520.388 553.071 519 546 519L501 519C494.15 519 486.169 520.292 480 517M563 518L574 540M710 519L727 519M587 520L588 520M673 520C664.297 543.587 640.891 532.001 622 532C611.159 531.999 597.789 535.5 594 522M579 521C580.654 527.783 586.705 547.228 576 545M685 522L687 536C680.435 537.94 677.13 535.946 672 532L670 536L675 537M707 522L707 524M640 532L649 524M654 524L656 524M659 524L660 524M668 524L669 524M707 526L710 533M668 530L671 533M701 539L704 533M707 533L706 538M712 533L715 533M719 533C722.592 533.562 724.12 534.422 725 538M663 535L669 537M719 535L719 537M710 536L711 539M715 536L715 537M280 540L324 537.004L482 539L542 539L571 538M586 540L589 540M572 542L572 545M592 545L631 545M684 545L684 546M707 545L707 546"/>
</svg>
