<?xml version="1.0" standalone="yes"?>
<svg width="728" height="485" viewBox="0 0 728 485">
<path style="stroke:#000000; fill:none;" d="M344 21L345 21M356 21C381.258 21 404.191 29.8742 429 30.9606C527.906 35.292 627.987 31 727 31M1 31L189 31L284 30.9105L307 28.5262L324 23M309 28C315.441 32.6334 324.368 31 332 31L382 31C389.632 31 398.559 32.6333 405 28M0 31L1 31M460 52C484.641 66.5995 516.897 61 545 61L727 61M469 58C463.56 61.9129 457.451 61 451 61L416 61L291 61L257 61C253.534 61 246.804 59.4801 244 61M1 61L158 61C185.251 61 215.3 64.5081 242 59M0 61L1 61M223 80C205.77 95.3052 249.061 91 258 91L386 91L424 91C429.148 91 435.444 92.2869 438 87L436 84M492 84C497.049 91.5141 503.688 91 512 91L551 91L727 91M439 88C449.361 94.3469 467.15 91 479 91C484.67 91 489.246 91.4199 494 88M1 91L141 91C164.905 91 191.686 94.3293 215 89M0 91L1 91M506 113C507.92 120.149 501.735 120.988 496 121C485.117 121.022 456.759 126.077 451 115M202 116C192.946 126.525 163.013 121 150 121L1 121M201 118C206.44 121.913 212.549 121 219 121L254 121L394 121L432 121C438.697 121 445.349 122.065 451 118M509 119C529.948 125.64 558.08 121 580 121L727 121M0 121L1 121M515 143C520.675 157.115 554.235 151 567 151L727 151M459 144C460.142 150.747 466.182 150.99 472 151C484.325 151.021 506.246 155.249 516 147M194 145C193.378 150.868 187.984 150.973 183 150.999C171.667 151.058 160.333 151 149 151L1 151M195 149C201.648 152.199 209.766 151 217 151L261 151L398 151C415.517 151 441.811 155.86 458 149M0 151L1 151M520 173L519 168L523.148 179.397L537 181L572 181L727 181M464 175C457.223 184.094 443.183 181 433 181L349 181L1 181M520 177C515.176 181.08 511.096 181 505 181C492.639 181 473.797 184.561 463 178M0 181L1 181M195 203C194.623 216.445 160.022 211 150 211L1 211M516 205C517.875 210.841 523.607 210.989 529 211L567 211L727 211M196 208C203.632 212.275 212.507 211 221 211L267 211L441 211L492 211C499.991 211 509.084 212.565 516 208M0 211L1 211M193 231C188.872 234.142 185.064 238.76 180 240.347C166.067 244.716 145.6 241 131 241L1 241M208 232C213.678 234.181 218.009 238.81 224 240.177C247.526 245.544 276.869 241 301 241L440 241L493 241C501.31 241 509.391 241.981 513 233M461 235L461 238M185 238C192.44 242.66 210.263 243.129 218 239M512 238C517.651 242.065 524.303 241 531 241L571 241L727 241M0 241L1 241M458 263C456.954 269.293 461.353 270.898 467 270.995C477.807 271.181 494.754 274.103 504 268C509.857 272.213 517.063 271 524 271L565 271L727 271M505 264L504 268M181 265C183.176 272.327 190.687 271 197 271L245 271C259.472 271 273.901 269.172 288 268.762C296.8 268.505 306.119 270.768 315 270.985C340.633 271.613 366.359 271 392 271L433 271C440.677 271 448.812 272.046 456 269M280 266L285 268M1 271L125 271C141.207 271 165.002 275.355 180 269M0 271L1 271M458 282L459 300L385 301L195 301M454 288L454 295L457 292M499 295C499.315 302.15 506.503 301 512 301L552 301L727 301M453 296L453 298M458 297L455 300M1 301L135 301L175 300.999L193 301M498 298C487.672 304.76 471.716 299.712 460 301M0 301L1 301M460 301C461.421 318.851 471.971 336.115 471.853 354C471.782 364.822 463.773 373.082 453 373.101C449.579 373.107 446.321 372.791 443 372M494 323C491.649 337.871 473.176 324.846 468 333M1 331L308 331L407 331L467 329M494 328C500.286 332.149 507.738 331 515 331L559 331L727 331M468 329L469 330M0 331L1 331M423 357C421.413 351.299 426.341 348.38 431 346M245 349C243.347 365.66 274.288 361 284 361L415 361M227 350L243 351M440 351L445 357C438.757 361.926 429.661 360.724 422 361L428 372C432.538 363.353 438.281 364.568 446 370M446 351C448.874 363.908 458.097 360.483 469 361M490 352C488.568 361.337 495.687 361 503 361L544 361L727 361M420 357L422 361M248 358C241.944 362.356 234.173 361 227 361L181 361L1 361M417 358L417 361M489 358C483.587 361.573 477.895 361.584 472 359M475 359L475 360M0 361L1 361M420 361L420 363M426 370L429 368M441 384C438.035 394.013 423.176 391 415 391L337 391L1 391M441 388C449.549 393.643 463.217 391.051 473 390.325C488.227 389.195 504.616 391 520 391L727 391M0 391L1 391M289 412C303.933 422.262 317.479 421 335 421L392 421C405.559 421 419.848 422.48 433 419L433 412M460 415C453.455 422.147 442.982 422.138 434 420M296 418C289.154 422.772 279.041 421 271 421L216 421L1 421M458 419L482 421L535 421L727 421M0 421L1 421M425 441C421.42 453.215 409.737 451 399 451L324 451L1 451M440 441C435.529 444.903 431.767 449.714 426 446M423 448L427 450M432 448C438.628 452.768 448.143 451 456 451L512 451L727 451M0 451L1 451M1 481L496 481L617 481C633.894 481 659.922 479.036 672 467C682.273 477.237 680.833 470.19 692 468.458C698.429 467.461 703.818 469.636 710 470.094C713.718 470.37 720.253 468.513 723.396 471.028C726.568 473.566 723.762 478.077 720.941 479.387C715.81 481.772 709.47 480.069 706 476M695 469L695 472M702 469L705 470M402 470L404 470M703 471C700.253 476.178 701.239 479.456 707 481M710 471L711 479M715 474L715 477M719 474L719 476M666 475L678 475M684 476C689.645 479.789 694.377 481.919 701 479M695 478L695 479M706 479L706 480M0 481L1 481"/>
</svg>
