<?xml version="1.0" standalone="yes"?>
<svg width="728" height="546" viewBox="0 0 728 546">
<path style="stroke:#000000; fill:none;" d="M1 18L726 18M609 37L610 40L613 39M1 38C139.985 38 279.103 39 418 39L547 39C565.553 39 590.237 34.7494 608 40M624 39L726 38M589 56L589 60M598 56L599 60L612 59L612 56M464 57L469 57M478 57L482 57M1 58L440 59M450 60L461 58M484 58L488 60M625 59L726 58M489 59L530 59L583 59M424 77C418.039 82.1498 402.763 79 395 79C368.284 79 341.724 78 315 78L1 78M434 77L440 79M489 77L479 79L450 79M501 77L501 80M507 77L520 79L558 79M608 78L605 78L612 79M436 78L429 80M599 80L605 78M641 80L645 78M655 79L726 78M498 79L499 79M625 79L632 79M603 80L604 80M449 95L450 100C459.23 98.151 476.842 102.905 484 97M541 100L560 97M611 97L598 100M631 99L630 97L650 99M659 97C662.057 100.886 671.312 99 676 99C692.723 99 709.285 98 726 98M1 98L315 98.0038L403 99L438 99M517 98L517 100L517 98M499 100L516 99M519 99L526 100M557 99L567 100M579 99L585 99M447 116L448 120L466 116M437 117C433.432 121.899 416.028 119 410 119C383.324 119 356.598 118 330 118L1 118M476 117L470 120M511 117L528 119M544 120L564 117M641 117L646 119M656 117C659.181 121.304 669.014 119 674 119C691.432 118.999 708.604 118 726 118M490 118L490 120L490 118M498 118L512 119M485 119L488 119M491 119L497 120M580 119L586 120M596 120L610 119M622 119L640 120M569 120L570 120M519 137C523.077 139.356 542.211 143.275 543 137M1 138L302 138L436 139M544 139L726 138M444 139L486 140M499 140L520 139M183 153L184 153M1 158L127 158L159 158L170 157L170 155M219 154L221 154M271 154L266 155M172 156L175 155M271 157L297 158L349 158.004L515 159L573 159L596 158M663 157L683 159L726 158M166 158L168 157M184 179L169 163C181.363 155.48 192.496 158.497 202 168L184 179C188.833 183.833 198.629 189.812 194 197L195 194M202 168C205.858 168.032 211.445 170.143 215 168.788C219.796 166.96 221.365 160.859 226.129 159.279C234.54 156.488 246.26 157.49 255 158.09C259.968 158.43 277.75 161.749 269.833 169.802C262.982 176.771 240.382 171.939 231 172.001C224.713 172.042 217.893 174.834 218 182L219 182L220 182L221 182M600 159C616.234 160.733 637.888 161.351 654 159M211 169L223 160M270 160L269 161M265 162L255 172M264 163L266 172M270 163L270 168M194 195L174 175.318L164.66 170.684L166 164L182 179M201 169C203.557 171.559 208.58 175.105 208.963 178.981C209.467 184.079 199.797 186.925 196 185.647C192.073 184.326 188.845 179.845 186 177M217 171L223 173M165 173L144 178M241 173C241.059 189.738 266.759 197.241 280.715 191.397C284.603 189.768 287.428 185.16 290 182C291.047 187.22 287.025 190.161 283 193M269 173L289 180M289 174L292 180M1 178L92 178C107.628 178 125.155 180.405 140 175M163 175C163 186.61 167.049 197.05 179 186L194 198M137 177L134 178M478 177C475.37 180.885 470.239 179.04 466 179.003C454.668 178.905 443.332 179 432 179C400.276 179 368.716 178 337 178C323.704 178 306.754 175.23 294 179M527 177C520.593 182.392 500.424 179.484 492 179M651 177L640 179.001L608 178M602 180L605 178M665 179L726 178M182 179L180 181M286 179L285 182M542 179L591 180M143 192C139.811 188.694 137.265 186.57 139 182C150.35 194.286 130.105 195.461 122 201L138 216L152 202L143 193M181 182L179 186M224 182L230 183L227 184M242 183L237 188L243 192L244 184M221 184L222 184M229 184L236 188M231 187L235 188M180 189C179.999 198.017 177.35 201.645 171 208L177 212M167 192L158 202C162.901 206.901 169.686 217.109 177 217L177 214M243 205L247 208L248 207L242 205C237.329 195.049 246.933 194.094 254 192M257 193C257 197.411 255.88 208.964 259.603 211.996C262.642 214.471 268.487 212.113 272 212.015C285.115 211.652 294.073 213.892 304 204L306 206L297 213M286 193C292.466 195.188 300.151 197.045 304 203M305 194C313.02 202.637 337.724 198 349 198C369.937 198 391.085 197.123 412 198.039C432.821 198.951 455.216 201.182 476 199M121 196C114.038 201.274 96.6075 198 88 198L1 198M187 196C186.423 201.142 184.601 203.26 180 200L180 200M498 197L512 199M542 197C545.222 201.097 557.986 199.812 562 197M590 197L587 199M601 197C603.57 200.727 610.771 199.473 615 199M565 198L562 200M662 199L726 198M162 199L171 208M234 199L235 200M488 199L488 200M527 199L531 199M643 199L648 199M153 202L158 202M180 202L181 203M122 203L125 203M154 203C154 209.474 155.885 231.588 144.025 220.962C142.277 219.397 140.659 217.657 139 216L134 220C132.177 218.2 130.302 215.912 127.995 214.704C116.671 208.77 114.778 230.212 129 230L130 245C133.446 243.885 138.852 241.995 139.704 237.921C140.888 232.253 134.627 227.97 130 230M181 203L174 207M181 205L183 204M122 206L127 212M163 209C163 214.426 159.166 235.012 170 231M249 209L255 213C247.208 221.434 255.739 235.4 267 232L264 214M182 211L182 213L182 211M178 213L178 217M255 213L257 213M301 214L315 222C303.908 233.09 282.502 236.395 267 231M102 218L107 218L73 218L1 218M316 215C325.19 221.066 341.292 218 352 218C380.709 218 409.345 219 438 219L464 219C467.588 219.004 471.655 219.982 474 217M486 217L495 219M513 217L508 220M545 217L543 219M590 217C586.495 221.607 572.667 219.884 567 220M600 217L609 219L607 218M624 217L625 217M643 217L646 219M252 218L252 222M609 218L613 219M627 218L629 220L631 220M658 219L726 219M520 219L529 219M134 220L148 233M599 220L601 219M133 223L133 227M316 224C314.025 228.233 309.469 230.451 307.603 234.455C304.628 240.84 311.061 246.974 315 251C318.722 247.303 321.48 243.812 327 245C321.053 257.709 304.241 252.138 293 252.004C288.553 251.951 282.172 253.287 278.001 251.687C274.514 250.349 272.172 246.848 270 244L263 250C258.127 242.352 253.202 241.066 261 233M160 228L165 232M159 230C161.124 233.604 163.152 234.727 167 233M135 231L135 241M129 246C117.319 248.711 114.556 235.002 125 231M137 233L137 241M158 233L155 243L157 239M269 233L270 243M326 233C333.443 242.032 353.148 238 364 238C399.723 238 435.282 239 471 239M149 234C147.422 239.132 144.564 237.909 141 235M151 235L157 236M262 234L262 244M102 273C97.5944 272.245 94.9325 269.526 95 265C105.659 275.592 118.776 271.207 112.397 255.09C110.628 250.621 103.627 248.299 103.752 243.015C103.924 235.704 113.625 234.956 118 238M146 235L147 236M97 236L99 238L95 238L97 236M158 236L164 237M260 236L260 244M599 236L599 240M608 236L609 236M633 236C630.711 240.151 627.421 239.984 623 240M644 236L643 240L634 240M505 237L507 237M529 237L517 239.014L484 239M542 239L590 239M1 238L95 238M258 238L258 244M654 240L726 238M659 240L660 240M325 242L326 243M138 243L136 244M155 243L154 252M118 245L128 258L114 268M212 262L213 259L214 266L208 259C203.658 259.314 186.417 255.482 197.073 250.105C208.153 244.515 220.113 246 232 246M325 245L318 254M126 247L132 255L124 248M117 249L117 251L113 253M134 250L132 252M143 250C139.98 253.189 135.237 254.162 136 259L138 260M117 251L125 259M133 251L136 254M263 251L276 253M157 252L154 259M189 254L189 259L185 256L193 252M95 265C95.597 257.249 103.078 255.457 109 252M266 253C260.91 258.51 260.91 261.49 266 267L267 254M128 254L133 256L133 256M273 254C273 257.393 269.041 269.536 270.662 271.088C273.465 273.77 283.33 272.141 287 272.05C301.851 271.684 317.985 273.897 318 254M323 254C333.792 258.487 339.68 263.197 330 273L321 264L311 273M337 254C344.441 261.681 362.977 258 373 258C406.535 258 440.567 260.753 474 259M179 256L184 255M92 256C84.2655 260.128 75.3185 258.037 67 258.259C45.1616 258.842 22.9803 258 1 258M190 258L194 258M339 258L341 259M536 259L726 258M216 260L220 260M482 259L529 260M206 260L207 263M209 260L211 260M196 262L192 271M210 269L214 273L213 274C207.543 269.036 213.338 267.584 218 270L222 262M318 262L320 264M199 264L205 263M209 263L211 267M332 269L333 263L334 267M193 264L190 269L192 269M201 264C202.822 267.782 204.839 269.357 209 270M216 265L219 264M118 268L124 274C128.398 260.529 144.053 265.993 155 266M267 267L269 269M122 270L124 270M154 277L157 270L155 277C157.911 277.83 158.464 277.632 160 275M113 271C116.372 274.35 119.024 277.998 124 277L124 274M144 274L143 271L154 277M154 271L150 275M99 273C91.9997 278.004 84.0756 287.71 98.0394 291.732C102.952 293.147 108.122 290.735 113 291.927C120.257 293.702 123.867 299.982 132 298C129.445 292.785 126.416 292.568 122 296M113 273L114 289L121 279M215 273L216 274M272 273C272 278.38 273.387 285.92 271.549 291C270.291 294.477 266.082 296.969 266.466 301C266.791 304.406 271.989 310.795 275.852 309.654C283.243 307.472 278.535 292.709 273 291M283 273C282.999 281.42 280.978 285.001 275 291M314 273L328 273M332 273C343.33 278.389 347.846 280.672 340 292C353.638 300.043 353.262 302.738 342 314C333.561 306.819 332.888 301.772 330 292C314.848 296.479 292.44 285.332 279 295M346 273C352.817 280.527 364.658 278 374 278C396.317 278 418.613 277.466 441 278.015C535.918 280.34 631.086 278 726 278M211 274C205.214 277.939 199.791 278 193 278M326 274L330 291M85 275C81.5475 281.246 70.2997 279 64 279C43.015 279 22.0403 278 1 278M150 277L148 281C159.337 288.297 138.325 297.711 132 298M153 278L152 282M150 287C147.597 284.377 144.38 281.619 148 279M150 279L150 281M139 280L145 280M149 282L147 284M160 282L160 299M127 294L144 283M140 287L148 290M131 291L133 289M113 290L113 291M126 290L126 292M112 292L112 311C102.847 308.43 102 301.228 102 293M158 292L160 296M332 292L339 293M107 312C99.837 312.199 75.166 308.291 88.1427 296.53C90.1548 294.707 92.6992 293.415 95 292M291 293C290.993 302.049 287.249 305.75 281 312L284 316C300.398 305.685 321.865 319.611 338 311M296 293L298 311M334 293L334 304M339 293L337 309M81 294C75.6123 299.98 66.4466 298 59 298L1 298M357 295C357.595 300.273 372.234 299 377 299C399.044 299 420.969 297.503 443 298.94C478.008 301.222 513.91 299 549 299C607.971 299 667.324 299.831 726 298M128 296L127 297M122 299L123 305L126 299M124 299L124 302M350 302L350 304M123 305C117.743 310.275 113.719 314.264 116 322L133 311M354 305C351.491 310.361 345.675 312.121 343.028 317.054C340.342 322.06 343.958 328.554 337.941 331.998C333.711 334.419 327.525 333.25 323 332.508C309.632 330.314 304.002 328.315 304 313M278 309L281 312M91 311C87.7699 313.822 81.9144 317.296 81.466 322C80.3691 333.507 99.2002 333.255 106 331C101.368 324.391 99.0009 321.247 99 313M112 311L115 314M273 311C263.602 320.431 266.139 324.114 275 333L277 331L267 323M280 311L270 322M162 312C162.391 323.916 186.104 320.103 193 315M77 313C74.7506 320.41 64.2793 318 58 318L1 318M101 313L101 323M159 313L161 319M306 313L306 323M317 313C317.001 318.758 317.158 322.457 321 327L324 314M320 313L320 324M349 313C351.126 314.879 354.593 317.073 355.248 320.039C356.692 326.575 347.136 331.621 342 330M342 315L343 316M284 316L285 335C290.316 332.076 304.684 329.163 310 333M268 318L268 322M361 319L491 319L726 318M163 319L173 329M158 320L160 319M116 322C116.631 330.357 124.994 333.372 131 338L135 329M264 323L265 327L267 325M263 327L265 328M321 327C321 337.282 319.063 350.548 333 351L333 334M115 328C114.323 339.43 114.687 346.657 123 355C128.32 349.68 135.418 343.136 135 335M264 329C262.258 335.153 270.1 335.296 274 333M188 330L187 332M106 331L114 331M171 332C175.909 332.589 181.735 336.035 185 331M87 332C69.0862 350.515 102.671 357.805 115 347M278 332C279.735 333.237 281.373 334.35 282.707 336.059C292.366 348.427 267.371 351.468 269 363L270 359M344 332L343.737 351L348.248 361L340 371L347.793 381L341.863 390L344 406L352 400L353 401C346.02 415.965 333.212 407.865 321 411.238C315.39 412.787 310.966 419.034 307 423C302.044 418.044 287.56 408.073 286.631 401C285.335 391.128 305.642 388.037 295 376C298.766 372.234 304.509 368.119 306.397 363C312.058 347.643 295.297 352.778 289 359L285 347M101 333C101.001 340.788 102.44 344.373 108 350M173 333L176 334M302 333C301.998 353.161 274.707 371.069 258 379M310 333L312 345L314 333M312 333C312 345.838 310.15 352.726 325 352L325 371L340 371M256 340L262 334M326 334L326 348M330 334L330 370M75 335L74 339C51.746 333.702 23.8839 338 1 338M286 335L284 337M361 335C363.15 341.476 376.217 338 382 338L448 338L726 338M269 336C269.005 342.732 270.248 346.089 275 351M130 339L120 352M186 340L202 340M184 342L178 344M193 347L217 344M169 350L169 355L187 356L176 351M142 352L142 353L142 352M171 352L173 352M184 352L190 355L194 351C197.142 353.231 199.61 354.628 202 351M334 352L341 351M109 352C109 355.788 108.273 360.514 110.028 363.999C113.035 369.972 120.757 372.748 123.683 364.995C124.825 361.97 123.398 358.085 123 355M308 352L311 352M334 352L334 410M340 352L340 369M77 353C76.3314 361.58 65.4883 358 59 358L1 358M89 353C85.5083 356.612 82.7318 359.051 85 364L86 358M104 353C104.006 361.383 102.921 375.277 115 371M315 353C315.001 362.017 317.65 365.645 324 372M318 353L318 364M320 353L320 366M142 354L132.313 367L134 386C141.008 384.826 146.886 376.4 151 371L157 377L140 387L152 408L167 394M198 354C195.226 360.096 200.574 358.79 204 356M172 355L174 359L172 359L171 358L174 355L175 356M179 355L178 357M168 356L171 358M188 357L195 357M175 358L177 358M347 358L347 362M358 358L726 358M289 359C289.405 367.705 275.975 374.014 277.752 380.771C279.081 385.829 284.928 381.888 286.981 379.941C291.511 375.643 292.963 371.559 290 366M178 365C185.232 366.721 190.343 364.73 197 362M270 363L274 367L269 372M87 365C91.4291 370.17 97.2686 372.526 104 372M272 366L264 374L265 372M126 367L131 367M275 367L276 368M266 368L265 369M97 372C93.5083 375.612 90.7318 378.051 93 383L94 377M266 372L268 374M298 378C305.89 370.366 312.519 373.802 322 371M324 372C324 387.138 324.059 391.002 340 391M98 373L99 385L101 373M112 373C111.994 380.357 110.199 383.739 105 389C110.621 392.528 116.568 394.041 123 392L115 383L113 392M340 373L340 389M153 374L150 377M292 374L294 376M1 378L84 379M354 378L390 378L469 378L726 378M155 379L146 392M346 379L346 383M250 380L251 380M94 383L97 385M245 384L224 400M99 386L104 389M134 386L123 392M139 387L140 387M344 387C350.44 391.817 355.258 393.171 363 391M300 388L304 400C310.721 393.303 314.727 392 324 392L324 410M244 389L237 393M128 392C128 410.161 139.872 408.881 151 420L152 408M195 398C196.265 390.097 203 394.166 204 400M329 392L329 411M112 393C108.886 398.866 111.175 401.757 117 404L117 394M114 393L114 401M169 393L174 397L166 398L165 398L164 398M109 395C101.565 401.797 88.6485 397.984 79 398C53.1119 398.042 27.0159 398 1 398M112 395L112 401M364 397C366.294 395.853 365.778 395.709 367 398L357 400M97 398L100 397M168 398L172 398L173 399C171.814 414.731 150.35 417.133 145.603 430C142.777 437.663 147.051 451.474 157 450.793C161.964 450.453 165.753 445.245 169 442C174.456 447.456 179.825 455.384 188 456C188.119 458.564 191.76 477.496 196.253 473.288C198.401 471.276 194.568 468.885 192.98 468.448C189.718 467.549 187.46 469.157 185 471L170 456L169 457L186 475L185 472M367 398L726 398M215 402L223 399M170 400L170 405M304 400L303 418M197 402L199 405M111 403L113 403M212 403L222 419M118 405C131.062 407.719 131 414.307 131 426L122 422M195 405C192.777 408.419 189.34 407.465 186 409.454C174.205 416.479 165.687 424.409 170 439L188 418L182 414M344 406L344 410M195 408L198 409M196 409L194 413C196.617 412.986 203.518 415.106 197.833 417.779C195.302 418.969 191.782 418.101 189 419M197 410L197 412M190 411L191 414L193 411M345 411L350 437L365 422L367 424L349 442C353.29 446.29 364.794 454.099 363.508 461C362.658 465.561 357.932 468.852 356 473C360.785 473.734 363.136 470.056 365 466M330 412C330 427.931 326.488 448.736 331 464L332.995 456L331.972 442.603L306 439C301.407 443.593 280.248 459.405 293 464L293 454M130 413C121.555 422.133 127.808 432.388 123.968 443C122.093 448.182 116.44 453.4 115.911 458.998C115.635 461.917 118.229 464.077 120 466L121 462M190 413L186 417M198 413L194 418M366 413L367 414M118 414L113 420L112 416L116 417M195 414L193 416M193 415L193 416M198 415L207 435M303 442C295.467 434.467 272.785 415.085 297 415M112 417L114 417M1 418L111 418M122 422L125 418M371 419L496 418L726 418M189 419C189.352 425.898 181.442 436.883 174 435M158 422L169 423M223 422L258 479M124 431C121.591 428.373 119.165 426.394 121 423M307 423L307 438M122 424L122 427M131 426C135.391 430.114 138.419 432.083 144 429M149 427L149 445M135 431L126 433M197 436L193 432L189 436L206 433M138 432C138 440.216 140.314 454.629 152 451M206 433L199 436M353 442C354.911 440.096 356.79 437.894 359.005 436.332C372.212 427.018 371.208 455.943 358.025 446.688C356.175 445.39 354.598 443.578 353 442M109 435C105.504 441.277 88.7517 438 82 438L1 438M210 435C210.601 438.319 208.415 438.987 207 436M178 436C182.222 440.222 200.263 465.281 204 453L197 453M180 438L189 436M278 444C275.592 437.71 281.679 435.556 287 437C281.733 442.209 269.717 453.204 282 459M204 437L206 437M240 439C242.56 437.58 249.661 434.915 248 440M287 437L299 440M350 437L346 441L353 442M376 439L500 438.946L726 438M213 439L220 454M169 440L169 442M251 440L251 444M334 441L346 441M309 442L309 463L304 465C306.998 466.39 307.668 466.36 310 464M315 442L317 463L318 442M324 442L324 467L318 463M338 442C338 449.636 336.366 458.557 341 465L342 442M113 443L119 451M247 443L247 446M171 446C171.037 456.597 178.947 461.947 186 469M252 446L257 459M300 447C300 453.39 301.567 460.688 295 464M352 447C352 450.809 352.706 455.485 350.973 459C349.411 462.167 345.976 464.353 345.377 467.999C344.223 475.022 351.678 475.497 356 473M217 449L211 455L214 454M201 450L202 450M210 450L212 450M191 451L188 456M215 451L218 455M205 452L210 454M120 453L145 452M148 453C148.001 457.832 147.88 467.453 151.028 471.397C156.681 478.478 166.783 463.346 168 459M207 453L210 454M104 454L105 454M123 454C123.054 458.598 123.465 463.509 129 461C133.4 466.319 139.531 473.965 147 472L139 464L133 468M129 454L129 461M142 454L143 466M198 454L198 457M215 454L217 456M220 454L223 459L219 460L230 472M100 455L101 455M170 455L170 456M189 455L195 456M201 455L204 457M211 455L213 455M73 457L71 459L97 456M221 456L219 458M291 456L291 463M361 456L363 464M205 458L207 457M210 457L212 457M1 458L70 458M213 458L218 458M371 458L726 458M118 468C118.74 472.454 111.353 473.932 108 473.995C96.3886 474.213 89.5861 474.556 81 466L114 458M194 459L196 459M223 459L227 466M197 460L197 470M352 460L356 467L361 462M300 462L303 464M168 463L174 469L166 477C170.026 481.94 168.298 500.699 179.995 492.65C182.078 491.217 183.924 489.454 186 488C187.843 491.27 191.8 495.251 188 498L187 494L179 494M370 463C374.846 464.381 377.29 465.068 379 470C386.515 465.705 388.454 472.349 394.259 475.566C401.466 479.56 429.968 481.823 423 497L421 493C420.325 497.352 422.98 498.41 427 498L426 495M126 464L121 466M147 464L147 470M259 464L266 478M282 464L287 469M319 464L315 466M331 464L324 467M129 465L131 465M184 465L185 466M336 465L340 465M338 465L339 466M368 465C369.059 471.859 373.645 475.112 379 470M377 465L373 472M87 474C84.1973 472.691 77.9615 469.23 81 466M130 466C127.609 469.427 127.068 473.025 132 470L132 470M320 466L315 471L316 468M337 468L345 466M376 466L378 468M380 466L381 467M84 474C80.3735 473.378 76.5665 470.987 78 467M124 467L127 470M311 467L311 471C306.631 472.418 306.91 475.087 310 478L314 471M80 475C74.1905 474.979 67.9774 472.055 76 468M307 468L307 470M340 468L341 469M355 468L356 470M384 468L377 475M121 469L115 475M230 469L229 470M326 469C328.101 475.805 333.35 474.917 338 471M387 469L379 475M195 470L192 473M300 470L301 471M317 470C320.351 472.995 321.946 474.296 326 472M174 471L174 476L184 475M205 471L203 473L205 474M305 474C304.593 471.557 304.696 471.883 307 473M160 472L165 477M191 472L188 475M129 473C124.976 475.895 121.753 476.401 117 475M142 473C137.06 479.869 139.708 485.413 145 491L144 483M148 473L149 473M202 473L196 475L196 475M52 474C40.9586 483.151 15.1003 478 1 478M71 474L51.2855 479.899L38 495M128 474L139 476M335 474L345 476L342 486M347 474L345 476M189 475L194 480M200 475L205 476M207 475L214 493M361 475L372 474M415 475L415 477L415 475M174 476L170 480M312 476L321 475M352 476L352 484M363 476C362.898 480.965 357.64 498.543 367 497L362 494M366 476L364 492M383 476L391 476M413 476L414 476M315 477C315.125 488.239 321.294 492.71 331 487M416 477L442 478L503 478L726 478M198 478L202 478M309 478C308.145 484.346 305.173 497.867 316 495L309 490M205 479L207 479M227 480L229 480M48 480L50 480M167 480L169 483M231 482L233 484M268 482C270.815 489.736 276.732 496.503 276.985 505C277.075 508.056 275.568 515.862 278.603 517.802C283.032 520.633 293.804 515.859 298 514C295.727 509.681 295.378 507.509 299 504L304 514L311 509M340 482L341 483M203 483L211 490M183 484L176 493M314 485L313 489M351 485L348 488M50 486L47 488M140 486C129.677 496.286 115.13 497 101 497C94.5663 497 84.6171 494.665 82 502M54 487L50 488M56 487L57 487M147 490L150 487C159.278 496.169 158.487 488.35 168 489M310 489L313 488M314 488L319 495L316 495M142 489C138.986 491.886 137.178 494.062 133 493M144 490L139 495L145 496L145 491M306 490L308 494M149 491L156 494M32 512L34 517C25.8724 515.561 29.7811 503.774 34.5602 499.894C42.9163 493.108 56.4712 498.403 66 492M186 492L187 493M237 492L240 500M322 492L320 494M421 492L421 493M83 496C78.7159 496.636 68.1416 501.908 69 493M69 496C72.086 494.213 74.3159 493.864 74 498M71 494L70 498M152 494L146 497M322 494C332.428 501.501 349.912 495.533 362 499M360 494L360 497M36 498L38 495M67 495L65 497L69 499M75 495L74 496M138 495L139 495M161 495L171 495M309 495L303 507M32 496C23.2425 500.214 10.5757 498 1 498M77 496L78 498M62 497L65 497M146 497L148 505C139.304 510.467 131.899 516.796 121 516.995C116.555 517.077 107.107 513.419 105 517L106 518L102 512M183 497L187 499M299 504C300.264 499.729 302.837 498.241 307 497M367 497L419 498M78 498L81 501M208 498L210 500M434 498L726 498M359 499C361.032 504.257 355.911 511.422 361.152 515.397C365.06 518.36 372.384 517 377 517C390.846 517 404.009 516.815 417.039 514.695C421.561 513.96 425.917 520.187 430.272 516.385C434.335 512.838 431.342 507.125 430 503M190 502L197 505M84 503L100 511M152 503C152.78 505.847 152.225 512.107 154.606 513.968C162.158 519.873 175.585 511.118 178 504M358 503L355 515L358 513M242 505L242 506M298 505L300 507M423 506C421.524 510.441 422.028 512.386 425 516M149 507L152 515M300 507L302 514M146 508L139 514M216 508L220 519M187 511L186 517L182 513L173 515M99 513C83.2954 522.879 52.3349 517 34 517M99 513L104 514M103 513L101 517M306 514C314.041 519.784 336.485 519.355 344 513L347 518L349 515L346 514M351 513L353 515M420 513L420 514M102 514L102 516M430 514L430 515M438 514C441.872 520.733 449.316 518.003 456 518L508 518L726 518M27 515L30 518M99 515L100 516M142 515L148 515M154 515L153 526M349 515C352.401 517.833 354.61 518.896 359 518L356 515M415 515L417 519M21 516C15.4237 519.896 7.62607 518 1 518M353 516L352 517M418 517L420 519M434 516L434 519M27 517C23.8285 520.649 16.2911 530.931 21.3333 535.512C25.473 539.274 37.688 537 43 537L92 537C99.5585 537 107.229 538.587 113 533C125.293 540.235 143.98 538.129 154 528M105 517L100 518M108 517L109 518M185 517L179 517M356 517L356 518M96 518L100 518M109 518L106 519M288 518L279 525L285 534C279.307 536.862 276.216 539.333 276 546M342 518L345 518M413 518L416 519M183 519C183.728 522.085 185.753 525.908 184.187 528.981C179.346 538.479 160.865 535.208 157 527M349 519L351 519M431 519L432 519M415 520C412.864 526.747 405.781 532.353 413 538C412.46 535.101 411.925 534.748 409 535M435 520L439 538L414 537M109 522L124 536M221 522L221 523M277 523L281 535M353 523C351.691 526.15 348.58 530.48 350.708 533.852C353.362 538.055 359.795 537 364 537C375.015 537 397.954 541.539 405 532M283 530L287 526C289.826 529.296 291.768 534.762 296.019 536.397C306.09 540.269 323.217 537.021 334 537C339.794 536.988 344.172 535.224 349 539L346 533M297 529L292 534M195 536L200 531L202 533C197.36 536.737 191.739 537.649 186 536L190 532L194 536M542 531L544 538M121 533L119 535M444 535C448.274 539.871 455.959 538 462 538C477.812 538 494.305 539.566 510 537.714C515.357 537.082 529.437 532.311 531 537L540 537M552 533L551 534M19 534C17.9179 536.747 18.1113 537.213 21 538M285 534L290 534M596 534L599 538M682 534L683 539M686 534L688 538M695 534L696 535M715 534L715 540M142 535L146 546M150 535L160 535M164 535L166 545M182 535L186 536M407 535L409 538L405 538L407 536M557 535L560 540M613 535L613 539M656 535L656 536M662 535L662 539M699 535L699 537M706 535C706.501 538.081 706.085 538.947 703 538L703 538M11 537L6 538L11 537M116 536L111 538M283 536L286 545M576 536L576 537M630 536L631 536M642 536L643 536M678 536L679 536M342 537L346 538M563 537L563 538M568 537L568 539M572 537L572 538M589 537L589 538M607 537L607 539M623 537L623 539M627 537L627 538M637 537L637 538M648 537L648 538M659 537L659 539M671 537L665 539M675 537L675 538M689 537L695 539M719 537L719 538M1 538L6 538M116 538L120 538M403 538L405 538M439 538L442 546M526 538L530 538M551 538L552 538M581 538L582 538M618 538L618 539M711 538L711 539M279 539L283 546M344 539L341 546M630 539L632 539M643 539L642 540M679 539L678 540M573 540L574 540M192 542L194 545M402 542L401 543M14 543L14 545"/>
</svg>
