<?xml version="1.0" standalone="yes"?>
<svg width="728" height="546" viewBox="0 0 728 546">
<path style="stroke:#000000; fill:none;" d="M96 1L105 10L83 13C85.6354 16.1269 88.1399 19.2712 84 22L84 16M108 15L108 22C99.3637 16.3734 118.249 2.87726 124 2M124 2L131 2M131 2L135 4L131 5M154 1L150 5C154.029 7.3913 158.375 9.9649 157 15L156 10M352 1L358 7L356 2M354 2L356 2M359 5C361.942 2.91174 362.731 2.51562 366 4C362.292 6.92017 360.361 9.21729 360 14C352.538 14.2677 348.934 12.4513 343 8C342.012 12.4348 343.573 14.2939 348 15M395 5L391 9C389.58 5.3172 390.52 4.02039 393 1L395 5L401 2M396 1L395 2M397 1L399 3M402 1L401 2M411 1L429 16M415 1L414 2M127 4L112 11M136 4L150 5M346 4L354 4M366 4L389 6M141 6C140.984 12.173 139.905 16.7042 146 20M344 7L345 8M55 11L62 14.1127L72 14C72.0192 19.4478 72.676 22.4369 77 26L74 30L70 28M52 10L54 10M105 10L109 10M385 15L368 19C371.692 22.6004 375.531 26.1335 380.996 26.4475C388.291 26.8666 387.989 19.2087 385 15L391 10L408 18M331 11L340 16C319.257 22.5719 292.365 17.8098 271 17.0185C267.245 16.8794 249.377 17.7277 249 20M43 12L43 18L33 20M115 12C122.234 18.4686 129.854 17.205 139 17M73 13L83 13M335 13L333 15M484 20C502.652 17.6304 528.65 8.57587 547 14L546 22L547 23C552.669 22.6168 554.216 27.8339 557 32L566 23C566.08 28.3004 560.955 30.8135 560.148 36C557.569 52.586 572.132 63.8136 587 54C579.667 44.6608 569.644 42.8244 561 51M79 14L80 26L84 22M115 14L112 32C107.087 28.4657 102.415 28.3943 97 31C98.3464 37.0455 94.2872 38.1887 89 38L90.0386 54.5278L104 61C98.9243 64.1267 92.0808 63.7375 91 57M535 14L532 28L524 22M548 14L563 16M60 15C54.8751 19.0908 50.3186 19 44 19M157 15C159.447 19.2292 163.426 19.5193 168 20M242 18L236 16C240.54 15.6432 243.803 16.7416 247 20M355 15C355.001 25.8256 358.158 26.7484 366 19L361 15M549 15L549 21M553 15L552 23M218 23L217 19L220 27C223.169 23.5317 224.597 21.5816 223 17L236 16M340 16L343 15M378 17L378 25M123 18L116 23M128 18C129.762 23.9079 140.958 26.9518 146 24M133 18L133 22M165 18L165 19M218 19L221 18L221 24M241 19L245 24L247 20M246 19L244 21M366 19L368 19M223 20L223 22M249 20C248.626 34.8808 232.57 44.8412 223 54L240 59L239 56M239 21L246 29M108 22L114 28M223 31L233 22C231.789 29.0917 225.798 32.4403 220 28M236 22L238 23M237 23L237 41M548 23L554 29M131 24C131.527 30.9899 138.47 35.7127 141 27M341 28C343.942 25.9117 344.731 25.5157 348 27C337.111 31.4903 327.219 34.4204 335 49L346 40L353.379 57.0046L354.279 74L361 84C352.55 88.4097 343.394 75.5716 334 74.0386C321.55 72.0067 306.761 79.816 294 79.821C287.848 79.8234 278.799 79.6567 273 77.5563C267.895 75.7073 264.897 71.9748 259 72.0139C252.561 72.0565 239.022 75.5701 241 83L246 77M525 24C532.855 31.9483 534.926 36.7809 547 36C547.56 43.4254 554.067 46.2094 559 51M65 25C68.0572 35.6655 52.5873 39.3962 45 40M72 27L74 25M163 27L167 26C162.935 28.2295 155.431 30.8099 163 35L161 33M167 26L176 30M348 27L354 26M82 27L96 30M267 27L265 34L267 31M386 27C399.472 31.9979 412.469 36.7169 427 36M407 27L407 31M155 28L150 39L139 32M383 28L385 44C389.84 40.7302 394.527 38.2059 395 32M62 29L63 30M532 29L531 30M164 30L161 33M87 31L89 38M222 31L220 42L219 39M263 35L262 31L264 34M556 31L548 35M571 44C570.983 35.5234 571.957 32.2247 581 31M113 32C112.607 42.0762 121.728 53.8155 128 40C131.781 51.5812 139.816 46.8022 147.829 51.0432C151.993 53.2473 152.814 57.9308 154 62M176 32C176.578 41.2041 175.114 44.64 169 52L168 49M178 32L177 38M228 32L225.92 39.8712L231 46M243 32L252 40L255 36L248 34M252 34L260 35M558 32L560 34M114 33C120.604 35.0934 127.704 36.5001 134 33M231 33L242 33M267 34C276.191 44.1794 279.456 34.8297 290 33.2277C295.361 32.413 299.76 35.8467 305 35.9174C313.994 36.0388 322.955 33.0749 332 33M502 33C508.729 40.6405 518.227 34.5233 524.852 41.1481C531.74 48.0362 524.181 58.6448 528.889 65.7623C531.624 69.8965 552.633 69.8739 556.005 66.3997C559.699 62.5951 558.999 55.8292 559 51M562 33L569 35M112 34C110.446 36.4499 108.133 42.5891 113 41M234 34L234 42M159 35L160 45L164 36M275 35L281 35M407 35L397 44C400.061 43.934 401.733 44.1164 400 41L400 41M531 35C530.638 37.2959 529.385 40.5513 530.812 42.6783C535.03 48.963 543.818 42.5513 544 37M128 36L128 40M411 36C414.531 38.8769 416.103 39.5153 420 37M550 36L549 42M80 43L86 37L89 45M98 38L109 36M113 37L113 41M152 37L158 38M154 57C164.982 54.7763 163.985 38.0673 174 38L175 38M505 37L490 40M539 37L539 43M62 38L83 38M162 39L167 38M395 38L398 41M93 39L94 42M150 39L149 50M154 39L152 44M173 39L173 44M347 39L346 40M593 39L598 40M242 40L242 44L240 44L238 43M93 41L91 43M163 41L167 45M251 41C249.472 46.6136 247.729 49.1283 242 46L238 49L243 48M547 41L545 43L549 45M220 42C220.385 46.9859 222.756 48.7018 227 51M403 42L404 42M516 42L519 45C516.265 45.0845 515.915 44.735 516 42M77 43L78 44M84 43L85 43M162 43L168 49M215 43C215.26 46.3041 215.584 47.6197 219 48L219 48M242 46L250 43M407 43L403 45M519 45L528 43M386 44L365 50C371.836 59.5028 368.645 74.0998 361 82M406 44C409.702 47.0894 412.221 53.3796 416.225 55.4861C427.284 61.3044 442.306 57.8215 454 57.9275C466.972 58.0451 480.232 61.0377 493 57L489 54M160 45L162 49M385 45C399.244 53.1366 401.065 75.4605 385.981 85.3966C380.281 89.1507 367.343 87.5102 361 86M392 47L396 45M232 46L229 54M589 46L585 50M153 47L160 54M170 47L169 50M151 48L158 56M234 48L237 48M269 49L258.603 56.037L256 71M216 50C217.563 54.1303 217.718 58.8047 223 58M239 53L239 55L238 54L239 53L248 50L252 55L247 68C244.64 65.668 244.61 64.9977 246 62M351 51L365 50M169 53L165 57L163 55L168 51M303 60C316.107 52.1909 330.246 51.7653 345 51M154 52L152 54M209 52L207 66L201 67L212 89C217.177 84.7132 223.175 82.6418 221 75L219 84M228 52L228 53M343 52L352 64M139 53L134 60M175 58L173 54C182.073 60.9567 205.429 57.59 217 59L220 66L222 64L219 63M265 54L259 56L259 56M149 55L153 59M162 55L163 55M252 55L257 55M343 55L334 73M366 62L368 55C370.877 58.5306 371.515 60.1026 369 64M588 55L601 60M22 60L88 56M227 58L225 59L229 56M232 56L227 59M255 56L257 64L259 58M399 59L400 63L413 56M493 57C505.387 56.0306 517.767 55.8764 527 65M84 57C82.9983 60.4556 79.0109 65.3655 75 64M95 57L95 62M83 61C87.3132 65.8501 91.643 86.7932 99.2894 86.7932C117.139 86.7932 98.2509 47.7691 121 60M163 57L165 64L166 57M245 59L243 57L249 58M114 58C114.182 73.3851 130.576 61.5013 137.157 70.1481C141.132 75.3722 139.536 87.813 132.956 90.3966C125.315 93.3967 108.412 90.6148 101 88M167 58L171 59M261 58L265 69L269 62C272.134 66.8676 269.684 69.1786 266 73M264 58L264 63M405 62L409 58M571 58C570.992 67.6631 565.597 74.903 556 68M98 59L98 62M117 59L117 65M171 59L169 64C173.042 67.0795 184.632 74.465 180.968 80.6821C179.202 83.6771 174.744 85.0435 172 87L167 75L179 73M401 59L405 59M223 60L224 60M231 60L237 60M285 60L286 60M104 61L107 61M409 61L413 63M91 62L88 64M150 62L152 70C156.842 67.5732 159.246 69.5323 163 73L151.599 77.0278L140 91C142.364 93.3362 145.352 97.2856 149 97.3719C158.264 97.5912 168.387 84.2195 169 76M410 62L407 63M50 63L52 67L43 69M75 63L75 64M156 63L162 63M216 63L216 68C213.989 67.2061 208.78 62.8374 211 67M242 63L243 64L240 70L242 63M137 68L142 64L138 71M166 64L169 65M223 64C228.948 69.3703 229.079 75.3922 238 75L239 83M249 64L256 71M50 65L50 67M64 65C65.5661 75.404 87.529 89.6357 97 89M213 65L214 66M53 66L62 68M66 70L72 66M110 66L113 66M168 66L163 73M182 74L196 66M207 66L210 67M220 66L217 69M119 67C119.467 76.8492 116.933 81.0617 110 88M188 72L195 67L197 69L193 73C196.8 74.8912 199.065 75.8481 203 74L200 67M209 68L209 83M245 68L238 75M247 68L252 73M529 68C522.596 72.754 513.675 72.2989 506 73.5864C484.66 77.1663 463.658 77.5161 442 76.9854C429.47 76.6783 415.11 73.6522 405 83C396.297 75.2974 394.238 83.6319 386 87M217 69L219 74M265 69L262 72M531 69L532.028 89.3958L542 89.5108L568 88M541 69L541 89M550 69L550 87M152 71C148.272 74.2352 145.815 75.5397 141 74M240 71L241 72M523 72L522 90L530 91M569 72L605 77.5717L631 80M165 73L167 75M191 73L193 73M217 73L207 74M518 73C518 80.122 518.126 84.842 522 91M149 74L151 76M239 74L241 76M204 75L206 75M215 75L217 82M223 75C229.648 76.949 228.826 83.7044 226 89L222 84M146 76L146 84M176 76L179 83M197 76L191 81M224 76L228 86C237.759 80.431 244.116 95.805 254 93C250.085 88.9822 247.826 83.9927 242 87M226 76L226 82M234 76L238 84M27 80L55 79M654 87L647 85C654.885 79.9267 657.397 76.3718 667 80L648 99L655 98L651 94M64 79L71 78M650 79L647 80L655 78M271 79L276 87M273 79L273 82M647 80L645 82L647 79M77 80C77.5022 86.6621 82.0845 91.8198 89 90M176 80L171 85M216 81L211 86M644 81C641.502 86.1424 641.881 89.2446 647 92L642 96L638 92C634.331 97.9825 631.503 98.8246 625 101M656 81L656 85L653 83M665 81L666 82M189 82C190.734 92.1556 205.283 97.2571 212 89M249 84L253 82M643 82L646 85M185 83C187.599 89.1229 187.193 93.3719 195 93M242 83L244 85M248 83L249 84M259 88L258 83L263 86L264 86L265 85M405 83C404.28 92.5233 394.489 92.6678 388 88M178 84L186 93M237 84L237 86M259 88C255.854 89.4945 252.723 87.6271 256 85M167 85L169 85M177 85L180 93L180 86M216 86C219.173 88.9724 220.851 90.8253 225 89L225 89M219 86L224 90M353 86C347.232 91.381 340.692 92.9642 333 94M664 86C671.342 92.2681 663.057 107.315 654 106L662 100M146 87L155 93M172 87L176 93M236 87C235.103 93.0779 240.674 96.2934 246 94M261 87C262.029 91.0391 260.258 92.6039 257 95L256 92M275 87L276 87M228 89L234 89M104 90C104.085 100.233 104.462 108.472 113 115M280 90L282 98L275 100M136 91L140 91M639 91L641 91M641 91L644 94M74 93L82 91M160 92C164.805 94.983 169.696 94.6444 175 93M404 92L435 100M474 100L521 92M647 92L651 92M181 94L183 93M210 93C214.292 95.5417 217.572 95.1397 222 93M652 93C656.54 93.3495 658.257 94.6815 656 99L656 99M181 94C181 96.8813 180.089 101.862 182.028 104.258C188.273 111.976 191.986 97.9283 192 94M156 95C156.011 108.652 167.999 108.765 168 95M163 95L163 105M166 95L166 105M279 95L279 98M639 95L641 96M659 95L664 96M213 96L213 106C205.4 105.604 194.693 116.113 195.458 124C195.861 128.164 198.984 131.48 201 135L213 133C210.226 129.089 207.81 125.89 203 128L202 129L201 130L200 131M598 98L616 97L622 99M588 98L586 100L584 98L588 98M622 102C612.843 105.88 601.545 106.306 593 101L597 97M619 97L620 98M624 98L627 98M639 97L637 99M637 117C632.279 108.398 640.236 99.6746 648 97M667 97L670 101L664 109L666 107M577 99L584 98M588 99L593 98M595 98L598 99M633 98L634 99M588 99C589.795 106.037 580.103 107.202 580.006 113.945C579.935 118.891 586.555 118.954 590 118.996C595.02 119.058 602.272 120.15 607 118.372C612.483 116.31 614.797 109.908 621 110C613.514 117.155 607.791 110.44 599 108M638 99L640 101M645 99L654 106M710 99L711 100M639 100L637 102M650 100L650 102M665 100L665 102M668 100L668 101M647 101L640 103M695 117L699 114L699 119C690.288 115.668 693.178 102.92 702 102M669 103L667 105M283 104L280 115C269.631 109.566 258.094 104.38 248 113C252.292 119.067 248.603 122.342 244 127L237.682 116.773L202 112M656 104L658 106M663 104L665 104M705 104C710.195 110.508 710.791 136.131 699.99 138.284C693.319 139.613 694.923 127.749 688.015 129.031C684.32 129.716 679.551 138.031 677.549 141C672.646 148.274 673.996 160.339 685 157.057C690.814 155.323 693.582 150.573 697 146L694 147M181 105L168 106M213 106L217 113M190 107L201 113M658 107L663 110M611 112L617 110L617 110M616 116L625 123C625.394 117.56 628.616 109.365 635 111M660 109L655 111M705 109L706 109M652 110L653 110M618 117C621.453 113.19 623.272 110.93 628 114M633 111L635 112M641 111L645 114L629 117M645 113L651 113M664 112L643 130L653 142C653.791 139.763 654.626 138 652 138M245 124L248 113M634 113L631 116M642 113L642 115M701 114L708 116M242 123L245 115M248 115L248 121M280 115C284.694 120.565 284.659 125.41 280 131L276 123M603 115L602 118M643 117L648 115M659 115L660 117L656 119M209 116L208 126M629 117C630.662 125.238 641.97 136.746 650 139M693 117C691.222 119.809 690.112 122.167 694 123L693 119M700 117L707 118M281 118L283 124M623 118L625 118M636 118L636 126M646 119L652 119M661 119L666 132L673 132C665.777 141.476 659.345 137.261 651 131L658 129L658 125M699 119L704 125M702 119L702 123M706 119L706 122M193 120L195 126M649 120L649 122M696 120L694 122M628 121L626 124M695 121L698 124M252 122C245.716 130.92 235.269 134.545 244 146C248.443 141.195 250.686 136.737 245 132M654 122L646 129M206 123L206 125M578 123L583 128L579 126M616 123L621 131L626 124M697 123L694 126L698 125M690 124L687 128M255 126L248 133M615 126C615.14 129.278 615.852 129.897 619 129M620 132L625 127L625 129M626 126L638 131M244 127L244 129M618 127L615 131M691 127L692 128M696 127L698 129L694 131M584 128L594 133C590.323 138.257 579.997 145.638 581.335 152.981C581.828 155.688 584.23 157.6 586.918 157.723C590.725 157.898 594.034 155.054 598 155.279C605.597 155.71 611.057 159.348 619 157L616 154M693 128L695 130M639 131L642 129M658 129L655 134M699 129L700 136L701 133M582 130L585 130M633 131L625 130L623 136C628.294 137.502 631.106 135.601 635 132M280 131C276.355 137.771 265.837 137.405 259 137C258.661 141.4 257.21 143.564 253 145L252 142M615 131C612.485 136.666 617.346 138.333 622 136L620 132M627 131L625 133M650 131L651 131M701 131L705 133M213 133L240 133M666 132L667 136M594 133L603 134C599.388 137.492 596.949 140.268 592 138M690 133L693 138L694 138M696 133L696 137M200 134C193.311 141.256 195.556 148.325 202 155C206.02 148.783 199.218 143.863 199 137M250 134L258 136M603 134L612 134M201 135L201 143M205 135L202 146M281 135C290.807 144.641 275.822 147.893 271.603 153.275C268.713 156.963 270.037 162.322 272 166C281.171 155.11 264.392 152.436 260 144M656 135L654 137M684 137L690 138M696 135L697 136M666 136L664 138M701 136L698 138M686 137L689 139M262 138L260 144M589 138L590 139M680 138L687 138M710 139L710 140M250 143L251 150L254 147M648 143L649 149L650 150L651 147M670 143L672 149M701 143C700.669 147.367 699.531 149.555 695 150M637 145C638.172 147.579 641.483 150.993 641.079 153.941C640.186 160.468 624.555 158 620 158M197 146L200 146M244 146C238.613 151.567 238 155.502 238 163C248.347 163.658 244.622 154.883 239 151M672 147L674 147M698 147L699 149M653 149L649 154L645 149L649 148M654 148L657 157L660 155M698 148L696 150M642 151L645 149M649 149L647 151M251 150C247.17 155.324 247.17 160.676 251 166C255.315 161.144 258.824 154.166 250 153M650 151L651 152M653 151L655 153M205 152L238 152M698 152L694 152M209 153C208.982 159.921 207.797 164.194 204 170L209 165M234 153L235 166L238 163M246 153L248 153M257 153L264 153M581 153L579 159L578 160L578 158M668 153L668 159L666 157M201 154C194.771 160.757 196.781 166.76 204 172M242 154L242 163M252 154L252 163M649 154L655 157M662 154L664 156L663 159L664 160M666 154L667 155M670 154L672 158L669 158M669 156L668 157M273 157L273 163M578 157L578 158M646 178C642.037 179.994 637.357 174.765 635 172L648 157L648 157M590 158C594.742 160.53 599.258 160.53 604 158M664 160L660 163L658 159L662 158M557 199C555.303 185.504 562.192 162.947 577 159M673 159L676 158M660 163C663.711 170.707 670.683 171.376 678 173L690 163M243 164L248 171L232.027 174.603L229 185C223.849 182.145 223.051 178.628 223 173C217.012 173.063 214.241 171.156 210 167M664 164L662 166M639 178C632.25 176.833 633.045 171.579 633 166L639 168M660 165C656.727 167.576 654.974 168.429 651 167M670 165L669 168M235 166C231.46 169.739 229.324 172.081 224 172M655 167L660 170L651 173M251 167L248 170M272 167C268.419 173.585 266.813 179.602 269 187C274.446 181.123 274.523 177.833 269 172M637 168L635 170M660 168L659 169M670 168L674 172M681 168L684 168M576 169L583 177L583 173M665 169L660 170M675 170L679 169M654 170L655 171M664 170L667 173L663 172M609 171L613 172M203 172C204.133 177.285 212.575 175.173 216 173M248 172L268 173M228 173L227 182M249 173L249 185L253 182L260 188L254 182M255 173L255 181M261 174L261 185M565 175C566.317 181.146 573.143 176.653 576 174L583 178M579 177L581 174M639 174L639 175M203 175C199.419 179.238 200.119 189.296 205 183M586 175L584 179M592 175L587 179L586 179M631 175C626.175 183.26 615.334 178.014 608 178.132C602.192 178.225 596.73 180.576 591 179L597 178M637 175L635 177M641 175L641 177M646 177L649 175M588 176L587 179M650 177L648 179M50 178C53.9042 185.365 47.8341 191.495 43 197C38.6521 192.652 27.5613 182.676 39.0401 178.76C42.5772 177.553 46.3371 179.101 50 178M275 178C280.958 189.164 268.497 193.515 271 203C272.999 196.333 268.275 190.157 262 188M574 178L576 178M631 178L635 179M40 179C39.9788 185.008 42.9068 187.881 47 192M562 180L564 179M46 180L46 189M37 181L39 184M632 181L629 190L631 188M215 183C215.836 186.722 222.666 185.294 226 185M645 183L636 200L618 197C617.906 199.987 615.513 205.118 616.902 207.721C622.216 217.685 634.902 207.118 636 200M210 187L206 187L214 187M220 185L225 186M250 185L252 189L248 187C241.549 195.437 236.692 196.538 229 189C223.225 194.643 213.742 191.585 209.604 197.148C207.224 200.348 206.656 217.328 213.927 214.079C220.892 210.967 212.535 205.714 209 205M619 185L621 185M625 185L626 189L631 185M229 186L221 194M248 186L248 187M582 186L601 192L582 210C590.149 212.852 595.371 208.57 600 202L595 199M623 186L624 186M205 187L206 187M214 187L214 206M218 187L223 192M258 187L254 188M269 187L267 189M622 189L618 193L617 192L624 189C624.324 192.202 624.878 192.911 628 192L626 190M627 188L629 190M223 189L222 190M208 190L212 194M462 191L458 193C461.918 187.705 478.172 191.724 483 195L466 196L472 197L478 213L479 210M621 190L623 192M465 195C459.68 197.718 454.147 197.479 450 193L458 191M573 191C580.342 192.383 589.234 195.012 596 191M452 197C449.327 195.816 447.917 194.885 449 192M455 192L455 196M474 192L475 195L478 192M601 192L602 199C604.312 197.39 606.284 195.26 604 193M629 192L633 195L631 195M446 193C444.608 196.377 445.311 197.574 449 197M465 193L465 195M481 193L477 197M558 193C561.713 197.208 564.533 202.63 562 208L562 204M567 193L572 195M618 193L618 197M242 194L252 203L256 200L252 209L251 204M459 194L459 196M561 194L562 195M564 194L566 194M574 194L580 194M607 194L610 195L605 200M625 194L625 196M634 197L636 194M484 195C490.369 200.919 498.113 207.85 491 216L496 213M582 195L595 196M610 195L616 195M222 196L224 200L234 195M236 196C235.3 205.286 226.807 211.19 218 211M485 196L486 199M592 196C588.104 199.896 581.608 204.173 582 210M597 196L600 199M629 198L632 196M64 231C61.3815 235.883 54.5341 236.44 50 234C46.8194 236.353 24.554 242.856 25.3272 235.111C25.9429 228.943 33.9799 226.397 34.0309 219C34.0709 213.18 19.6574 200.926 25.1674 198.086C28.5487 196.344 31.6679 199.93 34 201.84C38.7736 205.751 49.233 218.928 55 218L38 203M43 197C47.7929 204.231 53.059 196.976 59 199.377C63.585 201.229 73.8257 213.592 76 218C60.1127 221.554 52.2416 210.242 42 200M211 197L212 204M273 198C275.183 202.756 271.438 212.143 265.906 213.683C260.081 215.305 255.532 212.522 250 212.106C242.293 211.525 234.545 213.272 227 211M432 208L443 198M451 198L442 206M482 198L483 198M564 198L576 207C572.012 209.24 566.294 210.692 562 209M599 198L597 200M565 199L565 203M39 202L42 200M224 200L224 210M560 200L560 203M600 200L599 201M52 202L66 212M445 202L446 202M262 203L252 210M271 203L271 205M453 203C453.994 205.982 454.719 205.643 456 203L457 203L457 205M600 203C607.63 207.525 598.253 214.263 592 211M440 204L441 205M451 204L448 206M37 205L50 220M566 205L569 208M610 206L610 208L614 206L615 207M454 206L450 214L447 210L451 212M37 207C33.5515 210.448 22.2734 218.566 29 223L29 217M442 207L441 208M577 207L580 208M609 208L604 213L615 212L616 211L615 209M612 208L612 209M430 209C428.089 210.812 423.287 213.712 426 216M581 209C577.013 213.001 573.441 216.146 573 222M614 209L615 209M38 210L36 223M455 210L453 225L460 223L453 216M481 210L491 216M483 210L485 211M222 212C222.001 223.509 228.375 224.444 236 232C227.647 236.859 214.342 235.226 210 226M481 212L485 219L488 216M580 212C580.001 217.19 579.571 220.707 584 224C584.83 221.297 584.984 220.021 582 221M584 212L584 219M591 212C590.999 217.056 591.8 224.473 585 224M615 212L609 216M235 213L236 228C241.712 223.841 241.999 219.658 242 213M239 213L239 224M247 213C247.061 218.503 248.019 222.158 253 225L253 214M601 213L604 213M32 214L30 224M269 214C275.386 218.943 280.519 222.721 274 230L269 216M450 214L452 218M477 214L481 214M484 214L483 215M62 218L67 217M67 216L70 217M256 215L257 223L258 215M73 216L73 217M424 216C420.871 218.897 413.649 225.503 419 229L419 225M479 216L470 233C473.29 236.082 475.46 238.27 480 237L474 230M478 217L482 219M613 217C620.526 220.776 616.299 226.641 611 230.693C603.822 236.182 591.526 228.935 587.722 240.001C585.197 247.349 591.665 260.943 586.397 266.328C583.562 269.226 579.053 267.058 579.466 263.035C579.889 258.919 584.657 257.068 588 256M272 218L273 223L275 220M56 219L58 219M420 226C422.541 222.662 423.453 219.59 428 220M471 220L473 220M246 221C245.643 227.026 243.392 234.483 236 233M207 222L212 232M242 222L245 225M277 222L273 226M475 222C476.536 224.632 477.089 224.83 480 224L477 224M78 223L107 239L103 237M257 223C254.739 235.909 267.811 231.93 275 234.596C278.657 235.951 284.044 241.536 288 240M422 224C428.539 227.928 440.384 231.509 448 231C446.154 227.377 446.464 224.675 451 225M486 223C489.525 225.726 491.113 227.396 490 232L487 225M498 223C497.934 228.605 493.736 239.267 486.282 234.057C483.498 232.112 483.181 227.942 482 225M575 223L592 232M459 224C450.397 233.688 460.049 236.017 469 233L467 226M448 225L454 231M453 225L455 229M617 225L614 245L620 243M619 225L618 226M212 228C215.132 227.66 215.57 230.214 216 233M424 226L425 228M478 226L484 236M420 227L423 229M441 230L445 227M587 227L586 228M66 233L75 228M236 228L236 230M50 233L60 229M418 229C413.133 234.331 416.13 243.038 423 238M495 229L495 231M274 230L274 233M37 232L39 232M416 232L421 237M448 232C448.692 242.156 430.657 239 424 239M499 232L493 236M490 233L488 235M614 233C622.036 239.563 627.028 245.408 621 255C623.896 257.19 634.679 269.711 624.965 270.887C619.466 271.552 615.457 263.904 610.001 266.778C602.11 270.933 608.599 278.917 603.682 282.11C596.944 286.485 598.863 265.878 589.227 277.017C588.148 278.264 587.676 279.529 587 281C592.872 282.551 594.818 279.593 595 274M24 239L24 234M240 234C247.275 241.519 243.314 252.103 255 252M263 234C257.221 240.256 258.861 244.165 263 251C266.628 247.873 266.411 244.207 261 245M450 234L453 234M605 234L606 251L614 245M610 247C610 242.43 608.776 236.739 613 234M22 239L19 237L22 235M60 235C69.4287 244.79 90.7412 236.564 103 239M223 235L224 242L226 235M232 235C232.001 244.656 237.563 250.616 243 239M239 235L239 243M461 235C461.252 242.737 467.262 245.814 474 242M464 235L464 242M483 235L481 237M70 236L70 238M20 239L19 237M48 237L61 239M617 237L617 242M17 240L17 238M261 238L261 243M278 238C278.69 242.256 281.404 244.359 284 240M498 238L502 241M28 253C17.9887 257.343 -3.84719 247.84 15 239M37 239L28 252M108 239L119 249M254 239L254 240M281 239L281 243M477 239L482 251L491 247C485.461 255.039 478.626 259.319 472 250C468.133 253.518 470.067 256.901 475 255M225 242L231 246M289 242L282 246L282 244M466 242L470 246M482 245L487 243M588 242C594.292 242.474 597.736 246.739 602 251L589 255M215 243C219.209 246.628 222.885 249.033 228 246M290 243C296.538 251.464 300.419 246.471 309 247.175C315.187 247.683 320.7 249.982 327 250M409 245L410 249L412 243C414.516 246.618 416.808 247.292 421 246M419 243L419 244M489 243L490 243M470 244L468 251M472 244L480 248M476 244L476 246M478 244L478 246M503 244L492 247M268 245C275.64 249.286 273.599 253.999 284 254C284.724 249.526 287.158 248.073 291 246M467 245L469 247M619 245L624 245M215 246L215 250L209 250M423 246L425 250C417.155 252.043 416.119 258.422 411 249M239 247L245 249M415 247L417 249M475 247L473 251M622 247C617.471 251.383 614.045 254.205 608 251M25 251L29 249M283 248L284 249M407 248L411 254C408.995 255.626 395.196 265.087 403.293 267.909C407.23 269.281 409.96 266.02 414 268L411 264M416 248L413 251M423 248L423 249M455 248L459 252L447.961 259.26L429 256L427 252L420 257C423.676 259.138 425.386 259.277 429 257M466 248L468 251M588 248L593 253M222 249L216 251M488 249L482 255M134 280C123.679 276.743 108.732 298.271 102 305C99.5036 307.495 95.1503 313.716 91.0154 312.654C83.8343 310.81 82.5985 301.456 84.7701 296C90.0057 282.846 95.2421 275.306 103.681 264C107.766 258.529 105.728 250.663 115 251M459 252L468 254M96 251C97.8418 255.322 100.435 256.233 105 256M264 251L269 254L263 260M482 251L482 253M602 251L604 251M93 252C91.8419 256.573 94.8647 258.817 98 262L95 271M23 253L21 257L25 254M463 253L465 253M617 253L620 256M19 254L21 257M95 266C91.3622 262.357 86.6706 259.311 89 254L91 254M269 254L272 254M284 254L290 260M595 254L592 273M445 255L442 258M458 255C459.675 261.46 465.858 258.766 470 256M485 255C491.457 258.117 511.017 259.874 509.391 271.959C509.106 274.077 506.916 276.104 506 278L507 279L508 280L509 281M28 256C32.4066 260.16 37.3847 258.635 43 258.71C56.6458 258.892 71.445 258.423 85 257M448 256L451 256M484 256C484.713 265.466 493.862 277.412 504 277M620 256C620.054 260.562 620.41 265.462 626 264M24 257L28 259M101 257L98 261M456 257L457 257M494 257L488 259L488 262L489 265M25 258L22 259M81 258C78.213 267.283 85.8848 271.885 92 278M84 258C83.9163 265.984 88.6223 269.622 94 275M418 258L421 263L420 269L425 264L421 263M429 258L435 258M624 258L624 264M80 261L83 264M399 262L400 265M19 263C15.1508 272.448 15.3905 284.037 18.314 293.927C20.1328 300.08 26.7368 296.164 28 292M409 263L408 264M611 265L614 264M426 264L436 269L433 268M428 265L430 265M609 264L603 271M398 265L399 272L400 269M427 265L416 282M624 266L621 269M67 267L67 269L67 267M429 267L427 269L431 268M20 279L51.9421 276.923L66 268M409 268L418 274M415 268L420 269M485 270L483 274C481.869 269.912 484.432 269.35 488 268M68 269L87 288M403 269L403 271L406 271L406 269M410 269L407 272M436 269C439.667 272.251 438.17 278.414 445 274L439 270M479 269L481 269M556 270C563.835 271.86 572.63 271.877 580 269M618 269L605 273M427 270L420 273M431 270L433 274L435 270M493 272L496 270M62 271L85 296M65 271L86 292M403 271L401 276M411 271L408 276L402 273M435 271L437 273M29 272L29 276M397 272L399 276M418 272L419 273M627 272C637.502 280.298 649.319 279.325 662 279.015C681.511 278.537 700.59 277.161 720 277M460 275C460.418 280.367 455.895 278.156 453 276C460.363 271.525 470.289 278.521 478.999 277.931C482.294 277.707 485.99 274.437 489 274.913C493.598 275.64 493.811 279.986 499 278M493 273L485 278M505 273L505 275M599 273L603 273M415 274L408 276M424 274C427.692 276.541 429.308 276.541 433 274M447 276L446 282L445 274L452 276M483 274L483 277M132 275L132 278M431 276L439 276M57 277L82 301M52 278C52.1453 290.305 66.8675 299.884 75 308C79.8589 312.849 83.4851 317.609 90 313M399 278L400 280M463 278L464 278M503 278C501.129 284.233 503.484 291.193 510.961 292.472C516.814 293.474 519.132 285.407 525 285.532C532.969 285.7 535.794 291.847 542.17 294.535C545.711 296.029 550.227 294.743 554 295.715C568.397 299.427 584.717 311.64 578 328C574.227 324.813 572.278 322.93 574 318L568 316M698 279L704 280M714 279L726 280M695 280L696 280M707 280L712 280M447 282C448.372 283.593 451.583 284.776 452.5 286.167C454.446 289.116 449.329 293.084 447 293.667C438.458 295.802 429.413 291.113 421 293.333C414.708 294.994 406.792 298.031 400 295.833C397.203 294.928 395.426 288.577 398 291M511 282L511 290C514.182 286.923 516.439 284.354 521 285M513 283L516 284M433 290L437 284L439 286L432 293M439 285L441 284M502 286L509 288M397 285L397 289M449 285L445 293M450 286L450 290M496 286L500 295M500 286L508 293M476 289C480.979 287.111 483.527 290.571 487 294C481.519 296.079 478.894 289.228 474.005 291.06C463.683 294.928 473.893 303.282 467.937 308.849C461.561 314.808 451.379 309.454 445.603 314.028C442.977 316.107 444.182 321.172 442.397 324C438.603 330.008 432.009 334.991 427 340C420.719 333.719 411.309 327.509 411 318C404.112 319.298 392.956 323.38 391 314M500 287L497 290M528 287C524.825 290.137 518.394 292.411 516.032 295.599C509.177 304.853 530.292 303.998 534 304C533.966 294.334 529.612 295.976 522 293M42 288C49.2179 296.832 59.5711 300.973 68 308.147C72.4978 311.976 75.7146 318.179 82 315M460 290L452 294C459.624 286.713 462.793 291.905 471 295M495 288L489 294L506 294M532 288L526 294M511 290L511 292M142 291C139.674 299.098 133.582 294.09 128 297.603C121.265 301.842 115.603 309.385 110 315C107.484 317.521 100.918 322.315 103.086 326.552C104.478 329.27 107.475 330.049 110 328.535C116.212 324.809 120.208 317.658 126 313.318C132.004 308.819 149.915 307.89 140 296M463 291L458 298L467 296M43 292L40 298L48 296M424 294L423 304L421 302M427 294C426.997 297.51 425.995 301.581 426.452 304.999C427.355 311.756 438.386 314.176 443.576 311.052C446.459 309.316 448.46 305.168 451.995 304.627C454.492 304.244 456.364 306.54 458 308L459 299M431 294L436 311M450 294L452 294M470 294L470 301M487 294L489 294M437 295L438 305L441 295M471 295L472 301M524 295L524 303M535 295L539 295M43 296L43 298M417 296C417.252 300.604 425.996 316.707 431 312M456 296L458 296M501 296L492 311C483.07 305.595 481.736 325.068 486 323M543 296C542.927 302.183 541.443 304.79 535 305M29 297L39 299M473 297L481 297M138 298L138 307M465 298L466 305L469 302M560 299C558.566 308.075 550.782 305.144 544 305M501 300C505.902 304.146 509.678 304.827 515 301M18 303L20 319L23 309M494 303L494 304M411 304C414.908 306.931 416.851 307.905 421 305L422 304M60 305C55.9314 308.982 45.0177 314.369 43.7515 320.039C41.6369 329.509 57.7136 332.866 64 330.548C69.4252 328.548 73.9953 322.005 78 318M418 305L415 307M438 305L436 307M466 305L459 308M484 310L483 306L486 312M30 308C30.2174 312.576 29.6746 315.584 25 317M554 308L560 316M416 310C419.125 314.086 424.566 317.043 426.397 322C429.535 330.498 424.406 351.224 440.91 350.819C454.066 350.497 452.31 322.234 437.002 335.147C434.518 337.241 432.295 339.705 430 342M466 311L483 315M487 311L492 312M41 312L43 318M140 323L143 314L138 312C138.002 326.133 130.7 331.3 121 341L124 344C136.357 332.609 158.264 345.74 153 362C150.15 352.728 144.85 347.85 138 341M411 312C413.409 314.938 414.513 315.563 418 314L418 314M140 313L140 321M441 313L441 324M94 314L103 322M143 314L150 316C149.117 319.304 149.043 321.08 152 323L150 316M430 315L427 320M29 316C33.5633 318.795 37.1779 319.56 42 317M479 316L481 328L484 325M559 320L557 323L556 319L565 316L566 319M154 317C157.576 320.266 158.04 325.74 152 323M412 317L414 317M557 317L557 318M413 318L413 324M572 319L573 320M565 322L565 329L568 323M573 324L575 322L576 326M18 324L21 336L20 337L19 338L18 339M155 326C155.468 331.674 156.898 334.379 162 337C159.679 345.794 164.779 348.127 157 356M31 327C31.1075 333.284 30.6307 338.986 23 335M102 327C91.6007 337.399 73.0121 349.352 73 365C68.5961 362.561 69.3396 359.757 72 356M481 329C473.135 335.651 460.699 332.349 451 332M51 331C47.664 334.448 44.4415 337.809 45.037 342.999C45.3703 345.904 48.1465 350.411 51.6968 348.824C55.299 347.214 60.5197 335.483 64 332M105 331C105 347.435 107.252 358.746 95 371L99 375L105 367M108 331L121 341M406 335C406.088 342.443 409.935 345.931 415 351C408.46 353.335 383.638 354.194 386.752 341.174C388.578 333.538 410.371 330.83 416 333.777C419.725 335.727 422.547 339.568 426 342M478 332C481.727 335.449 498.552 342.436 487.927 348.784C485.126 350.457 481.856 351.328 479 353C482.733 357.418 483.448 360.184 480 365L476 361C472.817 364.182 469.344 368.935 465 370.511C459.518 372.499 450.825 371.106 445 371.075C429.132 370.989 399.082 376.322 399 353M456 333C456 343.509 458.877 352.812 445 352M19 334L19 336M109 334C109 347.859 105.851 377.842 129 371C123.639 363.022 122.2 353.472 125 344M156 334C152.532 337.841 150.281 339.828 145 340M24 337L19 338M32 337L44 337M163 337L165 343L164 340M43 338L43 344M92 339L92 369C84.626 364.121 73.1623 361.859 77 375L85 366M152 339C155.518 342.99 156.046 345.8 156 351M23 342L26 352L34 353C31.6222 354.443 30.6377 355.368 29 353M388 342L389 342M426 342C417.586 350.515 419 358.711 419 370M428 342L428 370M489 343L485 349M125 344C132.285 351.285 137.87 360.17 147 351M157 344L160 344M86 345L86 364M385 345C385.419 350.557 388.304 355.221 394 352M424 346L424 370M83 348L83 363M143 348L143 353M418 349L416 351M50 350C45.0218 354.613 41.2679 356.155 35 353M80 351L80 363M165 351C163.854 354.165 164.311 358.921 162.848 361.606C160.018 366.799 154.816 365.31 157 373L161 369L157 365M439 352L439 371M456 352L478 352M26 353L27 354M78 353L78 363M132 353L133 368L138 357M402 353C401.978 359.153 395.376 374.793 387.005 372.654C383.092 371.655 382.873 367.578 381 365M406 353L406 367M412 353L412 370M448 353L448 371M460 353L460 370M467 353L467 368M469 353L469 366M471 353L471 364M473 353L473 362M476 353L476 361M389 354L382 364M154 357L143 356M158 355L161 358M41 356L41 362M480 356L481 363M161 358L161 363M43 362L44 362M152 362C150.325 366.555 151.295 369.878 155 373M479 363L474 364M162 364L161 368M73 365L76 368M384 365L392 372M147 369L143 369C148.718 368.598 154.779 376.483 154 382L153 375M152 367L154 367L154 371M133 368L130 371M92 369L94 371M107 370C107.753 377.807 112.908 374.911 117 371M143 370L137 376L131 371M79 375L94 371M409 371L393 373M145 372L151 376L152 376M417 372C417.012 388.024 433.219 398.888 448 391L440 382L436 392M440 372L441 381M449 372L449 389M464 372L464 391L448 391M103 373L106 373M155 373L153 375M386 373C378.358 378.463 374.567 380.106 382 387M71 377C66.3929 380.425 66.7729 383.51 70 388L75 375M100 375C103.457 377.451 105.178 377.921 109 376M85 376L84.6435 394.111L100 394.001L145 395L143 404L142 396M139 377L147 377M149 377L150 384L153 381M69 379C70.321 389.443 70.1991 395.255 82 395L84 414C98.2014 414.177 115.395 416.78 129 412C127.05 407.015 128.491 404.81 132 401L138 409C134.749 411.372 132.881 412.229 129 411M379 382L380 383M418 382C412.246 390 416.825 392.994 425 393M154 383L149 392C161.545 392.409 160.723 407.936 168 415L167 412M382 384L384 386M382 387C387.956 399.611 401.487 389.511 408 383C410.493 387.672 412.973 406.522 407.682 409.961C398.472 415.948 387.033 408.031 381 402C380.273 407.139 384.582 413.58 390 411M150 385L151 386M385 386L391 392M464 391C469.423 396.604 474.042 410.905 461.981 412.852C449.983 414.789 432.434 408.55 421.318 413.654C417.797 415.27 418.12 425.692 419.603 428.679C421.32 432.135 432.487 432.14 436 432.135C449.027 432.117 471.415 434.025 472 416L482 425C476.988 432.089 473.019 432.065 465 432M149 392L146 394M400 392L414 393M458 392L461 405L462 392M148 393L156 398M398 393L398 410M71 394C62.6027 400.989 65.5608 403.176 69 412C73.8279 407.014 75.8557 402.952 76 396M402 394L402 410M465 394L467 410M73 395C72.9448 399.67 72.5389 402.993 68 405L66 402M128 395L128 403M132 395L132 401M85 396L84 403M138 396L139 406L142 404M167 400L173 400M176 400L180 400M164 401L162 403M429 403C431.899 406.083 425.303 410.693 423 413M454 403L455 403M62 404L68 411M435 404L442 412M449 404L451 404M462 405L464 407M61 406C59.9984 410.076 54.0552 419.003 64 414L61 410M140 406L138 408M61 407L58 410M69 407L68 408M77 407C77.0625 412.27 78.0674 415.894 84 414M162 409L163 411M136 412C141.652 416.065 156.364 415.296 162 412M391 412C391.001 421.37 396.909 423.943 398.821 432C400.034 437.112 396.553 445.593 401.238 449.397C404.274 451.862 409.373 450.812 413 450.921C428.049 451.37 435 449.388 435 433M410 412L419 412M64 414L76 415M131 413C131 427.678 139.999 439.131 156 439M162 413L165 413M386 413C380.119 421.176 385.309 426.547 392 432C387.983 436.155 385.409 438.772 389 444C390.633 442.639 392.789 440.645 391 444M468 413L472 416M387 414L385 425M425 414L425 430M67 415C67.062 420.248 73.7571 432.722 80.5123 426.392C82.9933 424.067 82.0061 419.053 82 416M91 415L89 426L83 425M95 415C95.0412 426.653 105.176 425.93 106 415M103 415L103 421M108 415L109 423L111 415M150 415L155 420M58 416C57.8953 421.072 56.4412 424.924 60 429L67 422M474 417L476 427L479 424M151 418C148.933 425.359 141.939 427.26 136 431M173 419L173 420M175 420L189 420M105 421L107 423M47 423L46 430L57 427M87 425L90 423M110 423L106 424M125 427L120 424L130 427M91 424L94 424M101 425L104 432L102 428M104 426L105 426M52 427C51.7289 430.388 52.8097 430.874 56 430M476 427L471 432M147 428L147 435M60 429L57 431M44 430L45 433L48 431M48 431L52 431M136 431L130 440M400 431L418 431M102 432L104 433M392 432L399 432M410 432L410 450M396 433L396 445L393 443M45 434L48 433M392 434L392 441M477 434C478.97 435.036 481.086 435.964 482.961 437.165C489.431 441.31 487.531 447.792 481 450.892C472.048 455.142 459.299 447.188 450.318 451.603C444.877 454.278 450.662 463.613 446.397 467.227C442.523 470.509 433.325 467.643 428 471C435.206 481.251 434.496 483.453 424 491L423 472C416.242 472 405.238 469.935 399.001 472.314C393.625 474.364 390.776 480.185 394.294 484.975C395.642 486.81 397.407 488.388 399 490C404.587 484.394 406.994 480.955 407 473M390 436L390 441M146 437C146.461 451.169 160.823 446.661 170 450L170 443M481 437L483 446L484 439M388 438L388 441M385 442L386 443M386 443L393 453C383.537 462.782 391.612 463.703 399 471M391 444C393.041 448.372 395.928 452.283 401 451M388 445L388 446M396 445L398 447M483 446L478 451M421 452C421 458.692 419.937 465.351 424 471M428 452L428 469M431 452L448 452M460 452C460 456.832 458.359 465.345 461.028 469.545C467.586 479.866 472.585 475.796 480.91 472.17C484.315 470.687 492.677 465.392 492.079 460.954C491.55 457.03 484.903 454.063 482 452M393 453L396 453M434 453L434 467M438 453L438 467M490 459L489 464M493 465C491.93 469.682 488.949 473.252 484 472M389 466L396 473M447 468L459 471M424 471L428 471M451 472C447.203 475.925 444.33 478.673 447 484L449 476M453 472L453 485L447 485M488 473C497.968 481.063 500.89 482.306 491 492C493.079 493.879 497.539 496.336 498.248 499.209C499.251 503.266 491.998 510.693 488 510.23C484.859 509.866 482.079 506.065 480 504C476.879 507.376 470.846 518.863 476.603 522.874C484.382 528.293 487.996 517.061 488 512M491 477L492 485L496 481L480 504M391 478C387.315 484.061 392.752 487.74 397 492C391.65 494.031 388.79 490.117 388 485M433 479L433 482M471 479C469.705 487.392 454.893 493.828 460.269 503.701C462.392 507.602 467.797 508.68 469.972 513.001C472.005 517.037 469.812 521.285 474 524M471 484L481 499M453 485L461 492M492 485L480 497M448 487L455 488M423 491C418.898 495.436 415.104 504.743 417.328 511C418.37 513.933 423.793 517.21 422.654 520.617C421.344 524.535 410.895 525.112 409.752 520.768C408.766 517.023 413.752 513.275 416 511M400 492L418 496M490 492L491 492M392 493L380 504L381 501M378 499L377 500M435 499L434 500M450 499L449 500M505 500L569 500M628 500L635 500M643 500L646 500M648 500L687 500M385 501L383 503M379 503L377 505L381 504M493 512L501 504L503 506C499.22 509.743 496.325 513.756 491 511M377 506C374.614 509.118 373.475 513.708 370.581 516.308C360.056 525.763 345.503 530.064 332 533.027C323.388 534.917 319.21 538.268 310 536M479 507L479 523M474 509L471 512M483 509L483 522M470 512C466.101 515.878 459.207 519.158 462 525L438 528M486 512L486 521M415 514L416 522L418 515M492 514C492.051 518.311 492.466 520.373 496 523L488 522M494 514L494 521M503 522L498 524L497 523L498 514C502.929 515.028 503.528 517.552 505 522L502 515M468 516L470 524M373 518L369 528L365 520M411 518L411 523M421 518L421 522M430 518L428 520M458 518C450.297 522.111 438.594 520 430 520M466 518L467 524M274 520L350 520M352 520L359 520M464 520L465 524M511 520L543 520M417 521L419 523M462 521L463 522M506 522C511.402 527.159 516.424 524.621 523 524.093C531.088 523.444 538.971 524.834 547 525M360 524L368 528M504 524L506 525M462 525L464 525M359 528L362 527M371 529L387 533M417 531L428 529M685 531C686.913 539.404 676.788 537.529 674 532M670 532C667.649 539.745 650.967 537.999 644 538M709 533L710 533M676 536L669 537M701 536L701 538M715 536L715 537M711 537L708 540M725 537L725 538M695 538L696 538M315 539L313 540M322 539L323 539M288 540L295 540M307 540L309 540M325 540L327 540"/>
</svg>
