<?xml version="1.0" standalone="yes"?>
<svg width="728" height="546" viewBox="0 0 728 546">
<path style="stroke:#000000; fill:none;" d="M468 15C463.295 11.0376 460.705 11.0376 456 15C465.089 19.8496 466.91 11.7645 475.001 11.0587C491.729 9.59937 509.203 11 526 11C593.052 11 660.012 10 727 10M73 36C65.3086 37.9526 52.2543 39.2713 54 50L89 27L86 23C94.0714 17.506 104.6 17.8712 114 16.5764C138.496 13.2025 162.684 9.7962 187 17C186.28 21.9347 189.558 23.0234 194 23.8881C205.844 26.1937 215.962 27.7072 226 35C231.587 28.9575 227.396 17.1204 232.603 13.0278C235.399 10.8292 241.66 12 245 12L278 12C320.018 12 362.008 11.8346 404 11.0247C413.03 10.8506 425.22 8.96008 433.942 11.3179C441.452 13.3481 442.623 20.0042 452 15C447.523 11.2134 443.644 10.3325 438 12M389 12C391.954 17.8565 397.195 16.8065 403 16.9498C414.322 17.2294 425.675 17 437 17M391 12L391 14M399 12L399 16M379 13L391 17M637 14L639 16L623 17L589 17L469 17M641 13L640 14M633 17L637 14M452 15L456 15M385 16C375.554 23.54 353.974 20 342 20C306.277 20 268.49 16.4553 233 20M640 16L642 16M187 17C196.506 17.1962 212.146 17.0651 215 28M641 17C644.662 22.3655 657.09 20.0073 663 20L727 20M386 18L383 19M638 18L640 20M388 19C389.981 31.6957 411.172 25.4344 419 35M638 20C634.9 25.742 625.846 33.9105 619 34.5216C612.057 35.1413 605.241 30.5095 598 31.2894C591.413 31.9988 581.696 36.552 576 33C565.965 41.4865 550.643 34.1683 539 40L543 57C537.819 58.6961 531.506 57.0003 526 57C509.038 56.9989 496.525 58.8233 483 47.1813C479.164 43.8796 474.866 42.3217 474 37L521 37L537.397 36.3071L539 24M87 22L90 27M91 26L107 23L103 23M114 22L115 22M212 22L208 26M85 23L83 28M108 24L112 23M98 25L102 25M676 25C677.358 31.579 686.358 53.4579 680.678 58.3341C677.757 60.8425 673.418 59.2863 670 59M404 28L404 39M419 32L419 33M616 34L621 34M423 35L426 36L419 36M444 35L448 35L437 36L443 36M449 35C454.719 33.1821 464.757 33.0703 470 36L471 36L472 36L473 36M578 35L581 34M620 33L618 35M420 34L422 34M423 35L421 37M228 36C245.726 40.993 263.75 40 282 40C307.336 40 332.675 40.047 358 39.7099C368.814 39.5659 392.232 44.6424 401 38M426 36L437 36M467 36L468 36M578 36L573 37M230 37L234 45L233 42M538 37L540 39M69 38L69 41M409 38L420 40M582 38L581 39M406 39L408 40M444 40L448 40M460 39L458 40M615 39L619 40M621 40L623 40M625 39L628 40M676 39L676 40M682 39L682 40M631 40L674 40M687 40L727 40M243 41L242 48L246 50L246 44M57 42L61 46M229 42L230 43M403 42L404.603 58.3966L424 60M363 45C368.807 42.2217 373.701 43.7103 379 47L370 52L365 46L356 51C358.862 53.5772 360.239 54.9724 364 54L360 50M543 57L561.66 56.8025L575 43M55 44L58 47M69 44L65 45M236 45L242 48M360 47L363 45M367 46L368 48M371 49L374 47M360 47L358 49M380 47C377.135 53.9824 371.839 54.7486 365 55M364 48L364 52M382 48C393.692 54.9102 383.498 55.8325 376 55M384 49L378 55M647.062 49.7431C652.612 47.4224 663.17 54.3336 655.466 58.3966C648.665 61.9832 638.119 53.4827 647.062 49.7431M54 50L45 66L47 64M246 50C264.029 67.8279 304.244 60.0756 328 59.9992C338.785 59.9646 350.701 62.8324 356 52M377 50L378 51M386 50L381 55M489 50L488 51M492 51L495 54M370 52L370 54M562 54L564 54M496 54L498 56M558 57L562 54M252 56C248.152 63.6715 260.594 71.0515 264 63L262 65M360 56L356 58M617 58L624 57C619.59 60.6057 610.404 61.4747 606.762 66.2515C603.208 70.9114 608.417 81.4526 614.856 78.6235C619.271 76.6834 621.552 67.2533 623 63M389 57C397.232 59.3442 400.327 63.0362 403 71L404 67M653 59L656 58M348 59L350 59M399 58L398 59M512 58L525 76L527 72C531.883 76.5145 535.554 76.9993 542 77L541 59M660 58L659 59M506 59L511 62M690 74L688 76L684 59L690 59M692 60L695 60M697 59L727 60M634 60L635 60M640 60C647.034 64.1237 639.662 73.529 645 80L646 79L646 78C639.889 79.2809 633.589 80.2413 628 77M349 61C345.105 64.1721 334.574 78.731 347 74L342 69M688 61C696.159 66.5816 706.708 72.7659 691 76M39 68L37 62L41 66L33.7708 81.7407L25 90C20.3203 82.8623 26.0303 79.211 32 76M561 63C559.337 66.3965 555.998 81.5296 551 73L557 75M626 79C626.135 72.4783 627.992 68.1217 632 63C636.836 67.1597 636.996 71.9586 637 78M656 63C660.463 68.5306 664.367 68.2805 669 63M42 66L44 65M344 67L342 69M262 68C274.256 84.6516 296.376 80 315 80C321.218 80 330.887 81.8733 336 78M405 68C407.214 72.3539 405.269 75.7759 400 75.946C382.973 76.4955 364.438 74 347 74M393 74L401 69M660 70L656 79M403 71L403 75M436 75C429.957 78.1649 427.709 72.233 431.233 72.2021C433.69 72.1806 435.987 74.7873 438 75.919C446.836 80.8854 452.274 86.9091 442 95C444.331 100.285 444.429 103.226 441 108C447.628 112.768 457.143 111 465 111C483.804 111 503.358 111.872 522 109.424C529.015 108.503 542.413 111.524 545 103M660 72C666.746 78.5272 679.482 81.0505 688 76M554 74L543 78M661 75L660 78L665 77M267 76C263.701 83.0384 272.236 82.0779 274 88L269 85M406 76L427 77M526 76L530 77M595 97L598 103L591.422 95.7384L581 92C588.316 83.6479 594.41 76.0255 606 76M654 76L655 77M658 76L659 79M691 76L694 77M277 77L277 78M401 77C400.997 80.9979 399.263 87.3488 401.067 90.9406C403.469 95.7222 408.728 94.1174 413 94.0146C421.698 93.8055 434.223 91.8495 442 96M597 77L597 79L600 79L599 80M607 77L600 79M634 77L634 79M640 77L640 79M689 77L692 78M528 78C529.31 86.4595 536.016 86.2965 543 85L544 99M543 78L544 84L548 78M594 78L596 80M715 78L716 78M727 78L727 85M646 79L655 79M695 80L698 80M700 80L705 80M709 79C720.248 81.6621 720.727 86.848 714 96L726 98M719 79L726 79M139 80L159 80M590 80L592 80M617 80L619 98L625 83M654 80C651.966 84.362 645.973 88.0796 645.466 92.9213C645.056 96.8423 649.765 98.7913 652 96L648 97M690 80C686.206 83.1484 681.887 86.6546 677 87.8472C669.044 89.7886 657.231 88.9402 652 96M688 82L690 86L684 86M168 83L170 87L175 87C165.939 99.7108 144.386 94.3528 135 85C134.197 87.6135 134.074 91.5903 131.683 93.338C128.817 95.4329 124.924 92.5222 125.75 89.1636C126.268 87.0573 128.929 85.8021 130 84M341 83L348 90L347 91L344 90M689 85L705 83M24 84L27 87M676 88C677.741 85.2342 678.904 85.1133 682 86M132 85L134 87M126 87L129 88M170 87L170 91M690 87C687.617 91.1929 682.129 90.2205 678 89M129 89L133 93M275 89L277 93C284.095 89.1559 290.52 91.9327 298 93.5756C311.219 96.4791 334.078 103.898 347 99M347 89L346 90M690 89L706 95C703.62 96.8245 693.665 97.9145 697 95L697 96M704 98C709.349 97.3159 711.87 93.6948 714 89L720 96M349 90L356 94L352 102L354 102L353 103M25 91C22.8124 93.804 16.3893 97.6194 15.9213 101.096C15.1071 107.143 22.077 105.524 24 102M644 91L639 98L631 97C635.929 99.5037 640.712 99.6962 645 96M692 91L693 100C681.159 96.121 664.711 102.212 655 94M105 92L90 102L94 99M346 93L351 93M646 94L642 94M649 95L653 93M719 93L717 97M43 94L60 94M135 94L141 94M171 94L211 100M252.001 95.1759C261.421 91.9071 260.834 107.436 252.001 109.654C243.044 111.904 245.183 97.5417 252.001 95.1759M277 94C286.151 101.539 297.81 100 309 100M356 94L388 94.054L403 95M646 94L648 94M669 94L671 96M685 97L689 94M712 94L714 96M109 99L126 95M623 95C627.131 98.1499 635.809 110.234 631.469 115.682C627.606 120.532 610.514 118.835 606 116L605 117L605 118L607 119M706 95L708 95M278 96C273.892 101.882 278.68 103.843 283 108L285 102L281 106M628 98L631 97M643 96L644 97M711 96L715 98M399 97C399 105.102 399.027 109.092 405 115C395.076 118.049 377.393 115.446 367 113.852C362.148 113.107 359.979 109.107 355 111C357.509 114.259 359.057 115.504 363 114M606 97C605.059 101.101 609.14 100.046 612 99L608 97M625 97L625 102L626 99M646 97L644 100M689 99L692 97M310 98L311 98M343 98L345 98M598 99L601 99L598 102M604 101L605 98M624 101L619 104C617.607 101.088 617.221 99.8569 620 98M649 98L647 100M652 98L657 98M693 98C693.648 102.814 694.391 110.669 697.728 114.41C703.492 120.873 717.217 118.891 723 114M313 100L322 100M353 99L353 101M595 100L597 99M612 99L617 99M621 99L623 99M708 99L712 99M285 100L285 102M346 100L349 102M553 100C556.359 102.93 557.141 105.027 555 109C552.289 105.707 551.362 104.024 553 100M627 100L629 102M90 102C86.7874 104.524 79.3679 106.89 78.3372 111.118C76.3065 119.448 87.8856 120.243 80 129C76.6646 124.486 75.2659 121.156 78 116M647 102C648.855 107.703 651.471 112.557 648 118L649 119L652 117M220 103L221 103M354 103C368.481 104.132 384.862 104.785 399 108.004C402.301 108.755 404.781 111.949 408 112.378C410.628 112.729 412.439 110.153 415 110.201C420.697 110.308 432.949 121.534 437.824 110.845C439.3 107.609 435.14 107.113 432.995 107.019C426.948 106.755 423.454 107.882 419 112M568 116C571.113 114.188 571.887 114.189 575 116L571 119L563 110C570.627 104.548 582.755 103.397 592 103M598 103C601.623 110.883 591.245 112.584 586 116C591.32 119.636 598.368 120.273 604 117M14 104L19 108M276 104L278 104M109 113C104.113 113.073 101.317 109.828 102 105C114.379 117.335 127.073 110.783 142 106M149 105L154 108L153 105M155 105C156.698 109.408 157.857 111.954 163 111L157 107M355 105L356 108M618 105L613 116M277 106L282 109M358 106L359 109M414 106L418 106M552 106C546.018 109.427 542.867 112.765 551 116L548 118L547 116M384 107L377 114M440 107L441 108M558 107L563 110M560 108L564 108M244 108C244 116.837 241.776 129.084 246 137C255.332 127.668 264.192 122.326 253 111M364 108L364 112M391 108L394 109M17 109C16.1347 113.447 18.1858 117.977 17.2608 122C14.7861 132.763 3.21972 137.666 11 149C15.4344 143.756 15.4345 140.244 11 135M442 109L440 111M555 109L566 116M567 109L567 114M283 110C289.319 125.96 318.06 120 332 120M399 110L394 115M560 110L558 112M392 111L389 114M164 112L217 113M556 112L561 116M43 113L60 113M98 115L104 114M409 114C413.329 116.31 416.671 116.31 421 114M607 115L611 114M433 115C437.055 120.726 433.242 141.144 424 134C426.862 131.423 428.239 130.028 432 131M591 115L591 117M697 115L696 120L698 116M398 117C398 122.573 398.92 128.795 393.941 132.643C390.746 135.112 386.735 134.047 383 134.004C374.013 133.901 356.715 137.367 349.005 132.397C337.298 124.85 348.807 117.696 357 116M575 116L586 116M635 117L631 118M550 118L551 122L557 117M574 117L588 119M633 119L638 117L639 118C635.749 123.94 642.457 130.454 638.393 135.837C635.458 139.724 629.205 138.007 625 138C612.726 137.98 596.185 140.624 585 135L600 121M639 118L648 118M651 120L655 117L656 118C651.679 125.005 658.171 131.113 663 136L657 138L662 137M726 120L726 117C725.337 121.917 722.789 124.055 727 128M79 118L80 124L82 121M258 118L258 123M572 118L575 119M586 118L586 119M605 118L603 120M656 118L694 118M701 118L698 119M721 118L724 118M530 129L545 119C549.715 132.927 541.099 139.74 530 129C528.814 133.492 529.981 136.968 535 135M551 119L553 121M155 121L145 132C144.469 126.338 149.29 120.915 155 121M571 120C569.133 126.258 565.772 136.111 571 141L570 138M699 123C702.335 139.158 710.149 138 725 138M66 124C62.8913 135.073 52.1826 133 43 133M80 124L78 126M166 124C179.588 136.112 200.151 133 217 133M330 135C326.538 136.742 320.538 133.716 324.377 132.34C327.398 131.257 342.215 141.685 340.145 130.005C339.916 128.71 339.321 127.276 339 126L340 126L341 126L342 125M335 128L337 131L338 127M343 127L341 129M288 128C290.785 141.987 311.169 142.055 322 137M540 134C536.986 131.114 535.178 128.938 531 130M549 128C554.002 138.599 560.299 130.893 568 134M80 129C84.3744 139.554 91.1764 145.267 99 153C94.8937 157.106 88.8783 165.993 83 167.248C69.86 170.055 79.81 154.201 83 151C75.3617 143.356 72.829 140.27 81 132M329 133L334 129M337 131L340 134M145 132C143.646 139.159 142.709 159.349 134 161.861C129.695 163.103 125.228 158.068 121 160.417C111.912 165.466 107.204 177.729 98 182.556C96.1876 183.506 91.1382 182.05 94 181M646 133C647.277 140.582 655.079 136.319 659 133M393 134C400.208 138.273 415.275 134 424 134M562 134L567 140M289 135C284.365 140.486 285.868 151.601 294.058 153.833C300.749 155.657 310.052 154 317 154L366 154C372.59 154 385.208 156.461 390.981 153.227C397.038 149.832 396.131 142.86 396 137M342 135L349 134M553 135L544 136M560 135L565 140M565 135L567 135M579 135L584 135M587 135L586 136M632 138L637 137M694 138L699 137L663 140C672.436 147.532 691.196 143.41 703 145L706 138M578 139L576 137L582 137M583 136L587 138M640 136L645 138M663 136L667 138L664 139M246 137C246.037 147.484 260.384 152.073 259.534 161C258.991 166.706 250.983 172.988 246.318 167.847C241.912 162.992 243.169 150.305 246 145M530 137L522 139M571 137L572 138M575 140L576 138M703 137L698 138M141 172C134.647 162.2 151.519 151.435 158 145.001C160.098 142.918 165.915 135.909 168.953 140.453C172.063 145.105 163.707 151.292 161 154C149.276 165.729 136.714 176.261 125 188C120.018 192.992 111.926 206.223 126 204L121 203M548 138L548 152L552 152C552.382 154.176 553.395 157.311 556 156M561 138L559 152L571 141M572 138L574 138M637 138L645 138M656 138L657 138M661 138L663 140M702 138L704 140M431 139C431.68 144.378 433.491 158.382 424 153L430 153M582 139L584 139M590 139L592 139M66 143C63.685 158.003 42.3164 155.392 37 144M518 143C516.511 148.657 519.519 151.806 524 155L519 147M643 143C644.107 147.047 648.012 153.031 643.809 156.397C638.967 160.274 626.906 158 621 158C600.142 158 570.225 163.858 553 151M703 145L720 159L719 160L715 153C707.327 160.428 703.489 157.051 694 157.001C678.142 156.917 663.958 157.806 649 153M89 146L84 151M185 146C196.221 151.248 205.733 153 218 153M705 147L702 158M11 149C10.3423 157.738 3.68854 160.086 11 168C15.2163 163.01 15.2163 159.99 11 155M516 150C517.033 153.606 518.176 155.27 522 155M554 151L558 152M548 152C546.12 155.982 548.056 157.102 552 156M703 152L700 157M100 153L122 159M400 194C394.536 196.098 392.703 191.924 394 187C396.368 189.39 399.348 193.704 403.09 193.704C412.627 193.703 416.67 180.798 413 174C427.112 174.237 420.999 160.403 424 153M719 153L722 160L722 156M291 154C285.435 159.752 284.349 162.883 290 169L294 155M391 154C397.492 158.973 413.225 154 422 154M515 154L519 157M556 154L556 156M644 154L644 155M651 154L654 158M526 155L545 155M648 156L649 158M651 156L649 158M707 156L707.022 165.697L687 175C690.896 177.625 692.301 176.48 696 174C699.23 180.975 708.177 177.564 713 174L725 178M720 156L721 157M111 157C104.7 163.3 93.7107 170.572 93 180M161 177C168.292 183.438 171.482 189.471 168.682 199.956C167.373 204.858 158.467 208.035 155.013 203.483C152.103 199.648 150.721 180.385 154.028 176.696C156.196 174.277 161.897 174.854 165 171.966C172.868 164.644 177.806 154.584 189 161L174 177C177.806 178.687 183.776 181.978 188 181.612C193.117 181.168 195.221 175.96 200.941 178.304C208.919 181.573 202.288 190.551 195 187C198.173 184.028 199.851 182.175 204 184M551 157L556 159M648 157L647 160M395 158C395 163.189 396.131 170.108 390.941 173.307C385.931 176.396 373.885 174 368 174L310 174C302.292 174 289.808 171.405 284.337 178.178C280.822 182.531 286.796 193.466 292.019 193.941C316.569 196.175 342.338 194 367 194C375.094 194 388.141 198.354 395 196M550 158C547.896 164.414 545.279 167.539 549 174L542 180L537 175L544 174L545 169M558 158L560 158M652 158L650 160M712 158L715 158M724 158L726 158M77 159L77 163M645 159L646 159M186 160L186 163M650 160L658 174C650.266 180.445 637.565 178 628 178L554 178M722 160C720.55 169.094 708.537 163.238 711 174M135 163L138 166M510 163C504.082 177.581 529.286 175 537 175M37 164C42.2761 175.305 62.1266 177.797 66 164M549 164L549 173M202 165L218 173M397 166C399.341 174.328 405.665 174.004 413 174M414 173L422 169M244 168C244 176.678 245.234 184.545 245.987 193C246.231 195.745 246.543 200.283 244.397 202.386C242.147 204.59 233.528 204.858 232.921 200.771C232.472 197.746 236.179 194.883 238 193L239 203M11 169C12.3959 173.22 16.353 177.004 17.2508 181.015C18.1259 184.924 14.4752 187.793 16.1173 191.96C18.7759 198.706 27.5904 199.959 22 208C25.3074 212.883 22.6964 218.673 25.6219 222.776C31.7331 231.347 45.1679 234.168 46 246C41.1496 243.676 37.447 241.804 39 236M290 169L290 173M507 169L512 175C508.606 175.145 502.362 171.366 504 177L507 177M253 171C260.569 178.823 259.365 183.547 252 191C255.833 194.847 260.199 198.247 260 204L257 198M506 171L506 173M146 172C151.253 176.131 148 196.308 148 203L153 198M150 173L153 174M713 173L713 174M402 174L391 175M544 174L546 176M651 177L653 174M659 174L660 179C661.733 177.106 662.092 176.582 660 175M689 178C686.852 177.618 684.811 176.823 687 175M699 174L702 176M703 174L702 175M12 175C7.41195 180.502 9.38354 183.225 14 188M657 175L659 177M664 175C670.817 176.628 676.661 178.442 683 175M694 175L696 178M393 177L394 187M503 177L498 180M712 177L709 179M716 177C710.924 183.329 713.585 193.345 720 198C711.022 201.373 694.957 198 685 198L627 198C614.253 198 602.044 199.016 590 195L593 198M174 178C168.568 187.614 186.227 190.135 185.079 198.931C184.424 203.946 175.446 203.942 173.028 200.519C170.511 196.957 172 189.192 172 185M136 179C136 187.392 139.202 204.48 127 205M161 179L161 205M201 179L201 181M203 179L203 181M656 179L658 179M663 179L674 178M680 179L685 179M693 179L695 179M542 180L543 192M167 182L167 202M190 183L194 187M37 184C42.2761 195.305 62.1266 197.797 66 184M501 184L502 197L511 195C507.064 200.63 510.478 201.483 516 202C515.878 198.256 515.61 196.443 512 195M555 198C536.976 197.488 556.024 176.432 555.366 191.002C555.26 193.345 555.019 195.647 555 198M551 186L553 192L553 190M174 187L174 202M244 188L239 193M415 188C413.218 191.798 411.328 194.293 407 194M538 190L541 191M176 189L176 202M538 191L533 195C536.25 196.578 537.256 196.342 540 194L545 197L544 194M124 191L124 201M247 191L252 191M538 191L540 193M416 192L410 196M551 192L549 194M180 193L178 203M121 194L121 201M560 201L559 195L560 194L561 194M517 195L533 195M119 196L119 202M414 196C423.563 207.189 419.331 214.099 406 214.005C402.327 213.979 397.279 215.431 394.318 212.643C390.739 209.273 392 202.433 392 198M513 196L513 201M546 196L548 196M716 196L713 199M535 197C535.001 202.637 534.326 207.923 541 209L538 207M538 197L543 198M581 199C575.592 201.327 566.731 201.871 562 198L589 198M717 197L717 199M510 198L510 201M555 198L558 201L558 198M586 198C581.833 207.619 583.654 220.47 568 212.833C565.188 211.461 561.974 206.51 559 207M720 198L725 198M551 199C551.876 205.929 550.089 216.823 560 214L559 207M563 200L561 202M135 201C138.842 206.4 141.054 206.968 147 204M181 201L181 202M260 201L257 203M486 217C475.613 214.774 480.259 208.038 483 201L489 214C485.552 221.601 495.251 219.073 497 212L501 216L497 217M23 202L21 207L15 203M187 202L184 203M497 211L506 202M516 202L524 208C516.14 215.767 508.463 216.952 499 211M65 203L64 204M149 203L153 205M389 206C384.313 216.015 374.397 214 365 214L299 214C290.039 214 275.755 216.346 276 203L281 208L286 203M540 203L539 206M718 203L725 218C716.711 220.423 704.812 218 696 218C669.485 218 640.291 214.484 614.049 217.893C608.905 218.562 611.764 222.69 610.689 226C609.122 230.826 603.737 233.776 599 233.981C588.7 234.426 578.31 233.935 568 234.001C564.602 234.022 559.121 235.936 556.318 233.553C552.31 230.146 553.013 219.841 553 215M247 204L256 204M576 206L569 213M513 207L512 214M528 208L542 215C537.43 216.735 535.306 214.189 532 211M534 208L534 209M575 214L582 208M281 209L280 210M482 209L484 214L486 212M524 209L532 211M529 209L530 215L533 212M541 210L551 215M525 211L518 215M536 212L535 213M384 214L394 216M483 214L483 216M560 214L566 214M590 214L596 217C590.934 219.808 586.012 218.513 581 216M282 215C279.459 220.07 281.692 222.863 286 226L287 215M285 215L288 225M521 215C524.576 216.871 526.424 216.871 530 215M603 218L609 217C605.204 220.523 598.973 221.01 594 220M282 217L282 221M481 217L478 220M530 217L536 217M596 217L602 217M610 217L611 218M721 217L721 218M534 218C533.703 221.631 531.569 226.524 533.118 229.98C535.698 235.735 552.049 237.625 557 235M391 223C389.476 243.214 411.735 230.607 423 231L420 237C423.804 240.545 425.849 243.206 423 248L426 250C421.864 254.592 408.357 253.701 402 254.065C379.098 255.375 356.048 253.02 333 254.019C326.233 254.313 326.687 259.198 321.857 262.191C318.714 264.137 314.374 262.447 311 262M723 223C723.513 226.488 726.984 233.442 724.306 236.462C720.312 240.968 701.763 238 696 238L639 238C631.856 238 621.51 235.717 615 238L619 238M423 224L424 230M477 224L465 236L472 237L471 233M289 226C310.184 239.821 341.468 234 366 234C374.444 234 385.126 237.321 393 235M529 226C521.992 241.018 489.058 237.939 479 228C478.403 232.167 480.036 233.85 484 235M609 226L609 227M479 227L479 228M476 228L478 230M613 228C611.769 232.335 609.615 234.654 605 234M473 230L480 235M465 236C460.654 238.065 459.184 236.325 461 232L465 235M415 234L420 237M523 234C527.322 237.106 530.168 237.044 535 235M621 234L621 237M721 234L721 237M308 235L309 244L304 242M610 235L615 238M473 236L477 236M520 236C520.218 243.339 525.203 254.937 534 253L527 246M521 251L517 252L514 248C504.408 257.478 492.688 255 480 255C475.406 255 469.367 256.009 465 254.397C459.437 252.343 455.631 246.58 450 244L458 238M727 238L724 239M47 239C49.0045 242.388 49.0629 243.646 47 247M254 239L263 245L260 240M616 241C615.633 247.7 611.625 249.76 607 254C611.132 255.981 613.403 254.512 614 250M44 242L44 245M251 242L249 244L252 249L261 242M389 242L389 254M727 242L727 244M264 243L276 250C269.699 255.002 264.892 249.655 259 246M555 243L558.148 253.307L572 254L607 254M39 244L41 245M252 244L254 246M310 245L325 253L320 259L321 260L324 257M552 245C548.371 252.775 542.91 253.999 535 254M613 245L613 248M262 246L262 248M266 246L264 248M48 247C53.4897 252.444 74.905 260.364 72 268L60 262L60 265L61 265M271 247L268 252M427 247L427 248M273 248L270 253M461 248L459 250M251 249C247.838 252.209 244.748 262.236 240.945 263.364C236.817 264.589 235.143 258.085 231.099 260.236C224.522 263.735 233.126 265.804 237 264M419 252L423 249M422 250L424 252M457 250C455.865 253.768 454.614 258.218 460 256L457 253M522 251L528 254M277 252L319 260M517 252L509 255M325 253L327 253M546 253C549.992 255.874 553.314 256.627 558 255M635 258L630 257L639 257L640 253L648 259L646 257M652 253L652 254M665 256L659 256L675 258L725 258M620 254L619 260L621 257M638 254L639 254M398 255L394 262L394 256M515 255L525 255M648 255L649 255M661 255L661 256M58 256C56.3634 259.521 56.7955 260.825 59 264M287 256C284.862 260.006 283.35 270.704 287.603 274.132C290.125 276.165 295.98 274.103 299 274.025C309.019 273.768 322.562 277.361 326 265C331.165 266.463 331.942 271.43 336.274 273.397C341.057 275.569 361.962 276.174 366.576 273.883C370.17 272.097 373.192 267.81 376 265M387 256C387.149 260.59 387.923 263.44 393 263M460 256L463 255M658 257L654 257L658 255M239 263C238.312 258.909 239.357 257.777 243 256M517 257L515 262M556 257C556 267.204 556.59 276.923 557.478 287C557.731 289.879 556.651 292.747 553.941 294.137C547.084 297.656 527.195 288.506 522.047 295.603C518.421 300.602 536.999 314.016 541 313L534 306M613 257L617 258M633 257L630 260L628 258L630 257M643 257L637 259M655 259L650 259L653 257M62 258L62 262M236 258L238 258M456 258C454.857 263.598 442.776 266.793 445.858 271.867C448.934 276.933 459.015 275 464 275C480.165 275 495.643 275.092 511.09 272.286C515.927 271.408 517.754 276.405 523 274L515 264M621 258L628 258M660 258L659 260M66 259L66 265M661 259L663 259M665 259L664 260M227 260L228 261M314 260L314 262M619 260C618.988 265.683 619.726 277.322 611 274L618 269M628 260L629 261M644 260L646 259M320 262L317 263M72 262L68 266M230 262L230 265M237 262L237 263M323 262L326 265M629 262C624.866 266.494 623.02 275.473 616 275M657 263L640 280L619 276M323 265L324 265M375 266L388 264M371 268L373 267M388 266L387 279M229 267C217.338 275.473 207.371 276.326 194.002 279.684C189.949 280.701 188.206 282.133 190 286C168.889 296.045 139.946 292.428 118 287.913C109.866 286.239 101.013 287.064 94 282M376 267C373.69 271.252 372.597 276.103 367 275M516 267L515 272M444 271L444 268M74 269C85.9772 275.309 95.5313 278.296 109 280M228 269C236.435 279.224 232 305.964 232 319M447 275C442.133 276.693 436.387 272.699 442 269M371 270L373 272M429 273L431 278C423.635 270.142 437.891 276.659 440 277M334 273L322 275M630 276L631 273L635 273M640 273L634 279M523 274L611 274M294 275C288.556 281.665 292.747 289.336 298 295C294.325 295.54 293.073 294.536 292 291M508 275C510.988 280.241 505.581 295.042 516 293L511 285M629 275L629 279M86 276C86.2546 279.298 86.4849 281.066 90 281L90 278M517 276L511 278M623 279L628 276M631 276L634 277M639 276L637 278M642 276L639 279M369 277C367.66 298.073 348.81 307.5 330 308L332 310M432 277L434 277M618 277C616.584 285.904 609.316 282.817 603.17 285.164C598.375 286.996 594.824 291.658 590 293.397C583.331 295.802 574.958 293.19 568 294.144C562.259 294.931 559.632 298.253 554 295M632 277L632 279M626 278L626 279M643 278L725 278M206 279L204 285L209 284M428 279C430.478 284.684 433.755 288.26 427 292L431 297L431 291M635 280L655 295L661 292L663 298L663 294M89 282L95 285M182 287L186 282M212 282L211 283M203 286L204 284M386 283L383 339M435 295L476 295L493.992 294.548L507 283M190 286L201 285M363 286L363 291M432 287L428 291M501 290L506 300L505 296M599 290L594 293M502 292L496 296M516 293L521 293M299 295C314.608 290.386 342.016 292.033 358 295M426 294L430 297M513 294C510.206 301.01 516.931 297.735 520 295M592 294C602.138 303.684 619.803 300 633 300C638.94 300 645.275 300.692 651 299M657 294L661 298M714 300L710 297C713.858 296.806 717.115 300.115 718 295L719 294L720 295M727 294L721 299L727 300M514 295L514 299M655 295C655.787 297.889 656.253 298.082 659 297M667 295L664 298M499 296L502 299M669 296L671 298L673 298M715 296L717 296M235 297L252 301M259 303L281.811 307.072L292 297M426 297C421.806 300.942 417.481 311.39 425.069 314.802C429.512 316.8 438.097 315 443 315C454.42 315 468.914 317.408 480 314.683C483.507 313.821 485.708 310.812 489 309.558C495.628 307.034 501.02 307.777 502 299M593 297C591.177 305.071 590.02 311.725 582 315L585 323L635 319.78L645 320M675 297L673 299M676 298C685.082 298 699.985 295.067 708 299L682.332 308.43L677.814 316.134L671 314L670 315L670 316L671 317L673 318M708 297L710 297M558 298C558.29 312.051 556.094 314.009 542 314M720 298L721 299M507 299C514.147 303.634 505.321 310.101 507.417 315.762C509.424 321.179 527.109 318.705 529 314M667 299L670 298M711 299L707 302M674 301L680 310M255 302L256 302M654 303C657.053 314.809 659.675 314.532 670 315M561 305C565.24 314.085 572.145 314 581 314M303 306C304.194 309.788 283.914 319.863 280 311L284 313M329 307L331 307M294 308C291.058 310.088 290.269 310.484 287 309C291.209 306.938 294.013 307.704 298 310M283 308L286 309M678 308L659 313M327 308L324 312C336.736 323.881 365.349 319.995 382 321M302 311L298 315C302.496 315.993 304.731 314.374 306 310L323 312M488 310L492 310M285 311L284 312M325 311L326 312M326 312L331 310M489 312C486.843 321.184 496.966 320.103 502 316L499 326L534 327L533 318L528 318M567 313C562.949 315.937 559.769 316.632 555 315M672 313L676 317M315 314L304 318C308.153 325.913 329.039 324.78 320 314M484 314L488 319M486 314L487 314M537 314L533 318M659 318C654.45 319.067 651.823 318.748 648 316L657 314M296 315L298 315M424 315L411 323C419.712 325.683 429.94 324.643 439 325.039C450.764 325.554 463.252 327.681 474.996 327.021C481.451 326.658 485.055 320.443 482 315M497 316L496 318M633 318L648 316M670 316L664 318M682 316L686 318L683 319M505 317L504 319M559 317L558 330C565.625 331.584 587.329 340.345 586 325M618 317L620 317M649 317C646.142 324.674 644.917 327.708 651 334C647.116 334.062 645.663 332.448 644 329M322 318L322 321M485 318L487 320M609 318L614 318M650 318L648 320M673 318L669 319M679 318L681 318M686 318L725 318M500 319L502 321M589 320L607 319M673 320L679 332L683 324M384 321L383 322M671 321L672 322M389 322L405 324L396 327L408 338L421 329C430.941 338.618 463.465 338.639 473 329L476 333L472 337C477.682 347.135 460.4 364.221 451 366L450 358L423 351C425.053 354.145 426.218 356.046 430 355L433 352M232 323L232 339M405 324L410 324M565 329C566.972 323.06 578.485 324.435 584 324M418 325L419 329M653 325C660.612 334.983 666.297 335.781 675 327M558 331L550 339L544 332L545 328L565 326M432 327L433 327M482 327L498 327C497.254 332.902 495.678 339.816 504 338L500 337L499 333M535 328L544 327M477 329L475 332M535 329L543 331M537 330L540 333M549 330L555 331C552.037 332.72 550.667 333.194 549 330M474 331L469 336M556 331L560 335L563 332M419 332L423 336L415 337M567 332L563 333M679 332L670 335M544 333L539 339L535 335C527.236 340.581 513.293 338 504 338M686 333L690 338C684.934 339.5 681.115 336.928 677 334M525 337L529 334M536 336L541 335M572 334L569 339M651 334L659 334M560 335C558.63 339.304 555.988 339.225 552 338M577 335L579 341M579 335L579 341M584 335C597.777 340.296 589.208 353.455 580 343M423 336L426 335M477 336C481.141 340.229 487.44 339 493 339M539 336L533 338M545 336L548 339M567 339C565.804 336.758 565.758 336.804 568 338M689 343C689.936 347.669 686.524 351.727 682 353.397C675.129 355.932 653.554 356.229 647 352.972C636.965 347.987 635.234 340.739 646 336M471 337L472 337M634 337L637 337M688 337L686 339M423 351L414 357C406.693 350.46 404.456 358.656 397.043 356.297C380.033 350.884 399.898 340.071 406 338M421 338C423.345 345.901 431.501 344.278 437.961 346.277C440.272 346.992 441.959 348.319 440 350M497 338L492 360C486.642 358.697 472.503 356.69 468 360M595 339L638 340M690 338L725 338M541 339L544 339M475 340L478 339M560 340C560.684 348.668 561.317 357.325 561.911 366C562.122 369.086 562.752 374.072 560.397 376.512C557.165 379.86 547.31 378 543 378L506 378C499.303 378 492.651 379.065 487 375L486 376L486 377L488 379M382 342C381.999 348.953 384.379 365.794 395 355M232 343L232 359M636 347L638 348M445 348C447.202 352.221 452.334 352.877 450 358M692 348L685 355M582 349L579.361 361L570.306 372L572 377M635 349C636.15 352.964 637.833 354.597 642 354L638 349M445 350C441.249 353.75 437.683 359.14 432 358L434 354M396 354L398 351L404 355M429 351L426 354M453 355L467 354M441 352L442 353M400 353L400 356M421 353L425 357M448 353L444 357M445 354L446 355M642 354L645 354M688 354C697.603 361.342 713.23 358 725 358M408 355L412 357M435 355L437 357M460 355L463 358M470 355L468 357M429 356L431 358M625 367L628 373C625.169 374.485 616.534 374.071 619.171 368.558C622.333 361.949 630.895 358.218 637 355M416 357L420 357M383 358L375 368C378.735 379.835 350.827 385.443 343 391L347 391L348 392L349 397C353.261 393.716 355.109 394.527 359 398L361 396L357 392L350 397M404 358L409 357M493 359C520.203 355.562 552.951 355.581 580 359M384 359L387 358M466 359L467 359M584 359L625 360M435 360L443 373M696 360C695.305 381.408 657.414 373.902 643 374.001C638.612 374.031 633.109 378.539 630 378M490 361L487 373M378 362L380 365M232 363L232 379M693 365L693 367M381 366L382.333 374.357L393 375.004L425 374.397L433 368M451 366L443 380L444 375M691 366L691 369M436 367L436 370M382 376C375.894 379.423 369.566 373.41 375 368M697 368L691 375C695.089 376.571 696.809 375.096 698 371M627 369L636 374M437 370L439 371M435 371L431 375C434.986 375.889 436.805 374.939 438 371M442 371L439 374M486 372L486 377M619 373L608.683 387.481L597 397C601.387 398.386 603.596 396.896 607 394C612.337 398.513 639.773 402.979 640.942 392.064C641.287 388.845 634.17 383.052 633 379M629 374C625.258 378.584 623.115 378.638 618 375M428 375L431 375M484 375C476.766 381.462 455.368 380.769 446 378M566 375L568 379M622 375L622 377M626 375L628 377M655 375C654.718 383.713 641.732 393.288 648 400L642 393M668 375C668.367 386.194 682.109 385.11 690 388L687 389M690 375L691 375M436 376L441 379M443 376L445 378M480 376L478 378M609 376L612 379L615 376M625 376L623 378M696 376C703.754 380.376 716.237 378 725 378M442 377L444 379M483 377L485 379M563 378L566 378M573 378L575 378M701 378L703 380M379 379C379 385.367 379.29 389.927 375 395C380.572 397.955 385.071 395.104 391 395.005C404.169 394.784 418.934 397.07 431.91 395.004C440.909 393.571 443.687 388.214 439 381M482 379L484 379M568 379L565 380M617 379L620 378M628 379L629 379M562 380L564 399M577 380L609 380M479 381C476.858 385.52 468.22 398.151 478 398L474 397M702 381L704 387L705 388L706 387M566 382L563 383M232 383L232 436C232 441.889 229.977 452.344 232.603 457.682C234.339 461.209 240.811 460 244 460C252.94 460 269.478 463.371 274 454L277 457L273 458M370 383L366 389M561 396C559.394 401.784 550.805 399.602 547 397C551.564 392.42 555.327 385.041 562 384M690 387L692 387L689 390M693 387L698 390L691 391M642 390L645 387L647 389L643 393M707 387L700 394L698 391M371 388L371 390L367 390M705 388L700 393M365 390L364 393L364 389M693 389L695 391M367 390L366 394C370.464 396.073 374.676 395.647 372 390M369 390L369 395M638 390L640 392M709 390C704.359 399.738 701.49 401.79 714 407L714 399L719 397L718 393M345 393L342 398C340.102 394.706 340.159 393.567 343 391M362 391L359 394M441 393L435 395L435 395M648 393C656.423 400.788 672.953 398.793 683.961 397.943C690.11 397.468 693.398 394.888 699 399L694 396M651 393L651 394M342 394L345 396M478 394C488.043 402.493 511.288 398 524 398C527.874 398 535.879 399.692 539 398M539.667 395L539.333 396L539.667 395M714 394L715 394M367 395L362 397M439 395C445.569 400.556 465.43 402.186 472 396M698 397L702 395M338 396L341 398M432 396C432.115 401.935 430.891 411.955 424.892 415.177C421.586 416.952 413.887 414.996 410 415C397.948 415.014 387.605 416.346 376 418C376 425.105 376.039 429.551 371 435L370 428M541 396L543 400L545 400L546 397M707 396L713 399M346 397L347 397M435 397L439 403M438 397L442 399M567 400C576.963 400 586.754 401.146 596 397M644 397L641 398M652 397L650 399M693 397L689 399M325 413L331 416L330 417L314 408C318.633 398.499 327.915 398.897 337 399M351 398L343 409C350.156 407.139 353.987 407.225 361 410L358 416L366 416C362.582 409.655 360.016 398.077 351 405M353 398L358 398M470 398L474 398M478 398L480 398M543 398L545 398M595 398L593 400M605 398L609 398M720 398L725 398M357 399L357 401M540 399L542 399M639 399L640 399M693 399L695 399M469 400C467.952 405.193 458.206 410.237 459.952 414.762C461.57 418.955 469.449 417.971 473 417.997C485.071 418.086 505.754 421.884 516 415L512 417M539 400C538.789 406.521 535.023 412.033 531 417C538.016 422.047 553.836 421.413 562 419M564 402L567 439M378 403L377 412L383 415M598 403C594.452 408.222 590.732 412.546 593 419L602 417L598 417M365 407C368.271 412.755 371.176 417.577 377 412M419 414L425 408L428 413M496 408L512 413M338 410C340.52 412.84 341.508 413.587 345 412C348.401 416.544 351.485 417.503 357 416L353 412L351 416M356 413L360 413M426 411L421 416M347 413L351 415M323 413L327 417M462 413L466 416M519 413L518 414M296 420L294 422L307.001 415.326L324 417M459 414L458 419L460 417M463 414L463 417M299 418L305 417M342 415L331 416M370 415L367 417M520 415C519.884 421.246 527.278 418.207 531 417M374 416L376 418M515 416L518 419M523 416L525 416M342 417L346 417M425 417L428 418M514 417L517 420M588 417L589 420M306 418L311 418M361 418C360.599 424.208 357.951 429.783 362 435L360 429M364 418L362 425M462 418C453.596 424.253 465.216 431.825 469 438C466.448 438.582 466.141 438.511 467 436M603 418L725 418M430 420L456 419M426 420C421.234 428.88 409.406 432.616 400 428M524 420C527.58 440.589 489.464 443.695 478 434M528 420L532 419M567 420L586 420M354 449C353.648 451.862 350.933 452.117 350.236 448.917C349.293 444.585 350.642 436.171 352 432L357 436C342.72 440.221 322.073 436 307 436C302.212 436 293.627 438.037 289.306 436.206C281.49 432.894 288.953 423.368 293 421M592 422C592.636 426.699 593.455 430.911 598 433M361 436C356.771 433.089 347.059 422.461 359 425M462 423C467.398 426.813 472.404 438.455 479 438L476 435M457 426L453 435L455 434M378 427C380.023 434.181 390.193 436.774 397 437C393.792 433.863 393.192 432.224 395 428L395 428M395 431L400 431M286 437C280.72 436.745 276.63 437.212 274 432L285 431M356 430L358 430M289 431L289 436M399 431L396 434M282 432L282 436M376 433L382 435M391 433L392 433M515 434C514.706 437.494 516.106 437.365 519 436L519 436M597 434L598 440C607.79 434.775 625.013 438 636 438L725 438M356 451L370 435L378 439L379 438L380 437L381 436M387 435C396.465 443.603 427.125 440.223 439.83 438.794C443.972 438.328 452.911 439.355 455 436M453 435L451 437M509 438L513 436M364 436L368 436M367 437L367 441M374 437L378 437M478 437L477 438M519 437L520.281 446L517.4 457.227L491 459L490 454M447 438L451 438M457 438L465 438M520 438L517 439M594 438C588.066 441.997 575.736 440.592 569 439M372 439C376.969 450.726 372 466.489 372 479L321 479L297 480L294 475C286.656 479.025 276.094 478.927 268 477L270 484L261 489L265 499M444 439L433.896 450.972L423 454C435.53 464.596 456.176 450.834 468.682 459.179C474.407 462.999 471.771 492.442 466 494M472 439L473 440M524 439C535.461 441.049 552.793 442.313 564 439M234 440L235 440M237 440L253 440M477 440L491 459M597 441L599.434 451.651L605 460L601 454M278 442L286 445C281.855 447.981 273.904 447.024 274 453M470 442L472 458M348 443C345.899 446.56 338.573 454.747 334 452M567 443L568 459M283 456C279.297 456.063 278.473 454.576 279 451C290.167 461.326 316.052 456.689 329 452L330 453L331 454L332 453M329 453C327.305 456.803 329.179 460.096 333 457L328 458M334 454C336.269 462.038 349.204 459 356 459C378.054 459 398.539 459.183 420 455C420.654 458.054 422.007 457.936 425 458M421 454L423 454M714 454L718 458C714.891 459.321 710.418 459.594 712 455M342 455L341 456M319 456C322.228 458.512 323.419 459.048 327 457M570 456C572.521 463.394 593.26 460 600 460M707 459L701 457L711 459M707 456L710 456M726 456L720 457L723 458M317 457C314.371 470.072 302.132 466.999 296 476M417 457L419 459M702 459L697 458L701 457M704 457L704 459M713 459L717 457M409 458L411 460M411 458C411.016 463.513 411.628 472.59 416.303 476.397C419.846 479.28 426.736 478 431 478L469 478M490 458L486 460M607 458L697 458M414 459L416 459M519 459C532.377 461.227 550.773 462.126 564 459M520 461C520.165 467.097 514.575 472.248 511 477L493 463M700 461C685.184 479.816 714.034 478 725 478M268 462C267.348 465.57 265.919 471.429 271 471M568 462L569 479M232 463C232 467.001 230.629 474.205 233.028 477.621C236.588 482.69 253.794 480.23 259 479M605 463C605.213 469.556 608.927 474.517 615 477L614 474M695 464L697 464M655 480C653.331 476.844 660.529 476.473 663 475.861C674.361 473.047 684.29 468.23 695 464M606 470L604 478L611 475M268 477L280 471M290 471C285.915 473.845 282.746 474.697 278 473M292 472L297 475M269 474L270 475M290 474L291 476M609 474L607 476M635 474C641.495 476.648 646.158 476.766 653 475M658 474L659 474M280 475L280 477M285 475L285 477M410 475L416 478M414 475L412 477M617 477C622.063 479.125 627.653 478.127 632 475C632.71 478.542 631.787 479.732 629 482M695 475C693.877 478.044 689.335 480.602 689.948 484.004C690.864 489.097 711.301 496.392 716 496.191C719.574 496.039 723.592 493.162 727 492M515 476C515.487 482.59 518.109 488.59 518.87 495C519.322 498.803 518.283 504.501 521.564 507.357C523.921 509.409 527.136 507.688 529.83 508.642C533.141 509.815 538.404 514.357 540.527 517.129C543.286 520.732 543.086 526.009 545.278 529.985C550.526 539.504 561.32 541.354 571 539M261 477L267 478M291 477L296 479M513 478L509 480M634 477L637 477L634 481M639 477C640.806 479.764 642.348 479.923 645 478M691 479L694 477M412 478L373 480M609 478L617 478M631 478L633 478M646 479L653 479M695 478L698 478M518 479C530.495 482.693 553.32 481.997 566 479M572 479C580.119 480.919 591.984 481.369 600 479M603 479C605.535 488.686 619.285 493.887 615 480M657 480L663 480M666 479L668 480M232 480L232 546M410 480C408.419 484.167 407.471 486.095 410 490L409 491L405 487L404 488L406 491L408 491M502 480L504 480M371 482C371 486.214 372.475 494.112 369.258 497.397C366.064 500.657 359.909 498.032 356 498.129C345.685 498.384 327.776 495.825 319 501C316.008 498.408 295.458 497.237 295 500M293 483C288.737 487.61 286.608 492.719 288 499L289 498M618 483L626 483M570 484L571 499M271 486C273.732 490.823 280.703 495.514 286 497M405 486L405 487M604 486C602.935 493.911 601.703 499.337 605 507C611.41 505.207 611.614 509.005 617.089 510.323C626.37 512.558 624.554 507.344 629 518C616.427 522.927 587.929 522.822 575 519M278 490L279 491M403 490L404 495C401.54 496.168 398.226 496.745 396.111 498.5C392.636 501.384 391.058 512.99 396.028 515.194C401.606 517.669 423.55 514.267 424.778 507C426.621 496.093 405.394 497.917 407 493M411 490L412 495M417 492L413 496M276 493L278 493M462 494C452.928 501.672 434.405 498 423 498M713 495L718 495M277 495L282 496M417 498L420 495L423 498M709 495L711 495M270 498L270 496L273 497L273 496M291 496L294 499M468 496L459 497M522 496C523.739 501.241 529.3 500 534 500L568 500M710 496C713.539 501.608 721.163 499.79 727 500M269 499L269 497M275 497L276 500L279 497M318 497L319 498M375 499L374 497L395 499M272 498L274 500M320 498L321 499M703 498L709 499M235 499L262 500M269 499L271 501M290 499L292 499M325 499L321 502M373 499L364 515C366.656 517.328 370.609 520.566 374 518M392 499L394 501M469 499L469 500M573 499L599 499M266 500L266 502M276 500C278.193 504.402 280.669 505.378 285 503C288.903 507.471 293.714 511.233 290 517L304 520M605 500L606 500M608 500L609 500M269 502L270 502M316 502C311.275 508.071 311.595 511.43 318 516C317.348 512.25 315.825 510.735 312 511M571 502L572 519M701 503L671 518L678 517M372 504L372 518M465 504C464.861 509.803 462.122 513.631 460.509 519C456.884 531.069 455.282 546.17 438 538L454 537M290 508C292.952 507.662 293.07 508.32 292 511M313 507L328 513.852L363 515M290 509L289 514L290 511M427 509L420 515M310 511L315 516M460 516L462 514M459 514C451.132 520.654 432.746 519.947 424 515M288 515L289 517M319 515L324 514M395 515C389.66 520.503 386.251 524.529 393 530L392 531L389 529M727 515L713 519L724 520M287 517L282 518L287 517M676 516L676 517M267 517L268 517M370 539L385 537C378.981 533.529 373.46 534.959 367 533.656C352.54 530.739 340.108 527.62 325 529.213C320.639 529.673 317.427 535.2 313.001 534.248C303.321 532.167 305.563 520.661 311 516M569 517C565.379 522.586 552.096 520 546 520M677 518C684.827 522.173 693.791 518.105 702 517M257 518C253.401 522.176 239.927 520.456 235 519M270 518L273 518M457 518L460 518M639 518C637.602 530.638 656.916 524.315 664 523M260 519L291 524C288.255 531.958 276.855 532.532 277 523M274 520L276 519M305 519L307 519M375 519L389 520M432 519C433.693 539.239 415.182 533.435 401 534.019C395.543 534.244 390.582 536.649 385 537M464 519L465 520M530 519L531 520M536 519L537 520M539 519L540 520M633 519L633 520M664 519L661 520M670 519L671 520M696 521L713 519M726 519L727 520M293 520L291 524M533 520L534 520M631 523L637 520M369 521L362 531M572 522L574 535C583.281 532.256 595.284 533.387 605 532.961C624.515 532.105 646.037 530.906 665 526M667 526L694 522M292 523L314 528L310 532M364 525L360 529M290 540C291.313 537.538 257.1 542.647 272 529.833C273.362 528.662 274.505 527.866 276 527M335 527L336 527M369 527L367 546M314 528L321 529M387 528L385 535M435 529L428 535M305 530L311 535M342 530L346 534L350 530M356 530C346.736 540.553 330.496 535.846 318 536M358 530L360 532M329 531L325 535M386 531L388 536M393 531L396 534M438 531L432 535M685 531C686.913 539.404 676.788 537.529 674 532M304 532C304.946 535.141 305.707 536.069 309 536M336 532L334 536M670 532C667.692 539.604 652.77 537.721 646 538.039C622.712 539.134 599.491 540 576 540M357 533L356 538M434 536L454 534M702 533L701 538M267 538L263 538C263.9 534.625 264.963 534.518 268 536L268 536M548 534L522 536.039L459 537M277 535L278 536M554 535L572 535M574 535L574 546M289 536L289 537M305 536L294 538M351 536L353 538M676 536L669 537M715 536L715 537M719 536L719 537M355 537L352 545M381 537L381 538M707 537L706 538M711 537L711 539M235 539C241.161 540.821 263.703 535.838 259 546M263 538L261 540M378 538L379 539M437 538L438 538M695 538L696 538M357 539L366 539M272 540L269 545M456 540L459 540M500 540L505 540M545 540L546 540M549 540L550 540M553 540L553 545M293 542L289 546M381 543L380 545M441 543L440 546M449 546L452 543M348 546L349 546"/>
</svg>
