<?xml version="1.0" standalone="no"?>
<!DOCTYPE svg PUBLIC "-//W3C//DTD SVG 1.1//EN" "http://www.w3.org/Graphics/SVG/1.1/DTD/svg11.dtd" >
<svg xmlns="http://www.w3.org/2000/svg" xmlns:xlink="http://www.w3.org/1999/xlink" version="1.1" viewBox="-10 0 522 1000">
   <path fill="currentColor"
d="M344 743c-26 34 -62 64 -145 64c-97 0 -169 -54 -169 -251c0 -173 51 -263 164 -263c101 0 122 33 149 74l87 113zM247 730c91 -17 95 -76 95 -167s-2 -181 -89 -184c-100 -3 -102 83 -102 174c0 117 23 191 96 177zM342 800l-2 -740h122v740h-120z" />
</svg>
