<?xml version="1.0" standalone="no"?>
<!DOCTYPE svg PUBLIC "-//W3C//DTD SVG 1.1//EN" "http://www.w3.org/Graphics/SVG/1.1/DTD/svg11.dtd" >
<svg xmlns="http://www.w3.org/2000/svg" xmlns:xlink="http://www.w3.org/1999/xlink" version="1.1" viewBox="-10 0 400 1000">
   <path fill="currentColor"
d="M175 300v470h115v-470h-115zM178 80v124h109v-124h-109zM290 770h-115c0 68 0 68 -74 68l-1 96c147 0 190 0 190 -164z" />
</svg>
