<?xml version="1.0" standalone="no"?>
<!DOCTYPE svg PUBLIC "-//W3C//DTD SVG 1.1//EN" "http://www.w3.org/Graphics/SVG/1.1/DTD/svg11.dtd" >
<svg xmlns="http://www.w3.org/2000/svg" xmlns:xlink="http://www.w3.org/1999/xlink" version="1.1" viewBox="-10 0 515 1000">
   <path fill="currentColor"
d="M257 807c177 0 204 -130 204 -159l-100 -20c0 22 -3 89 -104 89h-107v-142h315v-55c0 -54 -13 -227 -211 -227c-139 0 -214 79 -214 247c0 164 75 267 217 267zM359 497h-209v-117h104c104 0 105 86 105 117zM254 293h-214v514h217v-90h-107v-337h104v-87zM40 204h110
v-124h-110v124z" />
</svg>
