<?xml version="1.0" standalone="no"?>
<!DOCTYPE svg PUBLIC "-//W3C//DTD SVG 1.1//EN" "http://www.w3.org/Graphics/SVG/1.1/DTD/svg11.dtd" >
<svg xmlns="http://www.w3.org/2000/svg" xmlns:xlink="http://www.w3.org/1999/xlink" version="1.1" viewBox="-10 0 820 1000">
   <path fill="currentColor"
d="M446 640l-1 -65h315v-55c0 -54 -13 -227 -211 -227c-115 0 -182 44 -203 158l100 -20c12 -30 48 -51 103 -51c104 0 105 86 105 117c-123 0 -239 2 -359 -11c-66 -7 -124 -18 -124 -63c0 -74 175 -65 175 28l100 -20c-9 -81 -50 -138 -197 -138c-112 0 -189 50 -189 137
c0 197 292 116 292 226c0 74 -192 86 -201 -26l-101 15c6 81 58 162 191 162c147 0 205 -64 205 -167z" />
</svg>
