<?xml version="1.0" standalone="no"?>
<!DOCTYPE svg PUBLIC "-//W3C//DTD SVG 1.1//EN" "http://www.w3.org/Graphics/SVG/1.1/DTD/svg11.dtd" >
<svg xmlns="http://www.w3.org/2000/svg" xmlns:xlink="http://www.w3.org/1999/xlink" version="1.1" viewBox="-10 0 938 1000">
   <path fill="currentColor"
d="M353 800h97l154 -454l63 -46h-163l-103 342l-120 -342h-115zM109 252l1 548h120v-536c0 -68 -10 -68 74 -68v-96c-147 0 -195 11 -195 152zM50 390h180v-90h-180v90zM453 540c0 35 0 35 110 35h315v-55c0 -54 -13 -220 -211 -220c-139 0 -214 72 -214 240zM772 497h-219
c33 -98 39 -117 114 -117c104 0 105 86 105 117z" />
</svg>
