<?xml version="1.0" standalone="no"?>
<!DOCTYPE svg PUBLIC "-//W3C//DTD SVG 1.1//EN" "http://www.w3.org/Graphics/SVG/1.1/DTD/svg11.dtd" >
<svg xmlns="http://www.w3.org/2000/svg" xmlns:xlink="http://www.w3.org/1999/xlink" version="1.1" viewBox="-10 0 625 1000">
   <path fill="currentColor"
d="M35 300v261h115v-261h-115zM35 80v124h109v-124h-109zM392 807c157 0 184 -130 184 -159l-100 -20c0 22 -11 89 -84 89s-87 -102 -87 -142h275v-55c0 -54 -13 -227 -191 -227c-119 0 -194 79 -194 247c0 164 75 267 197 267zM474 497h-169c0 -33 7 -117 84 -117
c84 0 85 86 85 117zM35 497v78h419v-78h-419z" />
</svg>
