<?xml version="1.0" standalone="no"?>
<!DOCTYPE svg PUBLIC "-//W3C//DTD SVG 1.1//EN" "http://www.w3.org/Graphics/SVG/1.1/DTD/svg11.dtd" >
<svg xmlns="http://www.w3.org/2000/svg" xmlns:xlink="http://www.w3.org/1999/xlink" version="1.1" viewBox="-10 0 938 1000">
   <path fill="currentColor"
d="M50 390h59l1 410h120v-329l123 329h97l76 -225h352v-55c0 -54 -13 -227 -211 -227c-93 0 -158 40 -190 112c-17 47 -51 158 -76 237l-120 -342h-51v-36c0 -68 -10 -68 74 -68v-96c-147 0 -195 11 -195 152v48h-59v90zM772 497h-226c21 -77 46 -119 121 -119
c104 0 105 88 105 119z" />
</svg>
