<?xml version="1.0" standalone="no"?>
<!DOCTYPE svg PUBLIC "-//W3C//DTD SVG 1.1//EN" "http://www.w3.org/Graphics/SVG/1.1/DTD/svg11.dtd" >
<svg xmlns="http://www.w3.org/2000/svg" xmlns:xlink="http://www.w3.org/1999/xlink" version="1.1" viewBox="-10 0 755 1000">
   <path fill="currentColor"
d="M371 807c100 0 274 -45 274 -247v-220c0 -202 -174 -247 -274 -247s-271 45 -271 267v180c0 222 171 267 271 267zM371 715c-74 0 -151 -42 -151 -155v-220c0 -113 77 -155 151 -155s154 42 154 155v220c0 113 -80 155 -154 155z" />
</svg>
