<?xml version="1.0" standalone="no"?>
<!DOCTYPE svg PUBLIC "-//W3C//DTD SVG 1.1//EN" "http://www.w3.org/Graphics/SVG/1.1/DTD/svg11.dtd" >
<svg xmlns="http://www.w3.org/2000/svg" xmlns:xlink="http://www.w3.org/1999/xlink" version="1.1" viewBox="-10 0 697 1000">
   <path fill="currentColor"
d="M100 800h120v-296h60c135 0 307 -10 307 -201c0 -215 -172 -203 -307 -203h-180v700zM220 411v-218c168 0 237 -6 237 109s-69 109 -237 109z" />
</svg>
