<?xml version="1.0" standalone="no"?>
<!DOCTYPE svg PUBLIC "-//W3C//DTD SVG 1.1//EN" "http://www.w3.org/Graphics/SVG/1.1/DTD/svg11.dtd" >
<svg xmlns="http://www.w3.org/2000/svg" xmlns:xlink="http://www.w3.org/1999/xlink" version="1.1" viewBox="-10 0 522 1000">
   <path fill="currentColor"
d="M50 300h120v640h-120v-640zM168 737l-86 -263l87 -113c27 -41 48 -68 149 -68c113 0 164 84 164 257c0 197 -72 257 -169 257c-83 0 -119 -36 -145 -70zM265 724c73 14 96 -60 96 -177c0 -91 -2 -177 -102 -174c-87 3 -88 93 -88 184s3 150 94 167z" />
</svg>
