<?xml version="1.0" standalone="no"?>
<!DOCTYPE svg PUBLIC "-//W3C//DTD SVG 1.1//EN" "http://www.w3.org/Graphics/SVG/1.1/DTD/svg11.dtd" >
<svg xmlns="http://www.w3.org/2000/svg" xmlns:xlink="http://www.w3.org/1999/xlink" version="1.1" viewBox="-10 0 730 1000">
   <path fill="currentColor"
d="M300 529l60 -128l-133 -302h-127zM300 800h120v-399h-120v399zM420 529l200 -430h-127l-133 302z" />
</svg>
