<?xml version="1.0" standalone="no"?>
<!DOCTYPE svg PUBLIC "-//W3C//DTD SVG 1.1//EN" "http://www.w3.org/Graphics/SVG/1.1/DTD/svg11.dtd" >
<svg xmlns="http://www.w3.org/2000/svg" xmlns:xlink="http://www.w3.org/1999/xlink" version="1.1" viewBox="-10 0 617 1000">
   <path fill="currentColor"
d="M130 300v90h372v-90h-372zM363 390l-263 320h139l263 -320h-139zM100 710v90h397v-90h-397z" />
</svg>
