<?xml version="1.0" standalone="yes"?>
<svg width="728" height="546" viewBox="0 0 728 546">
<path style="stroke:#000000; fill:none;" d="M80 1L68 7L74 14M82 2L85 2M86 1L85 2M118 1C131.722 14.7208 155.072 15.9561 169 2M169 2L177 3L177 2L177 2M173 3L176 2M178 1L177 2M188 1C201.133 21.9296 170.174 11.9224 162 12M190 1L189 2M209 1L220 15M211 1L210 2M309 1C312.695 4.45654 314.59 6.05054 319 3L320 2M321 1L320 2M394 1L430 27M398 1L397 2M538 1L538 3M540 1L539 2M545 1C542.268 9.28204 532.961 16.8576 525 20M547 1L546 2M558 1L559 2M560 1L559 2M564 1L565 3M566 1L565 2M548 3L549 5M557 3L553 6M87 4C89.2851 7.87476 91.3623 14.2039 95.2739 16.6821C104.59 22.5847 120.311 17.6642 127 11M566 5L559 15L560 12M174 6L169 11M61 14L63 18C56.4937 17.9863 48.5503 19.3182 44 14L45 13L49 16C52.5683 9.37305 60.8074 7.62805 68 7M315 7C313.55 16.1686 296.824 18.9984 289 20M526 19L538 7M727 7L715 20M537 8L537 10M182 9C182 12.7603 182.716 17.4211 181.397 21C175.171 37.8837 145.742 29.8623 132 31.0587C121.677 31.9573 119.596 42.9905 109 34L108 35L111 38M551 10L555 13L553 12M558 11L558 12M49 12L47 14M193 12L187 16M411 12C409.214 14.665 408.203 16.0074 411 18L410 15M539 12L541 12M315 13L323 17L323 28L329 16L355 18L407 18M546 13C546.809 17.7025 551.315 18.9056 553 14M552 13L550 17M52 14L54 16M71 14L65 18M404 17L408 16M542 15C540.021 16.0081 537.938 16.4405 540 14M556 14L558 14M39 17L38 19L42 15L46 18M70 15L77 18L75 15M413 15L411 17M724 15L727 20M74 16L68 18M93 16L91 18L95 18M190 16L195 44L196 38M414 16L416 20L418 18M180 17L180 22M324 17L327 18M702 17L705 19M723 17L720 20M727 17L699 40L703 38M23 22L37 18M77 18L91 18M297 18L294 19M301 18C303.554 27.0977 314.709 35.3237 323 28M331 18L329 20M547 18L547 20M567 18L562 20M710 18L712 18M40 19L42 19M221 19L225 20M298 19L296 25L300 22M412 19L413 19M556 19C560.085 26.7805 564.492 31.4346 572 36L564 40L563 36M721 19L723 21M327 20L327 22M520 20L522 20M698 20L701 20M525 22L524 23M550 22L551 22M693 23L696 22M10 27L20 23M288 23C275.718 31.9227 262.095 36.9077 247 35M568 23L569 25M174 31C181.771 34.0268 185.137 26.333 192 24M552 24L552 30M566 24L567 26M713 24L693 41M99 25L107 35M500 25L500 30L502 27M693 25L694 26M297 26C298.845 32.3593 304.31 32.6813 310 31M516 26L500 34L503 39L518 27M696 27L697 27M83 28C89.3894 34.442 95.112 41.1492 105 37M432 28C438.634 30.3098 437.856 34.1261 439 40L439 36M700 28L701 28M722 30L720 35L718 31M181 32L190 57C190.693 52.1071 187.58 49.9508 184 47M322 32C328.665 34.2695 334.581 39.7714 341 35C348.347 40.2845 360.266 38 369 38L437 38M556 32L558 36M110 33L109 34M277 40L299 32M474 33L474 35L472 35L474 36M473 41L492 37C495.172 40.4765 497.754 36.5979 500 34M506 34L507 35M510 34L512 39M712 34L714 34M495 37L498 35M504 35L504 37M702 37L705 35M242 38L268 38L267 39M493 36L495 36M718 36L717 40M270 39L272 37L276 39M340 37L343 38M499 38L501 37M565 37L566 38M572 37L581 40M2 38L90 38M341 38L338 39M489 38L491 40M499 38L502 39M713 38L714 39M106 39L109 38M186 39L186 43M198 39L203 41C198.67 43.2765 195.268 45.8191 196 51L204 41M265 39L267 39M496 39L500 39M506 39L505 40M574 39C578.008 46.4354 589.11 51.7271 597 54L596 47M339 40C332.404 54.1456 318.876 50.6715 306 51.054C300.752 51.2099 293.884 52.4318 289 49.973C285.112 48.0156 282.036 44.0357 279 41C276.853 46.6588 281.779 50.5345 287 52M699 40L701 40M199 41L200 42M205 42C207.404 45.3051 214.548 49.0428 215.079 52.9591C216.255 61.6393 200.003 52.5385 198 50M691 42L689 44M713 42L714 42M202 43L203 44M464 43L465 43M493 44L495 43M697 43L686 51C699.177 55.6295 689.554 63.677 685 55M443 44L446 50L470 49M458 44L461 44M610 44L608 58L598 59M198 45L206 54M599 46C600.786 48.665 601.797 50.0074 599 52M607 46L603 53M203 47L206 47M479 47L482 47M683 47L667 57L685 50M190 58C184.084 57.808 181.098 55.0495 177 51L183 48M472 48L477 48M666 58L663 56C658.396 57.5316 652.987 60.3608 648.005 58.7762C640.135 56.2736 643.232 50.2615 649 48C652.604 62.7942 631.843 58 623 58M424 49L422 58L435 57L434 51M446 50L450 58L436 58M124 83C121.748 79.8452 122.858 78.0138 125 75C126.994 78.0395 127.527 79.2717 125 82L126 73L136 78C133.079 75.0787 129.774 72.2685 127.238 69C123.29 63.9121 123.713 53.1809 131.005 51.3179C144.471 47.8771 163.044 51 177 51M214 51L209 56M147 52L147 64C156.147 63.6002 162.965 61.9633 163 52M158 52L158 61M160 52L160 61M195 52L201 57M318 64L334 71C328.627 76.1947 326.173 77.6235 322 71C315.2 77.2873 308.8 77.2873 302 71C298.073 74.6311 292.841 77.7982 287.259 75.3974C285.015 74.4322 283.69 71.2742 280.946 71.6258C276.425 72.2051 274.268 77.2764 269.015 75.392C265.054 73.9712 257.46 65.9621 260.072 61.358C262.976 56.2384 276.641 53.7466 282 52M284 52C284 54.9509 283.1 59.9205 285.028 62.4005C287.363 65.4048 295.876 65.9375 298.111 62.6821C299.956 59.9943 299.002 55.1044 299 52M297 52L297 63M302 52L301 62M314 52L315 62M317 52L317 61M332 52L351 58C346.132 64.1252 342.661 71.0305 334 71M445 54L446 56M478 54L479 59L481 54M124 55C120.948 59.2641 120.948 61.7359 124 66M348 59C362.425 54.7363 381.951 58 397 58C404.894 58 414.55 55.9367 422 57M598 55L604 57M664 55L667 55M446 56L444 58M198 57C196.538 59.9967 196.496 61.7239 197.274 65C201.498 82.7976 216.327 73.3901 228 69C225.103 62.7712 222.612 59.2635 216 57M448 57L446 59M604 57L604 59M616 57L617 57M2 58L121 58M190 58C202.296 77.8054 179.134 76 166 76C160.846 76 153.783 77.2285 149.005 75.0116C145.038 73.1711 142.656 69.2729 140 66L146 65M344 58L344 65M608 58L642 60M225 59L226 60M419 59L421 59M661 59L662 59M262 60L263 66L262 67L261 68M346 60L346 63M608 62L608 63M264 65L283 64M452 63C453.303 66.1304 459.205 74.2512 455.577 77.1111C451.268 80.5086 437.394 78 432 78L379 78C370.856 78 362.555 79.5433 356 74M127 73C129.607 67.7807 134.412 66.2868 140 66M260 67L237 85C232.455 78.405 228.135 75.5968 220 76M188 68L193 73M258 69L267 76M289 69L290 69M186 70L186 75M226 71L222 75M229 71L227 76M341 71L351 77L353 86C345.818 83.9973 343.026 80.2346 343 73M339 72L340 82L341 73M416 72L414 77M345 74L345 81M135 75L136 76M191 75C194.208 77.1525 195.512 77.7024 199 76L200 75M255 75C258.457 77.4513 260.178 77.9209 264 76M347 75L347 82M148 76L136 78M203 76C198.642 82.2375 200.879 93.4939 207 98L206 99L203 98M277 76L284 76M357 76L355 78L357 80L359 78M299 77L306 76M319 77L323 77M352 77L352 81M2 78L83 78L121 78M353 78L355 78M459 79L456 79M196 79L199 99L2 98M241 82L246 79M355 80L356 89M460 80C461.976 84.7471 467.781 91.9643 462.502 96.3966C457.189 100.857 441.677 98 435 98C410.002 98 384.997 98.1754 360 97.9969C352.864 97.946 339.72 94.4256 334 98L331 95C325.173 99.0618 317.852 98 311 98L270 98C263.466 98 255.919 99.0269 250 96L255 93L256 97M350 81L348 83M355 81L353 83M357 81L356 82M342 83L343 83M345 84L348 86M237 86C234.854 90.4247 235.845 92.3859 239 96L237 98L235 92M233 87L232 90M282 87L285 87M255 93C260.751 87.0276 271.142 88 279 88M231 89L229 98L236 98M250 96L242 95C245.143 88.5358 250.75 89.9959 257 90M227 90L230 90M233 90L234 91M332 90L337 95M214 92C218.4 97.5869 222.213 97.9993 229 98M331 92L333 93M195 93L196 97M340 96L350 93M205 94L205 96M213 98L212 94L217 98M325 97L330 96M351 94L353 96M194 95L192 98M343 95L343 97M345 95L345 97M467 95C468.67 102.715 477.037 110.453 472 118C477.942 119.945 487.443 132.25 478.938 136.972C470.916 141.425 453.102 138 444 138C440.843 138 436.09 138.82 433.318 136.972C430.713 135.236 431.032 131.733 431 129M233 96L232 98M239 96L241 96M207 98L209 98M329 98L335 98M336 99L339 99M464 99L466 99M200 100L206 138L2 138M203 100C204.485 106.493 207.324 112.74 204 119M231 102L231 103M230 105L229 110M432 110C432.16 123.497 461.603 118 472 118M218 114L217 118L431 118M2 118L133 118C154.94 118 179.418 114.993 201 119M476 117L476 118M207 119L215 118M222 123L223 123M208 124C208.285 127.49 208.532 134.647 211.013 137.307C212.877 139.306 217.573 138.032 220 138.004C228.664 137.905 237.335 138 246 138L362 138C373.693 138 400.398 142.979 408 133M411 124L410 139L431 138M431 126L431 127M41 128L41 136M484 137L480 138M405 137L410 159L410 153M484 137C486.518 140.39 493.609 152.471 490.292 156.512C487.266 160.201 474.42 158 470 158C450.478 158 430.346 159.367 411 158M206 138L210 138M485 138L482 139M211 139L215 160C227.456 153.352 251.929 158 266 158L357 158C370.941 158 387.295 155.622 400.981 158.228C412.287 160.382 397.674 179.186 411 178L407 177M207 141L209 159L135 158L2 158M42 144L42 156M408 157L406 159M492 157L495 162L490 159M210 160L211 179L138 178L7 178L6 170M213 160C214.922 169.318 215.098 178.611 216.561 188C216.963 190.58 216.081 196.185 218.603 197.802C221.09 199.397 227.098 198.001 230 198L261 198L355 198C366.682 198 385.258 201.507 396 197L395 194M496 163L500 179M43 167L41 178M417 168C411.679 177.089 424.65 177.683 431 177.961C445.609 178.6 460.376 178 475 178C482.682 178 489.824 179.223 496 174M415 174L417 172L419 176M410 174L408 176M413 174L417 177M413 175L411 177M2 176L6 179M14 199L11 198C21.5425 194.242 39.3995 198.454 51 197.961C87.0275 196.427 123.774 198 160 198C174.071 198 198.544 193.352 211 200L214.319 179.988L230 178L267 178L361 178L407 178M403 177L403 179M399 178L402 192L407 184M494 178L498 179M412 179L415 178M500 179C507.032 184.25 518.103 211.813 507.995 216.972C501.435 220.321 489.256 218 482 218L426 218C415.64 218 406.098 219.509 398 212C392.82 223.109 363.885 218 353 218L255 218L229 218C226.316 218.004 220.918 219.313 218.607 217.802C216.077 216.149 217.133 205.105 217 202M8 182C9.60345 189.769 12.921 197.645 2 198M42 185L42 197M402 192L401 197L464 198L507 199M397 193L397 196M9 197L11 199M401 197L397 199M12 200L15 232M213 200C213.753 217.529 214.167 234.511 211.715 252C210.315 261.981 205.439 275.12 208.851 285C210.883 290.882 216.057 291.756 219 296L217 294M399 203L398 212M39 212C34.8684 220.265 23.851 218 16 218M515 214L512 218C518.035 220.012 526.014 232.489 517.938 236.972C511.503 240.544 498.245 238 491 238L426 238C418.631 238 404.305 240.723 398.059 236.397C390.894 231.433 397.317 223.554 396 217M37 217L57 217.015L83 218L167 218L213 219M402 217L398 219M516 217L516 218M2 218L15 219M510 218L512 218M51 224C51.1613 243.225 75.054 238.151 89 238.151L169 238C183.05 238 198.16 236.431 212 239M218 224L217 239C259.513 233.627 305.124 238 348 238C358.335 238 368.667 237.999 379 237.861C383.694 237.798 387.985 239.013 390 234M393 235C392.965 239.204 387.616 255.464 391.604 257.763C393.741 258.995 397.627 257.101 400 257.133C406.649 257.221 413.295 258 420 258L495 258C502.538 258 519.115 261.129 525.513 256.972C532.965 252.132 525.141 239.672 519 238M523 236L523 238M2 238L53 237M398 237L395 240L392 239M51 238L52 251M89 239C94.7714 255.977 111.149 257 126 257L179 257C189.355 257 200.044 255.894 210 259M390 239L392 239M216 240C216 245.068 213.875 255.211 220.034 257.357C224.086 258.77 230.65 257 235 257C246.001 257 256.953 258 268 258L352 258C363.338 258 379.349 260.866 390 258M36 246C35.8572 258.093 25.7891 257.695 16 257.86C12.9673 257.912 7.20868 258.956 4.65741 256.897C2.87558 255.458 4.28327 253.51 5 252L7 257M51 250C47.2596 258.066 56.6988 256.66 62 257.285C71.8467 258.447 91.8332 259.875 100 254M33 257L49 253M35 257L38 254L41 257M43 256L50 257M215 256L218 258M530 256C530.823 261.22 536.943 268.747 534.788 273.941C532.997 278.259 527.862 277.992 524 278C514.428 278.02 500.02 280.769 492 275L487 277L488 274M528 257L529 257M34 258L33 282L32 276L2 278M98 258L108 258M215 258C212.037 263.552 210.644 274.617 218.005 277.397C226.34 280.544 239.171 277 248 277C271.721 277 295.315 278 319 278C328.99 278 342.674 280.408 351 274C359.551 281.232 378.601 278.707 388 274L388 260M526 258L530 258M47 259C45.6781 263.589 34.9179 278.508 46 276L43 270M6 271L6 272M39 277L35 277C35.8574 274.27 36.1669 273.739 39 274M468 276C471.539 273.328 473.741 272.637 478 274C470.866 280.029 459.901 278 451 278C430.771 278 409.869 276.292 390 279M388 274L398 277M479 274L485 276M533 274L533 275M212 275L213 280L216 277M481 275L476 278M386 276L381 300C365.366 291.334 340.266 305.065 326 293L328 298M391 276L393 276M537 276C539.511 283.824 543.387 289.628 538 297L543 294M47 277L102 277L207 278M484 277L479 278M30 278L31 284L33 282M349 278L353 278M383 279L385 279M484 279L486 279M491 279L493 279M534 279L536 279M211 280L218 292M396 283L402 296C406.064 294.169 407.837 296.457 412 296.764C421.504 297.466 439.602 300.236 447 294C453.128 299.183 459.458 297.609 467 297.873C483.316 298.446 499.736 297.994 516 298C522.241 298.002 535.672 300.957 537 293M30 284C26.6626 302.052 47.3465 297.001 59 297L129 297C140.002 297 153.429 299.147 164 296L158 297C160.839 299.012 165.416 301.206 165 296M333 285L319 293L324 298M486 286L487 286M214 289L212 292M473 289L475 289M465 297C465.65 293.002 467.38 291.645 471 290M223 291L224 291M226 292L229 292M237 293L262 291M264 291L265 291M405 292L405 293M448 292L447 293M208 293C198.165 301.317 186.637 292.156 177 297L185 297M211 293C211.629 296.938 212.883 297.568 216 295L216 295M242 293C245.28 299.502 250.905 296.862 257 297.579C268.634 298.95 281.321 297.852 293 297.09C299.449 296.669 303.668 298.465 309 294L315 299L316 298L313 296M245 293C241.312 300.312 233.337 298.514 228 294L225 300L218 300L217 299L216 298L215 299M320 298L319 293M323 293L325 295M464 293L461 296M225 294L227 296M214 295L215 296M221 295L225 297M403 295L407 295M2 297L30 296M167 296L171 297L167 299M216 298L220 298M310 296L308 298L310 300L311 297M171 297L177 297M402 297L404 297M544 297L541 299M25 298C25.3702 304.353 23.8744 311.342 30.0193 315.397C36.1375 319.434 48.8954 317 56 317L123 317C131.497 317 156.69 321.277 160 312L160 314M155 298L159 310M186 298C186.552 309.491 199.575 316.976 210 317C212.161 317.005 224.901 317.67 223 314M206 298L210 298M227 298L230 299M307 298L308 298M316 298L318 298M445 298L449 298M230 299L236 318C240.17 317.989 250.506 318.825 250 313M311 299L313 299M381 300L382 303L383 300M545 300C545.929 304.015 551.128 313.661 547.968 317.307C545.455 320.207 531.854 318 528 318C510.618 318 480.26 323.83 467 311L464 316L471 316M225 301L236 317M477 302L479 302M171 303L187 317C183.867 318.966 179.069 320.877 176 318M295 303L293 304M382 303L377 320C368.897 315.67 357.947 317 349 317L293 317C284.298 317 273.69 319.501 266 315L270 313L272 317M472 303L473 303M271 313L291 305M437 305C433.851 312.536 440.786 315.856 446 320L445 317M413 307C415.905 310.555 418.177 314.072 423 314L418 309M472 314L470 310L476 307M434 309L434 310M451 309L445 317M434 310L429 315L438 316M468 311L470 310M25 311L22 317L29 317M197 312L197 313M227 312L223 318M162 313C163.85 316.791 165.025 317.882 169 316M453 313C453.955 318.67 458.311 317.093 463 317M195 314L196 317L202 317M234 314L234 315M423 314C424.627 321.229 428.657 339.335 440 335C437.786 331.874 436.535 331.543 433 333M252 315L264 316C265.666 318.394 266.34 318.122 269 317M265 315L266 315M425 316L429 315M195 316L194 320C197.689 319.241 198.747 320.547 200 324L198 322M229 316L230 320C217.491 322.14 221.418 340.708 226 348C227.436 345.287 228.634 338.487 224 340M255 316L258 318M374 318C380.357 316.337 379.492 322.485 378.6 327C376.636 336.943 377.828 348.952 371 357C375.675 363.911 371.241 371.548 370.12 379C369.264 384.691 372.285 391.79 370.806 397C369.495 401.62 364.674 405.082 362.083 409C357.161 416.442 353.028 425.755 349.6 434C346.254 442.048 332.696 466.796 353 458M449 316L452 318M2 317L21 318M173 318L171 320L170 319L172 317L174 319M180 317L178 319M229 317L226 319M233 317L235 319M252 317L254 319M450 317L448 319M21 318L22 323L23 318M159 318L162 318M200 329L203 330C199.133 329.34 187.8 321.994 193 318M231 318L234 319M248 318L252 318M168 319L170 319M186 320L190 319M261 319L263 319M171 320L181 336L179 332M22 323L23 334L25 329M441 323L438 330M552 323C553.496 330.941 559.656 348.119 553.682 354.852C548.812 360.341 536.65 358.075 530 357.996C512.993 357.794 496.084 356 479 356C467.644 356 459.196 357.793 451 349C449.673 353.157 450.594 355.266 455 356M228 324L226 337M659 324L659 329C648.372 329 637.513 328.898 627 330.591C621.515 331.475 615.132 333.567 621 339C613.932 342.47 617.079 354.026 616.996 361C616.764 380.499 619.229 403.915 616 423C611.426 416.482 602.139 418.003 595 418L558 418C551.158 418.003 545.747 419.365 540 415L543 416M201 325L202 327M440 329L441 327L439 332M18 329C21.473 341.159 45.1581 337 55 337L141 337C151.896 337 168.972 340.208 179 336M433 329L433 331M437 329L435 331M660 335L660 330C674.598 330 694.353 328.547 707 337C698.719 343.864 690.087 343.036 680 343.001C665.305 342.949 650.644 342.121 636 342M202 331L215 345L217 333L215 339L208 335M205 333L208 331M228 331C228.447 341.141 255.354 337 263 337C300.644 337 338.44 336.217 376 338M454 331L451 334L455 338L455 334M210 332L212 332M360 332L357 337M449 356C446.256 351.901 448.232 337.965 451 334M20 336L18 341L21 339M183 335L193 338M18 341L10 337L20 336M206 336L195 340M441 336L448 336M3 337L10 337M179 337L185 337M229 337L227 339M456 337L553 339M616 337L616 339M189 338L191 340M208 338L204 339M218 339L220 339M451 339L454 338M515 339L520 344M621 339L635 340M637 339L638 339M690 340L696 340M191 340C197.352 353.622 220.598 359.538 234 364L231 364M641 340L644 340M646 340L649 340M676 340L677 340M701 340L702 341M709 340L711 340M19 342C20.6074 346.843 25.2448 346.63 29 344L21 341M431 342L435 353L437 349L443 359C442.153 360.996 441.418 362.861 441.02 365.005C437.996 381.315 455.021 370.395 462 371L457 374M0 344L18 346M29 344C41.9464 351.465 61.562 347.483 76 349.286C83.2149 350.188 87.4945 355.409 95 354.91C103.503 354.346 123.186 349.844 130 355C139.161 349.935 153.34 343.474 164 344.093C175.249 344.747 186.812 350.999 198 350M707 344L708.026 383L709.603 396.512L726 398M216 345L221 346M444 345L440 355M522 345L525 347M227 347L260 354M218 348C222.228 351.278 228.553 355.335 226 361M325 349C321.037 357.398 328.175 357.169 335 357.675C346.567 358.533 358.324 355.716 370 357M440 349L440 351M440 351L436 351M2 357C23.693 357 51.6257 361.822 71 352M74 353L65 357M88 352L95 352M131 352L132 353M73 353L74 353M85 353L76 355M167 353L160 359M262 353L260 355M323 357C319.311 357.574 318.608 356.377 320 353L322 355M264 354L266 356L264 358L262 356M435 354L437 356M442 354L443 359M221 355L222 356M557 355C555.941 358.271 555.041 358.457 552 357L552 357M127 360L122 358L129 356M267 356C265.352 361.74 271.767 377.951 266 379M231 357L241 360M268 357L317 358M445 357L448 356M67 358L76 360M121 358L122 358M232 358L229 359M78 360L82 360M138 359L139 360M165 359L166 360M264 359L265 360M84 360L95 360M97 360L122 360M129 360L131 360M135 360L136 360M557 360L562 380L563 377M439 370C437.398 366.398 437.515 364.14 441 362M62 364C58.222 368.366 52.0992 373.955 53 380M234 365C246.1 375.286 268.113 380.58 270 399L272 400C277.559 392.32 270.426 385.203 270 377M368 378L344 376C347.035 369.83 354.09 367.811 360 365M471 369L469 369L474 366M513 366L525 377C525.874 373.81 525.388 372.729 522 373M462 371L469 369M558 369L559 378M13 370C14.0243 380.589 34.271 377.204 42 376.995C43.8982 376.944 49.2575 376.427 48 374M296 370L296 371M472 370L506.088 373.277L512 375M521 370L523 372M272 378C279.112 375.898 286.556 379.043 292 373C304.715 381.683 327.582 377.05 341 372L342 373L343 374L344 375M514 371L519 371M12 372C10.5846 375.442 11.3759 376.391 15 377M510 372L512 372M535 373C538.894 378.108 553.571 381.56 555 373M443 374L435 384C445.553 384.556 451.848 388.047 460 395M510 375L504 376M534 375L537 378M445 376L445 382M514 376L518 380L519 379L519 377M2 377L9 377M47 377L50 378M337 377L343 377M515 377L509 377M524 377L519 380M527 377L533 378M195 378L192 380M291 378L295 378M521 378L522 379M545 378L545 383M49 379C47.439 385.018 41.3364 389.804 40.6196 396C40.005 401.313 47.3188 411.685 42.3927 416.357C40.0466 418.583 34.9123 417.038 32 417.004C22.1801 416.888 12.6893 416.206 3 416M256 414C245.287 412.807 239.314 400.62 231 394.8C221.742 388.319 206.522 388.169 199 380L204 380M668 379L669 380M673 379L674 379M677 379L677 380M55 380L147 380M195 380L198 382M643 380L644 380M647 380L648 380M563 381L548 400M372 399L411 382.379L434 385M520 382L525 385M676 382C677.486 383.278 678.654 384.264 679.568 386.059C687.883 402.387 653.52 399.515 668.084 385.149C669.608 383.645 671.105 382.886 673 382M646 396L647 392L651 396C635.887 399.443 643.112 374.53 656.891 387.228C659.908 390.009 660.567 393.927 663 397M197 385C203.301 391.113 226.52 401.757 235 399M522 385C526.304 393.971 527.726 402.251 525 412L527 414L537 409L540 420L540 417M546 385L547 399M709 388L727 387M373 390L372 393M670 391L669 396M369 392C360.949 398.808 350.659 394.97 341 395.001C320.68 395.066 296.963 393.294 277 397M526 392C529.198 392.941 530.26 393.651 530 397L528 397M640 392L644 397M38 393C29.846 400.371 13.5629 397 3 397M428 400L434 393M532 395L544 394M37 395L39 397M43 395L42 399M368 395L371 395M38 396L34 398M366 396L369 399M536 396L542 396M543 397L545 397M652 397L660 397M707 397C708.856 410.008 701.148 428.076 707 440L726 438M542 398L546 398M608.333 398.667L608.667 399.333L608.333 398.667M37 399L39 399M45 399L79 400L144 400M217 399L216 400M377 400L379 399M386 440L391 437C393.878 439.2 396.429 439.568 398.431 435.927C406.198 421.801 408.044 403.946 427 399M574 401L607 399M610 399L615 399M640 399C641.655 405.902 645.441 411.933 652 415L649 413M679 399C677.901 405.167 674.651 411.952 669 415L670 411M223 400L224 400M269 400L272 400M511 400L523 400M542 400L541 416M635 400L636 400M271 401L283 415L276 422M543 404L571 401M270 403C265.791 412.911 268.66 416.693 278 419M525 412L525 407M343 409L343 415L344 412M345 412L361 411M341 410L339 416L340 412M359 412L346 414M653 420L665 412L668 416M267 413C265.811 415.788 265.55 417.663 269 417M395 413L391 418C395.857 419.821 398.432 417.326 402 414M262 414L265 415M324 428L334 415L335 415L336 414L337 414M446 414L441 420M535 414L536 414M283 415L332 416M508 420L525 415.981L536 417M537 415L540 415M280 416L281 417M526 416C524.905 423.031 518.475 425.351 512 426C515.003 429.78 517.415 430.411 522 429M653 416L655 416M43 417C46.9729 422.193 47.4894 430.599 53.0548 434.397C56.8485 436.985 62.6439 436 67 436C78.0808 436 105.539 440.957 113 432L110 430M313 433L317 431L316 435C307.803 430.385 297.549 435.392 290.056 430.917C286.206 428.618 287.823 417.108 282 419L281 420L280 419L279 420M662 417L665 417M266 418L264 420M341 418L339 420M398 418L401 420M710 419L726 418M49 420L137 420M267 419C270.345 427.724 273.832 433.426 284 428L278 423M372 444C370.658 447.455 371.194 448.597 374 451C373.189 438.22 380.725 428.535 390 419M141 420L144 420M275 420L276 420M376 420L385 420M195 423L198 424M512 423L511 425M616 423C616 426.557 617.369 433.801 614.523 436.468C610.064 440.646 598.539 438 593 438L534 438C526.912 438 520.047 438.192 513 438.852C511.213 439.019 506.789 440.643 506 440M505 424C507.475 428.224 509.921 430.934 515 431M476 425L475 428M510 426L511 428M510 427L508 429M288 430C281.757 434.491 270.862 434.255 264 431L269 430M321 428L317 431M285 429L287 429M305 429L306 429M309 429L310 429M434 429L429 439M12 430L13 436L3 436M211 430L248 438.682L263 431M471 430C463.177 439.698 454.649 457.344 442 460M49 431C42.2238 441.994 25.7285 437.097 14 437M267 431L267 432M510 431L513 438M514 432L509 437M40 433L36 437M608 433L611 436M265 434C264.824 440.671 252.944 449.222 246.333 450C244.996 450.157 247.654 446.775 247 448M111 435C114.224 436.864 124.346 440.18 125 435M473 435L473 439L470 440M53 436L47 438M126 436C138.334 443.368 154.932 454.243 169 457.471C178.193 459.58 187.605 456.217 197 459L186 461M317 436C321.85 446.107 332.6 449.074 343 446M389 436L390 437M89 437C86.2288 446.58 73.0072 446.488 65 446.814C59.5694 447.035 54.3175 450.103 49 451.215C42.6237 452.547 36.3756 451.967 30 454L35 457L30 459L38 460L38 460M369 437L372 440M377 437L386 439M242 438L240 440M344 438L330 440M388 438L390 439M139 439L159 440M234 440L237 439M254 439L253 440M350 439L350 440M431 440L435 440M500 440L505 440M616 439C616.512 443.052 619.899 455.215 616.393 458.111C613.832 460.227 608.916 458.448 606 458.17C598.106 457.416 589.926 457.767 582 457.375C553.272 455.953 519.839 455.379 492 458.789C481.098 460.125 473.001 464.74 462 463.553C457.678 463.087 451.899 465.04 452 459M702 439L702 440M125 440L129 440M362 440L367 440M398 440L389 454C396.384 461.604 398.814 466.139 409 469L407 471L404 469M387 441L396 446M427 442L419 458L425 459M505 442L486 456L490 454M21 443L25 453C29.2373 449.953 32.3577 449.526 37 452M56 443L63 444M706 443C704.827 447.927 703.193 455.884 708 459L708 455M0 444L21 453C14.3353 459.329 9.51205 458.07 1 458M374 445L384 453L393 444M387 444L387 448M467 444L465 446M4 445C4.43851 449.382 7.23251 450.354 9 446M496 445L489 452M64 447L67 449M59 449L61 451L65 449M245 454C256.718 452.518 272.54 447.374 284 450M287 449L290 449M9 451L13 452L7 458M198 451L205 453M245 451C233.982 461.048 224.935 455.151 212 455M303 452L313 451M353 460L371 451M14 452L16 452M369 458C373.297 453.842 376.11 452.408 382 452M385 452L389 454M21 453L23 453M271 456L296 453M299 453L301 453M384 453L383 462L384 455M14 454L14 458M16 459L29 458L30 459M27 454L30 454M32 456L32 458M222 456L224 456M260 458L269 456M311 457L324 456M36 457L37 458M301 458L307 457M350 457L349 458M412 457L413 457M475 457L478 460M484 457L485 457M23 458L26 461L29 458M208 460L220 457M247 460L255 458M276 461L297 458M415 458L412 460M419 458L408 468M479 458L480 459M710 459L726 458M40 459L43 460L40 460M197 459L207 459M361 459L361 460M364 459L363 460M399 459L398 460M453 460L476 460M499 459L502 459M43 460L59 463M233 460L244 460M269 461L272 460M321 460L321 461M327 460L331 460M371 460L373 460M415 460L417 460M323 461L325 461M341 461L353 463M24 462L23 466L48 465L44 463M28 464L31 462M178 462L179 462M220 462L224 462M255 462L256 462M311 462L312 462M423 463C429.876 465.902 435.27 464.592 442 462M617 462L617 470M167 463L170 463M173 463L176 463M215 463L218 463M251 463L253 463M296 464L308 463M385 463L398 467M158 465L165 464M203 465L209 464M245 464L246 464M0 465L21 466M48 465C52.876 465.385 68.2023 464.014 70.9228 468.434C72.4103 470.85 71.2999 475.175 72 478L54 476L62 478M152 465L154 465M242 465L243 465M285 465L294 465M334 465L320 468M73 466L75 466M140 467L150 466M189 468L198 466M231 467L240 466M280 466L283 466M77 467L83 474L85 472L82 471M187 467L156 472M274 467L278 467M313 467L317 468M705 467C698.227 482.049 714.379 477 725 477M124 469L135 468M222 468L224 468M267 468L253 470M270 468L272 468M303 468L311 468M408 471L416 468M215 469L220 469M260 474L301 469M410 469L411 470M196 473L213 470M209 475L250 471M411 471C431.101 483.547 461.047 478 484 478C492.609 478 504.009 480.522 511 475C515.867 480.84 529.969 480.57 536 476L533 473M85 472L106 479L73 478M132 473L135 472M137 473L144 473M148 473L151 472M536 472C542.572 476.413 547.338 476.7 555 477.752C557.868 478.146 562.428 478.869 562 475M63 478L68 473L68 477M185 474L190 473M172 475L179 474M256 474L257 474M4 475L54 476M56 475L59 476M81 475L74 478M87 477L85 475L87 477M151 478L170 475M232 477L252 475M514 475L520 475M70 476L71 477M188 480C190.789 476.095 201.291 476.202 206 476M564 476L568 478L563 479M145 478L147 478M413 478L409 479L419 476M509 477L512 481L514 478M519 477L519 478M536 477L540 477M567 480C572.407 480.332 577.523 478.069 583 478.004C609.576 477.686 638.398 477.432 664 485M84 478L84 490L87 489M225 478L228 478M424 479L415 479M548 478C550.002 484.198 563.101 489.694 569 487L570 488L568 490M569 478L572 478M693 478L702 479M106 479C126.856 481.767 152.757 490.47 172 499L170 501L186 507L185 504M170 480L187 479M187 506L211 505.17L254 500.881L330 495.852L339.741 491.147L409 479M214 480L221 480M511 480L494 487L502 497L506 493L500 492M646 480L649 480M684 480L686 480M691 481L695 480M65 481C62.7346 489.606 74.7858 492.978 72.9946 499.985C70.7195 508.886 61.4846 506.135 56.26 510.515C52.7134 513.488 52.297 517.851 50.0455 521.543C47.1659 526.265 34.3951 536.244 29 536.833C23.1284 537.473 21.2642 532.435 16.8302 530.031C12.9145 527.908 5.12373 528.882 1 530C5.72709 536.406 13.637 537.176 21 535M54 482L50 486L48 483L40 490L48 497L49 496L48 495L44 499L36 491L40 490M106 482L122 489L120 487M202 482L203 482M505 491L515.015 490.222L542 482M676 484L689 482M50 483L51 484M192 483L197 483M573 483L584 487L581 491L585 487M187 484L189 484M181 485L185 485M250 485L251 485M118 486L116 488M245 487L248 486M45 488L49 486M230 487L241 487M343 490L359 488M502 498C494.835 499.544 493.967 493.14 491 488L494 487M503 490L507 488M569 490L578 488L579 489L580 490L581 491M78 488L74 496M118 488L119 488M123 488L126 489L123 490M221 490L228 488M492 495L488 489L491 488M511 488L515 490M571 488L572 489M587 488C595.002 492.067 604.896 503.034 614 495M126 490L129 491M360 489L363 489M491 496C487.842 494.475 484.159 491.777 488 489M576 489L579 491M85 490L77 499L82 496M192 492L217 490M479 496C478.135 492.82 482.372 490.772 485 490M508 490C511.54 497.019 533.098 499.655 541 500M574 490L572 491M589 490L583 492M592 490L587 493M45 502L49 507L44 505L47 501C42.6006 499.39 35.477 496.47 36 491M127 491L129 491M132 491L139 494L139 499L144 496L139 494M239 494L255 491M577 491L575 493M7 492L34 492M501 492L504 495M49 497L67 493M495 494L498 493M516 493L517 493M45 494L47 496M334 495L336 497L341 494M495 494L501 496L501 496M46 495L46 497M75 495L78 498M82 498L86 495C91.4396 498.913 97.5491 498 104 498C115.094 498 125.923 498.578 137 499M128 498L132 497M214 496L235 495M342 495C347.841 500.964 363.066 498 371 498C388.663 498 406.361 498.429 424 498.429C432.19 498.429 439.964 497.12 448 499L446 497M456 495C463.647 500.495 477.756 496 487 496M590 495L595 496M613 499C621.62 499.183 632.649 500.288 640 495C646.978 499.962 654.191 495.051 662 495.001C682.365 494.87 702.714 495.832 723 496M200 497L207 496M449 496L451 496M618 496L618 499M145 497L170 501M337 497L343 498M478 497C475.222 506.361 457.054 507.43 449 511L459 512M621 497L624 497M38 498C33.6752 510.441 13.3475 507 3 507M441 498L445 499M622 498L622 500M85 499L88 498M172 499L180 500M448 499L458 498M520 499L522 500M639 499L642 498M248 500L249 500M624 500L639 507C637.516 510.269 637.912 511.058 640 514C648.514 506.398 659.96 524.665 672 515M451 507C443.061 509.86 430.951 514.788 425 507L442 502M546 502L557 512L563 507C560.69 520.454 547.998 513.977 542 508M598 502C603.042 503.956 609.985 509.171 615 506M49 505L57 509M493 503L494 520L493 516M62 508L67 504M33 505L30 507M1 513L32 513.488L44 505M186 507L182 509M428 512C424.221 512.06 422.655 510.718 422 507L425 507M526 507L528 507M619 507L624 507L628 511L632 509M639 507L644 509M50 508L54 511M195 508L200 508M424 513L418 509L421 508M503 508L516 516L509 520M614 508L618 509M634 508L636 510M643 508L639 512M421 514L413 513L418 509M527 509L541 519L539 516M621 509L619 511M626 509L626 514L627 512M57 510C71.9065 524.854 101.215 517.03 121 517.745C180.749 519.905 242.248 520.565 302 518.406C321.007 517.719 340.02 518.292 359 518.426C364.517 518.465 374.67 515.859 379 520M442 510L438 511M444 510L452 517L449 514M448 510L446 512M461 510L462 510M620 510L624 510M55 511L64 517M385 515C394.775 523.635 404.077 510.736 413 513M466 511L467 511M631 511L638 514M442 512L447 515M557 512L557 514M631 512L627 514M0 513L1 513M452 515L462 516.941L491 517M382 514L386 519M559 514L572 514M54 515L60 519M378 515L381 516M415 515L406 516M642 515L648 516M32 516L36 518L32 518M40 519L38 517L50 517M379 516L379 518M516 516C521.622 517.154 525.705 519.139 531 516M535 516L537 518M537 516L539 519M644 516L646 522M676 517L670 519M669 527L661 531C666.047 536.066 670.986 536.594 678 536.693C679.874 536.719 684.48 537.46 685.083 534.847C685.604 532.592 678.594 522.878 677 521C687.64 513.977 710.306 516.545 723 516M515 517L520 518M542 518L548 517M672 519L676 517M1 518L32 518M411 518L411 533L413 526M453 518L457 517M511 518L512 519M530 519L536 520M380 519L382 519M384 519C386.61 523.844 392.312 528.829 398 528L399 529C396.112 533.067 395.959 537.861 402 535L398 531M428 519L429 520M498 519L508 519M453 522L455 524M637 534L638 527C647.338 539.073 623.266 530.724 638.03 524.404C639.623 523.721 641.323 523.39 643 523M46 524L44 526M380 524L378 533M565 524L566 525M18 530L34 526M550 526L556 534C546.934 539.943 536.176 539.609 526 537L531 533M633 530L634 526M645 526L642 531M671 526L672 526M414 527C422.25 536.886 409.159 536.447 403 532L410 529M632 532L628 528L631 527M412 528L413 528M460 528L462 530M524 529L526 528M566 528L563 533C565.857 533.081 566.454 532.815 567 530M633 535C629.385 533.973 625.876 531.924 628 528M37 531L39 529M392 529L394 531M400 529L403 532M629 535C625.551 534.392 622.258 531.705 626 529M7 530L7 535M10 530L10 535M33 535C32.5057 531.863 32.9641 531 36 530M392 530L388 536L394 531M526 537C518.765 537.565 513.213 535.377 522 530M538 530L541 530M625 536L621 530L623 530M22 535L32 531M394 531L396 533M524 532L526 531M547 531L543 533M619 531C610.114 539.598 598.896 536.919 588 541M640 534C648.326 538.444 653.657 534.624 661 531M664 531L664 532M678 531L678 536M380 532L385 537C378.287 540.053 368.344 538.029 361 538.029L309 538C246.403 538 183.617 536.876 121 537.71C101.343 537.971 81.6561 537.599 62 537.861C52.9489 537.982 41.0928 540.481 33 536M382 533L387 536M465 532L475 536M477 537L482 532M411 533L410 536M473 533L477 533M556 534L563 533M683 533L680 536M702 533L701 538M709 533L710 533M723 533L725 538M380 534L382 535M405 534L403 536M503 534L503 537L478 537M479 535L484 536M530 535L530 537M532 538L536 535M715 535L715 537M719 535L719 537M381 536L379 538M410 536C410.434 541.758 413.355 544.86 419 546M418 536L440 546M501 536L498 537M710 536C710.725 539.781 708.123 539.177 706 537M3 537L5 536M397 546C392.629 543.937 387.491 538.258 395 537M505 537L515 538M616 537L623 536M657 537L664 537M570 546L585 542M554 545L553 546"/>
</svg>
