<?xml version="1.0" standalone="yes"?>
<svg width="728" height="546" viewBox="0 0 728 546">
<path style="stroke:#000000; fill:none;" d="M364 98L357 99L360 95L365 100L373 90L367 80L376 89C369.495 90.9272 362.187 91.6958 360 84M409 82L394 96C393.874 87.5655 404.599 81.1045 412 80C413.802 87.7398 401.329 96.8438 404.296 101.411C406.743 105.178 414.269 103.8 417.682 106.728C422.846 111.158 421.509 117.611 429 121.915C433.164 124.308 441.667 124.761 443.338 130.105C445.462 136.898 432.669 146.95 426.603 141.873C423.073 138.917 425.274 129.309 424 125C410.549 138.451 392.807 140.834 374 138.22C368.655 137.477 363.51 134.546 358 134.333C354.305 134.189 340.87 138.364 341 140L341 137M411 82L412 83M64 159C64 134.984 68.2807 114.492 88 98.4676C124.514 68.7949 183.96 86.8511 196.076 133C207.65 177.086 169.089 221.338 124 216.829C101.39 214.569 84.3589 201.317 72 183M562 100C575.32 94.8779 584.971 85.6732 600 84.1705C646.552 79.5159 676.333 115.267 676 159M376 89C383.064 89.3353 387.214 89.476 393 94M380 90C376.042 94.0056 372.449 97.1074 374 103L388 91M356 100L345 93L362 91M358 92L360 94M334 105C324.881 96.5939 325.743 104.667 332 111L337 101C346.57 107.771 344.233 98.3705 345 93M337 101L343 94M366 96L364 98M395 96L402 99M419 106C424.337 100.667 428.027 95.994 435.999 98.2986C437.914 98.8522 441.793 99.5937 441.793 102.228C441.793 107.827 429.761 116.239 426 120M437 99L437 107M441 100L441 103M550 119L563 102M404 103L390 119M404 105C404 110.845 405.794 125.862 396 120L395 121L395 122L396 123L398 123M400 109L400 122M338 138L330 136L327 140L319.631 132.04L324.158 125.486L333 111M333 111C343.832 121.832 360.915 118.101 376 118.694C378.009 118.774 387.8 118.294 386 117M396 113L396 120M420 116C414.133 121.866 410.368 127.726 403 121M350 118L355 118M443 127C448.157 121.861 451.512 117.59 458 123L459 122L456 119M340 120L341 123M427 122L424 125M430 123L430 143M458 123C454.572 130.351 445.712 133.444 451 142C454.637 138.481 463.362 132.53 466.824 140.39C469.457 146.369 454.798 153.461 455.189 161C455.62 169.313 457.779 174.263 464 179.941C465.806 181.59 472.32 186.236 473.079 180.851C474.822 168.478 454.706 172.5 449 170.397C444.617 168.781 441.218 164.217 438 161L437 162L441 167L433 172M401 124L406 125M427 124L427 142M547 124L543 139M325 126L336 135M323 128L330 135M142 139C142.351 134.378 144.067 132.349 148 130L149 139M164 140C155.634 140.168 154.598 131.367 163 131M80 142C80.0153 137.661 80.8304 129.283 87 133M98 142C86.9423 132.231 106.147 128.575 98 142M108 138C109.767 126.832 122.058 131.579 121 142M130.21 132.086C135.051 129.482 136.379 138.153 132.687 140.079C128.229 142.404 126.093 134.301 130.21 132.086M177 132L171 137C170.566 132.525 172.718 131.034 177 132M114 132L114 139M318 132C314.638 133.78 310.424 134.963 309.315 139.043C306.805 148.281 319.661 164.427 303 167L301 187C304.962 182.295 304.962 179.705 301 175M343 134L352 133L348 137M352 133L354 133M316 134L314 151M358 135L351 139M391 138L395 135M445 136L447 136M171 137C173.086 140.635 175.255 140.293 179 139M308 137C306.129 140.576 306.129 142.423 308 146M412 137C410.874 143.805 404.508 142.256 399 142L399 139M404 138L404 141M335 139L331 142L331 143L331 144M466 139L466 143M563 139L564 139M87 140L88 140M98 140L96 142M131 140L132 140M134 140L136 142M580 140L580 141M604 140L603 156M656 140L656 142L656 140M657 152C662.603 146.702 659.077 145.779 660 140M107 142L108 142M114 142L115 142M149 142L150 142M159 142L161 142M450 143L455 157M564 143L564 149L569 146L571 156M542 144C542 156.425 542.6 167.994 549 179M587 156C594.468 156.281 591.661 151.397 587 149L593 145M599 146L607 146M616.129 147.176C620.974 145.087 622.451 154.014 617.871 155.364C612.975 156.807 612.103 148.911 616.129 147.176M628 156C628.016 151.472 628.911 144.152 635 148M640 146L644 154L649 146M450 147L438 161M579 148L579 156M349 155C355.291 149.909 359.019 149.279 365 155C359.087 159.37 354.742 159.856 349 155C347.344 157.518 347.836 159.463 345 158L344 159L345 160M563 150L563 156M315 151L342 160M337 156L350 152M303 167C299.272 159.968 303.918 154.842 311 153M372 159L365 156C374.954 152.617 389.221 164.436 399 155L397 160M397 154L397 155M400 156L416 154.423L429 159L424 162M644 154L642 163M421 155L427 161M322 156L327 157M370 156L370 158M166 158C170.709 157.232 172.797 158.893 175 163L173 162M342 157L342 158M351 157L349 159M151 158L150 172M366 158L361 159M323 159C320.996 166.134 316.504 167.911 311 163M325 159L314 181C311.671 175.689 316.362 172.643 320 169M429 159L437 159M96 162L98 162C93.634 164.474 93.0571 167.166 93 172M93 164C92.5929 161.557 92.696 161.883 95 163M107 164C111.589 161.064 117.933 165.841 113.258 170.377C108.634 174.865 107.453 167.075 109 164M120 163L125 170L129 163M135 167C136.386 162.438 138.915 161.946 143 164L135 169C137.858 171.908 140.107 171.882 144 171M65 163L70 178M100 163L101 172M173 164L169 168M675 164L670 179M441 168L446 172M319 169L320 169M339 179C332.922 178.391 328.873 179.267 324 175C326.763 173.774 330.791 170.776 333.91 171.631C338.63 172.925 339.48 178.404 345.015 178.707C362.013 179.636 379.132 176.76 396 178.166C403.424 178.785 419.306 181.69 424 175L425 179L434 178M352 170L352 172M345 171L344 172M168 172L169 172M323 172L323 175M330 172L336 175M444 172L436 179M411 173L411 178M415 174L417 177M420 174L420 178M311 175L312 176M323 175L320 183L321 179M341 175L340 176M344 175L345 178M457 175C459.543 188.7 464.671 192.762 476 201C471.299 203.771 465.988 208.351 461 210.258C457.149 211.73 451.722 209.906 450.318 215.059C448.753 220.798 453.192 223.86 454 229M332 176L332 178M334 176L334 178M337 176L337 178M409 176L409 178M414 176L414 178M312 177L314 179M323 177L321 182M428 177L432 179M310 178L311 178M427 180L430 181M316 180L319 179M326 179L324 183M314 182C315.78 184.25 316.558 185.975 319 184M549 182C557.418 190.886 563.012 201.009 574 207.525C605.971 226.483 648.802 215.649 667 183M324 184L323 185M316 186C313.201 190.26 312.024 196.113 318.044 198.482C322.317 200.164 327.593 198.124 332 198.015C343.399 197.732 356.992 200.456 368 198L364 197M301 187L300.467 206.985L311 222C313.95 220.015 319.064 217.735 320.972 214.701C324.444 209.182 319.814 193.438 319 187L320 187L321 188L321 190M364 187L365 196M397 187C399.197 191.896 397.47 194.235 394 198C408.437 202.267 429.01 191.88 442.687 199.665C446.209 201.67 448.991 207.955 452 211M458 187C450.564 197.337 458.845 212.047 453 223L452 213M373 192L373 190L375 197C381.998 197.144 385.03 197.007 391 193M388 194L385 192C392.832 189.905 395.378 196.691 387 198M396 190L394 192M454 190L445 199M366 193L374 198M317 194L317 197M389 194L393 198M386 195L387 196M465 195L466 203L469 198M362 196L362 198M282 197L298 207M471 198L471 202M296 224C289.027 214.144 307.191 202.346 315 198M558 199L559 200M475 200L472 203M468 201L470 203M466 203L458 211L465 222C457.961 223.196 458.005 218.852 458 213M475 203L480 208M410 214L415 211L415 211M300 210L301 211M349 210L378 215L376 212M301 211L301 224L298 214M368 211L366 212M379 216L409 213M450 223L444 228C441.851 221.507 443.68 216.02 450 213M325 215C326.073 220.212 340.074 218.185 345 218.778C361.881 220.81 380.043 219 397 219C402.417 219 411.919 220.73 416 217L413 218M350 218L354 217M355 215L354 216M460 215L460 222M295 217L295 221M320 217L325 218M416 218C425.173 218 434.385 217.1 442 223M323 220L316 232C320.971 234.347 323.887 237.336 329 234M464 220L462 222M311 222C307.464 226.678 300.866 232.095 295 233M379 223L380 223M301 224L304 227M312 225C312.546 229.203 308.788 240.743 303 238M444 228L419 259L421 258M314 230L316 230M316 232L313 242M430 234L435 241M442 234L449 240L448 238M472 237C466.374 238.386 461.939 239.512 457 236C462.429 234.162 472.668 231.24 474 239L475 239L476 238L476 236M312 235L306 239M425 235L432 239L425 248M428 235L429 236M334 239L333 236C340.294 240.325 352.637 238 361 238C382.45 238 404.721 236.311 426 239M458 239L453 237L457 236M291 237L302 238C298.205 240.025 293.435 241.285 291 237M324 237L325 242L327 238M331 237L328 241C330.618 241.845 331.328 241.905 331 239M430 237L428 239M450 238L453 237M477 237C484.394 241.648 494.154 250.284 491 260C480.702 255.044 466.194 259.791 455 259M290 240L290 238M470 238L473 239M476 238L478 240M281 239L288 239M334 239L332 241M451 240L454 239M432 241L434 243M323 242L325 243M332 242C345.923 253.23 365.657 251.069 381 259C382.105 252.581 387.998 255.286 393 254.906C403.959 254.073 414.329 247.902 425 246M280 243L268 257C279.42 262.816 302.002 257.697 315 258.015C320.487 258.149 325.678 260.192 330 256L326 258M315 243L324 245M324 245L335 255L330 256M345 254L344 259M352 254C350.162 257.861 349.593 260.027 345 259L344 259M273 255L277 257M335 255L337 259L342 257L338 256M357 257L361 257L352 262M361 256L366 258M396 255C399.541 258.629 401.537 258.803 405 255M421 258L425 255C428.53 260.163 448.837 260.597 452 255M274 256L274 258M346 256L349 257M379 256L380 256M417 259L411 258C412.463 257.316 418.614 255.919 417 259M328 257L329 258M329 260L337 257M347 257L345 259M367 257L368 258M372 259L370 257L376 258M422 257L425 259M460 257L458 259M348 258L348 260M351 258L353 258M366 258L366 260M376 258L379 259M408 260L406 259L412 259M409 258L411 258M361 259L363 259M383 259L397 259M404 259L406 259M333 260L338 263M375 260L376 260M451 260L447 277C454.304 279.243 455.502 274.748 452 269M493 260C494.036 265.975 503.781 265.412 503.539 271.999C503.39 276.049 498.581 278.777 495 278.715C481.411 278.476 467.55 277.09 454 279M259 262C255.055 267.284 253.232 269.655 258 275C254.325 275.54 253.073 274.536 252 271M355 262C367.683 267.556 392.398 266.312 406 262M342 264C351.453 264.746 357.048 265.406 366 262M266 263L258 274M328 263C330.899 268.829 334.171 272.101 340 275L340 279L339 276M303 265L301 269M494 265L500 271L499 271M258 266L261 268M305 267L305 271M259 268L255 269M263 269L259 273M503 269L500 272L503 275M392 281L380 276C386.234 273.661 408.679 265.346 400 280L399 274M257 271L258 272M302 271L304 275M496 271L499 272M497 274L498 277M308 275L310 279C296.677 276.816 296.737 296.371 306 294C304.189 290.887 304.189 290.113 306 287C308.942 289.088 309.731 289.484 313 288L309 289M340 275L380 276M394 277L397 276L398 279M440 275L446 278M258 276C265.529 281.618 289.352 279.01 299 278L299 279L300 280L301 281M334 278L338 278L310 280M393 276L390 279M402 276L399 279M406 276L407 279L403 277M455 276L457 278M497 276L494 279M236 293C237 296.036 237.863 296.494 241 296L237 291L252 277M342 277C346.873 279.601 362.04 281.532 366 277M374 277L382 279M440 279L438 279L438 278L442 278M312 278L313 280M392 278L395 280M402 278L404 280M408 278C416.308 278 427.004 275.968 434 281L426 285L434 289M433 278L437 280M302 279L307 288M499 279C499.349 283.386 499.722 290.833 504.133 293.248C509.285 296.069 515.281 287.181 515 283M305 280L307 279M313 280C319.135 284.066 326.859 284.706 334 285.921C350.358 288.704 372.255 292.365 387 282M367 280L373 280M389 282L390 282M258 283L248 294L254 300L251 295M422 295L418 299L418 298L422 294L422 293L414 301L413 300L419 300L424 295L408 289L426 285M244 286L247 294M310 286L311 287M455 296L452 291L457 286C457.655 298.922 446.435 295.299 438.039 299.316C431.969 302.219 426.227 307.786 421 312C426.064 316.181 431.121 317.207 437 314L433 304M518 286C518.478 291.702 514.604 295.234 509 294M428 287L423 294M515 287L517 290M310 291L308 295C310.186 293.493 313.122 290.277 316 290.626C321.956 291.348 331.201 302.616 335 292M391 294L386 296L390 299L391 294L407 289M357 290L357 297L350 299L364 299L358 298M240 291L246 295M255 291L251 295M441 291L440 292M448 296L452 291M339 292C339.743 294.319 340.232 293.661 342 292C346.539 295.227 349.854 294.472 355 293M421 292L416 297M441.667 294L441.333 295L441.667 294M338 294L334 298M344 294L336 298M352 294L354 296M434 298L429 298L431 294L438 298M461 294C463.896 301.701 481.957 298.008 489 298.008C492.377 298.008 496.563 299.564 499 297M341 295L337 298M408 295L410 296L412 299M439 295L440 295M506 295C502.745 299.578 502.91 313.335 510.058 315.096C519.728 317.48 530.394 313.582 537 307C530.32 299.891 525.711 297.01 516 295M255 299L294 298L293 299M296 299L301 296M311 296L321 295M350 296L350 297M366 296L372 296M387 299L383 297L386 296M393 296L397 297L392 299M455 296L462 298M384 299L380 299L383 297M397 297L408 299M364 299L379 300M376 298L380 298M402 298L396 299M434 298L436 300M502 298L500 300M291 299L293 299M341 299L350 299M423 299L428 299M402 300L407 300M459 300L456 314L453 306L452 307M414 301C414.018 306.233 414.23 310.669 420 312M295 302C293.933 308.139 296.604 315.483 304 314L300 307M323 302C323 305.003 321.928 310.853 324.603 312.972C330.958 318.005 348.748 314.58 344 304M452 303L454 305M229 303C227.054 318.927 239.976 309.31 247 312L246 320L245 316M250 303L247 311M227 307L227 308M427 307L427 312L425 310M438 315L451 307M531 311L535 309L535 309M454 308C455.8 311.3 456.41 316.196 460.059 318.072C463.092 319.631 467.703 318.044 471 318.004C486.288 317.817 504.65 313.535 511 330L512 329L512 326M226 309L231 315C227.325 315.54 226.073 314.536 225 311M450 309L443 314M538 309L532 315C536.527 316.221 538.924 314.853 538 310M293 310L299 315M427 312L427 315M419 313L424 316M239 314L242 317M305 315L322 314M445 314L455 316M289 315C286.55 319.029 282.308 318.005 278 318C267.925 317.988 258.03 318.34 248 319M296 315L288 318M343 315C358.118 322.682 382.235 317.92 399 318.001C406.087 318.035 413.384 320.269 420 317M531 315L532 315M301 316C301.003 320.432 300.08 330.873 303.028 334.378C305.151 336.903 310.289 334.239 313 334.054C324.964 333.238 332.935 336.147 342 327L348 333L354 327L351 328M510 316L507 319M430 317C430.138 323.176 429.509 337.552 419.129 334.342C416.159 333.423 413.514 329.832 411 328L407 333L412 337L411 332M539 317C541.031 317.712 543.075 318.347 544.796 319.702C561.184 332.61 531.026 333.969 542 347L544 341C550.474 343.69 551.499 338.628 548 334M351 319L353 326M290 320L291 332L296 328L294 324M459 320C460.117 326.112 459.157 329.322 455 334C462.757 342.77 460.11 353.582 448 355.64C442.726 356.536 438.204 354.223 433 354.029C418.888 353.504 407.726 356.688 397 346C396.066 350.643 398.659 352.774 403 354M416 321L413 328M243 322C227.493 348.669 270.611 333.424 283.852 339.589C287.554 341.312 287.671 347.763 290 351L289 344M296 322L298 331L296 330M340 322L342 327M448 322C448.175 327.402 450.303 330.179 454 334L426 335M218 323C217.051 325.294 213.459 330.761 213.913 333.096C215.155 339.488 223.97 336.322 227 334C231.08 337.534 233.839 339.056 239 337M513 328C527.735 324.591 532.463 323.701 544 335M537 325L538 326M219 326L221 328L217 330M237 326L238 326M546 326L547 326M233 327L239 329M292 327L292 329M416 331L420 327L423 334M544 327L544 334M216 328L214 330M448 328L442 334M220 329L225 335M222 330L229 331L225 331M355 329C351.67 335.905 342.669 336.32 336 334M230 331L235 329M511 330C510.735 333.51 509.909 337.082 505.981 338.111C492.336 341.685 475.224 337.177 461 339M218 331L217 335M291 332L291 336L299 335L297 333M360 333L360 339L362 336M401 333L402 333M414 335L416 335M508 335L508 336M544 335L544 341M215 336C212.796 339.175 212.363 340.479 214 344L216 337M237 336L237 337M291 336L287 340M300 336L301 336M338 336C338.075 344.353 339.355 347.55 333 354L345 354L341 349M353 336L359 338M401 339L397 338L408 337M218 337L221 345L223 338M297 337C296.507 343.241 295.505 350.733 301.545 355.087C304.819 357.448 309.518 354.521 313 354.129C323.306 352.969 330.155 355.684 337 346L334 348M445 337C445.001 344.127 445.921 347.75 451 353M512 337L537 339M226 338L225 360L233 358L230 357M240 339L237 340M363 338C372.673 339.381 386.569 340.716 396 338M508 338L512 338M552 338L554 340M234 339L228 357M398 341C394.901 345.475 388.955 354.151 399 354M216 343L222 349M303 343L300 351M361 344C366.81 349.148 350.383 353.331 348.477 354.875C346.609 356.387 347.248 358.92 347.042 360.991C346.883 362.583 346.418 364.819 345 364M546 343L549 344M514 344C516.964 356.928 521.867 357.988 534 359M214 345L217 346M398 345L397 346M353 353L361 347M543 346L545 346M362 347L370 351C365.5 354.803 361.677 355.408 356 354M393 347L395 349M296 348L291 351M444 348L439 354M541 348L536 380C531.289 377.498 526.871 378.062 522 380L521 379L521 374C517.166 380.147 512.385 378.032 506 378.001C495.001 377.948 483.999 377.982 473 378C467.741 378.008 462.674 379.675 458 377C462.028 369.452 460.672 360.134 455 354M286 349C286.672 352.777 288.294 353.525 292 353M365 349L360 354M370 350L374 350C372.337 353.448 370.884 355.062 367 355M391 355L385 352L395 354M285 354L285 359L279 358L282 359M291 354L299 356M332 354L333 354M345 354L347 356M380 356L375 357L385 357L386 356L387 355M519 354L519 355M371 355L375 357M513 355C514.109 358.571 515.945 359.484 518 356L518 356M292 356L290 364L292 358M303 357L302 374L303 370M442 357C441.264 362.696 434.421 380.219 446 375L443 367M233 358L279 358M381 358C377.976 362.906 382.192 365.338 380.698 369.981C377.138 381.037 360.33 370.467 355 368L361 375M439 371L436 366C426.477 375.915 420.694 376.227 415 364C408.532 368.833 395.358 381.261 389.028 368.992C387.349 365.738 388.035 361.503 387 358L386 359L385 360L384 359M464 358L512 359M521 358L518 359M225 360L220.121 376.643L234 378L278 378M286 360L288 359M416 362L415 363M519 363L522 373M284 364L283 380L285 377M348 364L354 367M377 364L378 365M289 365C289.005 367.458 287.887 376.411 291.235 377.079C294.571 377.744 295.354 370.563 294 369M414 365L416 367M438 365L437 366M295 367L302 370M301 366L300 367M350 366L348 374L350 368M369 373L380 366M418 366L420 373M446 366L446 368M298 367L301 372M414 367L416 371M345 368L348 370M378 368L372 374M380 368L380 370M411 368C411.169 373.146 412.662 375.421 418 374M296 369L298 371M355 369L353 371M437 369L431 372M387 370C387.154 374.678 388.149 377.298 393 375M298 371L299 377L302 374M304 371L308 375L300 377M353 372L355 371M435 372L438 375M354 373C348.197 377.788 342.932 375.564 336 375.09C326.743 374.456 317.278 375 308 375M290 374L293 374M348 374L346 376M430 374C433.116 376.63 434.951 377.896 439 377M361 375C355.5 385.139 365.324 383.364 369 389L364 385C361.043 387.982 357.897 392.819 353.91 394.397C349.417 396.175 342.767 395 338 395C327.707 395 317.182 396.228 307 396.042C299.631 395.908 286.706 392.156 288 383M379 375L386 377M405 375L410 375M446 375L458 377M525 375L525 378M296 377L297 377M352 377L359 377M218 378L220 379M304 379C304.763 385.176 304.243 388.224 300 393M520 379L521 379M281 380C279.468 399.406 281.993 423.688 272 441C266.144 436.787 258.937 438 252 438C237.567 438 215.829 442.057 203 435M461 380C461 397.53 448.36 398.826 437 388L441 396M538 382L540 419M215 383L209 399M436 383L436 389M360 385L357 391M374 404C372.107 401.425 372.499 395.402 376.148 394.318C390.727 389.988 408.227 397.387 423 393.682C427.578 392.534 429.978 388.019 434 386M525 385C527.263 392.293 530.837 395.822 537 400M350 386L356 390M435 386L437 388M364 388L367 389M286 389C287.144 393.018 288.776 395.082 293 394M369 389L374 394M434 389L429 394L439 396M365 391L357 395M427 394L429 394M273 395L278 399M457 395C462.661 399.598 468.1 398 475 398C487.331 397.999 499.67 397.862 512 398.004C518.325 398.077 524.33 399.378 530 396M535 395L535 397M281 398L283 400L288 396M323 396C323.012 400.306 322.733 409.04 326.589 411.972C328.743 413.611 332.475 412.975 335 413.025C342.782 413.178 353.318 414.763 360.83 412.682C366.013 411.247 367.175 405.445 373 408L374 407L375 405M363 396L372 395M453 396L457 409C452.813 412.88 449.641 414.915 444 413C441.664 420.904 444.475 425.409 450 431L459 416L453 414M306 397C306.202 403.497 304.174 409.613 297.91 412.972C291.529 416.395 282.893 410.805 283 404L287 411M531 397L528 399M211 399C230.163 398.177 253.172 394.517 272 399M460 398C460.522 404.612 461.584 408.58 457 414M534 398C531.052 403.157 533.383 414.299 537 419M283 400L283 404M285 400L286 405M453 401L448 407L452 404M207 402L206 406M369 403L370 404M377 403L381 407L383 404M375 405L384.001 413.382L398 413.09L443 414M450 405L453 411M308 406C308.042 417.953 315.114 413.03 324 413M381 407L381 410M373 408L364 414M449 408L444 413M284 409L280 413M205 410L203 418L206 415C217.1 422.984 243.528 418 257 418C263.64 418 272.669 416.15 275 424M277 413L278 421M299 413L307 415M206 414L206 415M288 414C281.012 421.559 284.508 425.485 291 432C285.632 437.391 283.229 439.912 287 447C299.161 442.369 322.718 446.268 335 450L325 458.803L310 461L319 469C326.853 463.602 326.596 472.581 333.055 474.57C340.845 476.969 349.956 476.815 358 478.29C362.669 479.146 366.171 481.794 371 481L365 479M340 414C340 421.218 339.8 427.074 332.999 431.397C329.033 433.918 323.484 432.971 319 433.003C306.738 433.09 289.125 433.696 285 419M369 414L381 414M448 415L448 427M304 416C303.976 422.901 301.82 426.123 297 431M455 416L455 424M459 416C464.561 420.026 473.271 418 480 418C496.577 418 514.68 415.97 531 419M201 418L208 418M462 421C460.558 426.136 456.586 431.083 451 431M534 422C533.61 425.791 536.232 432.688 534.153 435.682C530.724 440.62 515.367 438 510 438C497.545 438 475.647 433.753 464.299 439.032C461.035 440.551 458.502 445.418 456 448C459.062 452.078 461.505 459.363 467 455C474.56 462.608 500.474 457.999 511 458C515.098 458 521.904 457.039 525 460M540 422L540 425M390 423C390.747 425.519 390.42 430.244 392.603 431.972C395.947 434.618 404.93 433.148 409 433.091C422.36 432.904 435.986 435.405 449 431M200 424C200.016 429.963 199.898 435.219 205 439M540 431L540 440L534 438M336 432L345 433C343.105 439.409 341.875 448.869 350 450C350 444.409 352.139 435.455 346 433M455 432L462 439M351 433L390 433M312 434L312 446M347 434L347 449M406 434C409.975 459.759 440.317 440.934 455 448M415 434L415 445M538 435L538 437M457 436L457 445M459 438L460 443M202 439L204 439M405 439C403.569 457.99 374.099 446.424 362 450L369 459C366.021 457.782 358.812 453.389 362 450M272 441L269 457L251 458L255 458M203 443L207 450C195.385 457.667 177.245 450.996 164.039 453.148C159.211 453.935 157.909 459.361 153 459L157 458M539 444L529 458L542 460M272 448L285 447M336 450L343 450M401 450L416 449M273 451L270 453M337 451L327 460M332 460L337 455L342 461C347.344 455.657 351.09 451.093 359 451M208 452L211 457C202.676 461.465 189.044 461.153 180 459M276 452L270 457M285 453L299 456M298 452L299 452M337 453L337 455M217 458L214 456L215 455C224.858 462.091 239.004 455.563 250 458L247 459M301 455C303.232 455.038 310.736 455.017 309 458M311 457L315 458M468 457L466 459M0 458L58 458L88 459L59 460L1 460M94 458L104 459C100.655 459.988 96.316 461.023 94 458M259 458L262 459M265 458L268 459M271 460C282.077 456.887 294.167 458.349 305 461L301 461M315 458L317 458M461 458C462.251 464.198 468.314 472.1 475 472L467 459M568 458L576 459L568 458M586 458L599 459C595.228 460.115 588.631 461.434 586 458M605 458L626 459C621.302 460.389 608.197 462.174 605 458M633 458L646 459C642.228 460.115 635.631 461.434 633 458M653 458L678 459C672.887 460.511 656.421 462.466 653 458M683 458L695 459C691.363 460.075 685.536 461.311 683 458M727 460L698 459L727 458M88 459L93 459M104 459L153 459M212 459L215 459M258 459L260 460M291 459C292.128 464.283 295.208 469.198 301 467L295 467M297 459L300 459M526 459L528 459M543 459L567 459M576 459L585 459M599 459L604 459M626 459L632 459M646 459L652 459M678 459L682 459M695 459L698 459M0 460L1 460M170 460L174 460M296 460L297 465M307.333 460.667L307.667 461.333L307.333 460.667M343 460L346 462M258 461C239.268 476.924 218.026 475.817 195 474M525 461L514 478L518 476M155 462L151 467C164.233 474.063 187.266 471 202 471C208.081 471 214.521 471.924 220 469L213 462M264 462L264 466L254 466M292 462L294 462M270 463C270.811 467.743 275.4 466.617 276.654 470.287C277.551 472.911 274.353 474.684 272.18 473.825C269.12 472.616 266.467 468.201 264 466M277 469L291 463M313 463C305.709 470.628 311.402 475.42 319 469M288 464C287.674 467.094 287.058 467.511 284 467L284 467M371 464L372 477L366 476L367 477L367 478L367 479M200 466L208 466M354 466L365 476M435 466L437 466M289 467L293 467M301 467L307 470M428 467L432 467M678 467L693 480M274 468L270 472M421 468L425 468M132 469C123.316 475.619 110.292 472.964 100 472.455C83.2459 471.627 65.8479 473 49 473M150 469C157.595 478.01 173.612 473 184 473M271 469L272 470M287 469C287.291 477.85 294.885 476.447 297 469M414 469L418 469M616 469C613.204 473.11 610.401 478.48 605.961 481.012C600.749 483.983 592.844 484.233 587 485.25C573.341 487.628 558.833 491.568 545 489M642 473L637 474L647 472.754L678 469M78 470L80 470M100 470L102 470M144 470C143.32 475.411 133.404 472.967 130 471M150 470L141 480M222 470L234 473M373 471C375.056 475.054 373.9 476.673 371 480M519 477L553 476.83L567 472.607L578 476.567L610 477M309 472C304.457 475.842 300.758 475.999 295 476M316 472L328 474M453 472L454 472M612 476C618.53 477.795 625.65 475.953 631 472L635 477L636 477L637 476L638 475M42 473L42 475L42 473M45 473L44 474M369 473L371 473M402 480L451 473M474 473L486 479L486 473M34 480L38 478L32 478L41 474M236 475L251 474M513 474L511 476M630 474L632 476M633 474L637 474M644 474L648 474M702 477L698 477L708 478.772L726 479M271 475C268.517 476.668 259.713 479.593 263 483M483 475L484 476M505 477L503 476L508 476M694 475L698 477M726 475L727 475M42 476L39 479M230 479L232 479C221.33 477.633 209.764 477.145 199 478.17C192.107 478.826 183.286 481.302 177 478L185 476M234 478L239 477C247.599 483.046 256.384 474.488 264 478M277 476L286 476M480 476L483 479M487 476L486 477M627 476L631 478M630 476L630 477M695 476L693 478M70 477L68 479M163 477L165 477M235 478L239 480M377 477L374 479M503 477L501 479L503 481L504 478M563 477L571 476M696 477L694 479M1 479L32 478M122 478L120 480M143 478L160 478M177 480L172 479L177 478M259 478L257 479M369 478L369 479M487 478L500 478M699 478L697 480M46 479L45 480M80 479L78 480M110 479L109 480M148 480L172 479M481 479L485 482L483 480M486 479L484 481M504 480L513 479M698 479C706.081 486.253 716.746 489.09 727 492M92 480L94 480M197 480L214 480M378 480C379.086 483.77 385.786 492.982 383.184 496.512C381.238 499.15 370.242 497.975 367 497.95C355.29 497.859 343.624 497.806 332 497.209C325.575 496.879 322.383 498.552 317 494M465 480L468 480M501 480L497 482M658 480L659 480M675 480L677 480M35 481C32.2336 483.709 24.0105 493.322 20 491M371 481L377 484M138 483C140.502 487.403 148.372 486.427 153 486.196C165.457 485.574 180.904 480.425 193 484M196 484L257 483M448 483L452 483M484 483C489.222 487.807 494.478 493.775 502 493L503 494L498 491M488 483L494 483M117 484L104 499M440 484L445 484M39 485L38 486M63 485L51 500M433 485L438 485M75 486L64 500M426 486L431 486M50 487L38 500M87 487L76 500M102 487L90 500M150 490L150 488C147.88 492.609 149.926 495.948 155 494L150 490M420 487L424 487M37 488L28 497M124 488L124 489M414 488L417 488M163 489L156 495M316 489L319 495M295 493L287 494L310 490M509 490C511.195 503.766 538.139 492.354 546 491M691 490L694 492M461 491L463 491M654 491L666 500M674 491L687 500M409 499L457 492M539 493L534 497M204 493C207.428 498.288 217.406 496.569 223 496.571C235.278 496.576 247.784 496.745 260 497.829C264.581 498.236 268.627 496.429 273 498L267 498M379 493L375 497M696 493L709 500M20 494C13.8649 498.339 9.36832 499 2 499M286 494L287 494M540 494L540 496M637 494L643 500M273 498L291 499L290 496M288 495L286 497M44 517C38.7609 516.971 30.305 518.444 32 511C37.6681 512.082 42.7871 514.978 48.0895 515.852C61.6434 518.085 77.2527 516 91 516C97.2808 516 110.373 517.486 109 508L149 496M159 496L203 496M274 498L278 496M500 496L503 495M504 496L520 510M540 496L542 498L538 498M281 497L286 499M283 498L285 497M293 499L302 501L281 510L284 509M308 499L304 498L319 498M507 497L510 496M278 498L282 500M301 499L304 498M386 499L383 499M457 500L479 498M536 498L538 498M576 498L577 500M621 498L623 500M42 499L41 500M116 506C120.6 501.078 123.021 498.51 129 503M297 499L300 499M305 499L303 501M592 499L593 500M387 500L394 516C389.435 518.423 384.748 518.535 383 513M280 508C275.723 512.262 268.609 519.896 262.495 513.682C260.336 511.487 259.657 506.883 256.529 505.783C251.895 504.154 245.949 505.739 241 504L255 502M257 502L267 502M445 502L446 502M448 502L449 502M544 502L555 519M198 503C210.306 523.781 179.661 514.47 169 518L172 519M439 503L443 503M534 503C537.657 508.005 542.655 528.428 552 515M580 503C586.073 509.073 592.4 517.764 601 520M6 504C17.5234 508.958 30.703 508.713 43 509.015C65.1248 509.557 86.9259 508.002 109 508M163 518L167 518L162 518C161.034 508.378 155.19 508.916 148 505L167 506L166 505L163 506M168 507L190 504M241 506L241 504M433 504L437 504M566 504C577.486 517.189 591.109 533.598 608 540M111 511L120.09 515.833L130.285 511.397L148 505M250 507L229 513L239 505M428 505L431 505M598 505C602.921 509.907 609.737 518.679 617 519M149 506L140 510M241 506L238 509M284 507L288 506M422 506L425 506M614 506L617 509M697 506L698 507M418 507L419 507M485 507L487 507M632 507L633 508M675 507L694 520M161 508L162 508M421 516L482 508M654 508L673 520M700 508L701 509M115 509L115 510M137 509L138 510M147 509L155 509M635 509C640.516 513.702 646.667 519.03 654 520M170 511L174 510M619 510L632 520M703 510L718 520M30 517C25.739 515.57 26.4364 511.743 31 513M201 516L199 511M227 513L229 513M382 518L329 516.965L301 516L305 511M188 516L197 512M326 512L330 515M36 513L36 516M142 513L143 513M171 513L172 513M200 513L199 514M203 517L227 513M126 515L130 519L135 514L152 515.737L161 519M154 515L159 514M164 514L166 514M168 514L171 516M223 517L235 520L233 518M108 515L116 517M153 515L151 517M274 515C282.241 519.752 291.034 517.385 300 517M550 515L551 516M133 516L137 516M496 518L507 518.036L536 516M4 517L25 517M214 517L219 517M223 517L225 519M236 517L238 517M235 520L263 516M499 519L502 517M135 519L131 519M136 520L138 518L143 518M167 518L169 518M220 518L222 520M231 518L228 518M146 519L155 519M221 519L222 524L222 521M394 519C397.746 521.864 400.481 526.488 405.001 528.222C425.526 536.097 455.462 525.983 476 522M479 521L495 519M552 519L553 519M556 519C561.11 525.339 571.036 540.266 580 539M233 520L225 523M616 520C622.326 526.054 630.674 534.209 639 537.35C647.247 540.462 667.563 538.306 676 536L672 532L670 536M548 521L557 530L551 530C545.564 539.127 532.361 536 523 536C506.343 536 489.709 537 473 537C460.84 537 452.213 538.074 442 531M402 526L406 522L409 527M602 522C608.475 527.603 621.075 539.911 630 539M635 523L637 525M549 525L550 529M639 526L649 537M88 528C86.6754 530.036 84.0175 533.697 87.3333 535.397C91.4819 537.523 99.4204 536 104 536C117.666 536 131.335 536.094 145 535.997C180.351 535.747 215.679 537.689 251 537.95C279.969 538.164 309.023 536.594 338 537.594C356.122 538.22 374.85 537.949 393 537.731C397.812 537.673 407.135 540.48 410 536L410 533M148 528L152 535M444 531L447 533M558 530C559.093 533.191 558.953 534.286 556 536L555 532M432 533L436 532M424 532L420 536C425.778 539.052 435.761 538.81 442 537C438.825 534.796 437.521 534.363 434 536M428 537L431 532M667 532L670 533M683 535L685 532C684.184 536.416 681.157 536.865 677 537M426 533L428 535M643 537L644 533L645 537M724 533L726 537L723 538M18 534C21.1766 538.895 29.7825 536.002 35 536L84 536M686 537L690 535L684 537M412 538L420 536M448 536L443 538M701 536L701 538M710 536L711 539M715 536L715 537M719 536L719 537M3 537L17 537M549 537L555 537M560 537L573 538M706 537L706 538M695 538L696 538M603 540L604 540M574 542L583 545L579 544M612 543L613 544M714 544L710 546M584 545L585 546M615 545L616 546"/>
</svg>
