<?xml version="1.0" standalone="yes"?>
<svg width="728" height="546" viewBox="0 0 728 546">
<path style="stroke:#000000; fill:none;" d="M201 1L193 20C185.982 17.0386 177.018 17.0386 170 20M203 1L202 2M322 1L323 2M324 1L323 2M214 4L203 19M327 4L328 5M450 5L446 11L446 9M330 6L339 18M220 7L213 14M439 8C436.952 11.5806 437.488 12.7723 440 16L435 13M473 21C467.246 15.5518 462.526 16 455 16L461 8M478 8C477.22 19.2434 489.717 17.5677 497 16.5764C518.637 13.6311 542.014 17.5937 564 16.0895C572.08 15.5367 586.91 19.4284 588 8M594 10L592 20L584 16M234 18C234.169 18.4645 244.842 13.921 248 13.1389C264.022 9.17059 275.345 11.5659 289 20M477 11L475 13L480 17M588 12L588 17M480 17L476 19L475 13M443 16C446.521 14.3635 447.825 14.7955 451 17L440 16M468 15L473 14M451 17L454 17M239 18C244.911 22.4784 257.749 20 265 20M342 18L345 19L339 20M597 18L594 19M198 20L203 19M205 19L223 20M231 20L233 19M268 20L286 20M346 19L350 22M186 20L185 21M291 20L293 20M295 20L303 20M320 20L331 20M333 20L334 20M476 22L478 37L479 31M597 22L597 24M448 25L447 31L461 23M352 24C357.037 29.3124 361.239 35.5657 362 43M434 25C427.374 37.9326 439.645 33.0554 446 30M482 26L482 36C497.881 40.6941 514.731 36.3355 531 36.0154C538.48 35.8683 546.736 39.307 554 38.412C565.272 37.0234 575.346 34.8364 587 37M320 27L327 38L314 40M592 27L593 58C599.869 56.0074 599 50.0467 599 44M598 27L598 39M181 32L162 39L176 28M425 28C425.772 32.5034 428.667 34.7828 433 36M449 28L450 29M429 29L431 32M288 30L296 39L288 38M346 30L355 40L352 40M427 30L428 31M428 32L427 33M423 33L422 38L429 36M480 34L482 36M494 35L494 36M293 37L293 38M346 37L333 40M478 37L478 39M183 38L183 40L183 38M299 38L301 39M180 39L182 39M185 39L212 40M263 40L284 39M296 39L298 39M349 39L345 39M417 40L421 39M167 40L158 52M171 40L172 40M216 40L217 40M246 40L259 40M303 40L311 40M438 43L431 54L431 47M174 44C167.739 50.2567 160.933 57.9503 152 60M288 44L288 45M479 44L484 60L495 51M248 45L248 46M487 45L489 56M293 46L293 54M301 46C304.57 61.1704 291.604 58.7173 281 60M352 46L358 58L359 46M362 46L362 48M425 46L428 60L429 53M289 47L291 57M247 48L247 59L235 59M264 48L267 60L277 60M417 48L416 59L423 56M688 57C691.912 53.3496 695.489 50.6502 701 51L695 65C691.443 63.1532 689.378 62.2297 690 58C682.181 55.9355 658.79 66.0327 658 56L666 57M249 51L248 60M503 51L507 58C513.717 55.7944 528.312 63.1832 524 51M173 52L165 58C174.869 62.6218 190.223 60 201 60M548 52L549 57L553 53M579 52C580.772 57.8561 586.667 57.9658 592 59M428 54L431 55M650 58L648 64C645.588 57.6443 651.358 54.9801 657 55M287 55L287 59M691 55L696 60M300 58C310.556 63.6044 328.404 58.243 340 58.0178C345.524 57.9105 353.053 59.4989 358 58M526 58L548 58M430 57L429 58M439 57L441 59M494 57L507 59M511 57L508 60M597 57L601 59M661 57L661 60M348 58L353 58M360 58L363 60M552 58C560.371 60.0568 571.888 60.0157 580 57M690 58L693 63M694 58L691 62M160 60L164 59M251 60L265 60M369 59L366 61M412 59L414 59M265 60L265 62M682 60L689 63M484 62C486.808 69.2386 490.846 77.053 500 75L494 64M244 64L244 65M355 64L355 66M591 64L593 76L598 64M648 64C646.806 73.3973 646.555 87.8419 638.661 94.4915C632.474 99.7028 622.917 95.1588 619.708 105.003C617.791 110.883 623.019 114.086 627.961 110.953C632.962 107.781 635.224 102.621 636 97M170 65C167.329 69.5998 165.687 72.9465 168 78C159.134 79.9349 161.895 72.4662 164 67M264 65L259 74M348 65L353 67M695 65C693.892 79.0376 692.986 96.2789 682.745 105.468C679.036 108.796 675.118 115.368 669.059 113.215C658.962 109.627 670.391 99.7579 676 99L681 106M330 66L336 80M338 66L338 67M174 67L172 80M243 67L239 74M363 67L367 73M356 68L358 79M358 68L361 75M446 68C448.157 71.6971 451.46 75.9812 449 80M511 68C512.042 71.168 512.943 75.1478 516.133 76.8526C522.877 80.4559 540.271 76.6224 540 68M586 68L585 78C579.237 77.7367 573.844 75.5883 568 75.9884C557.895 76.6804 547.709 80.2083 538 75M553 69L553 76M90 70C93.8639 76.1671 95.6021 78.468 103 80M151 70L147 79M339 70L339 79M343 70L346 71M421 70L422 78L416 78M570 70L566 75M430 71L430 72M433 71L447 82M335 72L335 73M512 72C507.797 75.6941 505.346 75.7228 500 75M516 72L518 77M320 73C322.934 79.1847 315.223 77.7921 311 78.2855C301.178 79.433 290.885 79.5755 281 80M323 75C327.54 74.6336 332.582 82.4913 334 74M359 74L359 75M432 74L434 74M490 74C491.718 77.1758 492.746 77.4902 496 76L496 76M419 75L419 76M513 75L508 76M557 75L557 77M165 76L165 77M586 79L592 76M323 78L326 78M492 78L490 80M149 80L158 79M175 79L191 80M438 79L439 80M493 79C494.901 84.9539 499.137 91.5522 505 94L504 91M512 79L515 78M237 80L238 80M241 80L242 80M246 80L247 80M264 80L270 80M595 82L595 84M358 83L358 99M333 84L333 85M505 84C508.632 89.1102 515.739 99.3831 519 88M145 85C144.27 94.245 141.658 106.417 147.074 114.819C152.317 122.954 183.141 121.278 190 116C196.12 120.296 197.286 115.802 197 110M323 85L324 89M543 85C544.349 99.3678 528.572 95.3969 519.001 95.9784C514.235 96.2679 511.744 99.1543 515 103M585 85C585.595 92.8809 592.67 94.5314 594 86M93 86C95.8664 95.6701 114.978 90.6173 122 88M120 86L122 86M569 86C567.977 99.5647 550.809 96 541 96M191 87L185.697 98.0617L171 99.0895L146 100M332 87L329 95M415 87L416 91L418 90M420 87L418 99L418 92M534 87L537 89L534 94L535 89M557 87L557 95M152 88L150 99M159 88L159 89M162 88L162 98M318 88L316 100L304 95M451 88L449 100M514 88L516 92M222 89C219.787 96.8779 220.27 99.9691 229 100M274 90L279 99M326 90L326 91M469 90L479 93M323 91L324 95L325 93M379 96L414 91M96 92L97 98M416 92L417 93M480 92L494 96M506 93L510 94M510 94L511 99M588 94L566 96M251 95C254.835 104.031 263.3 95.0711 269 100M261 95L263 97M274 95L279 99M300 95C301.613 98.1312 302.585 98.9086 306 98M324 95L323 100M364 97L377 95M417 95L419 95M506 96L508 96M283 97L282 99M285 99L301 99M298 97L299 98M393 120C395.09 110.968 398.344 101.528 407 97M684 103C684.099 99.4747 684.574 98.0871 688 97M187 98L211 100M630 98L633 105M677 98L682 98M232 99L242 100M271 99L275 99M394 100L401 100M447 99L445 101M498 99L499 99M213 100L217 100M248 100L250 100M387 100L392 100M405 100L409 100M412 100L413 100M440 100L441 100M470 100L477 104M673 100L669 102M620 101L621 102M566 102L566 103M186 103L189 117M219 103L221 118C215.49 120.5 203.495 119.493 198 117M444 103L434 116M284 104L284 105M304 104L304 106M307 104L307 108M481.333 105L481.667 106L481.333 105M525 104L526 110L521 105M535 104L534 115C545.964 115 552.77 120.624 561 110C566.435 117.143 580.504 119.862 586 110L581 113M149 105L150 117M565 105L564 111M99 106L99 118M315 106L314 108M354 106L342 120M557 106L557 111M420 107L421 119M483 107L490 113M485 107L486 108M588 107L587 109M285 108L283 119M310 108L310 109M358 108L369 120M487 108L490 110M155 109L158 118M230 109L230 119M270 109L275 120M268 110L269 119L259 118L259 113M279 110L280 119M313 110L309 116L309 111M527 111L534 114M302 111L300 119M306 111L303 119M527 111L530 112M201 112L201 118M226 112L224 120M248 113L250 119L252 116M404 115L408 115C405.934 118.49 404.035 119.51 400 119M430 115L432 119M528 115L531 118L534 115M266 116L266 119M246 117L248 120M307 117L306 119M559 117L563 117M199 118L197 120M251 118L259 118M272 118L270 120M277 118L277 120M344 118L356 120M346 118L344 120M146 119L145 120M149 119L150 120M189 119L191 119M233 119L245 120M408 120L418 120M586 119L585 120M287 120L297 120M363 120L365 119M371 120L372 120M384 120L385 120M390 120L391 120M190 122L195 129M153 123L157 131M222 123L222 124M371 123L375 126M214 124L214 125M347 124L342 129M159 125L161 138C163.728 136.258 164.327 137.408 166 140L168 131M421 125L423 140M534 125L534 131L534 125M544 125C546.823 133.298 553.991 134.818 562 135L562 127M554 125L553 133M201 126L205 134M205 126L213 140L214 130M223 126L227 131M448 126L450 126M579 126C574.448 132.691 570.124 142.248 562 135M87 127C83.8447 131.883 86.3166 135.256 92 134L86 128M297 127L297 130M444 127L445 127M585 127L602 140M100 128L92 134M164 128L165 135M216 128L218 140M259 128L260 128M571 128L563 133M436 129L438 130M449 129L452 130M465 129C473.152 142.117 454.022 140.489 446 139M395 130L395 131M296 132L294 135L295 133M440 131L452 136M454 131L458 132M522 131L516 140M534 131C535.932 136.821 544.132 135.439 549 134M163 132L163 135M378 133L362 142M394 133C391.749 140.096 387.759 139.999 381 140M401 133C400.131 137.658 398.825 139.452 394 140M524 134C525.436 136.856 525.329 137.844 522 138L525 138M174 135L168 139M176 135L183 140M290 135C290.799 137.371 292.47 139.71 295 138M292 135L294 136M528 137L533 135M82 136L86 135M186 137C192.145 141.661 203.57 139.462 211 140M268.667 138L268.333 139L268.667 138M157 138L154 140M159 138L161 139M219 138C225.005 141.204 234.995 141.204 241 138M264 138L264 140L264 138M271 138L287 139M354 138L354 140M572 138L570 140M174 139L176 139M216 139L216 140M249 139L251 140M253 139L255 140M261 139L263 139M265 139L267 139M401 139L421 140M241 140L250 142M257 140L258 140M350 140L352 140M356 140L357 140M361 140L362 140M592 140L593 140M159 141L159 142M163 143L162 145M272 143L272 149L267 144M289 143L289 144M358 143L355 145M535 143C534.379 151.876 537.278 158.095 547 154L543 147M607 143L623 158M171 144L171 146M274 144L274 147M375 144L376 144M554 144L550 154C558.295 161.976 569.198 160 580 160M158 145L157 146M378 145L379 145M521 145L521 146M528 145C525.087 149.14 522.681 152.154 527 156L529 153M188 146L200 168L199 162M353 146L353 147M360 146L359 147M381 146L384 147M71 147L68 149L70 150M93 147C87.3539 152.922 73.9995 161 69 151M163 147L162 159M423 147L423 151M532 147L534 149M166 148L167 159L169 159L170 148M175 148C175.465 158.631 182.458 159.921 192 160M197 148L199 159M288 148L281 160L273 150M386 148L402 156M154 149L148 160M359 149C359.561 153.57 360.465 157.99 355 159M518 149L512 157M201 150L201 151M238 151L239 158C234.54 159.315 230.216 159.583 228 155M245 151L245 152M280 151L280 154M426 151C428.499 161.549 412.797 159.585 406 160M454 160C468.783 159.695 483.267 156.298 497 151M278 153L278 154M424 153L424 157M429 153L433 156L429 159M522 154L522 160L522 156M547 154L550 154M158 155L156 160M173 155L175 158M273 155L275 160L276 156M226 160L223 157L228 160M434 156L450 160M527 156L525 158M537 156C534.472 158.989 527.712 180.251 537.777 176.454C540.567 175.401 541.872 171.014 544 169M170 158L172 158M223 158L219 160M594 160L623 160M627 159L632 164M202 160L203 160M251 160L268 160M272 160L271 165M587 160L591 160M162 162C162.162 169.599 164.957 175.381 170 181M354 162L353 163M409 164L410 165M540 164L540 169M358 165L357 172M129 170C136.2 173.38 141.742 167.088 149 166M229 166L238 180M633 166L637 170M169 167L174 180L173 168M414 167L428 170M430 167L430 173M201 168C203.368 170.983 205.655 175.119 209.09 176.972C218.511 182.054 229.804 178.665 229 168M411 168L414 175M237 171L236 179M420 172L424 174M106 180L147 173M251 173C256.422 176.037 260.219 176.106 266 174M187 177L187 174C192.077 180.311 200.558 180.185 208 178M355 174C356.28 184.128 357.974 198.947 344 200M153 175L152 180M182 175L184 175M429 176C424.443 179.638 420.681 179.996 415 180L417 199M174 177L174 178M176 180L179 177L182 178M183 177L182 178M187 177L183 179M450 177L457 180M104 178L97 179M536 178L536 182M553 180L594 180M122 179L124 179M187 179L189 179M391 179L396 180M414 179L415 180M460 179L461 180M605 180L635 180M94 180L95 180M155 180L156 180M159 180L160 180M251 180L255 180M547 180L548 180M94 183C87.0471 187.601 75.4936 192.153 72 200M175 183L177 186M180 183L182 185M192 183L192 184M228 183L228 184M198 184L198 189M398 184L401 189M421 184L423 185M535 184C534.111 189.165 532.639 194.197 528 197M222 185L223 195M553 185C560.214 197.348 565.334 199.99 580 200M637 185L638 187M193 186L191 199M201 186C203.683 192.216 206.646 196.503 213 199L210 198M209 186L211 197M211 186L218 196L218 190M227 186L227 187M375 186L378 198M425 186L428 189M465 186L469 190M529 186L527.201 197.632L535 199.975L560 198M610 187C609.989 204.209 595.323 200 582 200M185 188L183 195M391 189L392 199M220 190L220 191M226 190L225 191M261 190L270 200M369 190L369 199M489 190L490 190M550 190L550 198M639 190C647.914 205.368 620.807 200 611 200M402 191L403 199M429 191L435 200M197 195C203.431 201.449 210.584 209.153 209 219M583 196L588 197M220 197L221 200M354 197L352 200M530 197L530 199M208 198L203 200M41 229L32 229C40.6242 218.406 58.6716 204.858 71 199M117 200L124 199M179 199L183 200M196 200L200 200M265 200L268 200M273 199L279 200M428 199L429 200M525 199L525 200M79 200L82 200M106 200L107 200M112 200L114 200M165 200L166 200M192 200L193 200M341 201L342 201M336 202L338 202M330 203L333 203M417 203L419 219M608 203L608.028 216.682L618 219.715L650 220M305 211L328 204M342 204L341 219L332 208M439 205L448 219M392 206L392 213M522 206L517 218C525.164 221.017 535.419 220.706 544 219.576C546.287 219.274 551.424 219.663 552.788 217.397C554.321 214.847 551.737 209.596 551 207M647 206L653 219M200 207L200 209M565 207L569 219M78 208L78 209M311 209L310 219L302 220M355 209L355 219M368 209L368 219M301 210L297 219L298 218L299 217L298 216C289.585 221.291 282.858 229.825 279 239C285.628 240.955 293.963 240.336 300 237M404 210L406 220M77 211L77 218M154 211L171.004 231L177 240M199 211L202 220M303 212C301.883 214.304 301.557 214.407 304 214M112 213C111.806 218.9 109.652 219.933 104 220M206 213L206 219M298 216L301 214M558 214C560.056 218.076 562.564 218.856 567 219M303 215L300 218M392 217L392 220M554 217L559 218M607 217C597.875 222.599 583.378 220 573 220M629 217L628 218M336 218L334 220M517 218L514 220M649 218L649 219M157 219L159 219M283 220L291 220M314 219L318 220M343 219L343 220M346 219L349 219M34 220L35 220M83 220L86 220M115 220L118 220M169 220L170 220M173 220L176 220M187 220L195 220M213 220L217 220M295 220L296 220M325 220L326 220M331 220L332 220M338 220L340 219M433 220L434 220M392 222L392 224M571 222L577 238L569 237C559.85 242.543 540.965 238.89 530 240M605 222L603 239L584 240M654 222L660 239M309 223L307 233M420 223L421 228M450 224L452 228M207 225L209 232M356 225L356 236M381 225L381 226M393 226L395 239M413 228L415 229M75 228L75 239M349 229L351 228M409 228C411.626 233.92 419.181 240.485 422 231M117 229L118 230M368 229L365 241M382 229L384 239M558 229L558 239M26 230L26 232L26 230M28 231L31 230M453 230L457 240M511 230L507 239L524 240M1 251C8.05295 243.928 14.329 231.968 25 231M298 231L296 234M361 236C360.919 233.143 361.185 232.546 364 232M119 232C123.941 237.229 125.58 240.02 133 238M196 232C195.691 241.486 187.502 240.773 180 239M288 232L284 235M337 232L333 240M624 232C620.621 242.954 612.829 237.391 604 240M26 233L25 234M314 233L316 240L314 239M314 234L305 240M621 234L621 236M139 236L140 236M559 236L561 238M135 237L136 237M153 237L153 240M620 237L620 239M299 238L303 240M173 240L175 239M448 239L448 240M577 239L580 240M623 239L655 240M107 240L109 240M112 240L123 240M197 240L210 240M217 240L227 240M240 240L249 240M273 240L275 240M358 240L359 241M504 240L506 240M299 242L298 243M319 242L326 260L329 252M384 242L384 243M396 242L396 246M660 242L665 264M578 243C579.236 247.357 579.896 254.084 582.854 257.602C585.433 260.668 596.206 261.31 598.411 257.475C600.515 253.815 600.47 247.169 601 243M186 244C191.37 249.37 196.884 257.788 205 258L206 259L203 258M296 244L287 249M385 246L386 248M461 247L473 267M75 248L76 260M197 248L204 256M221 249L253 279L250 280M278 252C274.809 255.904 272.301 260.012 267 258L275 250M393 250L392 251M494 251L485 260M617 251L617.643 258.833L629 260L658 260M249 253C251.661 257.698 253.466 259.62 259 260M538 253C538.951 255.742 539.943 258.044 543.044 258.821C552.389 261.162 573.008 261.129 582 258M116 256L116 260M274 257C275.196 259.242 275.242 259.196 273 258M68 258L69 260M113 258L114 260M251 258L248 260M254 258L254 259M267 258L264 260M280 258L280 259M377 258L377 260M481 258L480 260M20 259L18 260M98 259L98 260M207 259L213 267M209 260L219 260M224 260L227 260M331 259L331 260M453 259L462 260M482 259L484 259M600 260L615 260M22 260L25 260M82 260L86 260M91 260L96 260M121 260L139 260M173 260L174 260M197 260L200 259M294 260L300 260M354 260L357 260M409 260L410 260M414 260L415 260M487 260L514 260M522 260L533 260M661 260L662 260M597 262L592 280C583.875 276.005 568.249 279.055 559 278.999C554.624 278.973 550.958 277.965 547 280L545 270M254 264L257 279M278 264L270 279M583 266L583 268M700 267L680 278C687.425 280.871 701.872 280.417 708 275M707 268L713 278L707 279M613 269C605.622 280.704 617.018 280 626 280M272 270L273 272M475 270L491 299M592 270L589 277M677 270L675 272M123 271L126 279M661 272C659.286 283.744 676.422 276.232 681 273M12 273L17 280M146 274C146.435 279.58 149.194 280.264 154 278M643 276L639 277C642.358 276.312 643.379 276.98 645 280M672 275L674 275M101 276L101 278M194 276L195 280M450 276C451.125 278.457 451.875 278.457 453 276M677 276L679 278M711 276L709 278M588 279L593 278M609 277L595 279M641 278C639.02 279.008 636.938 279.44 639 277M675 277L678 278M265 278L258 279M334 278L334 280M672 278L676 279M7 279L6 280M12 279L11 280M142 279L128 280M182 279L182 280M232 279L232 280M253 279L255 279M266 279L268 279M277 279L278 280M292 279L292 280M543 280L546 279M629 280L634 279M643 279L643 280M43 280L44 280M52 280L54 280M63 280L64 280M115 280L116 280M210 280L229 280M238 280L241 280M243 280L244 280M271 280L273 280M320 280L322 280M347 280L349 280M410 280L413 280M488 280L497 280M511 280L519 280M521 280L534 280M661 280L663 280M679 280L680 280M265 281L258 286M257 282L261 286M680 297L684 298C676.327 299.899 667.862 297.889 660 298.054C650.001 298.264 637.148 302.322 628 297L668 282M605 283L608 283M716 283L723 296C715.836 300.248 691.563 300.439 684 297M597 291C597.37 293.295 597.522 293 595 293C595.766 288.049 598.321 285.596 603 284M585 285L585 286M634 286L639 290M619 287L614 298L629 299M638 287L638 288M674 287L673 288M24 288L29 299L30 300L26 293M681 288C678.821 292.317 676.302 293.158 672 291M257 290L253 298L259 300M386 298L394 290M553 290C560.839 304.545 582.345 299.131 597 300M145 291L142 299M566 291L565 298M601 291L600 292M24 292L25 293M129 292L129 293M409 292L409 299M247 293L246 298M350 293C348.124 299.18 340.453 298.299 335 300M202 294L204 299M594 294L594 299M598 294C602.414 296.621 607.916 299.41 613 298M130 295L131 300M332 295L331 299M641 296L642 297M34 297L34 301M179 297L179 300M241 297L241 300M562 297L562 299M626 297L628 297M38 298L41 300M115 298L115 300M244 298L244 299M253 298L247 300M292 298L292 300M557 299L531 300M607 298L599 300M724 298L721 299M22 300L28 300M279 299L276 300M295 299L295 300M376 299L382 299M391 300L406 300M434 299L444 299M466 299L466 300M723 299L725 302M11 300L15 300M102 300L104 300M144 300L145 300M219 300L221 300M225 300L228 300M231 300L239 300M272 300L273 300M372 300L373 300M387 300L388 300M411 300L424 300M509 300L528 300M613 300L614 300M623 300L624 300M36 304L54 320M493 304L500 320M606 306L609 305M646 305L639 306M727 306L727 307M591 307L582 316M604 308C605.986 311.055 608.135 311.134 611 309M39 309L41 311M241 309C240.992 319.195 237.517 320 228 320M408 309C407.994 317.168 406.397 319.622 398 320M639 310C631.2 310.942 624.673 320.833 618 314C614.19 316.384 611.602 318.513 608 315L624 309M41 311C42.4118 316.065 44.2816 319.594 50 319M211 312L215 319M346 313L348 318L350 313M591 317L595 318L595 319L585 318L601 313M684 317L688 314L686 319L687 320L686 319M691 313L696 317C692.055 318.814 690.65 317.159 691 313M609 318L605 316L608 315M580 316L576 319L578 317M606 319L603 319L605 316M114 317L114 320M583 317L585 317M595 319L603 318M626 318L683 318M689 317L690 317M696 317L725 318M292 318L292 320M384 318L387 320M585 318L581 320M615 318L619 318M691 318L689 320M34 320L42 319M61 319L62 320M178 319L178 320M409 320L420 320M543 319L556 320M560 320L576 319M11 320L14 320M64 320L65 320M244 320L252 320M337 320L338 320M378 320L380 320M389 320L390 320M393 320L395 320M434 320L435 320M449 320L450 320M520 320L521 320M523 320L540 320M241 322L241 328M586 323L589 322M501 323L502 326M554 323L555 323M572 323L574 329L580 326M655 324L656 324M56 325L57 326M407 325L407 329M549 325L550 325M591 338C584.328 341.025 572.511 341.475 566 338C576.375 334.799 587.662 337.062 598 337.987C606.056 338.707 614 337.099 622 337.004C631.975 336.885 643.311 338.515 653 336C644.204 323.95 663.258 325.014 654 336L661 336L658 333M691 325L689 326M530 338C526.682 338.6 526.78 333.789 529.167 332.136C533.938 328.833 541.504 327.788 547 326M685 326L686 326M18 327L21 327M24 328L61 340M58 328L65 339M521 328L521 332M569 328L570 328M652 328L654 330M416 329L418 329M420 329L421 329M574 329L576 336M242 330C242.556 336.117 244.799 339.208 251 340M410 331L414 330M523 331L526 331M570 331L571 331M531 333L527 337M648 333L648 336M697 339L691 339C696.554 330.334 717.061 335.128 726 333M190 338C187.684 340.588 184.627 338.531 182 337L197 334M197 340L197 338L208 334M405 334L406 340L410 337C414.479 339.32 416.532 337.239 420 334M530 334C540.043 338.092 554.306 337.089 565 337M573 334L573 336M350 335L352 336M661 337L691 337M198 338L203 336M210 336L242 338M441 340L431 339L441 336M684 336L679 337M51 337L52 338M184 338C182.021 339.008 179.938 339.44 182 337M281 337C281.649 342.161 292.12 339.992 296 339M496 340L525 337M530 337L530 338M41 338L44 340M216 338L216 340L216 338M232 340L218 339L221 338M293 338L293 339M418 339L416 340M419 340L430 338M535 338L551 338M595 338L591 340M113 339L113 340M130 340L137 339M170 340L179 338M192 340L195 339M203 339L215 339M387 339L387 340M402 339L397 340M444 340L447 339M703 339L704 340M8 340L21 340M30 340L40 340M83 340L84 340M243 340L244 340M350 340L354 340M370 340L373 340M404 340C404 351.604 406.083 359.883 392 360M454 340L455 340M532 340L535 340M539 340L540 340M684 340L685 340M688 340L690 340M50 342L52 344M244 342C260.703 348.991 277.917 363.286 287 379M626 355L622 357L638 352.258L666 342M185 343C180.96 345.725 165.126 353.799 166 359M596 343C601.14 358.797 606.734 357 622 357M65 344L68 359L40 359L60 348M125 344L132 344M484 344L485 344M526 344L544 359L544 357M623 344C619.761 347.885 616.781 348.552 613 345M114 345L120 345M480 345L482 345M685 345L685 360M106 346L111 346M467 352L459 353L478 346M559 346L565 350M704 346L696 349M96 347L102 347M482 347C483.021 351.417 481.817 353.555 479 357L475 353C470.107 357.151 465.541 358.871 460 355M492 347L493 347M522 347C520.618 349.533 520.004 353.504 517.683 355.343C511.05 360.598 489.748 358.034 484 353M80 348L81 348M83 348L84 348M86 348L88 348M275 348L275 351M489 348L490 348M654 348C650.82 356.163 657.283 357.631 664 356M486 349L487 349M658 349L655 353M161 350L160 351M511 356L512 350L514 356M668 350L667 357M692 350L694 350M96 351L98 352M112 351L128 359L117 357M508 356L511 351M563 357C565.694 353.571 566.783 352.24 571 354L572 355M687 351L690 351M426 360L424 358C436.343 361.597 448.084 356.962 459 352M476 353L482 354M575 352L579 354M100 353L111 358M459 353L455 357L461 358M629 353L629 355L629 353M49 359C53.7571 356.047 59.4053 353.803 65 355M158 354L159 354M265 355L267 357M481 355L488 358M485 355L485 357M578 355L577 358M656 355L655 356M65 356L53 360M626 356L627 357M34 357C29.1278 361.975 19.5454 360 13 360M108 357C96.9607 363.739 81.2262 357.992 69 360M171 357L167 360M174 357C174.508 360.849 179.668 359.971 183 360M454 357L455 357M472 357L483 358M518 357L537 360M601 357L604 358M161 358L161 360L161 358M267 358L266 360M274 358L272 360M304 358L303 359M540 358L541 359M546 358L545 360M579 358L583 358M637 358L636 359M33 359L40 359M112 359L117 360M128 359L159 359M162 359L164 359M277 359L278 360M282 360L298 360M406 359L423 359M548 359L550 360M598 359L598 360M638 360L642 360M0 360L9 360M171 360L172 360M340 360L341 360M357 360L359 360M362 360L375 360M385 360L387 360M389 360L390 360M554 360L566 360M647 360L648 360M657 360L658 360M663 360L666 360M671 360L680 360M4 379L1 378L34 361M553 362L559 369M148 363L135 371M61 364C79.7383 371.268 97.2245 371.849 117 371M413 364L414 364M460 364C461.754 372.321 464.011 379.012 472 371C479.16 377.605 488.763 377.515 496 371M410 365L411 365M433 365L433 366M435 365L435 366M488 365L490 375M637 365L634 368M406 366L407 366M498 366L499 366M403 367L404 367M486 367L487 370M491 368L495 367M390 378L387 376C384.412 377.416 374.645 378.19 380.337 374.309C385.402 370.856 395.016 369.384 401 368M434 368C438.161 377.513 458.339 382.568 458 368M436 368L436 369M524 368L517 377L520 376M622 368L626 369M486 369L481 374M529 369L544 385M632 369L631 370M439 370L439 371M441 370L442 370M459 370L461 372M487 370L487 375M129 371L132 371M409 373C411.234 370.897 410.284 374.202 410 376C419.671 380.934 427.919 377.061 436 371M604 371C602.416 376.013 601.621 379.286 596 380M628 371L629 371M680 371L666 379C674.698 381.158 680.135 379.627 685 372M545 373L543 375M433 374C433.9 377.375 434.963 377.482 438 376M517 377L512 376L516 375M377 379L378 375M384 375L384 376M410 376C405.542 379.207 401.874 379.601 397 377L400 375M412 375L412 376M563 375L567 379M374 379C372.499 377.188 372.842 376.978 375 376M391 379L397 377M514 379L512 376M372 378L368 378L372 377M411 377L412 379M456 377L463 376M469 377L476 376M493 377L510 377M540 377L553 380M605 379L600 379M384 378L388 378M408 378L410 380M430 378L432 378M665 380L666 378M355 380L367 380M395 379L397 379M520 380L525 380M527 379L531 380M607 379L633 380M654 380L663 379M3 380C16.8741 389.793 35.2529 394.962 51 401M6 380L7 380M96 380L127 380M297 380L298 380M345 380L347 380M650 380L651 380M682 380L683 380M602 382C600.049 387.719 597.646 392.343 592 395M347 383L348 383M503 383L504 383M344 384L345 384M439 384L443.278 395.339L458 397L451 398L451 393M341 385L342 385M368 385C371.465 399.93 376.7 392.342 386 388M498 385L499 385M527 385L532 399M677 385L677 386M338 386L339 386M390 390L390 386L395.546 394.972L408 395.997L440 396M424 395L421 390L431 386M461 399L465 399L464 400L460 397L496 386M350 388L353 397C346.378 398.957 331.393 401.183 327 395C321.026 398.287 315.279 398.978 309 396L336 387M288 388L289 390M416 388L417 391L421 390M671 388L672 388M684 388C684.154 395.495 684.834 396.343 679 400M383 389L387 393L390 390M667 389L668 389M429 395L431 390L433 395M433 391L435 390M663 390L664 390M292 391C294.898 399.862 302.565 397.28 310 398M553 391L556 394M290 392L290 393M417 392L415 394M455 392L456 393M387 393L393 396M460 393L460 395M467 393L468 394M520 393L516 400M523 393L521 400M526 393L526 400M657 399L666 393M624 401C633.489 398.194 652.437 392.934 662 395M308 395L309 396M312 395L312 397M597 395C592.8 402.305 582.349 400 575 400M353 397L371 396M379 396L386 396M447 396L451 398M454 396L456 398M458 397L460 397M671 399L677 399L664 399L667 398M274 400L293 398M529 398L529 399M294 399L296 399M304 399L306 399M325 399L327 399M597 400L621 399M661 399L664 399M41 400L42 400M56 400L57 400M470 400L471 400M536 400L539 400M594 400C589.636 413.696 576.357 422.959 566 432M686 400L692 400M53 402L105 420M615 402L618 402M440 405L447 403M602 403L610 403M654 403L639 418L661.946 414.987L668.089 418.192L685 420M374 404C378.275 414.423 369.974 413.882 364 408L360 414L369 415M313 405C314.74 418.392 299.308 417.136 296 406M330 405C334.117 416.951 343.866 417.223 352 409L359 415M691 405C695.85 409.24 701.436 412.968 701 420L688 412M271 406L272 406M356 406L360 413M368 406L365 408M394 406C394.06 417.419 399.338 417.528 408 410M407 411C414.585 417.694 429.297 408.013 438 406M264 413L266 413C261.847 416.511 258.945 417.621 254 415C257.787 409.984 263.04 408.379 269 407M313 408L311 412M335 415C329.726 416.404 326.448 413.213 329 408M250 409L254 415L218 420M278 409C283.138 419.293 290.189 416.421 300 416M327 416L321 415L327 409M265 410L265 411M281 417C275.51 416.996 266.366 413.544 276 410M462 410C458.24 424.337 451.888 415.182 443 420M533 410L532 414L530 412M682 410L683 410M458 411L456 413M662 411L663 411M685 411L686 411M266 412L270 417M268 413L271 412M424 414C430.347 413.573 432.11 415.02 436 420M532 414L538 427M536 414L536 417M374 415L392 416M401 415C408.981 422.358 420.835 419.592 431 420M405 415L408 415M312 416L320 416M348 416L357 415M399 416L404 420M672 417L674 417M264 418L269 417M439 418L441 419M95 419L97 420M624 420L638 419M655 419L665 419M671 420L674 419M695 419L694 420M90 420L91 420M109 420L110 420M463 420L467 420M523 420L530 420M555 420L576 420M583 420L596 420M690 420L691 420M707 420L708 420M618 422L619 422M336 423C336.874 426.109 337.005 432.93 339.603 434.972C346.105 440.083 363.329 436.984 368 431L363 434M385 423L386 423M439 423C449.454 433.542 453.568 440 469 440M610 424L615 423M688 423C692.146 426.01 698.037 431.006 690.902 434.972C685.483 437.984 675.065 436 669 436L620 436C611.251 436 603.807 437.294 597 431L594 436L600 437M213 424L213 426M319 424C320.494 435.812 325.848 435.993 337 436M382 424L383 424M703 424C704.425 435.033 704.798 439.654 692 436M117 425L118 425M210 425L211 425M239 425C239.864 428.455 241.077 433.142 244.264 435.227C252.386 440.539 271.295 436.625 269 425M255 425L254 435M286 425L287 425M302 425L304 435L315 426M453 439C443.669 441.732 429.722 439.095 420 438.17C401.615 436.42 388.254 438.104 372 428L380 425M593 437L585 436C588.702 428.594 600.484 426.723 608 425M207 426L208 426M214 428L219 436L218 430L227 426M284 426C286.845 437.909 290.78 435.001 302 435M458 426L458 427M122 427C129.306 429.834 142.719 440.013 150 438M202 428L205 427M268 436C276.322 435.976 275.832 434.756 278 428L279 428L280 427L281 427M227 428C229.793 438.524 233.057 437.785 243 437M368 429L372 428M196 430L200 429M277 435L274 429L276 429M271 430L273 430M457 430L456 439M697 430L702 436M189 433L193 432M198 440L194 439L214 432M698 432L694 436M171 438L166 437L170 433C173.528 437.678 181.356 440.445 187 438L186 435M172 434L175 437M175 434L177 433M226 433L228 438M700 433L696 437M160 437L166 437L154 438M306 435L319 435M279 436L284 436M546 438L555 436M220 437L225 438M366 437L384 437M562 441L584 437M187 438L193 439M156 440L159 439M0 440L53 440M150 440L151 440M512 440L515 440M525 440L548 440M218 443C221.462 454.343 235.084 459.859 232 444M459 443L468 451C459.675 458.697 446.695 456 436 456C409.565 456 383.298 455.317 357 455.004C349.443 454.914 320.952 460.209 326 449M700 455C703.833 453.176 705.87 451.318 705 447C696.511 458.103 681.871 456 669 456C639.002 456 608.993 454.856 579 455.001C566.691 455.06 550.883 460.138 541 451L557 443M325 444L326 444M190 445L194 454L203 451M231 456L273 454.852L283 450.204L300 455.542L323 445M531 445L533 445M246 446L250 453M259 446L260 446M545 456C539.614 457.562 525.494 460.273 521 457C510.537 460.264 489.129 461.875 479 457L499 452.728L529 446M59 447L62 449M250 452L257 447M276 447L277 452M180 448L184 456L187 449L183 453M212 448L213 448M291 454L294 448L295 454M169 449L182 456M209 449L210 449M205 450L207 450M236 450L236 455M63 451C65.109 461.836 55.6185 460.348 47 459.682C33.6092 458.647 13.9642 454.922 1 458M192 451L186 456M469 451C472.18 454.872 473.836 456.831 479 457M537 456L541 451M172 453L177 456M314 453C310.595 455.878 308.403 457.16 304 456M194 454L188 456M318 454L318 459L311 457M197 456L205 460M278 456L289 455M522 456L521 457M704 456L711 456M171 457L175 457M465 457L471 457M38 458L40 458M48 458L47 459M193 458L196 459M319 460L324 458M162 460L172 459M0 460L14 460M17 460L19 460M66 460L81 460M519 460L520 460M224 462L224 463M320 462C316.32 477.462 329.785 476 341 476C365.059 476 388.965 475 413 475C419.596 475 438.412 476.73 433 465M278 480C281.296 471.105 297.313 465.063 306 463M177 464C178.856 466.432 182.856 475.113 186 472M512 464L504 469M673 464L675 464M62 465L63 465M225 465C226.264 468.369 227.405 469.123 231 469M644 476L636 475L640 469C650.713 479.831 658.531 467.858 671 465M712 465C712.014 469.065 711.308 472.913 706.992 474.548C702.912 476.093 698.194 473.994 694 474.209C680.668 474.894 667.383 475 654 475M16 466L22 478L3 477M74 467C80.5727 474.706 84.1959 479.888 95 480M198 467L201 478L208 475M238 467L239 475L258 470M260 469L265 467L259.5 477L273 480M268 467L267 468M484 474C488.057 470.123 490.227 468.323 495 472C497.862 469.423 499.239 468.028 503 469C494.367 477.305 484.973 474.512 474 474.039C460.531 473.459 446.574 475 433 475M190 470C190.483 476.333 193.94 477.583 199 474M227 470C229.408 474.996 232.692 475.937 238 476M161 471L157 476M505 471C512.435 479.442 528.537 476.017 539 476C570.961 475.949 603.007 476 635 476M495 472L495 474M713 472C714.032 476.956 712.618 479.074 708 476L708 476M214 473L215 473M210 474L212 474M186 475L190 477M499 476L507 476M169 478L181 480M196 477L200 479M259 477L251 480M67 478L78 478M82 478L79 480M202 478L212 480M312 478L312 480M215 480L221 479M44 480L56 480M58 480L61 480M65 480L67 480M75 480L77 480M165 480L166 480M168 480L171 479M314 480L315 480M273 481L264 499M188 482C190.651 488.085 192.301 498.71 200 499L198 498M255 482C251.078 492.181 246.876 513.228 261.04 518.647C270.995 522.455 285.597 518.27 296 518.015C303.648 517.827 318.48 520.946 324.937 516.397C330.161 512.715 326.611 507.66 325 503M714 482C713.997 486.234 714.499 491.801 709.941 494.022C704.844 496.505 692.853 494 687 494L627 494C549.807 494 472.926 494.876 396 495C375.67 495.033 355.368 496.475 335 495.985C329.49 495.853 319.843 500.613 316 498M18 483L24 495L25 486M58 483L60 483M86 483L95 494L85 499L87 500L90 500M319 483L326 495M55 484L56 484M206 484L207 484M52 485L53 485M202 485L203 485M573 485L574 485M27 493L50 486M176 486L183 499M562 494C562.769 489.069 565.3 487.231 570 486M711 486L705 494M1 487L3 496L6 491M225 489C222.404 494.886 218.42 498.758 212 500M10 490C10.7328 494.451 9.47419 496.286 5 497M17 491L20 499L19 496M200 491L198 495M54 500C55.2958 495.418 60.8277 494.411 65 493M28 494L32 500M96 494L98 498M194 494L193 499L192 497M21 495L22 495M24 495C23.8772 497.839 23.8036 498.684 21 499M162 496L166 498M100 497L100 500M106 497C112.503 500.951 119.635 500 127 500M138 497L169 534M195 497L197 497M11 498L17 498M51 500L53 498M164 498L162 500M222 498L220 500M254 499L257 498L260 499M271 498L269 500M42 500L50 499M76 500L84 499M103 499L108 500M142 500L150 500M178 499L177 500M200 499L208 500M26 500L33 519M37 500L38 500M69 500L71 500M93 500L98 500M168 500L172 500M245 500L248 500M263 502C263.5 508.287 264.6 512.408 270 516M110 503C115.661 506.546 127.133 517.594 133 516M712 503C710.75 519.579 680.662 512.729 669 513.015C634.717 513.855 600.358 514 566 514C551.689 514 534.793 517.666 524 507M3 504L5 519L7 517M118 504L121 507M450 504C447.233 507.397 444.299 511.849 440 513.393C434.674 515.305 426.68 513.79 421 514.039C407.301 514.64 393.753 516 380 516C371.913 516 360.088 517.464 356 509M32 505C33.1299 510.46 34.0994 518.094 40 520M68 505L69 505M24 507L28 519L7 518M58 509L64 507M169 507L176 519L170 513M362 507L363 514M514 507L518 507M506 508L511 508M260 510L259 511M330 510C338.802 518.516 346.863 516.092 358 516M16 511L22 513M18 513L18 516M146 513L148 519L146 520L146 520M190 513L194 520M442 513C448.992 518.03 459.7 516 468 516C488.345 516 508.732 515.056 529 515M111 514L102 520M329 514L335 515M267 515L265 517M25 516L26 518M59 520L76 516M267 517L267 518M130 518L117 520M326 518L331 517M1 520L3 519M93 520L101 519M107 519L113 520M129 519L145 538M154 520L157 520M160 521L168 520M177 519L185 520M189 519L190 520M249 520L259 519M88 520L89 520M133 520L143 520M197 520L198 520M8 522L8 523M30 523L35 539M600 523L611 531L615 527C623.767 535.664 629.093 532.338 640 533.625C656.525 535.575 676.927 538.747 691 529M34 524L38 539M280 524L291 535M334 524C335.219 526.993 336.289 533.917 339.317 535.397C346.283 538.801 359.569 535.632 367 535.013C380.978 533.849 396.795 535.001 411 535C421.341 534.999 430.574 535.091 437 526M368 524L370 534M9 525L13 539L33 539M38 525C38.9578 531.485 40.6853 537.214 47 540M268 525L269 526M535 526L539 533C529.538 536.992 517.126 535 507 535L512 526M606 526L597 533.396L580 533L540 534M151 527L156 539M181 527L188 539L179 528M271 527C275.829 531.222 281.197 539.559 288 539L286 536M147 528L144 532M694 529L696 529M698 529L704 531L705 530M23 530L23 537M191 530L191 531M432 534L486 535.996L503 533L504 534L505 535L506 536M695 530L695 533M199 531L203 540M611 531L600 534M703 532L701 539M610 535L621 534M292 536C296.081 538.173 290.315 538.982 288 538M295 537L336 536M496 536L504 536M711 536L711 539M715 536L715 537M719 536L719 537M291 537L289 539M42 539L39 540M148 538L154 540M173 538L182 540M169 539L171 540M188 539L197 539M264 540L282 539M695 539L696 539M13 542L14 546M293 542L295 546M158 544L159 546M174 544L176 546M202 544L201 545M285 544L285 546M344 544L345 546M559 544L560 546M435 545L435 546M552 546L553 546M564 546L567 546M573 546L574 546M576 546L631 546"/>
</svg>
