<?xml version="1.0" standalone="yes"?>
<svg width="728" height="546" viewBox="0 0 728 546">
<path style="stroke:#000000; fill:none;" d="M399 1L503 105C494.259 108.688 481.098 105.611 473.424 110.028C465.836 114.395 459.184 123.816 453 130L409 174C402.076 180.924 389.455 189.559 386.167 199C384.228 204.57 389.448 208.501 393 211.995C403.332 222.158 415.629 219.364 425 210L427 222C428.73 219.273 431.501 208.204 426 210M614 1L545 70L510 106L516 109L409 216M527 115L604 38C609.08 32.9199 622.963 13.5196 631 17.1983C647.542 24.7695 624.67 40.3303 618 47L562 103C553.99 111.01 545.325 123.185 535 128L517 109M434 99L376 157C370.154 162.846 356.204 170.809 361 180L439 102C417.317 83.0571 397.357 62.3573 377 42C373.795 38.7946 355.597 24.5762 361.337 20.0471C371.105 12.3392 383.215 30.2147 389 36L460 107L389 178C382.004 184.996 364.342 194.068 371 205L372 195M362 20C363.04 22.223 363.281 21.7079 365 20C382.21 42.5868 405.921 61.9206 426 82C433.366 89.3659 440.819 100.868 452 101M633 20L637 22L637 22M639 20L640 20M363 23L363 26M635 24L534 125M350 43C352.148 29.2024 362.975 40.9755 368 46L414 92C404.172 101.481 397.844 92.8435 390 85L346 41C345.055 47.692 352.654 52.6542 357 57C368.413 68.4127 383.604 90.7659 399 96M543 135L582 96L608 70L623 55C628.447 49.5534 634.252 41.4429 641 37.6574C643.875 36.0446 649.556 37.2307 650.079 41.1296C650.495 44.235 646.899 47.0589 644.995 49C639.386 54.7198 633.665 60.3349 628 66L570 124C561.538 132.462 554.143 145.78 543 135M649 40L649 43M351 51C346.838 54.3841 338.673 58.1193 341 64L342 59M682 63L678 59L687 61C675.998 64.1162 665.956 79.0444 658 87L593 152L684 243C687.076 234.891 670.379 223.379 665 218C645.004 198.004 625.185 177.81 605 158.005C599.967 153.067 584.973 147.037 579.466 155.098C577.071 158.604 580.701 161.635 583.005 164C588.924 170.075 595.003 176.003 601 182L657 238C661.961 242.961 676.229 252.8 677.079 260C677.501 263.58 673.211 266.773 670.999 269C666.114 273.92 652.688 292.503 645 290.338C638.667 288.554 632.517 279.517 628 275C612.925 259.925 593.999 246.287 588 226C563.713 243.108 543.026 269.974 522 291C515.129 297.871 506.648 310.735 497.985 314.958C492.264 317.746 479.536 315 473 315C456.275 315 440.085 318 423 318C414.907 318 404.268 316.121 397 320L386 303M583 151L649 85C656.867 77.1335 667.115 62.0552 678 59M683 59L683 61M338 63L346 72L342 84L337 84C336.053 79.7738 337.548 78.3481 341 76M684 63L686 63M342 64C350.313 72.215 357.966 71 369 71M685 65L598 152M675 90C684.283 80.7169 688.493 72.9421 701 81L689 90.9722L673 92.4877L634 130.902L622 134.198L612 143L665 196C671.285 202.285 683.44 210.035 687.248 218.001C690.046 223.851 681.425 227.666 677 228M339 78L339 82M697 79L699 83M697 81L687 91M342 84C351.059 92.9591 367.428 113.258 382 105.972C386.641 103.652 390.376 98.6245 394 95M337 85L348 91M426 91C405.663 104.118 389.104 124.896 372 142C367.001 146.999 355.913 154.303 357 162L358 158M691 91C707.484 104.257 681.089 126.773 667 132L699 164L702 160L704 162L703 163L702 164L701 164M346 92C334.689 104.233 346.622 108.229 355 116C352.25 118.75 348.153 124.701 344.059 125.23C334.521 126.463 346.548 112.457 348 111M414 92L420 94M439 102L444 101M460 107C465.605 105.723 468.357 105.112 473 109M503 105L510 105M366 107L355 116M521 115L428 208M673 131L686 124.028L705 124C699.19 136.45 688.53 130.888 678 134C681.991 137.991 689.224 148.599 695 149.369C698.577 149.846 706.765 143.11 705.489 139.151C704.576 136.319 701.059 133.983 699 132M535 128L463 200C454.058 208.942 438.106 219.859 434 232L430 228L434 230M539 129L543 135M635 132L667 132M541 135L465 211C456.202 219.798 440.514 229.973 448 244L449 229M631 135L679 183C683.056 187.05 695.364 194.63 695.364 200.88C695.364 204.604 685.919 208.514 683 210M708 140L707 143M555 142C555.307 154.717 566.438 156.159 577 157M600 153L612 143M696 151C701.391 158.03 698.803 168.149 690 171.397C684.324 173.49 676.005 172 670 172M560 155L476 239C466.258 248.742 450.515 263.757 437 252L433 256L425 236L428 229M701 155L702 160M568 156C568 161.45 569.299 168.84 567.397 174C563.269 185.195 546.379 196.621 538 205C516.739 226.261 496.115 252.352 472 270.289C462.447 277.395 437.171 279.455 428 271C427.501 274.314 428.059 275.38 431 277M355 162L356 163M357 163L363 168M692 171C701.84 180.849 698.655 182.98 689 191M568 176C580.544 190.833 554.618 207.382 545 217L490 272C483.806 278.194 475.079 291.517 466.985 294.687C462.85 296.306 457.382 294.544 453 295.144C442.583 296.568 425.652 302.985 417 294C409.15 302.714 394.738 294.803 385 300L373.662 277L369 269L370 271M697 178L697 183M364 179L364 184L361 180M699 180L699 181M358 182L360 200L367 197M364 184L373 191M573 192C573.003 195.431 572.691 198.971 574.603 202C577.379 206.396 585.761 210.851 582.953 217C579.376 224.831 569.039 231.961 563 238L519 282C512.902 288.098 504.376 300.693 496 303.301C485.494 306.573 485 295.908 485 289C479.163 293.107 475.441 298.945 468 295M692 197L692 204M360 200C360.002 203.232 359.789 216.991 365 216M573 201L485 289M372 205L377 209L365 219M285 210C275.955 218.363 265.068 213.69 254 214.043C249.169 214.197 243.74 216.136 239 214.397C235.775 213.213 233.377 210.349 231 208C251.192 201.615 279.914 205.724 299.999 211.131C307.847 213.244 323.512 224.173 332 220M385 206C386.536 211.474 391.991 218.405 398 218M208 217L203 213L211.961 215.914L220.054 209.788L230 207M378 209L383 210C384.241 214.208 384.461 222.275 378.035 222.366C375.662 222.399 373.911 219.542 372 220M224 210C227.897 213.604 230.704 214.937 236 215M294 210C292.204 216.19 287.589 215.73 282 216M208 211L214 215M290 211L286 215M298 211L299 217L302 212M381 211L373 219M172 230L180 234L166 229C172.187 218.099 192.732 218.075 203 213M364 213L365 216M369 214L369 215M217 216L228 215M293 217L297 217M301 217L307 217M370 217L370 219M200 218L205 217M403 219L403 235C397.97 232.311 395.695 227.502 395 222M585 219C586.998 228.508 570.189 239.811 564 246C544.053 265.947 524.684 286.784 504 305.963C500.009 309.664 495.005 311.226 491 315M384 221C385.463 232.583 380.463 237.606 369 239L367 223M428 221L435 227M407 222L417 235C421.068 233.531 425.082 234.296 425 229L423 233M334 223C343.692 225.792 350.924 231.936 359.17 237.292C362.808 239.655 367.598 239.967 368.663 245.005C371.074 256.408 349.743 254.782 363.98 266.092L369 270M408 223C405.968 229.258 406.965 242.911 417 236M421 223L425 228M427 223L429 224M452 226C452 238.313 454.177 246.809 445 256M165 227L160 233C164.569 236.23 169.663 236.548 175 235M343 227L346 228M213 228L218 232L222 228M219 231C235.444 229.7 251.359 226.95 268 228.09C277.394 228.733 287.363 232.691 296 228M289 228L291 228M337 228C326.118 238.754 307.173 233.91 293 232M215 229L218 229M343 229L337 235L346 236L344 230M347 229L345 233M395 229L395 232M405 229L408 233M408 229L408 230M181 235L214 230M296 232L301 231L299 233M349 230L346 235M445 230C438.956 236.006 435.5 238.75 430 231M162 235L154 236C155.736 232.974 156.604 232.075 160 233M211 231L211 233L215 232M302 231L306 231M167 232L167 235M303 232L303 234M351 233L352 234M386 233C383.629 237.332 382.077 241.121 387 244L386 235M208 234L210 234M352 234L347 237M332 235L337 235M354 235L350 237M400 235C395.86 238.147 392.851 239.197 388 237M403 235L408 236M424 236L417 239M154 236C146.016 240.604 136.607 240.798 133 251C127.018 251.242 127.948 257.378 134 256L131 252M188 236C186.322 246.778 174.509 244.876 168 250M323 236C323.64 241.682 338.794 253.566 343 248M404 236L398 238L398 238M382 237L378 239M430 237L432 237M589 237L552 274C546.654 279.346 538.439 285.178 535.028 292C531.72 298.616 532.948 315.06 535 322C539.45 313.661 537 300.322 537 291M353 238L357 238M406 238C405.733 241.976 405.086 244.891 401 246M437 238L438 251M139 240L141 240M369 239L367 241M390 239L387 251M684 239L682 245L681 242M369 241L368 242M400 242L399 243M449 244L451 246M261 245L261 246M681 245L671 250M277 246L277 247M142 247C138.924 257.803 148.728 251.304 151.863 257.317C155.585 264.454 137.141 271.323 133 274L137 270M169 247L168 248M405 248L405 259L404 258M451 247L444 254M455 247L459 251M292 248L292 251M405 248L405 250M427 248C425.035 253.587 424.197 258.686 432 256M447 249L449 249M166 251L167 249M211 250L212 253M346 252L343 251M134 251L140 255M152 256L164 251M168 251L167 252M348 251L358 254M407 251C408.946 253.705 409.987 255.017 407 257L407 257M391 252L389 259L390 260L391 259L387 255L386 256L387 257L388 258L387 258M462 252L462 264L459 253M165 253L162 253M310 253L309 255M346 253L349 253M387 253L387 255M372 254C373.954 260.138 381.064 258.477 385 255M365 255L372 259M418 255L418 260L419 258M134 256L137 255M391 257L390 258M393 259L395 256C395.26 258.867 394.867 259.26 392 259M411 256C412.489 260.289 412.318 263.753 409 267L406 264M424 256L420 259M434 256L441 257M117 260L127 257M324 257L323 262M391 257L393 257M396 257L395 258M197 258L197 259M397 258L402 259M413 258L416 258M429 258L428 271M179 259L180 260M384 259L386 259M676 259L676 262M235 260L249 262L246 260M239 260L240 260M370 260L371 268M611 260C611 264.33 610.087 269.888 611.603 274C613.356 278.754 618.515 282.515 622 286L646 310C649.587 313.587 657.418 324.793 662.852 324.793C666.92 324.793 665.993 317.502 666.001 315C666.036 304.026 659.42 299.42 652 292C660.786 283.317 665.531 284.486 673.999 293C676.008 295.02 679.793 297.832 679.793 301C679.793 307.953 671.544 310.5 667 307M390 261L393 264M416 262L415 267M116 263L107 277L113 276L109 271M232 269L238 262M249 264C253.201 274.131 244.484 276.508 239 283L243 281M434 264C432.08 268.929 433.545 271.229 437 275M181 265L181 266M463 265L470 271M220 266L213 273M296 267L296 273L287 274M111 268C113.733 271.426 115.326 275.072 120 275L114 270M139 268L139 269M338 268L337 269M452 275L458 269L460 275M140 270L138 272M219 270C223.409 277.166 224.641 287.659 225 296M432 270L430 272M167 271L168 274M118 295C115.058 297.088 114.269 297.484 111 296C116.991 291.544 127.183 289.659 129.664 281.001C130.345 278.622 128.655 276.351 129 274L130 274L131 273L132 273M138 273L136 274M296 273L299 283L297 279M120 275L127 275M611 275L568 318C563.068 322.924 555.866 332.721 548.999 334.543C536.562 337.843 519.863 335 507 335C486.312 335 466.245 338 446 338L420 338C417.382 338.005 412.573 337.376 411.172 340.318C409.132 344.602 417.788 353.53 419.961 357C422.783 361.506 427.725 367.201 429.174 372.285C430.067 375.418 427.823 377.957 427.588 381C427.213 385.868 429.294 391.095 429.545 396C429.791 400.826 426.559 410.545 429.773 414.628C431.617 416.97 434.603 415.563 437 415.269C446.386 414.12 448.708 413.16 450 403C458.095 407.869 465.543 410.28 475 410.989C478.258 411.233 488.134 409.633 490 411M113 276L115 276M352 277L350 279M411 277L413 279C401.801 278.499 385.242 274.534 375 280M428 277L414 278M551 277C551 289.045 557.743 329.549 537 321M613 277L571 319C565.855 324.145 559.35 333.745 552 335M97 296C92.654 298.065 91.1842 296.325 93 292L99 296C95.9211 287.757 96.0051 281.426 106 278M612 279L669 336L664 326M153 280L156 283M613 282L649 319L667 336M239 283C229.016 295.562 246.973 291.363 254 290M299 283L303 300M414 283L415 286M428 284C426.971 289.052 424.314 291.982 419 291M492 284C492 290.692 493.063 297.351 489 303M612 284C611.892 293.166 605.102 297.898 599 304C586.831 316.169 574.227 336 556 336M543 285L543 322M186 287L186 293L176 295M541 287L541 322M120 288L120 289M364 288L363 289M464 293L465 288L464 295M100 295L120 289M116 290L118 290M487 289L487 301M95 290L93 292M113 290L113 292M142 292L144 294M168 292L174 321L172 320M533 292C523.533 301.467 514.281 315.989 500 316M612 292L647 327C652.016 332.016 656.313 338.181 664 336M651 292L652 292M187 294L192 317M429 294L428 297M108 296L111 296M91 297C86.5795 301.103 84.0536 304.853 85 311L81 312L88 315L85 311M157 300L166 297M385 297L386 297M114 299C112.377 304.961 106.889 314.652 100 314L107 312M168 299L170 304M372 302L376 299M416 299L418 299M357 300L358 300M493 302L493 303M344 312C345.564 303.138 359.317 300.474 362.5 310C364.677 316.517 355.977 319.257 356 323L357 322M131 305L133 307M106 308L108 310M83 309L83 310M387 311L383 314M499 311L499 313M669 311L669 323C673.607 320.46 673.277 315.826 673 311M675 312L693 329C685.842 336.014 679.468 335 670 335M79 335C75.2199 335.267 73.9394 333.753 74 330C83.9004 339.497 96.4811 335.933 100.59 323C101.642 319.686 99.5478 317.103 100 314M88 315L98 315M395 316C397.443 315.593 397.117 315.696 396 318M74 330C74.9762 323.395 77.3897 319.606 83 316M120 319L125 320M357 320L357 321M397 321L410 341M552 321L558 325M355 322C353.687 323.325 352.279 324.624 351.064 326.045C340.6 338.283 360.621 334.017 367 332M666 324L668 324M395 325L392 327M548 328L550 334M89 335L97 331M667 329L666 330M694 331C692.805 334.961 690.998 336.104 687 335M114 333L116 335M72 334L76 337M707 338L705 334L727 345M703 339L699 337L704 335M71 336L74 338M408 337L412 338M689 337L679 353L680 350M694 337L699 337M71 338C69.7806 339.964 68.7446 341.776 68.054 344.005C62.3389 362.446 82.3018 350.16 89 354L80 376C83.7561 381.095 85.6376 391.629 77.9807 394.687C73.6063 396.433 68.3937 393.654 64.0586 396.028C56.3342 400.258 60.667 410.314 65 415L59 422L61 421M149 341L146 342C149.288 337.181 166.266 336.966 164 345L162 340M345 340L346 340M399 341L402 340M165 341L163 343M132 342C130.657 350.307 134.267 364.927 137 373M92 343L89 353M145 344C142.789 350.99 143.923 366.979 152.043 370.258C168.669 376.971 168.982 354.423 165 345M707 350L712 356L698 356L711 344M107 348L111 349M659 348C658.113 361.047 672.676 352.298 677 348M122 351L130 349M423 360C434.979 353.607 452.825 359.93 466 357.776C507.526 350.989 552.621 355 595 355C616.031 355 637.791 357.626 657 350M675 350C676.533 354.029 677.245 356.687 682 356L680 353M677 350L676 351M698 351L700 353M704 351L702 353M708 351L705 356M715 356L720 351L724 356L712 356M697 358L691 356C694.294 354.102 695.433 354.159 698 357M703 353L705 355M674 354L675 354M69 355C64.6763 359.662 59.0684 369.619 67.0586 374.111C70.4258 376.004 75.2738 374.899 79 376M82 355L86 357M421 357L424 358M652 356L661 355M664 356L664 362L666 356M670 356L677 357M682 356L690 356M403 357L405 357M689 357C688.421 360.766 680.287 376.294 676.83 377.735C670.879 380.214 656.238 375.013 652 371L664 362M144 359L146 364M377 362L374 362L381 360M386 360L388 364L383 361M374 363L370 370M104 364L106 364M390 365C389.271 372.261 386.363 375.658 379 376M426 369L427 372M437 378L433 378C436.096 376.076 439.149 378 443 378C451.979 378 462.139 379.354 471 378C473.678 377.591 475.322 375.409 478 375C490.342 373.114 504.494 375 517 375L597 375C608.995 375 626.584 378.322 638 374.833C640.606 374.037 641.646 371.379 644 370.333C646.399 369.267 651.505 369.178 650 372M683 373L684 370C687.269 381.059 713.389 376 724 376M648 371L640 375M680 371L678 373M62 372C62.5744 375.581 63.3505 377.002 67 376M427 372L429 377M675 372L675 374L675 372M406 373L409 373M650 373L644 375L644 375M652 373L656 377M670 376L674 373M676 374L678 373M388 375C402.066 386.839 381.978 399.637 372 388M675 375L673 377M677 375L679 377M647 376L654 377M685 376L681 378M63 377C59.7856 383.022 59.5711 389.711 64 395M669 377L662 390L672 396L667 390M431 378L433 378M98 380L103 380M435 381L441 389L431 397M639 383C636.899 385.038 632.981 389.988 630 388M154 384C176.91 385.823 200.307 391.607 223 395.414C233.01 397.093 245.029 400.997 255 398L249 389M256 387C256.035 397.105 265.113 400.475 257 409C260.948 413.601 268.662 419.379 265 425L277 442L275 439M436 387L439 391M410 388L413 388M436 388L435 394M632 391L624 393L629 389M662 390C660.437 393.487 661.062 394.59 664 397L662 392M442 391L436 396M657 394L657 392C656.737 398.71 649.909 397.464 645 396L649 392L653 396M453 393C454.029 398.573 459.216 397.998 464 398C474.085 398.005 482.916 395 493 395L583 395C595.303 395 612.415 398.032 624 394M629 393L635 396L632 393M655 393L653 395M449 394C449.598 397.299 450.66 398.067 454 398M627 394L632 397M452 395L450 397M623 395L630 398M79 396C82.3847 400.574 86.309 411.535 78.9414 414.802C75.2983 416.418 68.9888 415 65 415M98 397L101 396M251 396L251 398M446 396L447 397M622 396C621.486 402.815 611.278 415.817 604 415L611 409M635 396L645 396M672 396L724 396M441 397L446 398M237 398L234 400M258 398L255 399M657 398L662 397M97 399L96 400M259 399L251 406L257 410C253.83 415.277 255.38 421.278 262 417M447 399L450 399M449 400L449 402M253 401L251 403M264 401C275.416 407.1 295.066 407.357 308 409M260 402L262 402M651 402L639.907 415.307L628 416L608 418L607 419L610 418M411 405L413 405M139 419C137.855 421.24 136.807 423.455 134.736 425.007C115.867 439.15 112.108 399.744 133.91 408.742C139.628 411.102 139.818 417.799 146 420M611 408L611 409M481 410L485 409M491 411L502 414.891L604 415M490 411L487 413M641 411L643 413M492 412L495 414M645 412C645.581 415.49 646.44 416.547 650 416L646 412M98 413L102 413M491 414L492 414M500 415C496.978 420.76 503.257 434.392 510.062 435.651C526.222 438.643 547.334 435 564 435C571.337 435 582.065 437.026 589 434.716C594.859 432.765 598.994 427.343 603 423M80 416C82.97 420.013 88.4405 431.514 81.8519 434.883C77.8579 436.925 68.8387 436.007 64 437C64.2566 442.886 65.0103 454.566 73 453L67 451M445 416C450.924 424.235 445.612 438.758 443.485 448C442.364 452.873 440.294 457.031 435 455L440 448M650 416L724 416M607 417L608 418M641 417L644 417M263 418L264 425L260 421M254 419L253 444L254 439M142 420C141.51 430.179 135.283 447.063 122 437M409 420L411 420M59 422L49 439M140 423L138 424M427 422C427.02 427.702 428.08 430.76 432 435C423.492 440.2 419.314 446.681 427 455L421 451M62 424L64 437M429 427C431.888 433.172 436.505 434.003 442 437M369 438C370.8 435.354 373.519 429.467 377.04 428.921C381.657 428.206 382.638 440.262 382 443L381 439M101 429L103 429M594 430L596 430M426 431L426 436M504 431L506 433M508 431L512 435M595 433C592.952 437.492 595.657 438.704 600 438L597 437M52 435L62 437M83 436C95.2329 446.773 80.7923 448.49 77.662 457.299C75.7076 462.799 87.614 473.91 92 476L86 470M589 436L594 439M601 439L621 436.015L724 436M272 437C270.472 441.009 271.75 443.248 276 444M510 438C510.933 444.392 515.614 448.577 520 453L518 450M589 438L581 452C575.997 449.801 573.937 454.088 569 454.852C556.54 456.779 535.237 457.937 526 449L524 454L523 454L522 454L521 453M51 439L54 438M367 443L364 448L390 445M45 444C37.3956 457.093 45.4074 458.012 57 458L60 475L64 471M108 444L105 445M253 444L249 539M382 444L385 454M276 446L283 463L281 459M621 446L621 455C612.057 453.72 608.051 470.058 603 476L608 479L605 479M90 449L85 456C88.4345 456.803 89.6721 456.302 91 453M521 451L525 451M580 450L582 450M66 451L58 457M402 451L403 452M440 451L442 453M580 451L573 455M619 451L614 455M621 452C634.668 457.144 648.232 456 663 456L724 456M64 453L64 457L68 454M581 453L577 457C585.029 461.95 600.624 458.983 610 459L608 458M66 457C70.5229 458.987 72.8452 455.908 77 454M82 454L84 456M580 454L584 457L579 456M71 455L68 458M427 455L435 455M526 455C528.462 462.726 528.421 467.548 536 473L534 468M621 455L626 456M76 456L71 460M528 456L530 456M622 456L615 457M40 457L40 459M90 457C94.8093 463.236 97.7406 468.629 92 475M433 470L436 470C428.548 484.201 405.119 466.443 422 457M50 458L53 459M61 458L63 458M610 458L612 460M108 460L112 460M252 459L252 462M39 462C37.8429 470.593 37.0478 486.442 50 475C53.7482 478.786 56.1548 478.661 61 477M69 462L70 465M439 462L437 469M283 463L294 484M575 463L567 474C574.784 481.198 593.753 481.975 602 475M159 465.573C167.737 464.959 165.814 472.625 167.255 478C169.461 486.226 175.736 496.656 161 497.775C148.192 498.747 152.425 488.512 151.761 481.17C151.077 473.606 146.857 466.428 159 465.573M56 468L58 472L62 469M63 468L64 468M66 469C67.7688 480.301 79.7416 480.984 88 474M566 474L571 471L571 471M62 470L62 472M414 470C414.632 473.967 415.903 475.599 420 475M433 470L428 475C432.648 480.944 429.571 489.586 423 493L420 489C413.776 495.021 410.883 495.02 404 490C403.46 493.675 404.464 494.927 408 496M618 476L613 472C626.932 477.244 640.949 476 656 476L724 476M98 473L93 477M537 472C543.962 476.596 557.104 476.334 565 474M58 473L60 475M99 474L94 477M120 475L115 478M564 475L571 478M91 476C87.6271 482.421 92.4189 493.863 100.926 493.795C104.519 493.766 103.689 490.08 103 488M616 476L610 479M406 490C405.257 483.548 409.94 479.286 415 476M604 477L599 478M62 478L66 478M84 478L88 478M99 478C102.624 480.936 104.824 484.296 104 489M166 478L153 484M49 479L51 479M326 480L345 479M566 479L558 495C567.768 503.261 589.661 499 602 499C610.119 499 617.222 496.314 625 496.019C657.894 494.768 691.079 496 724 496M153 480L155 482M155 480L156 481M165 480L168 483M331 480L332 480M328 481L329 483M37 483L36 500C47.9728 494.948 58.6326 501.24 69 492L73 497C73.6477 492.607 71.025 491.696 68 489L68 493M66 483L68 489M540 483C542.488 487.721 545.599 494.511 552 494.304C555.418 494.194 557.494 491.722 561 492M600 483L598 486M327 484C327.002 486.366 326.183 491.364 328.603 492.843C334.314 496.335 341.493 487.765 347.397 496.109C355.371 507.379 337.006 514.036 329 508M127 487L124 489M107 489L107 491M423 491L427 491M93 491L95 491M108 491C108.068 495.305 105.921 496.507 102 495M94 493L94 499L101 495M423 493L418 496C422.358 502.338 417.023 508.499 412 513L410 509C402.903 516.561 405.729 527.168 395 533M92 498L92 494M378 494L380 495M68 495L68 498L72 497M89 495C84.3239 498.364 79.4725 498.618 74 497M96 495L98 495M561 499L558 495M416 496L418 496M555 496L556 496M108 497L121 509C109.421 521.079 117.204 525.607 127 535C123.813 538.806 123.446 541.165 124 546M87 498L92 498M65 499L67 499M34 500C33.4061 504.7 31.0397 512.792 35.3179 516.397C39.3841 519.823 49.0057 518 54 518C70.8311 518 96.1229 522.789 111 514L99 502M135 500L138 501L135 502M207 500L208 500M217 501C221.089 500.234 226.374 499.298 229 503L203 506M558 500C555.767 505.767 552.536 513.025 555 519L551 524M224 501L224 503M67 511L72 502L77 509M227 502L226 503M395 503C391.481 508.015 391.861 517.092 400 514L393 509M549 503L553 514M225 504L214 532M105 506L104 507M273 520C270.269 521.509 267.027 518.018 267.466 514.993C268.894 505.163 280.595 505.643 287 509M106 508L109 511M116 508L119 508M392 508C388.973 511.916 388.907 514.504 394 516M553 508L554 509M117 510C113.159 514.557 111.264 518.198 105 519M122 511C120.943 514.492 119.582 515.432 116 516M401 515L411 512M35 513L35 515M111 514L113 514M412 514L408 515M108 515L109 516M32 516L33 520L35 518M555 519L724 516M122 517C126.926 518.144 137.035 522.39 136.23 528.995C135.188 537.542 122.906 535.762 120 530M376 524L390 516M265 519L267 526L270 521M274 520C279.292 518.436 285.021 518.579 290 521L286 521M216 520L216 522M262 520L264 519M289 520L287 522M32 521L40.3904 537.111L64 538L123 539M268 521L268 523M289 523C293.821 532.092 284.247 540.287 275.015 537.346C269.877 535.71 268.29 530.713 267 526M374 526C371.185 528.849 368.201 534.676 364.701 536.411C354.686 541.376 335.112 538.999 324 539M549 528L549 531M562 528C558.249 533.12 555.889 538.476 549 539M136 529L137 530M139 529L133 535M141 530C141.599 534.097 139.967 535.368 136 536M350 532L348 537M355 532L355 537M396 537L391 533L393 533M120 533L118 537M174 533L174 534M389 533L391 533M633 533L633 534M636 533L637 533M658 533L658 536M675 533L675 540M719 533L719 534M357 534L360 537M375 534L377 534M382 534L382 539M571 534L571 537M626 534L626 535M668 534L668 538L671 536M700 534L699 539M706 534L708 540L715 534M122 535L119 538M336 537C339.789 535.126 342.211 535.126 346 537M567 535L567 537M341 536L341 538M578 536L579 536M591 536L592 536M613 536L612 537M618 536L618 539M629 536L630 536M661 536L661 539M684 536L684 538M691 537L696 539M142 537L164 546M387 537L387 538M392 537L392 539M412 537L413 540M416 537L417 538M445 537L445 540M469 537L469 540M477 537L477 539M517 537L518 540M560 537L560 538M564 537L564 539M574 537L574 539M600 537L600 538M606 537L606 538M622 537L622 538M634 537L634 539M457 538L457 540M513 538L513 540M569 538L569 540M587 538L587 539M626 538L626 540M679 538L679 539M404 539L408 539M421 539L424 539M433 539L433 540M437 539L437 540M440 539L441 539M481 539L484 539M487 539L488 539M493 539L496 539M505 539L505 540M508 539L509 539M526 539L527 539M530 539L530 540M534 539L536 539M542 539L546 539M578 539L580 539M629 539L630 539M672 539L671 540M428 540L429 540M523 540L524 540M41 542L43 545M315 543L315 544M203 545L204 545"/>
</svg>
