<?xml version="1.0" standalone="yes"?>
<svg width="728" height="546" viewBox="0 0 728 546">
<path style="stroke:#000000; fill:none;" d="M227 15L233 9C234.354 15.6665 227.237 16.0617 222 15.4051C218.755 14.9982 216.259 12.6316 213 12.1473C202.007 10.5138 190.048 12.0692 179 11.9954C171.472 11.9451 163.494 11.0333 156 12.1473C151.662 12.7923 148.538 15.7864 144 15.9807C97.526 17.9706 50.4952 16 4 16M293 10C297.748 13.5974 304.393 11.4094 310 11.6512C326.066 12.3443 342.019 11.3395 358 11.3395C373.395 11.3395 390.742 9.87909 406 12.1473C410.339 12.7924 413.456 15.8159 417.999 15.9799C423.64 16.1836 426.764 12.1458 432.001 11.7686C459.429 9.79242 487.503 12.5269 515 11.9861C529.19 11.707 543.852 11.1139 558 11.9144C564.731 12.2952 569.552 11.3925 575 16C570.105 22.8057 573.989 28.5311 575 36L723 36M235 12L292 12M575 11L575 14M219 16L216 18M412 16L409 18M425 16L434 19M575 16L723 16M425 22C416.302 30.7704 411.055 37.1845 404 23M215 23L225 31L229 29M223 28C225.56 25.9033 227.893 23.6689 230 27M428 24L417 32M431 24L431 25M231 26C240.855 32.4692 222.822 36.0234 219 37M217 27L218 27M154 29C148.604 40.4346 127.733 36 117 36L4 36M225 31L225 35M685 31L685 35M575 36C571.564 40.7771 569.997 52.5457 577.059 55.3966C583.629 58.0491 594.922 56 602 56L723 56M215 42C220.6 47.4182 225.082 49.5661 232 45M404 42L409 45L406 44M211 45L219 48M409 45L411 48M414 46L414 47M154 49C147.989 60.427 127.132 56 116 56C78.6962 56 41.2892 55.1687 4 56M74 50L74 55M670 50L670 55M702 50L702 55M10 51L10 55M147 52L147 55M589 52L589 55M575 56C571.564 60.7771 569.997 72.5457 577.059 75.3966C583.744 78.0953 594.837 76 602 76L723 76M154 69C147.905 80.6111 128.206 75.7119 117 75.8611C79.3468 76.3624 41.6663 76 4 76M60 70L60 75M97 70L97 75M118 70L118 75M74 71L74 75M470 75L489 80M270 82L269 85M572 82C572.176 101.72 593.562 96 608 96C646.103 96 684.985 93.747 723 96M234 83L233 84M278 83L277 86M282 83L281 84M266 84L266 89M204 86L203 90M218 86L218 89M224 86L223 89M232 86L232 87M246 86L245 89M208 87L207 90M216 87L215 89M221 87L221 90M235 87L235 90M242 87L242 88M251 87L251 89M254 87L253 89M271 87L268 88M274 87L273 89M226 88L223 93M239 88L240 90M248 88L247 89M256 88L253 93M263 88L262 90M279 88L280 90M154 89C147.966 100.493 127.237 96 116 96L4 96M231 89L232 90M276 89L277 90M459 95C461.741 89.3622 465.82 89.1469 471 92L463 100M96 90L96 95M75 91L75 95M720 91L720 95M39 92L39 95M471 92L483 92M535 103L541 109L542 108L536 101C543.068 96.6702 551.214 98.5114 559 100M467 102L468 103M470 102L483 104M572 102C572.161 119.953 587.431 116 601 116L691 116C701.574 116 721.699 120.233 727 109M470 104L471 104M542 109L549 112M204 111L208 111M244 111C243.591 117.904 236.006 122.521 232 115M416 111L420 111M502 111C501.68 113.858 501.399 117.392 505 117M707 111L707 115M281 112L282 120L286 117M302 112C301.936 116.206 303.962 118.068 308 119M318 112L314 116M363 112C363.237 117.023 366.758 117.323 371 116M375 112L375 118M418 112L416 119L422 119M499 112L501 115M206 113L202 120M240 113L240 114M246 113L245 114M459 113L459 114M468 113L467 116L471 118M4 116L115 116C131.89 116 150.676 111.889 166 119M236 114L234 118M242 114L241 118M297 114L297 119L300 116M407 114L394 119L397 118M421 114L420 118M498 114C496.837 116.686 494.749 119.727 492 117M286 117L288 115L291 118L289 118M361 115L363 118M382 115L385 117M455 115L456 118M494 115L494 118M216 117L212 119L225 117M251 116L251 118L251 116M252 118L258 118L258 116M261 116L261 118L261 116M270 116L270 118L270 116M272 117L273 120M280 116L277 117M321 116L316 118L315 117M324 116L327 117M335 116L340 117L337 117M342 116L341 118M351 120L352 116L357 120L358 119L356 118M369 116L370 118M427 116L427 119M432 116L430 117M436 118L434 119L438 116M452 120L454 117M463 116C464.851 118.625 466.128 118.198 469 117M474 118L476 116L477 117L476 120L477 119M489 117L485 117L484 118L485 119M230 117L233 118M239 117L240 118M265 117L265 119L265 117M267 118L269 117M302 118L303 120L307 117M317 119L320 118M332 117L335 118M345 117L343 119M380 117L383 117M390 120L387 119L389 117M403 117L404 118M442 117L439 119M449 117L449 118M458 117L458 119L458 117M466 117L466 118M487 118L489 117M500 117L500 118M278 118L280 120M347 118L345 119M322 119L323 119M371 119L372 119M406 119L408 119M206 120L207 120M572 122C572.176 141.72 593.562 136 608 136C646.328 136 684.767 136.642 723 135M205 126L203 133M224 126L216 132M246 126L243 134M252 126L255 126M262 126L259 134M276 126L273 134M319 126L316 134M338 126L335 134M343 126L342 129M352 126L351 134M359 126L359 128M454 126L452 134L455 130M489 126L487 133M313 127L312 128M400 127L396 134L396 130M437 127L437 135M253 128L254 135M403 128L401 134M136 136C141.25 130.812 145.249 127.149 152 132C142.695 141.195 132.372 136 120 136L36 136C27.322 136 4.9654 140.222 2 130M462 129L461 133M211 133C207.909 133.017 209.106 131.534 211 130M215 130L216 131M232 133C228.909 133.017 230.106 131.534 232 130M242 130L240 134M289 130L289 133M300 130L301 133M304 130L305 134M308 130L308 133M311 130L312 135L310 132M321 130L319 133M331 130L333 131M355 130L354 135M359 130L362 130M373 130L373 132M377 130L375 134L377 134M380 130L381 133M385 130L385 132L385 130M406 130C405.748 132.371 405.832 133.818 408 132M411 131L416 130L413 137M448 135L448 130L447 137M475 133L473 134L475 130M485 130L483 134M94 131L94 135M221 131L224 135M235 131L234 134M262 131L262 134M265 131L264 133M271 131L268 132M294 134L297 131M313 131L312 132M327 135L328 131M341 131L338 132M370 131L367 132M392 131L390 134M423 131L424 134C425.976 132.149 426.57 131.569 428 134M443 131L444 131M459 131L457 134M478 133C479.812 131.499 480.022 131.842 481 134M493 131L494 135L498 131M496 131L496 132M500 131L500 133M503 131L502 134M506 131L505 134M699 131L699 135M152 132C160.859 132 164.63 133.652 171 140M206 132L207 134M238 132L238 133M280 132L280 134L280 132M291 132L291 134M357 133L362 134M464 132L464 134M383 133L384 135M414 133L416 135M467 134L467 135M250 135L251 135M494 136L492 137M167 138C165.295 143.4 160.037 143.798 155 143M279 140L280 140M382 140L381 142M424 140L425 140M477 140L478 140M251 142L249 148M378 142L376 149M572 142C572.173 161.164 593.29 156 607 156L723 156M312 143L311 145M337 143L335 149M422 143L420 149M278 144L277 149M349 144L349 145M380 144L379 147M429 144L429 145M230 145L230 147M240 145L240 146M242 145L243 148M272 145L272 146M292 145L292 147M320 145L320 149M332 145L332 146M345 145L345 148M398 145L397 149M402 149L405 146M418 145L419 146M436 145C436.282 147.562 436.478 148.027 434 148M440 145L440 146M454 145L454 146M475 145L474 148M482 145L482 146M491 145L490 148M497 145L496 148M154 146C152.318 161.097 128.984 156.007 118 155.861C80.0259 155.356 41.983 156 4 156M203 146L202 149M207 146L206 149M212 146L212 148M215 146L215 148M217 146L220 146M228 146L228 149M235 146L235 147M253 146L253 149M264 146L265 146M267 146L267 149M270 146L269 149M279 146L279 148M286 146L287 148M290 146L290 149M296 146L296 149M299 146L299 149M307 146L307 149M314 146L313 149M325 146L322 148M339 146L338 149M352 146L351 148M356 146L356 149M365 146L365 149M370 146L370 147M382 146L382 148M389 146L388 149M409 146L410 149M416 146L416 149M432 146L431 148M443 146L443 149M446 146L446 149M461 146L460 149M466 146L466 148M468 146L469 146M472 146L471 148M485 146L485 149M494 146L493 149M232 147L232 148M238 147L238 149M262 147L261 148M282 147L281 148M310 147L310 148M368 147L368 149M428 147L428 149M449 147L449 149M463 147L462 148M488 147L487 148M285 148L285 152M330 148L333 148M348 148L349 149M358 148L359 148M372 148L373 148M441 148L439 149M455 148L454 149M480 148L482 149M93 150L93 155M117 150L117 155M644 150L644 155M676 151L676 155M207 156L211 155M419 156L423 156M209 156L208 162M221 156L217 160M244 156L241 161M272 156L272 162M320 156L318 159M365 156L362 163M371 156L370 159M402 156L399 161M421 156L421 159M430 156L425 163M437 156L437 159M471 156L468 164M353 157L350 160M384 157L383 159M235 158L234 160M293 158L292 160M379 158L376 160M412 158L411 160M457 158L456 160M221 162L224 161M243 160L245 160M249 160L250 160M254 160L258 160M263 160L263 161M275 161L277 160M285 160L286 160M297 160L298 160M304 160L304 161M309 160L309 161M311 160L314 160M320 160L321 160M322 163L325 160M335 162L338 160M353 162L360 160M387 160L388 160M436 160L434 163M438 160L440 160M445 160L446 160M449 160L450 160M473 160L473 161M476 160L475 163M478 160L479 160M481 160L482 160M492 160L494 160M229 161L229 162M307 161L307 162M487 161L487 163M497 161L497 162M215 162L215 163M226 162L226 163M252 162L253 164M295 162L295 164M311 162L311 163M314 162L314 163M317 162L317 163M330 162L331 163M333 162L333 163M340 162L341 164M343 162L343 163M381 162L381 163M385 162L385 163M404 162L404 163M407 162L407 164M428 162L428 163M437 162L438 164M455 162L456 164M459 162L459 164M491 162L492 164M499 162L500 164M572 162C573.239 181.689 592.895 175.951 608 175.999C646.332 176.122 684.667 176 723 176M274 163L275 164M358 163L358 164M373 163L374 164M377 163L378 163M399 163L399 164M207 164L208 164M418 164L420 164M332 165L331 166M349 166L349 167M61 169C61.3397 179.345 74.2977 176 82 176L133 176C141.501 176 149.477 177.615 154 169M235 170C233.55 173.514 235.198 179.278 240 178M319 170L323 170M460 170L455 179M248 171L246 176L254 178C251.304 176.258 250.298 177.21 249 180M291 171L290 174M321 171L317 180M333 171L334 177M355 171L352 179M403 171L404 179C406.283 176.837 407.315 174.84 409 178M600 171L600 175M240 172L240 173M426 172C424.123 175.641 423.129 177.657 419 176L415 180L415 176L418 178M328 173L327 178M360 173L358 178L359 179M370 173L369 179L371 177M398 173L397 177M438 173L436 179L439 177M486 173L482 179L476 177L476 178L476 179L475 180M499 173L496 178L494 174M204 174L209 177L207 176M266 174L271 177L269 176M298 174C297.726 176.476 299.703 178.904 302 177M433 174L433 179C430.931 177.489 429.654 175.717 428 178M444 176L443 177L443 178L445 178M466 174L464 178M4 176L60 176M212 175L211 179M230 179L230 176M238 177L245 177M254 175L255 176M275 175L277 177L275 179L275 175M280 178L282 175C281.27 178.52 279.32 178.761 276 178M292 175L288 178L294 175M303 175L303 176M305 175L306 178M331 175L331 177M337 177L338 175L338 180M342 175L342 179M349 175L350 176C348.408 179.283 347.603 178.261 345 176L344 177L344 178L349 175M376 175L376 178M381 175L381 177M385 177L383 178L387 175M401 175L401 177M449 177L451 175L453 180M474 175L472 176M483 175L483 176M484 178L491 175M215 176L215 178M221 176L221 180L218 177M223 176L222 177M232 176L233 177M251 176L253 176M355 180L357 177M366 176L364 180M379 176L378 178M390 177L390 178L390 177M575 176C571.505 180.859 569.858 192.493 577.059 195.397C583.748 198.093 594.834 196 602 196L723 196M205 177L201 180M235 177L235 179M245 177L241 179M267 177L264 178M232 178L232 179M308 178L309 179M492 178L495 178M270 179L271 180M209 185L206 193M248 185L248 186M285 185L282 193M289 185L287 190M296 185L299 185M324 185L321 193M344 185L343 186M363 185L362 192M405 185L402 193M418 185L415 193M447 185L450 185M457 185L454 193M471 185L468 193M478 185L478 193M492 185L490 192M400 186L400 193M140 187C142.754 201.222 119.091 196 109 196L4 196M204 187L202 193M214 187L214 193L216 191M244 187L242 193M305 187L303 193M313 187L311 193M379 187L378 192M387 187L385 193M439 187L437 193M151 189L154 188M247 188L246 193M278 188L277 192M342 188L341 193M448 188L445 194M218 190L223 189L221 197M230 189L229 193M253 189L253 191L253 189M273 189L273 193M297 189L294 194M316 191L316 189L318 193M329 189L328 193M334 193L332 192L334 189L335 191M353 189L354 193M372 193L375 191M391 189L391 191M412 189L411 194L410 192M428 189L428 194L428 189M463 189L462 193M209 190L209 193M233 190L232 193M259 190L259 193M262 190L270 192M265 190L265 191M308 190L308 193M344 190L344 193M348 190L347 192M358 190L357 193M367 190L366 193M397 190L397 194M406 190L405 193M432 190L431 193M461 190L460 192M466 190L465 193M475 190L475 193M481 190L481 192M484 190L483 193M487 190L486 193M497 191L497 192L497 191M236 191L236 193M249 191L249 192M280 191L279 193M370 191L370 192M389 191L388 193M418 191L418 193M434 191L434 193M457 191L457 193M221 192L223 194M251 192L252 194M314 192L315 194M421 193L422 193M143 196L166 199M493 200L496 199M304 200L301 207M306 200L308 200M407 200L408 200M446 200L444 203M360 201L359 202M306 202L304 208M468 202L467 208M492 202L491 204M572 202C572.175 221.616 593.598 216 608 216L723 216M220 203L220 204M231 204L231 206M261 204L261 208M322 204L322 205M332 208L335 205M338 204L337 208M369 205L371 204M393 204L394 207M446 204L445 208M461 204L459 207M142 205L149 212C138.508 219.576 119.39 216 107 216L4 216M203 205L202 208M229 205L228 208M242 205L242 207M245 205L244 208M251 205L251 208M254 205L254 208M264 205L263 207M269 205L269 207M272 205L272 208M276 205L275 208M283 205L282 208M288 205L288 208M291 205L290 208M294 205L293 208M307 205L307 208M316 205L315 208M318 205L318 208M345 205L344 208M356 205L355 208M358 205L358 207M364 205L364 207M373 205L373 208M376 205L376 208M384 205L384 208M387 205L389 205M416 205L415 208M421 205L421 208M424 205L424 208M438 205L437 208M443 205L443 208M456 205L456 207M481 205L481 207M483 205L483 208M486 205L485 207M210 206L210 208M213 206L213 208M223 206L222 207M233 206L233 207M266 206L266 207M286 206L285 208M296 206L296 208M366 206L363 211M381 206L381 207M404 206L403 211M408 206L408 207M429 206L426 211M434 206L434 208M440 206L440 207M453 206L453 207M461 206L459 211M478 206L478 207M215 207L217 208M219 207L219 208M246 207L246 208M321 207L322 207M327 207L327 208M397 207L397 208M413 207L413 208M448 207L448 208M450 207L451 207M243 210L241 211M581 210L581 215M149 212L160 211M651 211L651 215M572 222C572.176 241.72 593.562 236 608 236L723 236M154 229C148.078 240.281 127.148 236 116 236L4 236M208 229L207 239C204.58 238.447 203 237.392 203 240M299 229L300 237M353 229L357 229M427 229L425 239L424 235M69 230L69 235M86 230L86 235M221 230L219 237M259 236L262 230M275 230C273.154 234.751 275.774 235.694 280 234L280 234M312 230L311 237L313 235M355 230L351 239M363 230L368 236M405 230L402 238M419 230C417.468 232.57 414.484 239.063 411 236M377 231L372 238L373 234M226 232L230 237M257 232L255 237M287 232L286 236M249 233L248 238L247 236M283 233C282.335 236.836 280.756 237.441 277 237M343 233L342 240M362 233L360 237M395 233L396 237M203 236L206 235M209 237L213 235L208 240M215 237L218 235M225 237L227 235M240 234L241 237L246 234M262 234L262 238M265 237L267 236M293 240L292 236L297 234M316 236L316 234L318 234M322 234L322 238M334 234L333 238L334 234M381 235C384.147 234.878 384.186 235.975 382 238L383 235M405 234L405 238M409 234L408 237M411 234L411 236M414 234L413 237M428 237C431.138 235.144 435.85 233.497 439 236M443 234L443 238M453 235L455 235L455 237M464 236C466.511 235.141 466.582 235.448 466 238L461 238L460 237L460 235M484 234L482 235M488 234L487 238L488 234M491 234L492 237M495 235L498 237M235 235L235 238M272 235L273 239L274 237M303 235L303 238L306 235M329 236L329 237L329 236M338 237L342 236M346 235L344 237M391 235L388 236M433 235L437 236M446 235L449 238L450 237L450 236L449 235L446 238L445 237L446 235M237 236L237 237M363 236L363 238M244 237L242 237M315 237L315 238M393 237L390 237M417 238L419 238M450 237L453 237M471 237L472 237M430 238L431 238M461 239L459 240M518 245L523 250L515 245L521 239.333L539 240M540 242L541 243M572 242C572.158 259.491 588.056 255.999 601 256L692 256C702.86 256 719.916 259.731 727 250M196 243L197 248L196 248L196 243M215 244C213.631 248.875 194.196 264.443 209 264M539 244L535 247L540 254C543.186 252.197 557.267 254.925 560.397 257.858C562.236 259.583 562.06 262.789 563 265L564 264L566 263M311 245C310.782 248.961 310.373 251.79 306 252M523 250L534 246M266 247L266 252M244 248L244 252M250 248L250 251M254 248L259 252L259 250M154 249C148.077 260.282 127.118 256 116 256L4 256M198 249L208 253M226 249L227 253L228 249M240 249L240 253M273 249L272 251L275 249M280 249L280 252M283 249L283 252M292 249L292 252M294 249L295 250M578 249L576 253M86 250L86 255M223 250L223 252M234 250L233 252M237 250L236 252M248 250L247 252M270 250L269 252M298 253L299 250M220 251C216.386 254.155 214.425 255.146 210 253M252 251L255 251M289 251L289 252M264 252L264 256M527 252L539 255M539 255C542.938 266.288 548.203 270.222 561 266M541 257L548 256M520 262L523 266L524 263M572 262C572.165 281.665 593.28 276.313 608 275.92C646.261 274.899 684.72 276 723 276M525 265L528 265M154 269C149.142 279.267 133.555 276 124 276L37 276C29.6172 276 5.4865 279.907 4 271M588 269L588 275M86 270L86 275M611 271L611 275M688 271L688 275M204 274L208 274M439 274L443 274M253 274L248 279M386 274L383 279M441 274L441 278M150 275L157 280M241 275L234 280M262 275L263 281M348 275L348 280M365 275L365 280L372 278M408 275L403 281M433 275L430 280L430 278M476 275L476 277L476 275M487 275L477 280M497 275L498 280M258 276L257 279M273 276L274 280M316 276L304 281M319 276L320 281L328 279M336 276L334 282M392 276L393 276M493 276L494 280L496 278M508 276L506 280M575 276C571.495 280.872 569.936 292.424 577.109 295.397C583.704 298.129 594.906 296 602 296C642.326 296 682.671 295.915 723 296M223 277L220 280M206 278L205 282M226 280L230 280M244 278L244 280L241 282M268 278L268 280L266 282M294 280L298 279M395 280L398 280M419 278L417 280M462 278L462 280L457 279M474 278L473 281L469 281M484 278L485 279M501 279L503 279L500 282M210 280L213 279M271 279L271 280M278 280L281 280M284 279L288 279M291 279L291 280M338 282L341 279M359 279L363 279M376 279L377 279M400 279L400 280M406 279L406 281M409 280L410 282M422 280L425 279M437 279L436 280M445 280L448 279M215 280L216 280M450 280L451 280M372 281L372 282M306 282L304 285M381 283L381 284M4 296L104 295.884L141 294.672L155 284M252 288L250 297L254 290M296 289L294 298L293 294M334 289L332 296L333 297L335 297L335 297M340 289L340 290M343 289L343 295M387 289L384 297M497 289L491 296M223 290L221 293M229 290L229 297L233 293L234 294L234 295L233 296L231 296M347 290L347 296L350 294M448 290L441 295L446 297M614 290L614 295M106 291L106 295M317 291L318 291M454 291L453 297L460 296M638 291L638 295M714 291L714 295M309 292L309 298M368 292L369 296M206 293L205 297M213 293L213 298C215.119 294.985 216.844 293.611 220 296L221 297L222 297L223 296M247 294L239 296C242.074 293.494 245.01 293.355 248 296M265 293L263 296L273 296M276 296L285 294M312 293L313 297M363 293L362 296M365 293L364 297M373 293L373 295L373 293M382 293L379 296M393 293L395 297L395 295M396 293L395 294M398 293L398 297M419 293L419 295L417 297M427 293L427 296L430 296M438 294L435 294L443 295M473 294L475 294L473 296L476 296M483 293L484 297L486 295M502 293L501 297L502 293M507 293L508 297C510.283 294.837 511.315 292.84 513 296M151 311C149.539 308.502 143.187 294.636 150.09 294.636C157.299 294.636 152.937 308.04 151 311M280 294L279 297M298 295L300 294M303 294L303 296M316 294L316 296M320 294L319 296M323 294L322 297M326 297L327 294L330 294M353 294L356 295M388 295L388 296L388 295M403 294L404 296L406 294L407 295L406 297M414 294L412 296M469 294L467 297M480 296L482 295M494 294L496 296M259 295L261 295M287 295L285 296M308 297L305 298L305 296L309 296M311 295L310 296M401 295L402 297M425 295L426 297M432 295L435 295M459 295L456 296M465 295L464 297M260 296L257 300M345 296L341 298M371 296L375 296M575 296C571.606 300.718 570.256 312.432 577.144 315.397C583.615 318.181 595.002 316 602 316C642.335 316 682.672 315.777 723 316M286 297L284 300M438 297L439 297M305 298L302 300M402 298L399 300M213 299L211 300M243 300L244 300M505 300L506 300M149 306L153 303M276 303L275 304M327 303L330 303M411 303L411 304M471 303L475 303M339 304L336 311M420 304L420 305M460 304L458 310M506 304L504 311M237 305L235 311M253 305L252 308M271 305L268 311M353 305L352 308M369 305L367 311M377 305L374 311M407 305L405 311M468 305L467 312M472 306L473 312M494 306L488 311L490 310M306 307L305 311M328 307L328 308M379 307L378 311M409 310L410 307L411 311M418 311L419 307L420 309M454 307L455 311M224 314C225.036 310.198 226.026 309.11 230 309L231 308M245 308L246 311M264 308L264 310M267 308L266 311M273 308L273 310M285 308L285 311M303 308L303 310M308 308L308 311M314 308L315 311M318 308L318 309M342 308L342 309M360 308L360 312L360 308M364 308L364 312M381 308L381 311M423 311L425 308L425 311M431 308L431 311M446 308L446 310M448 311L451 308M461 308L460 311M502 308L501 310M203 309L203 312M209 309L209 310M216 309L216 311M219 309L219 311M239 309L238 311M259 309L258 311M261 309L261 311M282 309L282 311M290 309L287 310M300 309L300 311M334 309L333 311M345 309L344 311M347 309L348 311M384 309L384 311M395 309L394 311M397 309L397 311M402 309L402 311M434 309L434 311M437 309L437 312M441 309L440 311M443 309L443 311M477 309L476 311M480 309L482 309M496 309L495 311M232 310L232 311M251 310L251 311M276 310L276 311M297 310L297 311M327 310L325 312M339 310L339 311M351 310L351 311M399 310L399 311M429 310L428 311M151 311C148.245 320.075 124.035 316 116 316L4 316M420 311L421 311M666 311L666 315M715 311L715 315M360 312L359 315M469 312L470 312M489 312L488 315M236 314L236 318L219 319M575 316C570.01 322.937 573.962 328.447 575 336L723 336M323 318L320 327M237 319L241 320M277 319L279 320M248 320L249 320M308 320L309 320M217 322C224.906 328.931 233.066 332.813 241 325C241.066 329.304 238.69 331.063 235 333M240 322L241 325M287 322L287 323M311 322L310 326M205 323L205 324M251 323L250 327M258 323L257 326M294 323L293 326M296 323L296 326M302 323L301 326M313 323L313 326M208 324L207 326M262 324L261 325M267 324L267 326M272 324L272 326M275 324L275 326M281 324L280 326M284 324L283 326M304 324L304 326M202 325L202 326M210 325L210 326M213 325L214 327M218 325L221 327M246 325L246 326M259 325L257 329M286 325L286 326M306 325L306 326M1 329C4.25392 340.456 26.489 336 36 336L111 336C123.506 336 137.803 337.904 150 335M575 336C571.418 340.98 570.25 352.109 577.299 355.397C583.474 358.277 595.232 356 602 356L723 356M206 348L207 348M218 348L216 355M243 348L245 348M264 348L261 355M346 356L353 348M445 348L442 355M458 348L452 356L453 350M154 349C147.966 360.493 127.237 356 116 356L4 356M214 349L212 355M232 349L228 354M277 349L274 356M289 349L287 355M325 349L323 356M368 349L366 356M376 349L376 356M413 349L409 357M441 349L438 350M80 350L80 355M206 350L203 357M242 350L243 357M306 350L301 355L301 352M317 350L318 350M259 351L258 355M439 351L439 355M491 351C490.116 353.905 490.321 354.489 493 356M233 352L234 353M278 354L285 352M290 352L289 356M293 352L292 356M297 356L297 352L300 356M312 352L312 357L316 352M319 352L320 355M343 352L342 356L341 354M355 356L357 352L358 355M362 352L361 356L362 352M380 352L380 354L376 353M387 356L382 355L388 352M402 353C403.037 353.713 392.166 357.892 390 354M461 353L463 353L461 355L464 355M482 352L487 355L487 352M484 352L484 353M222 353L219 354M251 353L249 356M280 353L280 355M330 353C329.922 355.794 331.027 355.151 332 353M392 353L392 355M395 353L395 354M417 353L416 356M420 353L420 354M422 353L424 355M430 355L428 354L434 353M436 353L436 356M475 353L475 356L481 354M225 354L221 355M232 354L234 356M246 354L246 356M264 356L270 355L268 356M335 354L337 355M349 354L350 355M353 354L352 356M373 354L374 357M397 354L397 355M445 354L445 356M458 354L458 356M472 354L472 355M481 355L477 355M315 355L316 356M405 355L404 356M482 356L483 356M312 358L310 359M525 360L526 360M333 362L330 368M344 362L345 370M425 362L424 364M572 362C572.182 382.357 593.627 375.093 608 375.804C646.142 377.69 684.806 376 723 376M342 363L342 364M349 363L348 370M214 364L212 371M226 364L224 371M257 364L255 371M268 364L266 370M309 364L308 368M519 364L521 372C517.061 370.805 516.111 368.986 517 365M384 365L383 367M418 365L417 371M251 366L252 370M277 366L277 370M203 371L205 367M221 367L219 370M234 367L237 369M240 367L240 370M264 367L263 371L262 369M305 367L305 368M314 370L317 367M369 367L370 370M388 367L387 371L386 369M396 367L397 367M401 367L401 369M436 367L435 370M442 367L443 367M207 368L209 368M216 368L216 371M245 368L245 370M258 368L258 370M279 368L279 370M282 368L282 370M285 368L284 370M287 368L288 368M293 368L294 368M297 368L296 370M299 368L299 370M322 368L322 370M325 368L327 369M350 368L350 370M358 368L357 373M377 368L377 370M380 368L380 370M394 368L394 371M403 368L403 370M408 368L407 370M410 368L410 370M420 368L419 370M422 368L422 370M428 368L428 370M438 368L438 370M445 368L445 371M460 368L459 371M154 369C148.018 380.395 127.157 376 116 376L4 376M291 369L290 370M303 369L305 371M317 369L315 374M319 369L319 370M361 369L360 370M363 369L363 371M382 369L382 370M398 369L398 370M579 369L579 375M619 369L619 375M80 370L80 375M242 370L242 371M270 370L270 371M275 370L275 374M287 370L288 370M293 370L294 370M307 370L308 370M341 370L341 371M352 370L350 374M425 370L425 371M456 370L456 371M18 371L18 375M326 371L324 373M144 372L144 375M437 372L435 374M521 372L528 374M709 372L709 375M175 380L182 374M521 382C522.842 387.915 528.307 385.449 533 384M572 382C572.158 399.64 586.571 396 600 396L687 396C694.392 396 720.399 399.837 723 392M154 389C147.966 400.493 127.237 396 116 396L4 396M667 391L667 395M205 392L207 392M214 393L216 397M245 393L247 400L252 397L249 397M319 393L320 399M342 397L345 398L345 393M370 400L360 399L363 393M388 393L383 398M391 393L392 398L389 397M411 395L409 394L413 393M447 393L445 400L448 398M501 393L499 399L501 400M241 394L239 399M256 394L256 397M297 394L298 394M315 394L313 400L318 396M384 394L382 398M449 394L450 394M369 395L367 398M411 395L412 399L420 396M465 395L464 400L458 397L451 399L457 397M206 396L205 399M271 396L269 399L272 399M279 397L280 400L281 398M286 399L289 396M307 396L307 398L305 398L307 399M332 398L340 396M351 399L353 396L353 399M404 400L404 396L408 398L409 399L408 400M408 396L408 398M423 397L425 397L424 400L425 400M432 396L433 397L430 400L432 396M461 396L459 398M487 396L488 397L485 400L487 396M488 398L492 397C494.294 398.868 494.706 398.868 497 397L498 396L499 397M212 397L212 399M218 398L226 398L223 398M230 399L228 398L234 398M243 397L243 399M254 397L256 400M261 397L269 399M287 397L294 397M297 397L296 398M300 398L302 400M315 397L316 398M323 397L323 399M329 398L326 399L331 398M334 397L334 399M338 397L342 399M375 397L374 399M377 399L382 398M414 397L416 399M418 397L422 399M439 398L435 399L443 399L440 398M276 398L278 399M293 398L291 400M389 398L385 399M398 398L401 400M413 398L415 400M467 398L467 400L467 398M475 398L469 399M478 398L478 400L478 398M214 399L215 400M365 399L363 400M394 399L392 399M252 400L253 400M434 400L434 402M306 402L305 403M338 402L337 403M572 402C572.157 419.525 586.601 416 600 416L686 416C693.756 416 717.586 419.809 722 413M209 407L206 415M251 414L252 407M292 407L291 408M395 407L394 408M455 407L456 407M223 408L224 412M323 408L321 413L326 412M371 408L367 415L367 410M154 409C147.966 420.493 127.237 416 116 416L4 416M300 409L296 413M333 409L329 413M405 409L404 415L406 414M454 409L455 416M474 409L473 415L475 414M500 409L498 415M204 410L202 415M265 410C263.651 412.312 261.567 415.259 259 413M393 410L392 415M581 410L581 415M17 411L17 415M213 411L213 415L215 412M221 411L221 414M250 411L249 415M272 415L270 414L272 411L273 413M282 411L282 415M290 411L289 417M314 411L313 415M344 414L347 413L341 412M374 411L374 413L374 411M390 411L390 414M401 411L398 414M411 411L411 414M421 417L423 411L425 418M427 411L427 413M434 411L435 415M443 411L442 415L439 413M485 411L486 414L488 412L489 415M209 412L209 415M227 412L223 415M232 412L238 414L234 414M244 412C243.63 414.295 243.478 414 246 414M253 415L256 412M261 412L261 414M276 412L278 413M293 412L293 415M302 412L301 415M305 412L304 415M308 412L308 415M378 412L378 415M385 412L385 415M395 412L395 415M417 412L413 413M430 412L430 414L430 412M463 412L459 417M468 413L470 414L464 415M482 412L485 413M218 413L218 415M229 413L226 414M338 413L338 415M352 413L352 415M355 415L363 414M360 413L360 414M387 413L387 415M400 413L400 415M431 414L433 413M460 414L462 414M466 413L465 414M480 413L480 414M496 413L495 415M290 414L292 414M320 414L323 414M372 414L373 415M428 415L430 414M492 414L492 415M315 415L316 415M332 415L333 415M422 415L424 415M432 415L433 415M451 416L452 416M403 419L404 420M236 422L234 425M263 422L262 423M405 422L404 423M444 422L443 423M473 422L473 423M485 422L484 423M572 422C572.176 441.72 593.562 436 608 436C646.163 436 684.91 434.003 723 436M398 423L396 430M356 424L355 426M261 425L261 426M403 425L402 430M442 425L441 429M208 430L209 426L210 428M222 426L221 430M244 430L247 428M255 426L255 428M267 430L269 426M285 426L285 430M331 426L330 430M341 426L340 427M360 426L360 428M369 426L369 429M374 430L377 427M383 426L381 430M410 426L411 426M427 426L427 430M439 426L438 430M456 427L458 426M203 427L202 429M205 427L202 433M213 427L212 429M225 427L225 430M233 427L233 430M239 427L238 429M249 427L249 429M252 427L252 430M263 427L264 427M274 427L274 430M277 427L277 428M286 427L288 427M290 427L290 430M293 427L293 430M303 427L303 430M309 427L309 429M314 427L314 430M322 427L321 430M328 427L328 429M333 427L333 430M336 427L336 430M345 427L345 429M347 427L348 427M367 427L366 430M371 427L372 427M388 427L387 429M390 427L390 429M394 427L393 430M405 427L405 430M408 427L408 429M413 427L413 430M429 427L430 427M432 427L432 430M435 427L435 430M454 427L451 433M461 427L460 429M468 427L468 430M471 427L470 429M477 430L479 428M485 427L485 430M488 427L488 430M493 427L492 430M498 429L501 427M504 427L504 430M242 428L241 429M271 428L271 429M282 428L282 429M296 428L296 430M342 428L342 430M354 428L354 430M358 428L358 429M424 428L424 429M445 428L444 429M451 428L451 429M463 428L463 430M482 428L482 430M495 428L495 430M500 428L498 433M154 429C147.966 440.493 127.237 436 116 436L4 436M215 429L215 430M260 429L260 430M311 429L309 433M318 429L319 429M371 429L371 430M416 429L416 430M455 429L456 430M707 429L707 435M339 430L340 430M666 430L666 435M721 433L721 435M212 440L213 440M233 440L236 440M250 440L252 440M542 441L552 441M203 442L202 444M220 442L219 444M233 442L232 444M241 442L241 444M249 442L249 443M572 442C572.174 461.506 592.676 456 607 456L682 456C695.418 456 709.781 457.454 723 455M210 443L210 444M223 443L223 444M244 443L244 444M543 443C546.999 447.321 558.919 456.988 557 462M180 451L185 444C193.616 454.586 179.413 451.161 174 446M170 446L171 446M154 449C147.942 460.539 126.309 456.142 115 455.884C78.059 455.041 40.9584 456 4 456M665 450L665 455M113 451L113 455M530 457L547 453M170 456L180 454M392 462L384 472L381 461L391 460M381 469C378.716 465.69 378.084 463.983 381 461M196 462C192.544 466.394 172.717 468.015 168 465M379 462L381 464M572 462L575 476C612.96 476 651.055 476.932 689 475.92C697.12 475.703 721.173 480.311 724 471M529 465C534.258 471.102 538.54 470.838 546 469M204 466L207 466M215 466L214 467M308 466L306 471M261 467L260 473L263 471M269 468L267 474M273 468L272 474M285 468C283.917 471.758 283.307 474.435 288 474L288 474M154 469C147.966 480.493 127.237 476 116 476C78.7476 476 41.2181 474.661 4 476M206 469L205 474M213 469L212 474M288 469L287 470M16 470L16 475M257 470L257 474M9 471L9 475M215 471L214 474M217 473L219 474M223 471L222 472M233 471L232 473M236 473L239 473L232 477M242 471L243 474L245 471M255 471L253 475M275 471L277 473M290 474L293 471M295 471L294 474M405 471C397.314 474.272 392.956 475.045 385 472M692 471L692 475M265 472L264 474M301 472L301 474M371 480L384 472M297 473L297 474M247 474L248 474M259 474L259 475M276 474L274 477M575 476C571.374 481.041 570.004 493.486 578.058 495.682C588.57 498.549 603.097 496 614 496C639.659 496 665.339 496.203 691 495.861C702.008 495.715 721.031 500.371 727 489M201 480L202 480M208 480L209 480M232 480L234 480M207 482L206 486M230 483L230 490M372 483C374.774 500.974 390.948 487.904 399 483M237 485L238 486M242 485L243 485M397 485C404.826 494.069 395.72 497.553 388 492M211 486L211 489M216 486L217 490M220 486L220 488M223 486L220 492M233 486L233 489M240 486L241 489M249 486L249 488M252 486L249 492M213 487L213 489M235 487L235 489M247 487L245 489M575 488L574 490M154 489C147.945 500.534 127.257 495.917 116 495.997C78.6761 496.261 41.3305 496 4 496M205 489L208 490M626 490L626 495M692 490L692 495M98 491L98 495M123 491L123 495M715 491L715 495M370 493L376 493M402 495L409 497M575 496C571.631 500.684 570.131 512.622 577.059 515.396C584.342 518.311 596.191 515.711 604 515.92C643.61 516.977 683.373 516 723 516M360 502L382 523M369 504L372 503L369 506M373 503L383 502M377 503L379 505M385 504L385 506M392 504C391.2 515.734 409.749 504.674 408 517L402 511M376 507L373 511M154 509C147.966 520.493 127.237 516 116 516L4 516M67 510L67 515M585 510L585 515M601 510L601 515M37 511L37 515M659 512L659 515M376 515C372.259 519.584 372.809 522.527 379 523M575 516C571.564 520.777 569.997 532.546 577.059 535.397C583.988 538.194 595.57 536 603 536L661 536C671.196 536 681.073 538.434 688 530M2 530C4.91366 540.044 26.482 536.147 35 535.92C64.2767 535.138 93.7087 536 123 536C132.337 536 147.905 539.504 153 530M97 530L97 535M38 531L38 535M701 539C701.758 529.081 724.607 529.401 725 538M710 533L708 540L706 537M150 535C157.081 540.989 167.199 539 176 539L237 539L480 539L547 539C556.221 539 567.588 541.269 575 535M715 535L715 538M719 535L719 537"/>
</svg>
