<?xml version="1.0" standalone="yes"?>
<svg width="728" height="546" viewBox="0 0 728 546">
<path style="stroke:#000000; fill:none;" d="M2 58L358 58L441 58C446.832 58 466.058 54.8998 467.107 63.0548C469.12 78.7129 453.479 75 443 75L360 75C241.346 75 122.445 74.6737 4 75M224 74L221 63M459 66L456 76M217 67L211 74M227 67L224 70M456 76C455.987 80.6767 453.707 87.7219 456.029 91.9375C458.598 96.6021 463.76 95.0813 465.972 90.956C468.672 85.9212 467.365 80.079 464 76M463 95C466.598 99.2543 470.688 111.863 462.945 114.824C456.141 117.426 455.308 106.966 456 103M430 99L433 102M3 100L7 100M18 100L21 100M25 100L120 100M404 100L408 100M416 100L420 100M459 115C454.586 121.136 454.431 128.984 459 135C456.221 138.863 453.313 159.316 463.517 153.914C471.968 149.439 467.579 135.647 459 135M464 116C467.679 122.637 467.988 129.102 463 135M1 119L9 118M422 118L420 119M438 118L439 118L439 123L438 123L438 118M17 120L36 119M76 119L79 119M402 119L406 119M89 120L119 120M329 120L330 120M415 139L418 139M100 140L103 140M352 140L356 140M360 140L361 140M368 140L374 140M441 140L445 140M614 222L582 208.603L498 174L514 166.95L549 155.333L566 151.198L585.015 167.424L631 208.845L660.996 235.95L674.382 251L672.421 265L666 299M459 155C456.121 159.002 452.564 171.58 461.868 170.847C469.368 170.256 466.53 158.492 464 155M443 160L444 160M468 163L498 173M456 169C456.693 173.301 458.202 174.218 462 172L462 172M458 175C456.448 178.657 456.229 183.673 452.852 186.157C445.884 191.28 435.533 191.024 428.043 195.278C416.029 202.101 418.705 217.352 427 224.831C430.196 227.712 433.474 230.546 437 233L442 223M458 177L457 186M0 180L13 180M442 180L444 180M523 180L524 180M457 186L454 200M100 199L101 199M110 199L154 199M185 199L222 199M227 199L237 199M242 199L281 199M285 199L336 199M343 199L368 199M371 199L378 199M410 199L411 199M416 200L418 199M453 199L444 219M515 224L507 220C511.367 218.536 515.093 217.612 516 223C521.282 222.095 522.072 218.564 526.299 216.602C532.683 213.638 544.511 215.082 551 217C550.937 220.674 552.473 221.439 556 222C555.423 218.526 554.474 217.577 551 217M1 216L2 216M516 219L524 217M557 217C563.896 219.625 571.207 218.144 573 227L557 223M521 218L519 222M418 219L414 239M559 219L559 222M563 219L563 223M566 220L566 223M507 221L505 227L510 225M570 221L567 224M617 223L647 235L657.643 240.419L653 258M505 227C500.16 232.057 495.237 236.695 495 244C497.957 242.08 497.883 240.304 497 237M573 227L586 238L585 244L583 237M437 233C447.678 243.678 458.955 253.628 470 263.91C472.839 266.553 478.512 273.211 482.837 270.338C486.513 267.896 484.639 263.548 485.314 260C486.301 254.812 490.058 248.38 494 245M529 239C528.651 243.479 527.275 245.025 523 243C527.829 236.012 544.764 234.365 551.632 240.008C556.499 244.006 553.598 259.067 565 251M533 238L533 243L537 238M542 238L543 243L544 238M587 238C590.24 244.853 589.89 264.94 586.427 271.985C583.792 277.347 578.494 278.503 578 285C582.637 283.67 585.438 280.854 584 276M546 239C546.952 242.085 547.771 242.884 551 243L551 240M0 240L21 240M524 245L518 241L523 243M549 240L549 243M587 240L587 243M413 243C407.079 261.722 404.765 281.889 400.13 301C398.357 308.31 399.521 319.034 390 319M538 243L541 243M529 244L532 244M545 244L546 244M585 244L587 246M523 246C515.408 252.313 502.632 259.104 511 269L517 262L510 267M562 254C569.445 262.928 559.706 263.106 554.609 268.314C550.282 272.735 549.02 278.08 549 284L550 275M515 255L518 261M556 255L555 265M487 256C489.896 260.213 489.2 262.165 486 266M512 257L512 263M516 258L516 261M564 258L564 261M100 259L102 259M111 259L128 259M133 259L139 259M184 259L240 259M248 259L249 259M253 259L267 259M276 259L284 259M289 259L307 260M313 259L316 259M320 260L323 259M328 259L336 259M341 259L359 259M364 259L376 259M488 259L488 262M509 259L509 265M0 260L5 260M56 260L58 260M88 260L90 260M468 260L469 260M651 263L647 279L670 272M486 270C490.455 282.284 497.656 288.386 507 297.09C510.59 300.433 514.264 305.722 519 307.472C523.141 309.002 526.9 304.995 531 306.353C535.525 307.853 537.821 313.516 543 313.597C553.839 313.767 566.398 305.453 577 303M510 270L519 286C515.894 285.279 510.579 280.368 510 285L513 285M510 274C506.8 277.835 506.104 279.787 509 284M511 276L511 281M549 284C544.113 285.596 545.585 277.516 549 276M520 287L540 288C539.854 282.569 540.51 278.97 546 277M508 278L508 281M553 278L552 283M579 302L599 295.333L645 279M534 285L535 280L539 283M586 281L584 284M578 285C566.046 296.698 553.678 299.697 541 289M547 286L543 290M664 303L650 379C674.057 374.534 701.536 378 726 378M519 308L483 320.735L420 342.004L399 349.344L390.904 350.292L391 342M543 316L612 379M375 318L375 320L375 318M100 319L101 319M110 319L154 319M185 319L198 319M213 319L247 319M253 319L271 319M275 319L287 319M289 320L315 320M319 319L330 319M333 319L363 319M371 319L374 319M204 320L205 320M395 320C394.961 324.711 395.122 335.058 390.686 337.972C385.517 341.367 373.042 339 367 339L305 339L99 339C79.0134 339 58.9819 338.607 39 339.025C26.8484 339.279 12.942 341.118 1 339M143 334L144 334M0 339L1 339M572 340L571 341M389 351L384 355L388 363C378.597 365.779 366.782 364 357 364L296 364C231.292 364 166.711 365 102 365L35 365C30.2903 365 13.1962 362.959 17.608 372.733C19.269 376.413 25.7545 375.343 29 375.329C40.6618 375.281 52.3392 374.957 64 375.227C97.6138 376.005 131.356 375.085 165 375.152C179.452 375.181 198.144 371.981 212 376C205.742 382.137 197.471 385.108 190 379L186 383L165 378L160 383L156 379L142 383L141 376M4 355L384 355M17 356L17 365M389 365L390 374C372.727 375.386 355.301 373.562 338 374.174C332.596 374.365 321.849 376.347 325 383L329 379M251 375C250.65 385.595 240.339 380.188 244.032 375.695C246.823 372.3 259.87 374.101 264 374.133C281.002 374.267 297.997 374.275 315 374.184C322.776 374.142 326.004 368.108 333 374M6 376L4 383L3 383C-0.392236 374.066 10.3729 375.388 16 375L17 383L20 376M230 383L223 375L232 375L232 383C234.231 379.858 235.628 377.39 232 375M321 374L324 377M227 381C222.19 383.11 219.774 379.911 217 376L223 375M236 375L243 375M246 375L246 382M249 375L249 381M255 375C255.702 384.246 266.679 384.853 267 375M260 375L260 381M271 375L273 383L278 379C283.519 383.135 287.763 382.242 288 375M278 375L278 379M284 375L284 381M290 375C290.121 385.221 301.587 384.12 303 375M293 375L293 382M296 375L296 381M310 375C309.625 379.953 307.844 382.77 303 380M316 375C315.384 378.97 314.203 381.293 310 381M320 375C320 378.114 319.09 382.277 323 381M338 375C337.135 380.587 334.071 383.268 329 380M345 375C344.299 379.513 342.52 382.006 338 380M351 375C351.665 383.786 360.705 384.019 361 375M357 375L357 381M363 375L364 383C367.407 380.89 367.873 378.921 368 375M365 375L365 382M372 375L368 382M375 375L376 383L378 375M382 375C381.883 378.617 381.819 381.23 378 382M384 375L385 383L388 375M397 376L392 383L391 375L401 375L402 376L402 383L407 378L412 383C415.447 375.661 407.24 376.192 402 376M9 376L6 382M13 376L15 383M24 376L22 383L20 381M27 376L25 383M30 376L28 383M33 376C33.5899 383.707 41.4116 383.633 42 376M38 376L38 381M46 376C46.7329 385.607 60.6377 384.634 62 376M53 376L53 382M57 376L57 381M67 376L68 383L69 376M71 376L69 382M75 376C75.7402 385.703 90.2598 385.703 91 376M93 376C93.2406 383.31 98.4563 383.086 99 376M96 376L96 382M105 376C105.337 386.254 122.296 385.194 123 376M113 376L113 382M118 376L118 381M127 376C126.744 379.39 126.463 381.304 123 382M130 376L131 383L135 376M132 376L132 382M138 376L135 382M143 376L143 382M146 376L146 382M150 376L150 382M156 376L156 379M165 376L165 378M173 376L173 381M181 376L181 378M190 376L190 379M199 376L199 381M204 376L204 382M212 376L217 376M239 376L240 383L243 381M415 377L439 379.485L450 381L444 380M416 378L417 383L420 378M316 380L319 383M345 380L348 383L351 380M397 380L400 383M420 382L425 380C429.792 383.398 436.665 383.395 442 381M439 380L439 382M451 387C458.136 398.687 472.668 395.932 485 396C483.841 380.743 459.625 387.534 451 381L452 380L453 380L454 380M13 381L10 383M33 381L31 383M46 381L42 382M62 381L66 383M75 381L72 383M235 381L238 383M271 381L267 382M372 381L374 383M388 381L390 383M250 382C249.89 397.066 227.823 397.199 217 394L224 385M68 383L67 387L82 394C69.9374 397.54 56.2763 393.366 44 394.058C35.977 394.51 27.7028 397.999 20 394C26.6368 387.647 33.2003 387.798 40 394M100 383L104 383M128 383L129 383M138 383C137.012 397.722 112.203 398.482 101 394.397C96.8609 392.887 94.5595 389.695 90 389L91 382M616 383C626.871 393.841 643.839 401.244 640 418L647 417L644 418M648 384L645 398C670.236 402.27 700.246 398 726 398M380 386L389 394L371 394C374.173 391.028 375.851 389.175 380 391L382 389M6 387L7 387M67 387L66 394M93 387L93 388M95 387L95 388M186 387L182.852 394.397L166 394.039L134 395M307 389C310.758 390.055 312.809 392.971 316.285 394.397C327.632 399.053 337.649 393.14 346 387C349.173 397.293 360.086 397.053 370 394M49 394C53.8552 389.312 57.3643 388.153 64 388M224 388C227.631 389.41 229.341 389.971 230 394M230 389L238 394M252 388C252.288 396.801 264.671 397.283 271.715 394.397C274.25 393.359 276.07 390.205 279.004 390.205C282.264 390.205 284.866 393.841 288 394.697C296.101 396.909 305.667 395.995 314 396M403 388C403.458 401.965 423.186 393.745 429 388C432.431 391.39 436.403 396.045 441.83 394.677C445.587 393.731 446.917 390.708 451 391M425 390L427 388M479 388L475 392L482 390M58 389L58 394M73 389L73 394M213 394C207.147 397.111 195.877 397.063 190 394C197.026 387.591 206.011 387.553 213 394M301 395L303 389L304 395M455 389L460 394M466 395C469.173 392.028 470.851 390.175 475 392L475 392M485 390L504 393C500.259 395.887 498.741 395.887 495 393L493 395L497 398M16 395C12.8428 395.894 8.34022 396.648 5.15278 395.347C3.08525 394.503 1.8179 391.842 4.33719 390.627C9.40695 388.182 14.3832 393.269 19 394M27 390L27 395M29 390L29 395M33 390L33 395M91 390C91.7279 394.362 93.8242 394.863 98 395M197 390L197 395M201 390L201 395M204 390L204 395M226 390C226 395.424 224.558 408.016 228.028 412.397C230.025 414.918 235.197 414 238 414C251.6 414.001 255.007 409.078 255 396M429 390L431 396M480 390L481 391M9 391L9 395M380 391L380 394M451 391L445 396M486 397L492 394L492 395M504 393L529 400L527 397M187 395L190 394M213 394L217 394M285 394L274 396M389 394L402 395M82 395L90 395M187 395L187 404L219 402M245 395L251 395M340 395L346 395M432 395C432.115 400.385 433.774 410.567 438.549 413.972C444.886 418.49 464.237 414.942 472 414.997C478.849 415.045 491.363 417.59 495.713 410.942C499.009 405.905 491.549 399.992 488 397M492 395L489 398M508 395L501 397M60 396C59.8764 402.22 61.7621 411.596 69.1435 413.679C78.5495 416.334 92.1855 414 102 414C119.331 414 136.678 414.155 154 413.857C161.359 413.731 169.952 415.068 177 413C168.839 404.389 154.62 402.458 146 412M83 396L84 413M136 396L135 413M350 396C350.198 399.862 350.65 409.411 353.028 412.396C355.035 414.916 360.206 413.793 363 413.804C374.653 413.85 378.812 412.12 389 407L386 396M363 396L365 413M408 396L412.603 413.972L436 415M423 396L431 396M448 396L456 396M461 396L459 414M513 396L507 398M517 397L512 398M523 397L517 399M526 398L524 400M494 399L495 404M530 399C553.036 399.064 577.431 408.014 600 412.601C605.574 413.734 619.196 419.605 624 418M32 402C28.6842 411.403 36.5366 415.454 45 413L38 405L37 413M265 402L338 402M644 403L643 406M128 404C135.311 404.314 143.268 404.152 149 409M82 405L76 413M173 405L186 405M360 413L361 405L365 409M175 406L175 409M187 406C192.932 418.675 214.209 414 226 414M275 406C275.127 416.705 284.693 414 293 414L351 414M59 407C59.1551 411.724 60.1104 413.619 65 414M155 407L155 413M161 407L161 413M166 407L166 413M168 407L168 413M184 407L178 413C182.742 415.53 187.258 415.53 192 413M458 407L459 410M491 407L495 412M389 408C395.753 415.245 400.499 415 410 415M498 408L501 416L494 416M0 409C9.42344 415.527 22.5724 417.378 34 414M387 409C387.34 413.365 388.635 414.66 393 415M465 409L465 414M509 410C520.071 424.359 554.363 418 571 418C577.849 418 586.584 419.784 592 415C597.571 419.119 605.684 420.02 612 417M502 417L509 422L509 413M506 413L502 417M46 414L58 414M251 414L274 414M509 414L508 415M381 415L386 415M608 415L608 418M4 416L6 415M510 417L513 417M617 417L617 419L612 419M622 418L618 420M647 418L726 418M591 419L594 418M625 419L639 419M509 422C511.393 424.677 517.803 430.742 513.638 434.383C510.237 437.356 499.437 435 495 435L442 435C365.107 435 287.629 433.181 211 434.95C187.691 435.488 164.315 435 141 435C131.929 435 121.067 436.919 118 426L1 426M119 425L354 424L504 423M0 426L1 426M227 426L230 435M78 427L78.6427 433.972L91 435L122 435M116 427L116 434M216 428L215 434M513 428L507 435M6 435C14.1784 435 18.8563 434.944 25 429C35.9309 439.576 61.3762 435.694 76 435M222 429L218 435M275 429L275 434M515 436L524 433.777L533 436.853L556 438L726 438M524 434C524.9 437.375 525.963 437.482 529 436M21 436L30 435M72 436C71.7533 440.755 66.3506 448.611 69.6188 452.682C73.4031 457.396 86.5608 455 92 455C95.5954 455 100.321 455.782 103.715 454.397C106.199 453.384 108.056 450.27 111.004 450.626C113.934 450.98 116.081 453.958 119 454.682C128.485 457.036 146.691 456.7 156 454L150 448L148 454M228 437C227.802 441.604 225.403 447.844 228.523 451.852C235.815 461.216 260.451 454.471 267 448C279.964 460.811 308.601 455 326 455L449 455C466.357 455 489.391 458.908 506 454L500 448L495 453M520 438L523 438M525 438L528 448M525 447L526 448M215 448C218.891 451.473 220.739 452.284 225 449M529 448C532.801 457.9 512.798 455 507 455M527 449L524 454M157 455C165.726 455 175.377 456.175 184 454.852C187.507 454.314 190.472 450.542 194 450.916C200.737 451.631 213.54 460.393 220 453M538 454L534 457L533 456L537 452C553.763 461.868 578.195 458 597 458L726 458M6 455L50 455L70 455M188 455C192.096 457.183 194.904 457.183 199 455M262 455L272 455M106 456L116 455M221 456L230 455M530 456L533 456M540 456L545 457M541 457L536 458M539 459L540 463L528 464.318L515 471.932L461 472.035L371 472L146 471L21 471.566L1 463M0 463L1 463M537 465L537 468L540 464M537 468C531.514 473.308 526.18 475.832 519 472M541 468L536 476L544 477L541 473M17 471L6 473M309 473C309.012 488.805 331.901 483 344 483C381.322 483 418.694 482.331 456 482.861C467.826 483.029 494.945 488.701 495 473M360 473L360 482M422 473L422 482M425 473L425 482M431 473L431 482M433 473L433 482M442 473L442 482M447 473L447 482M455 473L455 482M466 473L466 482M470 473L470 482M477 473L477 482M482 473L482 482M491 473L491 482M499 473C498.986 476.991 499.504 481.091 495 482M503 473C503.009 484.582 511.645 483.947 512 473M532 474L536 476M544 477L726 478M1 484L308 483M500 483L502 483M0 484L1 484M3 496L726 498M178 512L176 516C184.091 518.392 192.747 517.781 199 512C208.325 520.622 225.954 516.999 238 517C270.979 517.002 303.965 517.397 337 517.004C466.494 515.463 596.154 518 726 518M207 512L196 517M2 518L175 517M669 531C670.223 538.348 683.672 539.956 685 532M706 537L709 540C710.601 536.194 709.967 532.229 715 533M717 532C721.149 533.038 724.775 533.123 725 538M701 538L704 533M708 533L710 533M694 534L696 534M715 535L715 537M719 535L719 537M1 538L429 538C508.306 538 588.991 542.235 668 536"/>
</svg>
