%!PS-Adobe-3.0 EPSF-3.0
%%Creator: Adobe Illustrator by AutoTrace version 0.40.0
%%Title: classik.eps
%%CreationDate: mer 13 avr 2022 15:48:48
%%BoundingBox: 0 0 680 1000
%%DocumentData: Clean7Bit
%%EndComments
%%BeginProlog
/bd { bind def } bind def
/incompound false def
/m { moveto } bd
/l { lineto } bd
/c { curveto } bd
/F { incompound not {fill} if } bd
/f { closepath F } bd
/S { stroke } bd
/*u { /incompound true def } bd
/*U { /incompound false def f} bd
/k { setcmykcolor } bd
/K { k } bd
%%EndProlog
%%BeginSetup
%%EndSetup
0.000 0.000 0.000 1.000 K
*u
79 235 m
105.856 292.414  119.827 355.647  146.800 412.996  c 
150.912 421.738  164.456 421.917  167.852 430.213  c 
176.821 452.122  172.982 479.366  180.358 502  c 
201.583 567.134  229.213 630.956  253.576 695  c 
267.641 731.976  281.613 768.984  295.575 806  c 
301.191 820.891  304.464 840.140  323 843.725  c 
336.237 846.286  363.208 847.344  373.775 838.211  c 
381.970 831.129  385.209 811.977  389.200 802  c 
401.787 770.529  413.463 738.711  425.424 707  c 
450.910 639.429  479.833 572.516  502.645 504  c 
508.099 487.620  509.103 469.007  511.920 452  c 
512.962 445.707  512.769 436.956  515.564 431.213  c 
519.341 423.452  531.982 423.270  536.292 414.985  c 
544.241 399.704  549.302 382.095  555.424 366  c 
571.825 322.887  586.242 278.121  605 236  c 
S
515 430 m
507.275 422.525  499.124 424  489 424  c 
438 424 l
240 424 l
191 424 l
182.856 424  174.555 422.457  168 428  c 
S
*U
%%Trailer
%%EOF
