<?xml version="1.0" encoding="UTF-8"?>
<glyph name="H" format="2">
	<advance width="708"/>
	<unicode hex="0048"/>
	<outline>
		<contour>
			<point x="100" y="700" type="line"/>
			<point x="100" y="0" type="line"/>
			<point x="220" y="0" type="line"/>
			<point x="220" y="700" type="line"/>
		</contour>
		<contour>
			<point x="488" y="700" type="line"/>
			<point x="488" y="0" type="line"/>
			<point x="608" y="0" type="line"/>
			<point x="608" y="700" type="line"/>
		</contour>
		<contour>
			<point x="109" y="416" type="line"/>
			<point x="109" y="306" type="line"/>
			<point x="599" y="306" type="line"/>
			<point x="599" y="416" type="line"/>
		</contour>
	</outline>
	<lib>
		<dict>
			<key>com.schriftgestaltung.Glyphs.lastChange</key>
			<string>2022-03-28 12:29:34 +0000</string>
		</dict>
	</lib>
</glyph>
