<?xml version="1.0" encoding="UTF-8"?>
<glyph name="M" format="2">
	<advance width="790"/>
	<unicode hex="004D"/>
	<outline>
		<contour>
			<point x="60" y="0" type="line"/>
			<point x="180" y="0" type="line"/>
			<point x="180" y="527" type="line"/>
			<point x="366" y="0" type="line"/>
			<point x="446" y="0" type="line"/>
			<point x="610" y="527" type="line"/>
			<point x="610" y="0" type="line"/>
			<point x="730" y="0" type="line"/>
			<point x="730" y="700" type="line"/>
			<point x="554" y="700" type="line"/>
			<point x="402" y="217" type="line"/>
			<point x="225" y="700" type="line"/>
			<point x="60" y="700" type="line"/>
		</contour>
	</outline>
	<lib>
		<dict>
			<key>com.schriftgestaltung.Glyphs.lastChange</key>
			<string>2022-04-04 09:38:58 +0000</string>
		</dict>
	</lib>
</glyph>
