<?xml version="1.0" encoding="UTF-8"?>
<glyph name="nouveauGlyphe.022" format="2">
	<advance width="838"/>
	<outline>
		<contour>
			<point x="190" y="303" type="line"/>
			<point x="190" y="361"/>
			<point x="190" y="398"/>
			<point x="190" y="420" type="curve"/>
			<point x="207" y="420"/>
			<point x="241" y="420"/>
			<point x="294" y="420" type="curve"/>
			<point x="295" y="420" type="line"/>
			<point x="528" y="420" type="line"/>
			<point x="632" y="420"/>
			<point x="632" y="334"/>
			<point x="632" y="303" type="curve"/>
			<point x="423" y="303" type="line"/>
			<point x="408" y="303" type="line"/>
		</contour>
		<contour>
			<point x="530" y="83" type="curve" smooth="yes"/>
			<point x="437" y="83"/>
			<point x="391" y="83"/>
			<point x="297" y="83" type="curve" smooth="yes"/>
			<point x="263" y="83"/>
			<point x="210" y="83"/>
			<point x="190" y="83" type="curve"/>
			<point x="190" y="127"/>
			<point x="190" y="199"/>
			<point x="190" y="225" type="curve"/>
			<point x="411" y="225" type="line"/>
			<point x="423" y="225" type="line"/>
			<point x="738" y="225" type="line"/>
			<point x="738" y="280" type="line" smooth="yes"/>
			<point x="738" y="334"/>
			<point x="725" y="500"/>
			<point x="527" y="500" type="curve" smooth="yes"/>
			<point x="458" y="500"/>
			<point x="429" y="500"/>
			<point x="409" y="500" type="curve"/>
			<point x="398" y="500"/>
			<point x="369" y="500"/>
			<point x="294" y="500" type="curve" smooth="yes"/>
			<point x="155" y="500"/>
			<point x="80" y="428"/>
			<point x="80" y="260" type="curve" smooth="yes"/>
			<point x="80" y="96"/>
			<point x="155" y="0"/>
			<point x="297" y="0" type="curve" smooth="yes"/>
			<point x="379" y="0"/>
			<point x="465" y="0"/>
			<point x="530" y="0" type="curve" smooth="yes"/>
			<point x="707" y="0"/>
			<point x="734" y="123"/>
			<point x="734" y="152" type="curve"/>
			<point x="634" y="172" type="line"/>
			<point x="634" y="150"/>
			<point x="631" y="83"/>
		</contour>
		<contour>
			<point x="80" y="500" type="line"/>
			<point x="80" y="0" type="line"/>
			<point x="190" y="0" type="line"/>
			<point x="190" y="500" type="line"/>
		</contour>
		<contour>
			<point x="150" y="83" type="line"/>
			<point x="150" y="0" type="line"/>
			<point x="297" y="0" type="line"/>
			<point x="297" y="83" type="line"/>
		</contour>
		<contour>
			<point x="150" y="500" type="line"/>
			<point x="150" y="420" type="line"/>
			<point x="297" y="420" type="line"/>
			<point x="297" y="500" type="line"/>
		</contour>
		<contour>
			<point x="80" y="720" type="line"/>
			<point x="80" y="596" type="line"/>
			<point x="190" y="596" type="line"/>
			<point x="190" y="720" type="line"/>
		</contour>
	</outline>
	<lib>
		<dict>
			<key>com.schriftgestaltung.Glyphs.lastChange</key>
			<string>2022-04-06 10:25:34 +0000</string>
		</dict>
	</lib>
</glyph>
