<?xml version="1.0" encoding="UTF-8"?>
<glyph name="nouveauGlyphe.031" format="2">
	<advance width="850"/>
	<outline>
		<contour>
			<point x="583" y="0" type="curve" smooth="yes"/>
			<point x="760" y="0"/>
			<point x="786" y="123"/>
			<point x="786" y="152" type="curve"/>
			<point x="686" y="172" type="line"/>
			<point x="686" y="150"/>
			<point x="683" y="83"/>
			<point x="582" y="83" type="curve"/>
			<point x="475" y="83" type="line"/>
			<point x="475" y="225" type="line"/>
			<point x="790" y="225" type="line"/>
			<point x="790" y="280" type="line"/>
			<point x="790" y="334"/>
			<point x="777" y="507"/>
			<point x="579" y="507" type="curve" smooth="yes"/>
			<point x="440" y="507"/>
			<point x="365" y="428"/>
			<point x="365" y="260" type="curve"/>
			<point x="365" y="96"/>
			<point x="441" y="0"/>
		</contour>
		<contour>
			<point x="355" y="0" type="line"/>
			<point x="583" y="0" type="line"/>
			<point x="583" y="83" type="line"/>
			<point x="355" y="83" type="line"/>
		</contour>
		<contour>
			<point x="60" y="0" type="line"/>
			<point x="180" y="0" type="line"/>
			<point x="180" y="316" type="line"/>
			<point x="180" y="356"/>
			<point x="188" y="424"/>
			<point x="268" y="424" type="curve" smooth="yes"/>
			<point x="348" y="424"/>
			<point x="355" y="386"/>
			<point x="355" y="316" type="curve"/>
			<point x="355" y="0" type="line"/>
			<point x="475" y="0" type="line"/>
			<point x="475" y="378" type="line" smooth="yes"/>
			<point x="475" y="528"/>
			<point x="268" y="538"/>
			<point x="180" y="447" type="curve"/>
			<point x="180" y="500" type="line"/>
			<point x="60" y="500" type="line"/>
		</contour>
		<contour>
			<point x="684" y="303" type="curve"/>
			<point x="475" y="303" type="line"/>
			<point x="475" y="336"/>
			<point x="482" y="420"/>
			<point x="579" y="420" type="curve" smooth="yes"/>
			<point x="683" y="420"/>
			<point x="684" y="334"/>
		</contour>
	</outline>
	<lib>
		<dict>
			<key>com.schriftgestaltung.Glyphs.lastChange</key>
			<string>2022-04-06 11:08:03 +0000</string>
		</dict>
	</lib>
</glyph>
