<?xml version="1.0" encoding="UTF-8"?>
<glyph name="y" format="2">
	<advance width="600"/>
	<unicode hex="0079"/>
	<outline>
		<contour>
			<point x="369" y="60" type="line"/>
			<point x="285" y="0" type="line"/>
			<point x="100" y="500" type="line"/>
			<point x="215" y="500" type="line"/>
		</contour>
		<contour>
			<point x="426" y="500" type="line"/>
			<point x="541" y="500" type="line"/>
			<point x="382" y="0" type="line"/>
			<point x="285" y="0" type="line"/>
		</contour>
		<contour>
			<point x="151" y="-48" type="curve"/>
			<point x="151" y="-128" type="line"/>
			<point x="341" y="-128"/>
			<point x="341" y="-128"/>
			<point x="382" y="0" type="curve"/>
			<point x="285" y="0" type="line"/>
			<point x="285" y="-41"/>
			<point x="268" y="-48"/>
		</contour>
	</outline>
	<lib>
		<dict>
			<key>com.schriftgestaltung.Glyphs.lastChange</key>
			<string>2022-03-28 14:41:57 +0000</string>
		</dict>
	</lib>
</glyph>
