<?xml version="1.0" standalone="yes"?>
<svg width="728" height="546" viewBox="0 0 728 546">
<path style="stroke:#000000; fill:none;" d="M196 27C200.48 31.4644 204.235 35.4984 211 35.1852C214.356 35.0298 221.351 30.4698 223.972 33.6188C233.391 44.9345 212.561 45.3893 207 44.8765C200.661 44.292 195.22 36.2199 191 32L207 17.7338L229 19C230.81 27.5754 237.559 32.3936 243.277 38.429C244.795 40.0316 246.479 44.376 248.985 44.3642C252.735 44.3466 250.76 39.09 249.605 37.4684C246.889 33.6561 242.153 32.5512 238 31M188 37C182.757 37.9734 175.097 39.6468 171.889 33.9413C170.176 30.8951 169.421 18.6705 175.059 19.176C180.725 19.684 187.189 29.1895 191 33C187.515 39.8901 200.831 53.7672 208 53L207 54M210 18L207 25L215 33M213 19L221 33M615 44C608.504 45.0831 608.049 40.4368 608 35L546 35C538.947 35 526.785 37.2972 520.317 34.3465C513.691 31.3239 516.624 18.2582 525 20M614 35C607.789 33.9635 605.607 18.674 611.911 19.4661C618.648 20.3127 611.509 32.838 618.148 34.6574C624.193 36.3139 632.714 34.9923 639 35L682 35.0008C690.233 35.0272 704.737 36.3333 695 47L690 36M622 22L630 20M162 28L158 20L168 31L167 20L162 23M169 20L171 20M219 20L219 26M225 20L220 28M231 20L232 24M525 35C524.893 46.8129 517.1 46.9737 517 35C504.396 35 502.259 32.8937 503 20L509 20L508 22M507 20L508 21M628 22L630 34M509 23C509.13 29.2758 514.078 47.9579 503 45L504 35M524 23L524 34M623 23L623 34M200 25L207 25M168 31L170 33M157 34C157.001 40.0879 157.158 46.6469 163.425 49.9229C166.103 51.3229 169.247 49.7383 171.512 52.277C174.969 56.1505 173.349 67.4376 172 72C168.132 71.0902 163.693 72.0667 160 70.5378C149.455 66.1717 136.815 48.0106 147.513 37.5602C151.431 33.7332 158.981 32.7756 164 31M226 32L233 32M233 32C237.534 36.6599 238.4 44.093 245 45M221 33L221 44M229 33L230 42L233 34M216 35L216 44M438 55C440.31 59.3288 440.31 62.6712 438 67C431.475 59.9159 436.622 59.3752 437.852 51.9105C438.528 47.8066 436.176 40.1044 439.028 36.7438C441.777 33.504 451.187 35 455 35L502 35M624 35L622 44L624 43M210 36L210 44M213 36L213 44M440 36L441 44L443 36M248 37L246 39M436 43L435 37C432.724 41.9663 435.576 46.3877 441 44M174 38L169 49M185 38L200 53M696 38L696 44M240 40L242 40M244 40L244 44M234 41L238 45M230 42L225 44M252 43C255.211 45.979 259.806 52.5492 252 52L251 53L252 58L259 52M630 44L624 45M230 45L233 45M191 46C189.595 51.5541 195.158 56.0206 200 58L198 55M695 47C694.897 55.7561 688.028 59.4307 695 67L696 56M188 50C188.001 55.3211 187.657 59.3825 192 63C194.515 58.0276 191.557 55.633 188 52L180 71L188.91 77.5417L204 78L205 77L202 73C208.319 69.7039 227.548 66.1274 225 57L235 57C228.415 66.7733 236.472 78.3877 243 86M163 51L151 62M244 56L248 52C246.878 57.995 239.983 56.9896 235 57M174 54L182 58M208 54C213.216 57.7517 218.812 57 225 57M260 54C260.075 60.3806 265.408 65.2048 265.406 70.9954C265.402 83.5175 240.113 73.6461 235 75M204 55L202 57M254 55L255 56M440 55L692 55M135 83C137.71 88.8108 145.215 98.1011 152 98C147.531 93.5307 141.996 89.1858 138.367 84C134.982 79.1617 134.488 74.6913 130.019 70C126.681 66.4961 122.435 60.2353 129.059 57.2376C133.494 55.2305 137.151 60.3421 140 62.9221C147.746 69.9359 155.563 76.5627 163 84C154.71 87.8913 149.413 79.4129 144 74C141.919 80.3645 148.744 84.8925 153 88.9606C163.376 98.8779 190.679 102.467 202 92C202.886 95.2592 202.3 96.176 199 97M210 56L203 57M228 56L232 61M255 59C258.859 57.777 260.912 57.1806 263 61L263 62M178 58L180 71M198 58L196 60M248 58L250 58M693 58L693 63M435 59L435 62M2 60L4 60M228 60L229 60M189 61L184 68M232 62L225 67M145 65L149 63M466 98C467.714 90.7993 462.462 70.8565 468.603 66.0278C473.86 61.8932 491.44 64.9659 498 65.1157C523.396 65.6955 548.665 64.1832 574 64.6751C580.728 64.8058 598.27 60.477 603.397 65.6034C605.822 68.0292 605 72.8992 605 76C605.001 84.658 604.414 93.4592 606 102L604 100M605 65C620.057 62.3275 636.715 64 652 64C656.503 64 664.787 62.4287 668.682 65.0278C672.496 67.5728 671.978 80.0433 671 84L670 79M542 65L551 71M546 65L546 67M639 65L640 78M500 66L500 98M534 66L534 123L533 120M569 66L569 75M144 67L144 74M438 67C437.902 75.2635 431.837 79.7053 438 87L439 76M695 67C694.902 75.2965 687.82 79.6613 694 87C698.218 82.4208 699.132 79.9557 695 75M545 68L545 71M588 71C587.973 68.384 588.432 68.4464 591 69M593 68L594 70M617 70L620 70M235 69L233 72M489 69L486 70M511 69L517 70M622 69L622 70M481 70L484 71M524 70L526 70M580 70L585 70M627 70L627 71M654 70L655 71M658 70L658 71M173 71L177 72M237 71L238 72M262 71L263 74M162 72L162 81M165 72L165 83C171.933 82.0553 171.995 78.2338 172 72M168 72L168 82M177 72C176.996 76.7078 177.65 81.4085 172 82M191 73L195 72M205 72L218 81C220.357 73.8444 227.251 73.7625 233 78M220 72L221 73M223 73L226 72M231 72L233 75M200 74L202 73M218 73L220 75M231 73L228 76M268 74L265 78L269 77M570 74L569.836 95L570 105M467 75L569 75M571 75C591.309 75 618.565 70.2554 638 76M640 75L670 76M198 76L201 78M222 76L224 78L221 79L222 76M224 76L223 77M241 76L239 78M158 93C153.454 93.3061 138.221 81.0174 142 77M195 77L199 78M205 77L208 77M216 77L218 77M237 77L231 79L230 78M224 78L228 78M264 78L265 78M436 78L436 83M693 78L693 84M696 78L696 83M193 79L195 79M227 79C228.615 83.705 233.688 82.624 238 83M235 79L235 82M230 80L230 82M232 80L232 82M270 80L272 84L261 91M209 87C210.812 90.1132 210.812 90.8868 209 94C204.714 86.6108 211.41 85.6537 216 81M212 88L226 83M639 83L638 105M551 85L552 91L553 91L554 92L555 92M627 84L627 93M671 84L671 124L670 119M271 85L273 98L268 95C267.917 97.8001 268.2 98.2643 271 98M516 85L516 95M584 85L587 85M135 86C127.942 93.0578 121.029 97.1904 130 105C136.073 100.732 141.885 103.699 142 94M177 87L206 88M586 86L586 90L589 90M648 86L654 90L648 93M651 86L656 86M438 87C438.031 95.7426 444.913 99.4948 438 107C434.038 102.295 434.038 99.705 438 95M694 87C695.53 95.7999 687.033 99.3676 694 107C697.733 102.582 698.448 99.8164 695 95M623 89L624 89M138 90L138 101M208 91L212 92M132 91L132 102M581 91L585 91M140 92L140 101M218 97L214 93L221.804 96.1844L233.999 92.4869L247.003 96.9406L267 94M257 92L257 93M211 93L217 97M235 93L233 107C231.642 104.69 230.733 102.905 234 104M153 94L154 95M227 94C231.655 99.4124 236.15 100.489 242 96M151 95L152 96M156 95L161 97M203 97L208 95M225 95L228 99L229 99M258 95L255 98M262 95L260 98L264 98L263 96M209 96L208 100L213 97M126 97L126 101M223 97L226 100M439 97L439 104M694 97C694 105.982 688.707 120.715 694 127C697.733 122.582 698.448 119.816 695 115M152 98L155 98M201 98C199.332 104.126 194.31 107.343 197 114L199 112L203 120L202 116M257 98L259 99M264 98L268 110L261 111M437 98L437 104M696 98L696 103M206 99L207 99M211 99C211.019 105.557 211.617 108.573 218 111L215 117L217 113M259 99L261 110M274 99L271 114L274 118L272 120L267 116L270 116M441 99L441 102M670 99L670 103M692 99L692 103M224 100L220 106M232 100L232 102M238 100C238.202 104.355 238.227 108.367 233 108M271 100L272 104M640 100L640 103M268 102L265 109M124 103L129 106M466 103L480 105L517 105L670 105M500 103L500 125L501 122M605 103L606 136L652 136L669.397 134.972L671 124M254 104L254 106M257 104L257 106M194 110L192 106L197 105M184 106L191 112C186.42 115.241 181.044 114.69 182 108L184 111L184 112L184 113M191 111L192 106M200 106L201 106M467 106L467 123L466 120M569 106L571.028 135.397L580 137L605 137M639 106L640 189L640 224L641 220M186 107L184 109M188 107L190 107M197 107L203 109M438 107C438.031 115.743 444.913 119.495 438 127C434.038 122.295 434.038 119.705 438 115M125 108L125 116L127 112M212 109L208 112L214 118M192 110L194 110M207 111L209 111M219 111L218 114M235 111C233.429 120.09 223.842 120.415 220 113M211 115L215 113M261 114L259 116L260 112M273 112L274 118M245 118L244 113L250 117L246 114M197 114L189 115M208 116L208 119L204 115L209 114M264 114C265.187 116.821 264.719 118.717 268 118M162 131C157.474 141.71 130.993 137.068 121 136.999C117.058 136.972 108.98 135.878 109.616 130.089C110.334 123.555 119.615 118.785 124 115M127 115L145 117L182 116M223 115L221 118M236 115C236.796 118.716 239.637 118 243 118M627 115C628.151 118.434 627.714 119.612 625 122L627 115M656 115L659 119M128 116L123 119M225 116L224 119M264 116L265 117M514 116L520 117L519 119M553 116L552 123L551 117M587 116L590 119M617 117L620 119M651 116L654 120M192 117L192 122L194 122L194 117M196 117L200 117M216 117L220 119M227 117L228 118M250 117L259 117M270 117L269 118M483 117L482 119M695 117L695 124M176 118L173 129L172 130L167 129L170 127M260 118L264 118M276 118C283.96 136.29 280.673 162.776 271 180L264 172M440 118L440 123M219 119L208 132L211 131M233 119L235 119M436 119L436 123M692 119L692 123M0 120L1 120M203 121C199.777 124.529 197.927 124.707 194 122M272 121L276 137L277 138L278 138L279 138M192 122L178 131C184.348 137.142 194.299 139.306 203 137C200.668 134.64 199.998 134.61 197 136M482 122L485 123M652 122L652 123M180 123L183 127M467 123L467 161C467.006 165.523 468.475 172.275 463.863 175.088C459.556 177.715 452.701 175.137 448 175.015C438.293 174.762 425.036 175.434 416 179.419C411.993 181.186 395.137 196.191 407 196L407.526 205.817L413 211L410 209M534 123L532.397 135.397L515 137L468 137M180 125L175 132L177 131M500 125L500 145L499 139M186 127L188 129L191 128M178 127L180 129M212 127L210 129M438 127L438 147C434.038 142.295 434.038 139.705 438 135M694 127C694.031 135.742 700.913 139.495 694 147C690.82 143.549 688.94 141.491 691 137L692 140L692 141L692 142L692 143M276 136C270.688 140.876 267.335 133.246 272 129L274 135M183 130L187 129M257 130C252.797 138.287 261.597 136.112 267 136M274 130L274 132M108 131L102 138C104.952 138.338 105.07 137.68 104 135M169 131L164 133L168 138L169 133M201 131L200 132M109 132L105 136M175 132L172 136M269 135L272 133M108 134L111 137L106 138M164 134L160 138M209 134L203 137M277 134L277 135M174 135L182 137M694 135L692 137M209 137L254 137M535 140L533 142C537.617 132.846 559.944 137 569 137M671 137L671 143L670 139M196 138L197 142C193.453 143.674 185.954 149.91 183 146M437 138L437 144M606 138L606 186C606.003 187.801 606.927 202.713 603 200M696 138L696 143M162 139L166 138M468 139L467 143M11 140L18 140M22 140L24 140M96 143C92.3562 147.836 86.0008 152.821 92 158L90 152M534 143L534 170L468 170M671 143C671 155.665 670.339 168.382 670.34 181C670.34 188.939 672.941 195.28 666 201C671.92 205.878 672.575 215.729 671 223L670 219M570 144L570.169 186L567 201C573.789 210.438 564.362 226.445 571.858 234.397C574.832 237.552 583.058 236 587 236L624 236C627.731 236 635.302 237.423 638.397 234.972C641.072 232.853 640 227.003 640 224M255 146L264 145M500 145L500 165L499 159M183 149L182 147M694 147C694.03 155.361 700.373 160.018 694 167C691.286 163.226 690.692 160.477 692 156L693 164M170 154L166 159L162 155L177.443 156.673L180 148M438 148L434.634 161L439 174M658 148C660.7 151.712 658.984 155.215 657 159M178 149L181 150M272 149L265 162L262 159L267 157M557 149L555 159M591 149L593 154L591 155L589 156M620 149L621 156M178 157L175 150L177 150M225 150L228 154L229 155L230 154M261 150L267 154M514 150L514 160M521 150C521.901 153.184 521.886 154.295 519 156M549 150L549 159M586 150L586 157M654 150L654 155M179 151C188.052 159.758 215.791 161.244 225 152M479 151L479 158M482 152L486 152C485.591 155.594 485.897 157.052 489 159M554 151L556 153M94 152L94 155M172 152L173 152M177 152L175 154M258 152L262 154M261 152C251.296 158.98 238.054 150.418 229 158L239 157M276 152L268 158M627 152L628 157M93 157C105.724 157 128.953 161.497 139 153C141.982 158.801 139.966 167.394 137 173L137 168M224 153L228 156M143 156L162 155M231 154L232 156M88 155C86.9304 157.68 87.0478 158.338 90 158M439 155C443.412 159.834 443.412 162.166 439 167M184 156L180 158M228 156L222 158M169 157L174 159M233 157L233 158M273 157L277 159M137 158L140 158M170 158L167 159M228 158L229 158M437 158L437 164M440 158L440 164M77 174L83 176C69.6155 177.898 80.7037 162.755 85 159M145 159L146 159M171 159C171.596 164.818 175.615 170.404 172 176M265 162C259.484 173.214 243.04 169.947 238 160L262 159M0 160L10 160M12 160L31 160M442 160L442 162M263 161L243 164M152 163L155 168L156 166M500 165C500 177.008 499.689 189.058 499.907 201C499.968 204.301 502.443 207.684 501.517 210.985C500.704 213.884 497.61 215.341 496.696 218.17C495.74 221.129 497.414 224.028 495.922 226.999C491.37 236.066 482.773 233.716 477 228C481.051 223.813 482.931 220.868 483 215C476.688 215.022 473.555 216.593 469 221L476 228M694 167C693.897 175.756 687.028 179.431 694 187C698.412 182.166 698.412 179.834 694 175M155 168C153.289 183.721 162.659 173.334 172 176M535 171L579 170L670 170M175 171L173 177L179 178L178 173M260 171C261.969 175.172 264.404 177.29 269 178M535 171C534.899 183.166 536.829 193.865 528 202M153 177L148 178L154 172M247 172C252.448 175.769 254.92 178.694 260 173M252 177C254.664 173.619 256.192 172.838 260 175M180 173L184 176L180 179M74 174L75 178C71.0383 179.249 61.2953 186.534 66 191M137 174C131.56 177.913 125.451 177 119 177L84 177M263 174L264 175M74 175L72 177M181 175L179 177M252 177L245 177L249 175M270 175L271 177M184 176L188 177L185 182M135 177C137.908 182.535 136.713 193.744 129.956 196.397C125.186 198.269 118.061 197 113 197C98.9525 197 73.7568 201.946 63 192L62 193L65 197C58.8908 199.878 54.8533 201.696 53.091 209C52.5105 211.406 53.847 214.334 52.706 216.546C49.176 223.391 38.2357 227.278 45 237L40 238L42 239M188 177L245 177M257 177L264 178M435 177L428 184L429 193C440.124 196.287 456.919 193.986 465 186L469 190C473.116 187.598 482.553 184.289 482 192L481 187M462 177L466 187M466 177C473.671 178.445 495.301 184.847 489 196L484 186M694 177C694 185.455 691.269 194.867 692.13 203C692.708 208.465 697.681 215.97 697.088 221C696.01 230.14 689.978 236.777 693 247C696.733 242.582 697.448 239.816 694 235M75 178L78 177M167 178L171 178M692 178L692 183M147 179C146.999 184.421 141.766 197.206 150 196L148 191M156 179L169 192L165 196C170.109 198.448 175.583 198.834 180 195L174 196L169 192M182 179L184 181M482 179L480 181M583 179L587 187M0 180L13 180M273 180C271.454 185.973 270.007 200.962 261 197L269 195M557 180L557 187L556 184M591 180L591 185M649 181L652 180M520 181L522 192M547 182L550 182L549 188M624 182C626.674 184.132 624.643 186.557 623 189L624 190L625 190L626 191M512 183L515 189M619 182L619 184L619 182M652 182L649 187L653 189M658 182L659 193M617 183L618 183M408 196L428 184M420 185L420 187M469 185L471 187M619 185L620 190M414 186L417 187M427 186L424 188L429 194M470 186L468 188M406 187L412 193M476 187L479 190L475 188M416 188L412 192M162 189L163 190M167 189L165 194M160 190L165 196M404 190L409 195M421 190L428 195M469 190L459 194M477 190C473.411 193.318 470.919 195.294 466 194M484 190L488 190M174 191L173 194M167 192L168 193M482 193C478.543 195.451 476.822 195.921 473 194M205 197C208.66 194.526 210.878 194.504 215 196C209.068 201.261 198.402 195.101 191.001 196.319C183.668 197.526 184.723 201.798 190.005 205.301C191.921 206.572 194.078 207.553 195.902 208.954C198.521 210.967 198.835 215.799 202.137 216.547C205.657 217.344 212.162 213.335 209 210M425 194L414 195M61 195L63 198M181 196L186 197M212 195L209 198M264 195L266 197M61 196L59 198M150 196L160 196M215 196L261 197M480 196L490 196M179 213L186 217C185.07 214.807 183.898 212.207 180.992 212.204C177.282 212.202 174.899 216.449 171 216.682C164.623 217.064 158.712 211.45 153 212.292C147.869 213.048 143.83 218.569 138.105 216.382C127.652 212.39 137.764 199.205 144 197M181 197L179 199M219 197L217 201C226.98 204.771 254.499 210.905 261 199M410 211L413 216C409.337 217.647 400.718 217.43 397 215.444C394.396 214.054 390.272 209.569 395 209C394.539 202.799 396.259 199.586 402 197M491 197L499 201M133 198L134 205M486 198C487.36 205.03 493.685 212.234 501 208M535 198L541 201L535 200M607 198L637 202L636 200M638 200L664 202M181 199L184 199M219 199L219 201M501 199L501 203M571 199L575 201L573 200M672 199L671 204M0 200L7 200M37 200L38 200M40 200L50 200M52 200L53 200M264 200C264.59 204.015 268.87 214.423 262.852 216.258C257.774 217.806 255.445 212.131 251 217L258 216M530 200C539.107 210.249 528.635 225.063 536.028 234.397C537.891 236.75 542.383 235.999 545 236L570 236M543 200L560 201C555.74 202.259 545.944 203.844 543 200M600 200L600 202L600 200M607 200L610 200M612 200L613 200M643 200L638 201M645 200L665 200M503 201L527 201M560 201L567 201M572 201L570 203M575 201L599 201M604 202C607.552 207.799 608.125 216.354 607 223L606 220M615 202L632 202M409 204L408 206M414 207L416 205L414 207M429 235C434.414 237.24 436.602 241.354 435 247L428 235C421.577 239.597 417.968 235.909 413 231C417.263 227.883 429.122 223.891 428.218 217C427.564 212.025 420.506 210.169 421 205M423 205L428 210C435.501 203.085 441.033 208.281 450 207.325C453.808 206.919 458.272 204.361 461.995 206.068C465.336 207.6 467.251 210.967 469 214L480 207C470.193 216.807 459.118 224.075 471 236L478 229M468 210L474 205M486 205C484.941 208.271 484.041 208.457 481 207L481 207M235 206L234 212L244 206M393 206L393 208M397 206L397 211L402 207L405 216M405 206L407 209M415 206L420 214L413 211M417 206L419 206M438 206L429 215M457 206C460.51 209.509 463.787 214.351 469 214M484 206L485 212L490 208M442 207L431 218M130 208C130.13 212.002 130.441 215.332 135 215M417 208L442 233L436 239M446 208C444.506 213.259 441.306 215.118 436 214M455 208L466 220L448 237L455 237L452 233M197 209L189 216C192.49 218.107 196.94 217.772 194 213M241 209C237.402 216.669 244.853 216.168 250 218M400 209L405 214M443 209L438 214M449 209L453 223L443 215M452 209L459 214M492 209L497 216M240 210L247 216M407 210L406 211M428 210L428 213M173 211L174 211M195 211L197 213M213 211L219 214L208 218M256 211L254 213M263 211L260 216M397 211L396 214M497 211C494.15 216.654 489.173 216.946 484 214M54 213C76.4408 221.446 105.801 217 130 217C130.381 221.199 131.184 223.946 135 226L133 217M200 212L204 215M214 212L209 217M234 212C233.707 216.203 236.03 217.384 240 218M486 212L484 214M51 213L53 216M154 213C155.136 216.422 156.57 216.784 160 216M242 213L241 214M524 213L525 213M582 214L586 220M626 213L624 221L627 218M659 215L661 214L661 219M180 214L183 218M219 214L232 214M519 214L523 219M591 214L590 220M50 215L52 218M222 215L223 222L225 215M420 215L426 221M454 215L456 215M544 216L548 216L544 221M619 215L616 220M187 216L189 216M413 216L415 216M451 216L453 216M467 216L467 218M500 216C507.974 219.839 510.175 227.295 506 235L534 236M514 216L514 219L511 219M555 216L557 221M649 216L652 221M693 216L693 225M49 217L49 218M54 217L58 217M149 217L153 217M196 217L198 217M398 217L394 235L408 233C408 237.593 406.71 244.486 408.603 248.737C415.793 264.883 448.871 245.881 438 237M404 217C404.08 223.759 406.771 228.093 413 231M406 217L406 224M489 217L480 230M176 218L179 218L180 222M236 218C236.904 223.605 242.482 229.058 248 230L245 226L250 218M266 218C273.629 222.3 273.467 231.227 280.033 235.779C296.361 247.097 314.719 255.371 331 267C337.347 271.533 345.654 276.292 349.867 283.015C353.976 289.571 362.48 313.946 357 320M410 218L410 228M521 218L515 220M30 220L44 220M192 219L193 222L194 219M0 220L20 220M593 220L594 220M186 222C190.948 225.953 196.246 228.433 202 225L200 229M485 223L487 223M488 222C490.06 226.491 488.18 228.549 485 232M546 222L547 222M196 223L196 226M223 223C219.05 227.857 206.614 243.914 205 227L211 234M262 224C258.886 227.268 256.108 227.854 252 226L262 224M388 223C386.683 228.468 389.865 231.75 393 236M425 223L430 234M453 223C455.401 228.474 450.044 231.677 447 236M607 223L607 235M671 223C671 226.403 671.874 231.724 669.258 234.397C664.824 238.925 645.032 236.685 640 234M199 224L200 225M659 224L659 225M255 225L257 227M131 226L128 237L129 238L130 239L131 240M135 226L140 229M204 226L205 227M222 226L221 228M243 227L245 226M252 229L252 226M389 226L389 227M457 226L458 227M501 226C502.019 228.997 502.907 229.504 506 229L503 229M503 226L503 227M505 226L505 227M249 227L250 227M499 227L500 230M127 228L126 236M201 228C202.592 232.524 201.851 237.912 208 235M249 230L250 237L240 237L246 237M200 229C196.927 235.512 190.831 236.818 184 236.821C181.528 236.822 175.95 234.838 174.89 238.319C172.518 246.113 189.246 249.472 190 257L186 257M386 229C386.322 233.259 387.38 236.208 392 235M462 229C462.347 233.411 465.025 238.018 470 237M141 230C145.301 231.177 149.478 232.102 150 237L158 236L151 234M441 230L442 231M449 231L452 231M500 230C494.577 235.158 489.552 236.698 492 245L494 236M246 231L246 235M410 231L408 233M504 231L506 235L496 235M45 235L64 237L125 237M140 232C140.558 235.213 141.105 235.477 144 234L145 235L144 236M155 234C158.905 232.312 163.489 232.178 166 236L174 235M167 232L169 234M240 237L237 236L243 233M253 232C258.184 232.485 263.556 231.705 267 236L275 233M263 233L262 240L263 235M266 233L269 234M275 233L270 234M443 233L446 237M480 233C474.104 240.001 481.939 253 490.999 254.079C498.574 254.981 495.674 246.998 493 244M140 234L142 236M462 234L460 242L455 236M483 234L483 246M41 235L41 237M146 235L147 240L150 237M159 235L161 235M259 235L251 238M144 236L144 238M154 236L153 237M162 236L165 237M169 236L172 235M217 236L236 236M388 236C381.406 243.797 384.952 258.521 397 255L393 236M398 236C398.223 242.873 402.355 246.352 407 251M445 236L442 239M45 237L49 237M141 237L144 238M146 237L148 239M165 237L158 239M197 237L201 237M446 237L443 243M475 237L471 239M502 237C502 243.443 501.09 249.564 505 255C500.612 257.326 497.995 256.87 494 254M34 238L36 240M173 238L166 240M232 238L237 258L251 251L248 247M251 238L263 257L251 252M259 238L260 238M434 238L430 242M1 240L33 240M240 239L249 250M268 239L269 239M282 239L283 240M450 239C447.375 247.414 445.055 260.078 436 249M453 239L452 244L450 242M0 240L1 240M39 240L34 279C43.5517 273.097 57.8719 278.359 68.9992 276.811C74.6307 276.028 78.3884 270.955 83 268M129 240C127.453 247.973 122.574 265.824 116.556 271.481C108.536 279.022 85.3694 280 76 275M145 240C147.339 244.572 148.403 259.38 152 257L148 258M262 241L256 245M445 241L451 243L451 243M461 242C462.219 246.762 459.044 248.173 455 250L462 259C467.194 254.899 465.028 251.943 460 249M475 242C477.049 246.394 480.115 250.166 485 251M510 242C513.739 255.274 541.014 250 552 250L647 250C661.239 250 679.545 253.039 693 248M206 246L202 247L208 243C210.946 249.125 217.111 259.171 225 258L221 254L236 257M220 243L225 250L229 247L225 246M458 243L453 244M221 244L222 248M400 244L396 245M445 244L440 255M193 245L194 245M229 246L231 246M442 245L445 247M446 245L448 245M492 245L486 251M206 246L208 248M391 246L388 252M455 246L455 248M504 246L506 250L508 247M189 247L201 246M229 247L230 254L231 255L231 256M231 247L230 248M397 247L395 251M123 249L124 252M225 250L225 252M226 250L231 253M506 250C508.39 253.628 510.858 252.231 514 250M190 253L193 251M198 251C199.018 255.601 200.901 256.063 205 254L201 251M257 251L255 253M448 251L458 259L458 256M455 251L452 254M195 252L197 256M207 252L209 252L207 252M259 252L257 255M407 252C404.479 255.507 403.812 257.817 405 262L406 255M465 252L461 256M482 252C477.592 260.447 487.551 265.685 492 272L476.148 273.586L468 284C471.149 288.399 472.742 293.885 479 293L471 286M181 253L184 255M200 253L202 255M208 253L206 255M249 253L251 257L252 253M508 253L506 255M151 254L151 256M191 254L194 255M219 254L221 254M427 254L434 264C426.893 270.958 425.303 265.126 418.299 267.661C415.502 268.674 414.633 272.521 411.942 273.972C409.993 275.023 405.343 275.748 403.921 273.397C402.016 270.246 407.93 266.399 406 262M467 255L480 254M194 255L191 258M207 255C210.287 257.081 211.786 257.364 214 254L214 254M226 255L229 258M397 255L404 255M439 255L432 259M452 255L443 256M123 256L126 260M155 256L152 259M197 256L192 258M416 256L417 267M37 258L121 257M201 257L201 259L196 259M208 257L202 260M213 257L220 258M245 258L252 257M253 258L256 257M237 258L237 272M253 258L257 268M264 258C271.151 259.317 280.178 273.161 278 272M429 258L430 262M0 259C10.1074 260.277 23.1247 261.919 33 259M448 259L447 262M462 259L462 262L465 262M153 260C153.254 265.921 153.024 275.54 157 280C159.901 273.866 157.432 268.263 156 262M316 260L317 260M479 260L479 272M455 273C453.839 264.516 460.908 263.492 467 267C460.329 273.647 456.272 274.708 447.005 273.938C438.816 273.258 439.753 265.914 445 262M462 262L460 264M509 262C508.665 268.126 505.741 271.355 501 275C503.647 279.376 504.899 282.073 500 285M386 264C388.248 271.015 395.85 278.13 403 274M395 264L396 269L402 271M434 264L439 267M497 264C499.797 266.908 502.081 268.155 506 267M500 264L500 266M409 265L415 265M497 265L492 270M122 266C121.826 271.351 120.073 274.901 115 277L112 274M388 266L388 267M428 268L430 266M424 269L428 267M434 267L437 267M455 273C463.784 264.532 470.092 271.562 470 282M467 267L474 274M499 267C497.22 270.804 495.199 273.281 491 274M387 268L388 273L390 271M118 269L114 273M258 269C262.462 280.209 268.504 275.341 277 272M272 269L273 272M396 269L393 272M503 269L504 272M526 285C531.099 280.728 542.466 278.955 540.623 289.997C539.514 296.649 531.48 298.196 527.742 292.891C520.228 282.23 527.143 261.94 541 273M431 270C434.807 273.913 436.884 275.807 442 273M655 270C655 278.03 651.053 295.165 662 296M242 271C246.144 279.597 252.488 276.333 258 271M427 271C425.37 275.167 422.082 280.444 422.09 285C422.101 292.21 427.753 295.897 433.165 290.856C435.176 288.983 437.059 286.945 439 285L433 281L432 287L435 284M240 272L241 274M416 272L423 276M670 272L673 280C679.228 276.237 681.767 277.709 684 284L685 279M116 273L118 275M240 273L238 279L241 274M282 273C284.918 279.137 296.286 285.61 294.045 293.852C292.782 298.496 286.279 296.314 283 296.09C273.037 295.409 258.419 299.548 250.105 293.488C244.804 289.624 244.368 282.589 239 279M388 273C389.718 276.176 390.746 276.49 394 275L394 275M151 274L153 279M279 274L273 277M435 275L426 276M471 275L473 275M495 275L501 275M118 276C123.406 282.552 121.33 290.799 115 296C117.463 302.241 114.751 310.001 108 312L113 310M129 276L129 278M253 276L261 276M277 276L282 278M436 276L436 281M461 276L470 276M42 277C36.2113 281.776 43.9399 291.327 48 296M262 277L262 285M399 277L404 288L403 289L404 290L405 289M422 277L422 281M428 277L428 284M431 277L431 281M433 277L433 281M463 277L463 287L467 277M525 277L530 282M562 296L562 278C567.647 279.422 593.851 274.524 590 284L589 279M607.005 277.627C618.345 275.769 620.473 294.268 609.995 295.752C599.131 297.291 596.437 279.357 607.005 277.627M631 281L630 279C641.54 277.999 642.895 281.112 643 293M656 278L651 278M695 293C698.869 297.385 711.633 296.979 706.953 289.43C704.863 286.059 697.436 284.929 694 283C696.689 279.598 707.746 273.064 707 282M110 278L114 278M152 278L149 280M242 278L245 277M628 294C627.985 289.546 625.051 281.855 629 279M639 278L641 283M656 278L661 278M669 278L670 284L673 281M681 278L681 281M10 280L33 280M390 279L395 291L394 288M536 279L541 284M574 279C574.634 282.86 576.086 284 579 281M653 279L653 282M694 281L696 279M0 280L8 280M526 280L526 283M565 280L563 284M577 280L577 282M539 281L537 283M421 282L422 283M494 282C493.328 287.83 498.828 290.285 502 285M697 282L697 284M37 283L36 299M419 283L421 285M425 283L423 285L425 287L428 284M630 283L628 285M406 284C410.881 290.406 414.795 293.971 423 294M424 284L426 286M432 295C437.92 294.68 440.289 292.529 444 288L450 295C447.197 293.816 440.345 285.875 447.148 284.921C455.153 283.799 454.773 295.153 463 287M478 289L479 284C482.753 287.392 485.096 288.678 490 287L494 291L494 288M590 284L590 294M670 284L670 294M265 286L267 294M440 285L444 286M576 285L576 296M684 285L684 296M149 306L150 319C157.037 310.797 140.374 294.05 151.314 287.032C155.947 284.059 165.952 287.999 171 288.715C186.382 290.895 202.062 294.385 217 298.718C222.871 300.421 230.474 302.565 233.91 308.094C239.401 316.93 235.67 329.647 235.085 339C234.675 345.553 236.864 352.403 237 359M396 287L402 286M421 286C416.899 290.101 410.137 295.274 413.5 302C414.605 304.211 417.05 305.361 418 307.667C418.611 309.151 413.785 305.819 416 307M442 286L435 295M468 286L470 289M266 287L266 290M401 287L403 290M431 287L431 291M445 289L450 287M400 288C397.947 291.788 396.826 294.623 401 297L402 289M439 288L433 294M115 297C112.994 292.443 115.523 290.265 120 289M405 289L413 295M447 289L446 290M485 289L479 293M249 290L249 292M497 290L500 290M255 291L255 296M285 296L291 291L294 296M399 291L402 291M404 291L411 294M496 292L494 297L485 295L490 291M395 292L397 294M456 292L450 295M459 292L473 294M49 294L54 297L52 297M241 293C241.905 297.999 246.203 297.699 249.15 301.222C252.023 304.658 252.327 310.205 255.699 313.169C263.415 319.951 277.837 316.262 287 316.055C290.238 315.982 293.929 317.366 296.995 315.933C305.133 312.129 301.013 301.508 295 298M248 293C248.988 296.207 249.757 296.903 253 296M482 293L484 295M46 298L112 294M482 295L474 310L469 309L467 305L465 307L472 310M49 296L50 297M150 296L150 300L145 298M153 296L156 299L155 300L153 296M402 296L407 296M439 296L447 296M33 297C28.6178 302.572 8.00048 300 1 300M272 297L269 305L270 306L273 304M494 297L497 300M53 298C53.7461 302.923 56.4303 306.97 61 309L60 306M249 298L247 300M208 299L209 299M494 299C490.959 307.945 483.534 310.096 476 314C478.315 315.179 479.03 315.697 479 313M0 300L1 300M202 300L203 300M212 300L213 300M227 300L226 301M229 300L230 300M234 300L235 300M699 300L700 300M703 300L704 300M36 302C38.0023 312.785 37.9529 324.058 39.5725 335C40.2786 339.77 40.0767 345.793 43.5131 349.61C56.5996 364.143 82.1381 353.467 98 354.763C106.694 355.474 115.79 365.594 121 353M157 303L171 319L165 315M402 303C404.882 306.277 410.081 312.506 415 311M268 304L269 305M419 304L418 307M422 305L431 314L426 316C427.162 331.049 457.756 327.879 466.851 322.442C470.006 320.556 469.265 316.872 472 315L473 315L474 315L475 314M429 305C432.645 306.909 435.366 310.167 439 311.972C448.493 316.687 456.793 311.094 464 306M469 306L472 307L475 306L476 307M108 306L109 309M270 306L272 311L273 305M425 307L438 313M430 306L430 308M483 306L481 312L485 308M486 306L485 307M62 308C66.2888 317.777 52.1605 318 46 318M412 309L416 308M419 308L421 308L424 309L424 309M467 308L458 314M475 310L481 308M415 309L416 315L418 309M471 309L474 308M61 310L63 312M410 310L413 313M469 310L471 314M66 311L60 318M68 312L62 318M272 312L273 315M422 312L425 315M476 312L477 313M69 313C80.8102 314.756 95.2742 315.599 107 313M157 314L157 315L157 314M304 313L299 317M418 313L421 313M74 314L68 318M161 314L167 318M163 314L164 315M169 316C171.09 315.82 173.747 316.406 173 319M247 314C249.096 317.753 251.205 317.491 255 316M413 314L414 315M421 314L416 316M462 314L469 316M482 314L481 315M75 315C75.4579 329.071 94.8007 331.034 103 323M123 316L122 319M149 375L152 379C152 367.375 151.88 355.562 150.739 344C149.703 333.497 147.559 323.347 156 316L161 319M172 316L170 318M255 316L261 316M34 317C30.2237 322.824 8.08459 319 1 319M348 317L350 340L351 333M351 317L351 319M157 318L154 319M174 318L186.583 332.134L191 338L190 335M279 318C279.27 322.023 279.951 325.042 276 327M304 318C314.511 325.316 328.201 337.525 341 340M0 319L1 319M66 319L67 319M171 319L173 319M176 319L178 320M253 319L256 318M309 319L310 320M361 320L366 339M154 323C156.437 328.665 156.987 332.487 154 338C157.614 338.981 159.738 338.728 161 335M258 323L262 339C263.989 336.404 263.7 335.79 262 333M308 323L308 334L311 332M281 327C280.062 338.38 274.512 335.156 266 337M277 328L280 333M96 330C90.8942 334.879 87.7211 336.017 81 337L86 338M286 330C290.224 336.755 302.218 338.479 309 335M211 332L206 337C204.488 332.594 206.658 331.019 211 332M286 332L281 337M257 333L259 334M287 333C287.988 336.207 288.757 336.903 292 336M184 334L187 335M212 334L208 342M86 335L85 336M132 335L110 340M312 335L308 338M158 336L158 338M258 336L252 338M37 337C34.5864 340.616 30.9375 339.109 27 339.015C18.3433 338.806 9.65932 339 1 339M80 343C72.135 346.227 63.8079 350.633 55 348.606C51.7542 347.859 44.9889 343.819 48.0471 339.603C49.7757 337.22 54.482 338.001 57 338C65.0946 337.996 72.9692 338.015 81 337M193 337C197.508 340.671 202.385 346.899 208 348.722C216.441 351.463 226.387 341.755 233 338M288 337L282 337M191 338L194 339M257 338L261 338M289 338C289.233 343.526 289.741 346.533 286 351L283 346M0 339L1 339M81 339L83 340M151 339L153 339M159 339C159.288 345.616 160.536 353.923 165 359M199 339L198 340M224 340L228 341M262 339C262 343.067 259.808 352.57 263.333 355.307C268.311 359.173 295.132 358.839 289 348M286 339L285 349M332 339L333 340M338 340C338.277 348.849 327.819 352.875 322 358C324.649 358.593 325.986 358.882 325 356M348 340L350 370L354 356L354 356M315 343C318.887 355.738 306.04 358.617 298 351M367 343L370 358M339 346L339 359M101 353L115 348M284 349L281 356M290 350L286 356M292 351L302 357M361 351L356 359M286 352L287 353M318 352C316.927 355.536 315.675 356.54 312 356M334 352L328 358M110 353L108 357L108 357M258 353L252 358M294 353L289 357M111 354L113 354M116 354L117 354M125 354L123 355M164 354L164 357M322 354L323 355M97 355C98.5301 357.352 100.634 359.152 103 357M327 355L329 357M94 356L98 358L98 358M99 356L99 357M102 356L100 358M43 357C46.7755 358.539 52.4781 360.93 56 358M111 358L117 357M121 357L124 358M256 357L261 359C260.443 363.411 258.594 369.732 261.027 373.851C266.328 382.825 267.913 368.835 267 365M263 357L261 359M287 357C286.726 362.99 283.89 378.045 276 376L282 375M308 357C308.565 364.343 318.793 367.308 318.793 373.849C318.793 380.784 299.872 373.765 297 374L291 361C289.661 365.528 287.69 375.123 292 378L292 374M354 357L352 358M107 358L104 360M156 358L162 359M291 358L291 361M294 358L299 357M318 358L321 359M1 360L45 359M57 359C67.0653 360.869 80.006 361.379 90 359M323 359L320 372M334 359L336 360M0 360L1 360M94 360L97 380L122 378M119 360L120 360M163 360C163.354 368.252 164.427 375.681 163.883 384C163.683 387.053 161.896 390.566 163.568 393.425C168.168 401.292 181.206 400 189 400M237 362L239 379M339 362L339 379M371 362C375.745 384.99 380.411 408.482 381.91 432C382.437 440.269 380.499 455.051 389 460M324 370L322 378L326 377M265 371C262.401 376.553 259.033 378.567 253 378M309 376C311.631 373.696 312.874 372.172 316 374L317 373L318 372M349 371L347.041 402L347 420L352 418M297 374C298.198 377.729 299.68 377.739 303 376L303 376M316 374L314 376M91 376L92 379M268 378L276 376M297 377L293 379M157 378L163 379M167 378L167 380M320 378L322 378M349 378L353 378M1 379L24 379.039L89 379M236 379L236 380M281 379C282.091 387.63 284.04 396.984 273 398L276 411L278 404M299 379L305 394L314 396L305 397L308 395M95 380L100 420L113.593 417.307L115 404M153 380C153 387.497 150.84 396.538 158 401L160 398M327 380C327.494 392.292 323.674 406.448 317 417L314 414L318 412M611 380L612 380M619 380L627 380M239 382C239.876 388.928 243.988 404.552 239.972 410.686C237.543 414.395 230.841 413.963 227 414C217.747 414.089 203.536 412.076 195 415C197.796 417.815 199.507 417.76 203 416M339 382C339 395.416 337.163 408.649 337.004 422C336.948 426.652 338.335 434.244 333.772 437.296C328.144 441.06 322.912 434.997 318.871 432.299C314.885 429.637 309.355 429.388 305 427.191C299.371 424.35 295.062 419.653 290 416M260 383C260 397.483 258.66 417.023 262.318 430.981C263.418 435.177 269.533 437.835 273.521 435.802C278.828 433.098 278.853 422.223 274.682 418.589C271.516 415.83 266.796 416.599 263 417M270 383C270.855 389.956 269.406 394.92 262 397M297 383C297.568 390.132 297.236 415.823 304 418L302 414M290 384L288 400M279 391L281 395M272 393L279 393M323 397L317 396L323 395M350 392L350 399L348 399M155 395L158 394L159 399M272 393L272 397M301 393L304 397M161 394L162 395M162 395L160 397M164 395L165 398M276 395L276 397M305 395L306 396M308 395L310 397M156 396L158 396M161 396L163 398M266 396L271 398M314 396L317 396M256 397L260 398M291 397L300 399M99 399L120 398M301 399L306 398M1 399L93 399M161 399L162 399M290 400L293 417M615 400L617 400M619 400L632 400M159 401C169.596 407.717 182.819 410.638 195 413M308 404C309.168 408.271 310.615 418.582 316 417M325 405L324 416L321 413M276 411L273 417M297 416L296 412L299 416M322 413L324 412M300 413L298 415M182 414L194 417M312 414L314 414M258 415L259 420L261 418M306 418L311 415M120 416C118.334 418.394 117.66 418.122 115 417M203 418L217 417M295 417L297 419M318 425C318.116 421.467 320.703 414.738 325.146 419.488C328.649 423.234 329.321 431.401 328 436M294 418L291 419M1 419L95 419M297 419L300 418M309 419L311 419M313 419L316 429M612 420L631 420M100 420L103 438L104 433M345 420L345 440L350 438M116 422L117 436L118 433M319 429L317 431M112 433C110.198 436.537 108.743 437.44 105 436M323 433L326 436M97 436L102 439M115 436L115 439M117 436L116 440M266 436C262.09 441.436 262.725 446.925 265 453L268 449M97 437C89.0629 441.236 76.8505 438.958 68 439.001C46.7851 439.103 23.0184 441.902 2 438M110 437L112 439M274 437C277.596 443.738 276.702 452.11 272 458L266 451M114 438C113.77 443.281 112.616 454.707 107.606 457.718C100.548 461.959 85.0466 459 77 459L1 459M327 438L331 447L332 443M103 440L107 458M343 440L343 459L346 458M614 440L630 440M720 440L726 440M266 445L266 449M267 450C270.975 453.975 277.281 457.986 275 464L272 458M271 451L271 452M189 456L190 459M270 457L267 459M678 460L722 460M340 460C341.144 466.182 338.547 474.774 344.46 479.051C347.401 481.178 351.615 480.651 355 480.402C363.365 479.787 383.279 480.281 388.187 471.786C389.992 468.662 387.3 463.418 387 460M351 460L353 460M456 460L470 460M581 460L653 460M669 460L674 460M106 464C102.234 477.77 94.348 491.855 86.9383 504C78.9981 517.015 70.8916 530.654 81 545M183 464L186 475M277 464L279 479M195 468L196 480M191 473L195 488M340 476L342 480M98 477L98 480M0 479L96 480M208 496L208 500C209.86 492.97 195.943 487.218 201 479M336 479L336 480M608 480L726 480M376 480L377 480M456 480L457 480M362 481L362 499L363 496M339 482C339 490.847 338.137 502.506 343.916 509.892C348.969 516.35 361.166 520.073 365 511M280 483C282.895 497.034 286.007 510.92 288.615 525C289.38 529.133 294.126 536.417 290 539M343 489L361 490M206 496L207 497M342 498L360 498M4 500L10 500M365 500C367.005 507.332 370.266 511.694 363 517M715 500L724 500M209 503L215 516M346 512L348 512M221 513C221.56 516.164 219.954 518.96 220.458 522C221.199 526.473 228.846 531.442 223 535M211 514L213 516M370 514L369 520L371 517M217 516L219 516L218 519L219 520M347 515L349 515M215 516L217 516M220 516L221 517M353 517C350.087 521.969 357.133 536.894 363 533M214 518L216 518M222 518L224 518M349 518L350 519M366 518L367 518M81 519L82 520M371 520C373.554 526.62 375.991 531.039 371 537L376 539L376 535M137 535C138.788 538.404 132.226 535.883 131 535L147 528M494 531C492.568 539.98 477.243 537.271 470 539M510 531C508.994 537.306 504.468 536.996 499 537L499 532M130 532L132 534M156 532L160 536L159 539M372 532C368.569 535.208 365.83 537.914 361 537M156 536C154.687 536.557 153.368 537.245 151.955 537.536C138.847 540.227 147.716 527.127 156 538M227 533L229 535L224 537M588 533L586 535M596 533L594 540M156 534L159 537M573 534L574 534M662 534L662 540M675 534L674 540M101 539L131 535M139 535L142 538M363 535L365 537M614 535L615 535M654 535L649 539M670 535L670 540M702 535L702 540M710 535L710 539M725 535L725 538M153 536L154 537M161 536L170 540M234 540L232 536L237 546M540 536L540 538M544 536L544 537M578 536L578 537M582 536L583 536M618 536L619 536M634 536L634 540M658 536L659 536M677 536L678 536M694 536L695 540L701 538M715 536L715 538M162 537L159 539M228 538L231 538M369 537L371 537M526 537L528 540M531 537L531 538M557 537L557 538M567 537L567 538M586 537L586 539M598 537L598 538M602 537L602 539M684 538L691 539M83 538L82 539M231 538L228 539M494 538L498 538M510 538L512 538M520 538L521 538M550 538L551 538M561 538L562 538M574 538L574 539M590 538L593 538M607 538L607 539M611 538L611 539M618 539L625 538M638 538L638 539M644 538L645 538M666 538L667 538M706 538L707 538M719 538L719 539M129 539L133 538M138 539L141 538M154 539L155 539M164 539L169 546M363 539L365 545M536 539L537 539M582 539L583 539M629 539L631 539M657 539L659 539M677 539L679 539M377 540L377 546M541 540L542 540M578 540L579 540M293 543L293 545M296 543L297 545"/>
</svg>
