<?xml version="1.0" standalone="no"?>
<!DOCTYPE svg PUBLIC "-//W3C//DTD SVG 1.1//EN" "http://www.w3.org/Graphics/SVG/1.1/DTD/svg11.dtd" >
<svg xmlns="http://www.w3.org/2000/svg" xmlns:xlink="http://www.w3.org/1999/xlink" version="1.1" viewBox="-10 0 548 1000">
   <path fill="currentColor"
d="M62 800l-2 -740h122v740h-120zM182 488l-31 -59l31 -69c24 -37 71 -69 138 -69c69 0 154 47 155 138l3 371h-119l-2 -357c0 -47 -43 -66 -77 -66c-68 0 -98 48 -98 111z" />
</svg>
