<?xml version="1.0" standalone="no"?>
<!DOCTYPE svg PUBLIC "-//W3C//DTD SVG 1.1//EN" "http://www.w3.org/Graphics/SVG/1.1/DTD/svg11.dtd" >
<svg xmlns="http://www.w3.org/2000/svg" xmlns:xlink="http://www.w3.org/1999/xlink" version="1.1" viewBox="-10 0 757 1000">
   <path fill="currentColor"
d="M204 554l424 -454h-150l-274 333v121zM100 800h120v-700h-120v700zM504 800h143l-285 -439l-73 81z" />
</svg>
