<?xml version="1.0" standalone="no"?>
<!DOCTYPE svg PUBLIC "-//W3C//DTD SVG 1.1//EN" "http://www.w3.org/Graphics/SVG/1.1/DTD/svg11.dtd" >
<svg xmlns="http://www.w3.org/2000/svg" xmlns:xlink="http://www.w3.org/1999/xlink" version="1.1" viewBox="-10 0 525 1000">
   <path fill="currentColor"
d="M60 800v-500h120v53c88 -91 295 -81 295 69v378h-120v-316c0 -70 -7 -108 -87 -108s-88 68 -88 108v316h-120z" />
</svg>
