<?xml version="1.0" standalone="no"?>
<!DOCTYPE svg PUBLIC "-//W3C//DTD SVG 1.1//EN" "http://www.w3.org/Graphics/SVG/1.1/DTD/svg11.dtd" >
<svg xmlns="http://www.w3.org/2000/svg" xmlns:xlink="http://www.w3.org/1999/xlink" version="1.1" viewBox="-10 0 640 1000">
   <path fill="currentColor"
d="M30 800h130l94 -154l94 154h130l-132 -215h274v-65v-220h-148h-130l-80 146l-85 -146h-125l140 244zM520 507h-176l72 -117h104v117z" />
</svg>
