<?xml version="1.0" standalone="no"?>
<!DOCTYPE svg PUBLIC "-//W3C//DTD SVG 1.1//EN" "http://www.w3.org/Graphics/SVG/1.1/DTD/svg11.dtd" >
<svg xmlns="http://www.w3.org/2000/svg" xmlns:xlink="http://www.w3.org/1999/xlink" version="1.1" viewBox="-10 0 860 1000">
   <path fill="currentColor"
d="M60 800h120v-316c0 -40 8 -108 88 -108s87 38 87 108v316h228v-83h-108v-142h315v-55c0 -54 -13 -227 -211 -227c-57 0 -104 13 -139 41c-62 -61 -194 -49 -260 19v-53h-120v500zM684 497h-209c0 -33 7 -117 104 -117c104 0 105 86 105 117z" />
</svg>
