<?xml version="1.0" standalone="no"?>
<!DOCTYPE svg PUBLIC "-//W3C//DTD SVG 1.1//EN" "http://www.w3.org/Graphics/SVG/1.1/DTD/svg11.dtd" >
<svg xmlns="http://www.w3.org/2000/svg" xmlns:xlink="http://www.w3.org/1999/xlink" version="1.1" viewBox="-10 0 888 1000">
   <path fill="currentColor"
d="M150 497c0 -33 7 -117 104 -117h1h313c104 0 104 86 104 117h-209h-95h-218zM463 605h-92c0 72 -20 112 -114 112c-93 0 -107 -102 -107 -142h221h92h315v-55c0 -54 -13 -227 -211 -227h-158h-155c-139 0 -214 79 -214 247c0 164 75 267 217 267c82 0 131 -28 161 -60
c36 39 87 60 152 60c177 0 204 -130 204 -159l-100 -20c0 22 -3 89 -104 89c-93 0 -107 -72 -107 -112z" />
</svg>
