<?xml version="1.0" standalone="no"?>
<!DOCTYPE svg PUBLIC "-//W3C//DTD SVG 1.1//EN" "http://www.w3.org/Graphics/SVG/1.1/DTD/svg11.dtd" >
<svg xmlns="http://www.w3.org/2000/svg" xmlns:xlink="http://www.w3.org/1999/xlink" version="1.1" viewBox="-10 0 430 1000">
   <path fill="currentColor"
d="M160 800h-120v-500h120v42c102 -76 233 -67 243 53l2 64l-115 15c0 -69 -12 -104 -54 -97c-39 6 -76 64 -76 143v280z" />
</svg>
