<?xml version="1.0" standalone="no"?>
<!DOCTYPE svg PUBLIC "-//W3C//DTD SVG 1.1//EN" "http://www.w3.org/Graphics/SVG/1.1/DTD/svg11.dtd" >
<svg xmlns="http://www.w3.org/2000/svg" xmlns:xlink="http://www.w3.org/1999/xlink" version="1.1" viewBox="-10 0 517 1000">
   <path fill="currentColor"
d="M350 663c0 18 -8.5 31 -25.5 39s-40.167 12 -69.5 12c-30 0 -53.333 -7.16699 -70 -21.5s-25.667 -34.5 -27 -60.5l-110 20c0 29.333 8.33301 55.167 25 77.5s40.833 40.833 72.5 55.5s67.833 22 108.5 22c60 0 110 -15.5 150 -46.5s60 -68.833 60 -113.5
c0 -26.667 -4.16699 -49.167 -12.5 -67.5s-23 -35.667 -44 -52s-56.667 -29.333 -107 -39s-84.667 -18.667 -103 -27s-27.5 -19.833 -27.5 -34.5s7.66699 -26.667 23 -36s35 -14 59 -14c26 0 48 7 66 21s27 32 27 54l102 -20c0 -46.667 -17.667 -81.5 -53 -104.5
s-82.667 -34.5 -142 -34.5c-55.333 0 -100.833 14.5 -136.5 43.5s-53.5 64.833 -53.5 107.5c0 54 27.667 94.333 83 121c25.333 12.667 56.667 23 94 31s65.167 17 83.5 27s27.5 23.333 27.5 40z" />
</svg>
