<?xml version="1.0" standalone="no"?>
<!DOCTYPE svg PUBLIC "-//W3C//DTD SVG 1.1//EN" "http://www.w3.org/Graphics/SVG/1.1/DTD/svg11.dtd" >
<svg xmlns="http://www.w3.org/2000/svg" xmlns:xlink="http://www.w3.org/1999/xlink" version="1.1" viewBox="-10 0 545 1000">
   <path fill="currentColor"
d="M465 300v500h-120v-53c-88 100 -285 81 -285 -69v-378h120v316c0 70 16 108 77 108c80 0 88 -68 88 -108v-316h120z" />
</svg>
