<?xml version="1.0" standalone="no"?>
<!DOCTYPE svg PUBLIC "-//W3C//DTD SVG 1.1//EN" "http://www.w3.org/Graphics/SVG/1.1/DTD/svg11.dtd" >
<svg xmlns="http://www.w3.org/2000/svg" xmlns:xlink="http://www.w3.org/1999/xlink" version="1.1" viewBox="-10 0 887 1000">
   <path fill="currentColor"
d="M342 740l-90 60l-152 -500h115zM401 300h85l-144 500h-90zM535 740l127 -440h115l-152 500zM486 300l139 500h-90l-134 -500h85z" />
</svg>
