<?xml version="1.0" standalone="no"?>
<!DOCTYPE svg PUBLIC "-//W3C//DTD SVG 1.1//EN" "http://www.w3.org/Graphics/SVG/1.1/DTD/svg11.dtd" >
<svg xmlns="http://www.w3.org/2000/svg" xmlns:xlink="http://www.w3.org/1999/xlink" version="1.1" viewBox="-10 0 774 1000">
   <path fill="currentColor"
d="M100 800l210 -373l-198 -327h141l122 212l2 3l119 -215h130l-186 327l224 373h-140l-147 -267l-147 267h-130z" />
</svg>
