<?xml version="1.0" standalone="no"?>
<!DOCTYPE svg PUBLIC "-//W3C//DTD SVG 1.1//EN" "http://www.w3.org/Graphics/SVG/1.1/DTD/svg11.dtd" >
<svg xmlns="http://www.w3.org/2000/svg" xmlns:xlink="http://www.w3.org/1999/xlink" version="1.1" viewBox="-10 0 518 1000">
   <path fill="currentColor"
d="M30 800l162 -256l-140 -244h125l85 146l80 -146h130l-151 244l157 256h-130l-94 -154l-94 154h-130z" />
</svg>
