<?xml version="1.0" standalone="yes"?>
<svg width="663" height="1000">
<path style="stroke:#000000; fill:none;" d="M170 740L170 301L170 194C170 183.622 165.962 163.412 175.019 156.318C180.924 151.693 192.874 154 200 154L263 154L510 154M171 451L448 451"/>
</svg>
