<?xml version="1.0" standalone="yes"?>
<svg width="757" height="1000">
<path style="stroke:#000000; fill:none;" d="M526 140C477.108 191.085 432.289 246.807 385.714 300C373.715 313.704 356.599 327.855 348.049 344C342.766 353.976 340.825 367.158 337.709 378C335.627 385.243 330.977 394.431 331.067 402C331.16 409.73 343.558 415.91 347.56 422.004C362.207 444.305 376.27 467.119 390 490C424.394 547.318 461.105 603.345 496.576 660C516.66 692.08 534.764 726.392 557 757M170 161L170 377L170 442L171 475C198.599 462.767 230.068 458.086 257 444.443C265.65 440.061 269.075 429.926 277.015 424.843C291.447 415.603 312.712 410.309 329 405M170 476L170 740"/>
</svg>
