<?xml version="1.0" standalone="no"?>
<!DOCTYPE svg PUBLIC "-//W3C//DTD SVG 1.1//EN" "http://www.w3.org/Graphics/SVG/1.1/DTD/svg11.dtd" >
<svg xmlns="http://www.w3.org/2000/svg" xmlns:xlink="http://www.w3.org/1999/xlink" version="1.1" viewBox="-10 0 888 1000">
   <path fill="currentColor"
d="M170 497c0 -33 7 -117 104 -117h1h273c104 0 104 86 104 117h-209h-55h-218zM550 717h-273c-93 0 -107 -102 -107 -142h221h52h315v-55c0 -54 -13 -227 -211 -227h-138h-135c-139 0 -214 79 -214 247c0 164 75 267 217 267h273c177 0 204 -130 204 -159l-100 -20
c0 22 -3 89 -104 89zM551 807c177 0 204 -130 204 -159l-100 -20c0 22 -3 89 -104 89c-93 0 -107 -102 -107 -142h315v-55c0 -54 -13 -227 -211 -227c-139 0 -214 79 -214 247c0 164 75 267 217 267zM653 497h-209c0 -33 7 -117 104 -117c104 0 105 86 105 117z" />
</svg>
