<?xml version="1.0" standalone="no"?>
<!DOCTYPE svg PUBLIC "-//W3C//DTD SVG 1.1//EN" "http://www.w3.org/Graphics/SVG/1.1/DTD/svg11.dtd" >
<svg xmlns="http://www.w3.org/2000/svg" xmlns:xlink="http://www.w3.org/1999/xlink" version="1.1" viewBox="-10 0 852 1000">
   <path fill="currentColor"
d="M50 660c0 148 219 201 312 83c0 20 4 43 15 57h134c-37 -53 -34 -96 -34 -360c0 -104 -100 -147 -203 -147c-161 0 -214 116 -214 153l99 15c0 -41 31 -74 95 -74c92 0 103 39 103 103c-135 0 -307 20 -307 170zM357 557v79c0 115 -185 122 -185 16c0 -69 71 -95 185 -95
zM367 540l110 35h315v-55c0 -54 -13 -227 -211 -227c-139 0 -214 79 -214 247zM686 497h-209c0 -33 7 -117 104 -117c104 0 105 86 105 117z" />
</svg>
