<?xml version="1.0" standalone="no"?>
<!DOCTYPE svg PUBLIC "-//W3C//DTD SVG 1.1//EN" "http://www.w3.org/Graphics/SVG/1.1/DTD/svg11.dtd" >
<svg xmlns="http://www.w3.org/2000/svg" xmlns:xlink="http://www.w3.org/1999/xlink" version="1.1" viewBox="-10 0 826 1000">
   <path fill="currentColor"
d="M35 300v261h115v-261h-115zM35 80v124h109v-124h-109zM412 807c177 0 204 -130 204 -159l-100 -20c0 22 -3 89 -104 89c-93 0 -107 -102 -107 -142h315v-55c0 -54 -13 -227 -211 -227c-139 0 -214 79 -214 247c0 164 75 267 217 267zM514 497h-209c0 -33 7 -117 104 -117
c104 0 105 86 105 117zM35 497v78h745v-78h-745zM666 60l-1 515h115l1 -515h-115z" />
</svg>
