<?xml version="1.0" standalone="no"?>
<!DOCTYPE svg PUBLIC "-//W3C//DTD SVG 1.1//EN" "http://www.w3.org/Graphics/SVG/1.1/DTD/svg11.dtd" >
<svg xmlns="http://www.w3.org/2000/svg" xmlns:xlink="http://www.w3.org/1999/xlink" version="1.1" viewBox="-10 0 610 1000">
   <path fill="currentColor"
d="M257 807h208v-90h-208h-107v-142h315v-282h-211c-139 0 -214 79 -214 247c0 164 75 267 217 267zM150 497v-117h104h105v117h-209zM254 293h-214v514h217v-90h-107v-337h104v-87zM40 204h110v-124h-110v124z" />
</svg>
