<?xml version="1.0" standalone="no"?>
<!DOCTYPE svg PUBLIC "-//W3C//DTD SVG 1.1//EN" "http://www.w3.org/Graphics/SVG/1.1/DTD/svg11.dtd" >
<svg xmlns="http://www.w3.org/2000/svg" xmlns:xlink="http://www.w3.org/1999/xlink" version="1.1" viewBox="-10 0 860 1000">
   <path fill="currentColor"
d="M583 800c177 0 203 -123 203 -152l-100 -20c0 22 -3 89 -104 89h-107v-142h315v-55c0 -54 -13 -227 -211 -227c-139 0 -214 79 -214 247c0 164 76 260 218 260zM355 800h228v-83h-228v83zM60 800h120v-316c0 -40 8 -108 88 -108s87 38 87 108v316h120v-378
c0 -150 -207 -160 -295 -69v-53h-120v500zM684 497h-209c0 -33 7 -117 104 -117c104 0 105 86 105 117z" />
</svg>
