<?xml version="1.0" standalone="no"?>
<!DOCTYPE svg PUBLIC "-//W3C//DTD SVG 1.1//EN" "http://www.w3.org/Graphics/SVG/1.1/DTD/svg11.dtd" >
<svg xmlns="http://www.w3.org/2000/svg" xmlns:xlink="http://www.w3.org/1999/xlink" version="1.1" viewBox="-10 0 848 1000">
   <path fill="currentColor"
d="M190 497v-117h104h1h233c104 0 104 86 104 117h-209h-15h-218zM530 717h-233h-107v-142h221h12h315v-55c0 -54 -13 -220 -211 -220h-118h-115c-139 0 -214 72 -214 240c0 164 75 260 217 260h233c177 0 204 -123 204 -152l-100 -20c0 22 -3 89 -104 89zM80 300v500h110
v-500h-110zM150 717v83h147v-83h-147zM150 300v80h147v-80h-147zM80 80v124h110v-124h-110z" />
</svg>
