<?xml version="1.0" standalone="yes"?>
<svg width="730" height="1000">
<path style="stroke:#000000; fill:none;" d="M193 143C210.397 173.569 222.56 207.888 236.861 240C257.86 287.151 280.511 333.61 301 381C306.831 394.487 313.713 407.524 319.576 421C322.336 427.346 324.558 436.57 329.418 441.61C334.958 447.354 344.937 450.715 352 454.247C356.842 456.668 363.595 461.877 369 462.366C374.275 462.843 382.337 456.578 387 454.247C394.207 450.643 403.897 447.275 409.725 441.61C421.371 430.289 427.064 405.708 433.694 391C456.406 340.62 479.657 290.481 502.139 240C516.449 207.868 529.463 174.02 546 143M370 464L370 740"/>
</svg>
