<?xml version="1.0" standalone="yes"?>
<svg width="680" height="1000">
<path style="stroke:#000000; fill:none;" d="M79 765C105.856 707.586 119.827 644.353 146.8 587.004C150.912 578.262 164.456 578.083 167.852 569.787C176.821 547.878 172.982 520.634 180.358 498C201.583 432.866 229.213 369.044 253.576 305C267.641 268.024 281.613 231.016 295.575 194C301.191 179.109 304.464 159.86 323 156.275C336.237 153.714 363.208 152.656 373.775 161.789C381.97 168.871 385.209 188.023 389.2 198C401.787 229.471 413.463 261.289 425.424 293C450.91 360.571 479.833 427.484 502.645 496C508.099 512.38 509.103 530.993 511.92 548C512.962 554.293 512.769 563.044 515.564 568.787C519.341 576.548 531.982 576.73 536.292 585.015C544.241 600.296 549.302 617.905 555.424 634C571.825 677.113 586.242 721.879 605 764M515 570C507.275 577.474 499.124 576 489 576L438 576L240 576L191 576C182.856 576 174.555 577.543 168 572"/>
</svg>
