<?xml version="1.0" standalone="yes"?>
<svg width="680" height="1000">
<path style="stroke:#000000; fill:none;" d="M79 765C89.069 743.474 96.7047 720.366 104.692 698C114.038 671.831 124.153 645.909 134.189 620C138.399 609.132 141.845 597.538 146.8 587.004C150.912 578.262 164.456 578.083 167.852 569.787C170.152 564.169 170.095 556.961 171.08 551C173.936 533.724 174.929 514.66 180.358 498C188.19 473.965 198.59 450.622 207.576 427C223.028 386.378 238.122 345.623 253.576 305C267.641 268.024 281.613 231.016 295.575 194C301.191 179.109 304.464 159.86 323 156.275C328.079 155.292 333.841 156 339 156C350.624 156 364.264 153.568 373.775 161.789C377.248 164.789 378.401 169.844 379.95 174C382.944 182.031 386.017 190.042 389.2 198C401.787 229.471 413.463 261.289 425.424 293C439.775 331.049 454.123 369.079 468.811 407C480.247 436.524 492.641 465.952 502.645 496C508.099 512.38 509.103 530.993 511.92 548C512.962 554.293 512.769 563.044 515.564 568.787C519.341 576.548 531.982 576.73 536.292 585.015C544.241 600.296 549.302 617.905 555.424 634C565.446 660.344 575.628 686.625 585.576 713C591.972 729.957 597.628 747.446 605 764M515 570C507.275 577.474 499.124 576 489 576L438 576L240 576L191 576C182.856 576 174.555 577.543 168 572"/>
</svg>
