<?xml version="1.0" standalone="yes"?>
<svg width="680" height="1000">
<path style="stroke:#000000; fill:none;" d="M79 765C107.423 708.155 119.853 643.487 147 586C150.76 578.037 164.731 578.03 167.833 570.833C170.279 565.161 170.157 557.07 171 551C173.284 534.558 175.306 517.11 179.333 501C185.614 475.878 198.295 451.1 207.667 427C224.455 383.83 239.367 339.95 256.667 297C269.707 264.625 280.626 231.376 293.667 199C297.608 189.214 300.09 171.335 308 164.167C320.609 152.74 346.786 153.748 363 156C379.221 158.253 382.144 180.53 387.167 193C402.625 231.379 416.331 270.421 431.333 309C446.213 347.262 460.457 385.746 475.333 424C484.893 448.583 496.598 473.552 503.667 499C509.873 521.342 507.37 547.305 515.167 569C516.218 571.924 520.531 572.893 523 574.333C529.625 578.198 534.688 580.606 537.667 588C553.275 626.753 567.522 666.057 582.667 705C590.203 724.378 595.72 745.439 605 764M515 570C507.434 577.566 500.184 576 490 576L444 576L245 576L191 576C182.919 576 174.098 577.938 168 572"/>
</svg>
