<?xml version="1.0" standalone="yes"?>
<svg width="680" height="1000">
<path style="stroke:#000000; fill:none;" d="M79 765C106.24 707.804 120.819 644.805 146.745 587C150.691 578.202 164.772 578.12 167.917 569.847C176.253 547.915 173.127 521.527 180.019 499C187.497 474.557 198.502 450.885 207.588 427C223.04 386.379 238.134 345.624 253.588 305C267.654 268.022 281.572 230.996 295.588 194C301.186 179.224 304.427 159.596 323 156.199C336.404 153.748 363.094 152.672 373.843 161.741C381.954 168.585 385.276 188.194 389.199 198C401.79 229.471 413.405 261.308 425.412 293C450.994 360.525 479.824 427.5 502.657 496C508.11 512.357 509.146 531.007 511.926 548C512.962 554.335 512.789 563.014 515.458 568.847C519.003 576.591 532.167 576.662 536.333 585.005C564.789 641.982 578.539 706.129 605 764M515 570C507.486 577.391 499.942 576 490 576L444 576L245 576L191 576C182.891 576 174.413 577.678 168 572"/>
</svg>
