<?xml version="1.0" standalone="yes"?>
<svg width="680" height="1000">
<path style="stroke:#000000; fill:none;" d="M79 765C101.556 718.721 116.237 667.107 134.611 619C138.715 608.255 141.922 596.234 147.111 586C151.145 578.044 164.056 578.09 167.694 570.75C170.392 565.307 170.118 556.959 171.056 551C173.722 534.062 174.92 515.377 180 499C187.578 474.57 198.487 450.89 207.611 427C223.118 386.401 238.102 345.605 253.611 305C267.729 268.038 281.494 230.961 295.611 194C301.183 179.412 304.391 159.213 323 156.111C336.676 153.832 362.891 152.679 373.917 161.694C381.925 168.243 385.351 188.402 389.194 198C402.063 230.134 413.588 262.775 426.194 295C452.255 361.615 481.379 428.821 503 497C510.156 519.565 506.284 547.243 515.333 568.917C518.686 576.946 532.851 576.837 536.806 586C561.89 644.125 577.886 706.893 605 764M515 570C507.481 577.488 500.035 576 490 576L444 576L245 576L191 576C182.919 576 174.259 577.812 168 572"/>
</svg>
