<?xml version="1.0" standalone="yes"?>
<svg width="680" height="1000">
<path style="stroke:#000000; fill:none;" d="M79 765L146.8 587.004L167.852 569.787L180.358 498L253.576 305L295.575 194L323 156.275L373.775 161.789L389.2 198L425.424 293L502.645 496L511.92 548L515.564 568.787L536.292 585.015L555.424 634L605 764M515 570L489 576L438 576L240 576L191 576L168 572"/>
</svg>
