<?xml version="1.0" standalone="no"?>
<!DOCTYPE svg PUBLIC "-//W3C//DTD SVG 1.1//EN" "http://www.w3.org/Graphics/SVG/1.1/DTD/svg11.dtd" >
<svg xmlns="http://www.w3.org/2000/svg" xmlns:xlink="http://www.w3.org/1999/xlink" version="1.1" viewBox="-10 0 899 1000">
   <path fill="currentColor"
d="M92 780q-56 -32 -56 -116q0 -101 91 -138.5t261 -37.5v-58q0 -46 -27 -70.5t-95 -24.5q-64 0 -91.5 24t-27.5 59v12h-85q-1 -6 -1 -22q0 -70 58 -108t155 -38q124 0 174 74q60 -74 181 -74q110 0 165.5 60.5t55.5 194.5v44h-373q5 91 41.5 134.5t110.5 43.5
q60 0 97.5 -29t37.5 -89h86q0 92 -62 141.5t-159 49.5q-141 0 -197 -89q-36 42 -92 65.5t-120 23.5q-72 0 -128 -32zM758 488q0 -153 -129 -153q-71 0 -107 36t-43 117h279zM342.5 705q45.5 -34 45.5 -106v-38q-129 0 -194.5 20.5t-65.5 77.5q0 43 26.5 61.5t78.5 18.5
q64 0 109.5 -34z" />
</svg>
