<?xml version="1.0" standalone="no"?>
<!DOCTYPE svg PUBLIC "-//W3C//DTD SVG 1.1//EN" "http://www.w3.org/Graphics/SVG/1.1/DTD/svg11.dtd" >
<svg xmlns="http://www.w3.org/2000/svg" xmlns:xlink="http://www.w3.org/1999/xlink" version="1.1" viewBox="-10 0 510 1000">
   <path fill="currentColor"
d="M76 739v-42l137 58v-480l-137 53v-42l163 -197h21l163 197v42l-137 -53v480l137 -58v42l-163 197h-21zM75 985h350v48h-350v-48z" />
</svg>
