<?xml version="1.0" standalone="no"?>
<!DOCTYPE svg PUBLIC "-//W3C//DTD SVG 1.1//EN" "http://www.w3.org/Graphics/SVG/1.1/DTD/svg11.dtd" >
<svg xmlns="http://www.w3.org/2000/svg" xmlns:xlink="http://www.w3.org/1999/xlink" version="1.1" viewBox="-10 0 344 1000">
   <path fill="currentColor"
d="M42 902q37 0 63 -15.5t27 -55.5l7 -206q2 -54 22.5 -81t66.5 -27v-10q-46 0 -66.5 -27t-22.5 -81l-7 -206q-1 -40 -27 -55.5t-63 -15.5v-57q79 0 124 31t45 117v197q0 31 24.5 45.5t57.5 14.5v84q-33 0 -57.5 14.5t-24.5 45.5v197q0 86 -45 117t-124 31v-57z" />
</svg>
