<?xml version="1.0" standalone="no"?>
<!DOCTYPE svg PUBLIC "-//W3C//DTD SVG 1.1//EN" "http://www.w3.org/Graphics/SVG/1.1/DTD/svg11.dtd" >
<svg xmlns="http://www.w3.org/2000/svg" xmlns:xlink="http://www.w3.org/1999/xlink" version="1.1" viewBox="-10 0 344 1000">
   <path fill="currentColor"
d="M168 928q-45 -31 -45 -117v-197q0 -31 -24.5 -45.5t-57.5 -14.5v-84q33 0 57.5 -14.5t24.5 -45.5v-197q0 -86 45 -117t124 -31v57q-37 0 -63 15.5t-27 55.5l-7 206q-2 54 -22.5 81t-66.5 27v10q46 0 66.5 27t22.5 81l7 206q1 40 27 55.5t63 15.5v57q-79 0 -124 -31z" />
</svg>
