<?xml version="1.0" standalone="no"?>
<!DOCTYPE svg PUBLIC "-//W3C//DTD SVG 1.1//EN" "http://www.w3.org/Graphics/SVG/1.1/DTD/svg11.dtd" >
<svg xmlns="http://www.w3.org/2000/svg" xmlns:xlink="http://www.w3.org/1999/xlink" version="1.1" viewBox="-10 0 510 1000">
   <path fill="currentColor"
d="M91 745.5q-56 -66.5 -56 -208.5q0 -141 56.5 -208t175.5 -67q108 0 158 52t50 155h-90q0 -71 -25.5 -102.5t-92.5 -31.5q-73 0 -107 47.5t-34 154.5v4q0 106 33 152t108 46q66 0 94.5 -33.5t28.5 -100.5h85q0 90 -51 148.5t-157 58.5q-120 0 -176 -66.5z" />
</svg>
