<?xml version="1.0" standalone="no"?>
<!DOCTYPE svg PUBLIC "-//W3C//DTD SVG 1.1//EN" "http://www.w3.org/Graphics/SVG/1.1/DTD/svg11.dtd" >
<svg xmlns="http://www.w3.org/2000/svg" xmlns:xlink="http://www.w3.org/1999/xlink" version="1.1" viewBox="-10 0 732 1000">
   <path fill="currentColor"
d="M131 723.5q-84 -88.5 -84 -266.5t84 -266.5t250 -88.5q134 0 214.5 66.5t80.5 193.5h-97q0 -88 -52.5 -133.5t-145.5 -45.5q-121 0 -178 64t-58 208v2q0 145 57 209.5t179 64.5q95 0 148.5 -45t53.5 -132h93q0 128 -80 193t-215 65q-166 0 -250 -88.5z" />
</svg>
