<?xml version="1.0" standalone="no"?>
<!DOCTYPE svg PUBLIC "-//W3C//DTD SVG 1.1//EN" "http://www.w3.org/Graphics/SVG/1.1/DTD/svg11.dtd" >
<svg xmlns="http://www.w3.org/2000/svg" xmlns:xlink="http://www.w3.org/1999/xlink" version="1.1" viewBox="-10 0 566 1000">
   <path fill="currentColor"
d="M258 733q-108 -7 -158 -73.5t-50 -201.5q0 -134 51 -201t157 -73v-107h51v107q93 7 137 58.5t44 147.5h-90q0 -63 -20 -94.5t-71 -37.5v401q51 -7 73.5 -40t22.5 -93h85q0 84 -44.5 141t-136.5 65v117h-51v-116zM258 257q-61 7 -89 54t-28 143v8q0 97 27.5 143.5
t89.5 53.5v-402z" />
</svg>
