<?xml version="1.0" standalone="no"?>
<!DOCTYPE svg PUBLIC "-//W3C//DTD SVG 1.1//EN" "http://www.w3.org/Graphics/SVG/1.1/DTD/svg11.dtd" >
<svg xmlns="http://www.w3.org/2000/svg" xmlns:xlink="http://www.w3.org/1999/xlink" version="1.1" viewBox="-10 0 732 1000">
   <path fill="currentColor"
d="M79 114h254q165 0 254 84.5t89 258.5t-89 258.5t-254 84.5h-254v-686zM333 717q119 0 181.5 -60t63.5 -198v-2q0 -139 -62.5 -199.5t-182.5 -60.5h-159v520h159z" />
</svg>
