<?xml version="1.0" standalone="no"?>
<!DOCTYPE svg PUBLIC "-//W3C//DTD SVG 1.1//EN" "http://www.w3.org/Graphics/SVG/1.1/DTD/svg11.dtd" >
<svg xmlns="http://www.w3.org/2000/svg" xmlns:xlink="http://www.w3.org/1999/xlink" version="1.1" viewBox="-10 0 566 1000">
   <path fill="currentColor"
d="M101 745q-62 -67 -62 -208t62 -208t189 -67q114 0 170.5 60.5t56.5 194.5v44h-387q5 91 43.5 134.5t116.5 43.5q63 0 102 -29t39 -89h86q0 92 -63.5 141.5t-163.5 49.5q-127 0 -189 -67zM425 488q0 -153 -135 -153q-75 0 -112.5 36t-45.5 117h293z" />
</svg>
