<?xml version="1.0" standalone="no"?>
<!DOCTYPE svg PUBLIC "-//W3C//DTD SVG 1.1//EN" "http://www.w3.org/Graphics/SVG/1.1/DTD/svg11.dtd" >
<svg xmlns="http://www.w3.org/2000/svg" xmlns:xlink="http://www.w3.org/1999/xlink" version="1.1" viewBox="-10 0 677 1000">
   <path fill="currentColor"
d="M635 924v47q-28 12 -57 12q-37 0 -61.5 -19.5t-24.5 -53.5q0 -27 16.5 -55.5t48.5 -54.5h-478v-686h528v83h-433v211h389v83h-389v226h439v83q-22 22 -33.5 43.5t-11.5 37.5q0 21 13 32t37 11h17z" />
</svg>
