<?xml version="1.0" standalone="no"?>
<!DOCTYPE svg PUBLIC "-//W3C//DTD SVG 1.1//EN" "http://www.w3.org/Graphics/SVG/1.1/DTD/svg11.dtd" >
<svg xmlns="http://www.w3.org/2000/svg" xmlns:xlink="http://www.w3.org/1999/xlink" version="1.1" viewBox="-10 0 510 1000">
   <path fill="currentColor"
d="M86 347h-77v-73h77v-84q0 -52 26 -86.5t88 -34.5q20 0 40.5 3.5t34.5 8.5v61h-52q-49 0 -49 48v84h101v73h-101v453h-88v-453zM345 77h88v98h-88v-98zM345 274h88v526h-88v-526z" />
</svg>
