<?xml version="1.0" standalone="no"?>
<!DOCTYPE svg PUBLIC "-//W3C//DTD SVG 1.1//EN" "http://www.w3.org/Graphics/SVG/1.1/DTD/svg11.dtd" >
<svg xmlns="http://www.w3.org/2000/svg" xmlns:xlink="http://www.w3.org/1999/xlink" version="1.1" viewBox="-10 0 566 1000">
   <path fill="currentColor"
d="M71 979.5q-20 -3.5 -32 -8.5l13 -61h52q48 0 59 -48l99 -464h-77l15 -73h77l29 -135q11 -52 44.5 -86.5t95.5 -34.5q20 0 40 3.5t32 8.5l-13 61h-52q-48 0 -59 48l-29 135h101l-15 73h-101l-99 464q-11 52 -44.5 86.5t-95.5 34.5q-20 0 -40 -3.5z" />
</svg>
