<?xml version="1.0" standalone="no"?>
<!DOCTYPE svg PUBLIC "-//W3C//DTD SVG 1.1//EN" "http://www.w3.org/Graphics/SVG/1.1/DTD/svg11.dtd" >
<svg xmlns="http://www.w3.org/2000/svg" xmlns:xlink="http://www.w3.org/1999/xlink" version="1.1" viewBox="-10 0 566 1000">
   <path fill="currentColor"
d="M60.5 952.5q-42.5 -29.5 -42.5 -97.5q0 -82 85 -112q-24 -13 -39.5 -33.5t-15.5 -47.5q0 -39 27.5 -59t60.5 -28q-33 -24 -52 -59t-19 -77q0 -84 57 -130.5t156 -46.5q55 0 100 18q65 -31 76 -91h84q0 47 -27.5 81t-74.5 45q56 50 56 124q0 84 -57.5 130.5t-156.5 46.5
h-84q-27 0 -41.5 12t-14.5 31t14.5 31t41.5 12h211q62 0 98 37.5t36 90.5q0 38 -17 73t-54.5 57t-94.5 22h-212q-58 0 -100.5 -29.5zM373 519.5q32 -28.5 32 -80.5t-32 -80.5t-94 -28.5t-94 28.5t-32 80.5t32 80.5t94 28.5t94 -28.5zM375 911q33 0 55 -18t22 -48
t-17.5 -47.5t-46.5 -17.5h-219q-29 0 -46 17.5t-17 47.5t17 48t46 18h206z" />
</svg>
