<?xml version="1.0" standalone="no"?>
<!DOCTYPE svg PUBLIC "-//W3C//DTD SVG 1.1//EN" "http://www.w3.org/Graphics/SVG/1.1/DTD/svg11.dtd" >
<svg xmlns="http://www.w3.org/2000/svg" xmlns:xlink="http://www.w3.org/1999/xlink" version="1.1" viewBox="-10 0 788 1000">
   <path fill="currentColor"
d="M133 723.5q-86 -88.5 -86 -266.5q0 -355 346 -355q142 0 228 63t86 183h-97q0 -83 -58 -124t-159 -41q-125 0 -186 64t-61 210v2q1 145 60.5 208.5t180.5 63.5q116 0 170.5 -48t54.5 -147v-10h-242v-83h337v357h-74l-7 -76q-78 88 -239 88q-168 0 -254 -88.5z" />
</svg>
