<?xml version="1.0" standalone="no"?>
<!DOCTYPE svg PUBLIC "-//W3C//DTD SVG 1.1//EN" "http://www.w3.org/Graphics/SVG/1.1/DTD/svg11.dtd" >
<svg xmlns="http://www.w3.org/2000/svg" xmlns:xlink="http://www.w3.org/1999/xlink" version="1.1" viewBox="-10 0 736 1000">
   <path fill="currentColor"
d="M716 299h-73v501h-95v-309h-374v309h-95v-501h-73v-78h73v-107h95v107h374v-107h95v107h73v78zM548 299h-374v109h374v-109z" />
</svg>
