<?xml version="1.0" standalone="no"?>
<!DOCTYPE svg PUBLIC "-//W3C//DTD SVG 1.1//EN" "http://www.w3.org/Graphics/SVG/1.1/DTD/svg11.dtd" >
<svg xmlns="http://www.w3.org/2000/svg" xmlns:xlink="http://www.w3.org/1999/xlink" version="1.1" viewBox="-173 0 183 1000">
   <path fill="currentColor"
d="M-114 148h13q29 0 29 -18q0 -10 -7.5 -14t-23.5 -4h-60v-39q34 -8 72 -8q37 0 64 13.5t27 46.5q0 25 -16.5 39.5t-41.5 16.5v28h-56v-61z" />
</svg>
