<?xml version="1.0" standalone="no"?>
<!DOCTYPE svg PUBLIC "-//W3C//DTD SVG 1.1//EN" "http://www.w3.org/Graphics/SVG/1.1/DTD/svg11.dtd" >
<svg xmlns="http://www.w3.org/2000/svg" xmlns:xlink="http://www.w3.org/1999/xlink" version="1.1" viewBox="-10 0 566 1000">
   <path fill="currentColor"
d="M112.5 753.5q-51.5 -58.5 -51.5 -154.5h90q0 68 31 104t92 36q86 0 119 -64.5t35 -194.5q-29 36 -72.5 55.5t-94.5 19.5q-109 0 -166 -63.5t-57 -163.5q0 -68 29.5 -119.5t81.5 -79t117 -27.5q125 0 188.5 76.5t63.5 258.5q0 138 -28 220.5t-82.5 118.5t-138.5 36
q-105 0 -156.5 -58.5zM381 439.5q37 -43.5 37 -111.5q0 -67 -37 -110t-108 -43t-107.5 44t-36.5 113q0 67 36.5 109t107.5 42t108 -43.5z" />
</svg>
