<?xml version="1.0" standalone="no"?>
<!DOCTYPE svg PUBLIC "-//W3C//DTD SVG 1.1//EN" "http://www.w3.org/Graphics/SVG/1.1/DTD/svg11.dtd" >
<svg xmlns="http://www.w3.org/2000/svg" xmlns:xlink="http://www.w3.org/1999/xlink" version="1.1" viewBox="-10 0 559 1000">
   <path fill="currentColor"
d="M162 694h-124v-83h168l69 -129h-237v-84h282l44 -82h66l-44 82h125v84h-170l-69 129h239v83h-283l-43 81h-66z" />
</svg>
