<?xml version="1.0" standalone="no"?>
<!DOCTYPE svg PUBLIC "-//W3C//DTD SVG 1.1//EN" "http://www.w3.org/Graphics/SVG/1.1/DTD/svg11.dtd" >
<svg xmlns="http://www.w3.org/2000/svg" xmlns:xlink="http://www.w3.org/1999/xlink" version="1.1" viewBox="-10 0 954 1000">
   <path fill="currentColor"
d="M96 744.5q-61 -67.5 -61 -207.5t61 -207.5t182 -67.5q137 0 197 96q61 -96 206 -96q114 0 170.5 60.5t56.5 194.5v44h-387q5 91 43.5 134.5t116.5 43.5q63 0 102 -29t39 -89h86q0 92 -63.5 141.5t-163.5 49.5q-145 0 -206 -95q-59 95 -197 95q-121 0 -182 -67.5z
M393.5 692.5q36.5 -46.5 36.5 -149.5v-4q0 -108 -36.5 -156t-115.5 -48q-80 0 -116 46.5t-36 150.5v5q0 107 36 154.5t116 47.5q79 0 115.5 -46.5zM816 488q0 -153 -135 -153q-75 0 -112.5 36t-45.5 117h293z" />
</svg>
