<?xml version="1.0" standalone="no"?>
<!DOCTYPE svg PUBLIC "-//W3C//DTD SVG 1.1//EN" "http://www.w3.org/Graphics/SVG/1.1/DTD/svg11.dtd" >
<svg xmlns="http://www.w3.org/2000/svg" xmlns:xlink="http://www.w3.org/1999/xlink" version="1.1" viewBox="-10 0 343 1000">
   <path fill="currentColor"
d="M111 960.5q-30 -21.5 -30 -68.5q0 -33 14.5 -56.5t41.5 -47.5h60v4q-15 14 -26.5 32.5t-11.5 37.5q0 23 13 39t40 16h32v51q-33 14 -61 14q-42 0 -72 -21.5z" />
</svg>
