<?xml version="1.0" standalone="no"?>
<!DOCTYPE svg PUBLIC "-//W3C//DTD SVG 1.1//EN" "http://www.w3.org/Graphics/SVG/1.1/DTD/svg11.dtd" >
<svg xmlns="http://www.w3.org/2000/svg" xmlns:xlink="http://www.w3.org/1999/xlink" version="1.1" viewBox="-10 0 677 1000">
   <path fill="currentColor"
d="M79 114h334q103 0 158 57t55 152q0 97 -57.5 155.5t-155.5 58.5h-239v263h-95v-686zM408 454q56 0 89 -35t33 -95q0 -61 -31 -94t-91 -33h-234v257h234z" />
</svg>
