<?xml version="1.0" standalone="no"?>
<!DOCTYPE svg PUBLIC "-//W3C//DTD SVG 1.1//EN" "http://www.w3.org/Graphics/SVG/1.1/DTD/svg11.dtd" >
<svg xmlns="http://www.w3.org/2000/svg" xmlns:xlink="http://www.w3.org/1999/xlink" version="1.1" viewBox="-10 0 621 1000">
   <path fill="currentColor"
d="M258 274h100v108h-100v-108zM143.5 923.5q-57.5 -48.5 -57.5 -129.5q0 -53 15.5 -89.5t37 -59t55.5 -48.5q36 -29 53 -49.5t17 -52.5v-41h87v56q0 45 -22.5 75t-66.5 66q-42 34 -63.5 62.5t-21.5 69.5t26 76.5t96 35.5q83 0 111.5 -41.5t28.5 -93.5l-1 -27h89q3 24 3 35
q0 58 -26.5 104t-80 73t-131.5 27q-91 0 -148.5 -48.5z" />
</svg>
