<?xml version="1.0" standalone="no"?>
<!DOCTYPE svg PUBLIC "-//W3C//DTD SVG 1.1//EN" "http://www.w3.org/Graphics/SVG/1.1/DTD/svg11.dtd" >
<svg xmlns="http://www.w3.org/2000/svg" xmlns:xlink="http://www.w3.org/1999/xlink" version="1.1" viewBox="-10 0 568 1000">
   <path fill="currentColor"
d="M127 507l-77 30l-20 -60l162 -68l127 347q10 28 21 74l137 -887h71l-162 1005h-90z" />
</svg>
