<?xml version="1.0" standalone="no"?>
<!DOCTYPE svg PUBLIC "-//W3C//DTD SVG 1.1//EN" "http://www.w3.org/Graphics/SVG/1.1/DTD/svg11.dtd" >
<svg xmlns="http://www.w3.org/2000/svg" xmlns:xlink="http://www.w3.org/1999/xlink" version="1.1" viewBox="-10 0 510 1000">
   <path fill="currentColor"
d="M411.5 764.5q-49.5 40.5 -134.5 46.5l-4 26q92 6 92 65q0 45 -36 63t-82 18q-52 0 -95 -8v-49h100q20 0 30.5 -5.5t10.5 -18.5q0 -12 -8.5 -18t-30.5 -6h-51l12 -67q-92 -7 -138 -50.5t-46 -102.5q0 -12 0.5 -16.5t0.5 -5.5h87v10q0 47 37 70.5t96 23.5q51 0 84.5 -20.5
t33.5 -57.5q0 -29 -19 -47.5t-47 -29t-76 -22.5q-58 -15 -94.5 -30t-62 -44.5t-25.5 -76.5q0 -69 56.5 -109.5t152.5 -40.5q60 0 104 19.5t66.5 52t22.5 72.5l-1 19h-86v-9q0 -35 -27.5 -58t-88.5 -23q-60 0 -84 21.5t-24 49.5q0 23 17 38t42 24t70 20q62 16 101 31.5
t66.5 47t27.5 83.5q0 74 -49.5 114.5z" />
</svg>
