<?xml version="1.0" standalone="no"?>
<!DOCTYPE svg PUBLIC "-//W3C//DTD SVG 1.1//EN" "http://www.w3.org/Graphics/SVG/1.1/DTD/svg11.dtd" >
<svg xmlns="http://www.w3.org/2000/svg" xmlns:xlink="http://www.w3.org/1999/xlink" version="1.1" viewBox="-10 0 723 1000">
   <path fill="currentColor"
d="M59 865l318 -364l-308 -357v-67h602v78h-470v4l287 326l-310 351v4h512v88h-631v-63z" />
</svg>
