<?xml version="1.0" standalone="no"?>
<!DOCTYPE svg PUBLIC "-//W3C//DTD SVG 1.1//EN" "http://www.w3.org/Graphics/SVG/1.1/DTD/svg11.dtd" >
<svg xmlns="http://www.w3.org/2000/svg" xmlns:xlink="http://www.w3.org/1999/xlink" version="1.1" viewBox="-10 0 288 1000">
   <path fill="currentColor"
d="M107 779q-25 -32 -25 -79v-181h-64v-68h64v-104h-64v-73h65l19 -146h68v146h89v73h-89v104h84v68h-84v173q0 47 44 47h45v58q-13 6 -34 10t-39 4q-54 0 -79 -32z" />
</svg>
