<?xml version="1.0" standalone="no"?>
<!DOCTYPE svg PUBLIC "-//W3C//DTD SVG 1.1//EN" "http://www.w3.org/Graphics/SVG/1.1/DTD/svg11.dtd" >
<svg xmlns="http://www.w3.org/2000/svg" xmlns:xlink="http://www.w3.org/1999/xlink" version="1.1" viewBox="-10 0 566 1000">
   <path fill="currentColor"
d="M67 77h88v257h6q26 -38 65 -55t95 -17q93 0 146.5 68.5t53.5 206.5t-53.5 206.5t-146.5 68.5q-56 0 -95 -17t-65 -55h-6v233h-88v-896zM372 720q30 -19 44 -62t14 -117v-4q0 -75 -14 -119t-44.5 -63.5t-80.5 -19.5q-70 0 -103 51t-33 151v4q0 98 32.5 148t103.5 50
q51 0 81 -19z" />
</svg>
