<?xml version="1.0" standalone="no"?>
<!DOCTYPE svg PUBLIC "-//W3C//DTD SVG 1.1//EN" "http://www.w3.org/Graphics/SVG/1.1/DTD/svg11.dtd" >
<svg xmlns="http://www.w3.org/2000/svg" xmlns:xlink="http://www.w3.org/1999/xlink" version="1.1" viewBox="-317 0 327 1000">
   <path fill="currentColor"
d="M-283.5 136.5q23.5 -29.5 66.5 -29.5q29 0 73 18q35 13 51 13q25 0 28 -31h65q0 44 -23.5 74t-66.5 30q-29 0 -73 -18q-35 -13 -51 -13q-25 0 -28 31h-65q0 -45 23.5 -74.5z" />
</svg>
