<?xml version="1.0" standalone="no"?>
<!DOCTYPE svg PUBLIC "-//W3C//DTD SVG 1.1//EN" "http://www.w3.org/Graphics/SVG/1.1/DTD/svg11.dtd" >
<svg xmlns="http://www.w3.org/2000/svg" xmlns:xlink="http://www.w3.org/1999/xlink" version="1.1" viewBox="-10 0 790 1000">
   <path fill="currentColor"
d="M770 -46v107q0 50 -33.5 80.5t-93.5 32.5v373q0 135 -73 200t-210 65q-135 0 -208 -65t-73 -200v-433h95v438q0 88 48.5 133.5t137.5 45.5q90 0 139 -46t49 -133v-438h85q49 0 49 -53v-107h88z" />
</svg>
