<?xml version="1.0" standalone="no"?>
<!DOCTYPE svg PUBLIC "-//W3C//DTD SVG 1.1//EN" "http://www.w3.org/Graphics/SVG/1.1/DTD/svg11.dtd" >
<svg xmlns="http://www.w3.org/2000/svg" xmlns:xlink="http://www.w3.org/1999/xlink" version="1.1" viewBox="-10 0 633 1000">
   <path fill="currentColor"
d="M613 114v107q0 49 -32.5 79t-91.5 34v466h-67l-10 -71h-7q-58 83 -177 83q-79 0 -121.5 -42.5t-42.5 -136.5v-359h88v353q0 63 28 87.5t81 24.5q38 0 70 -18.5t51 -53.5t19 -82v-311h75q49 0 49 -53v-107h88z" />
</svg>
