<?xml version="1.0" standalone="no"?>
<!DOCTYPE svg PUBLIC "-//W3C//DTD SVG 1.1//EN" "http://www.w3.org/Graphics/SVG/1.1/DTD/svg11.dtd" >
<svg xmlns="http://www.w3.org/2000/svg" xmlns:xlink="http://www.w3.org/1999/xlink" version="1.1" viewBox="-153 0 163 1000">
   <path fill="currentColor"
d="M-118.5 963.5q-24.5 -19.5 -24.5 -53.5q0 -28 18 -58t52 -56h50l1 4q-22 22 -33.5 43.5t-11.5 37.5q0 21 13 32t37 11h17v47q-29 12 -57 12q-37 0 -61.5 -19.5z" />
</svg>
