<?xml version="1.0" standalone="no"?>
<!DOCTYPE svg PUBLIC "-//W3C//DTD SVG 1.1//EN" "http://www.w3.org/Graphics/SVG/1.1/DTD/svg11.dtd" >
<svg xmlns="http://www.w3.org/2000/svg" xmlns:xlink="http://www.w3.org/1999/xlink" version="1.1" viewBox="-10 0 306 1000">
   <path fill="currentColor"
d="M286 902q0 45 -36 63t-82 18q-52 0 -95 -8v-49h100q20 0 30.5 -5.5t10.5 -18.5q0 -12 -8.5 -18t-30.5 -6h-51l14 -76q-29 -13 -42.5 -40.5t-13.5 -61.5v-353h-64v-73h65l19 -146h68v146h89v73h-89v345q0 47 44 47h45v58q-20 10 -60 14l-5 26q92 6 92 65z" />
</svg>
