<?xml version="1.0" standalone="no"?>
<!DOCTYPE svg PUBLIC "-//W3C//DTD SVG 1.1//EN" "http://www.w3.org/Graphics/SVG/1.1/DTD/svg11.dtd" >
<svg xmlns="http://www.w3.org/2000/svg" xmlns:xlink="http://www.w3.org/1999/xlink" version="1.1" viewBox="-10 0 766 1000">
   <path fill="currentColor"
d="M79 379q0 -135 84 -206t229 -71q85 0 149 24t99 68.5t35 102.5q0 53 -26 95t-65 57v4q59 15 92 56.5t33 103.5q0 53 -24.5 95.5t-70.5 67t-108 24.5h-222v-83h209q55 0 87 -32.5t32 -76.5q0 -47 -37 -76.5t-102 -29.5h-189v-83h186q48 0 78 -31t30 -82q0 -58 -43.5 -90.5
t-133.5 -32.5q-109 0 -168 50.5t-59 152.5v414h-95v-421z" />
</svg>
