<?xml version="1.0" standalone="no"?>
<!DOCTYPE svg PUBLIC "-//W3C//DTD SVG 1.1//EN" "http://www.w3.org/Graphics/SVG/1.1/DTD/svg11.dtd" >
<svg xmlns="http://www.w3.org/2000/svg" xmlns:xlink="http://www.w3.org/1999/xlink" version="1.1" viewBox="-10 0 343 1000">
   <path fill="currentColor"
d="M70.5 341q-31.5 -30 -31.5 -79q0 -57 53 -82q-21 -14 -33 -33.5t-12 -41.5q0 -46 31 -75t88 -29t88 29t31 75q0 21 -12 41t-32 34q25 13 39 35t14 47q0 49 -32 79t-96 30t-95.5 -30zM207 141q15 -13 15 -36t-15 -36t-41 -13t-41 13t-15 36t15 36t41 13t41 -13zM213.5 302
q16.5 -14 16.5 -40q0 -25 -16.5 -38.5t-47.5 -13.5t-47.5 13.5t-16.5 38.5q0 26 16.5 40t47.5 14t47.5 -14z" />
</svg>
