<?xml version="1.0" standalone="no"?>
<!DOCTYPE svg PUBLIC "-//W3C//DTD SVG 1.1//EN" "http://www.w3.org/Graphics/SVG/1.1/DTD/svg11.dtd" >
<svg xmlns="http://www.w3.org/2000/svg" xmlns:xlink="http://www.w3.org/1999/xlink" version="1.1" viewBox="-10 0 720 1000">
   <path fill="currentColor"
d="M623 421v66h71v72h-71v241h-81l-344 -484l-26 -35l-4 1v41v477h-89v-241h-63v-72h63v-66h-63v-72h63v-235h85l342 478l24 32l4 -1v-42v-467h89v235h71v72h-71z" />
</svg>
