<?xml version="1.0" standalone="no"?>
<!DOCTYPE svg PUBLIC "-//W3C//DTD SVG 1.1//EN" "http://www.w3.org/Graphics/SVG/1.1/DTD/svg11.dtd" >
<svg xmlns="http://www.w3.org/2000/svg" xmlns:xlink="http://www.w3.org/1999/xlink" version="1.1" viewBox="-10 0 513 1000">
   <path fill="currentColor"
d="M202 531l-186 -257h107l125 187h6l128 -187h102l-186 255l195 271h-106l-135 -202h-6l-137 202h-102z" />
</svg>
