<?xml version="1.0" standalone="no"?>
<!DOCTYPE svg PUBLIC "-//W3C//DTD SVG 1.1//EN" "http://www.w3.org/Graphics/SVG/1.1/DTD/svg11.dtd" >
<svg xmlns="http://www.w3.org/2000/svg" xmlns:xlink="http://www.w3.org/1999/xlink" version="1.1" viewBox="-10 0 566 1000">
   <path fill="currentColor"
d="M145.5 780.5q-52.5 -31.5 -80.5 -109.5t-28 -214t28 -214t80.5 -109.5t132.5 -31.5q79 0 132 32t81 109.5t28 213.5t-28 213.5t-81 109.5t-132 32q-80 0 -132.5 -31.5zM370 708q33 -31 45.5 -90t12.5 -151v-10q0 -95 -12.5 -156t-45.5 -93.5t-92 -32.5t-92 31t-45.5 90
t-12.5 151v10q0 95 12.5 156t45.5 93.5t92 32.5t92 -31z" />
</svg>
