<?xml version="1.0" standalone="no"?>
<!DOCTYPE svg PUBLIC "-//W3C//DTD SVG 1.1//EN" "http://www.w3.org/Graphics/SVG/1.1/DTD/svg11.dtd" >
<svg xmlns="http://www.w3.org/2000/svg" xmlns:xlink="http://www.w3.org/1999/xlink" version="1.1" viewBox="-10 0 566 1000">
   <path fill="currentColor"
d="M392 221q45 28 69.5 95.5t24.5 185.5t-24.5 185.5t-69.5 95t-114 27.5t-114 -27.5t-69.5 -95t-24.5 -185.5t24.5 -186t69.5 -95.5t114 -27.5t114 28zM161 510q0 65 6.5 109.5t23.5 73.5l140 -416q-23 -12 -53 -12q-49 0 -74.5 27.5t-34 74.5t-8.5 120v23zM396 493
q0 -60 -5 -102.5t-20 -71.5l-138 411q19 8 45 8q51 0 76.5 -29.5t33.5 -76.5t8 -116v-23z" />
</svg>
