<?xml version="1.0"?>
<!-- Created by MetaPost 2.01 on 2022.04.18:0346 -->
<svg version="1.1" xmlns="http://www.w3.org/2000/svg" xmlns:xlink="http://www.w3.org/1999/xlink" width="8.972015" height="399.104645" viewBox="0 0 8.972015 399.104645">
<!-- Original BoundingBox: -1.500000 -79.800934 7.472015 319.303711 -->
  <path d="M1.000000 398.700928L1.000000 398.700928L1.000000 0.196289L1.000000 0.196289Z" style="stroke:rgb(100.000000%,0.000000%,0.000000%); stroke-width: 0.199997;stroke-linejoin: bevel;stroke-miterlimit: 10.000000;fill: none;"></path>
  <path d="M1.000000 0.196289L1.000000 398.700928" style="stroke:rgb(30.000305%,30.000305%,30.000305%); stroke-width: 0.199997;stroke-linejoin: bevel;stroke-miterlimit: 10.000000;fill: none;"></path>
  <path d="M1.000000 398.700928L1.000000 398.700928" style="stroke:rgb(30.000305%,30.000305%,30.000305%); stroke-width: 0.199997;stroke-linejoin: bevel;stroke-miterlimit: 10.000000;fill: none;"></path>
  <path d="M1.000000 388.738312L1.000000 388.738312" style="stroke:rgb(30.000305%,30.000305%,30.000305%); stroke-width: 0.199997;stroke-linejoin: bevel;stroke-miterlimit: 10.000000;fill: none;"></path>
  <path d="M1.000000 378.775696L1.000000 378.775696" style="stroke:rgb(30.000305%,30.000305%,30.000305%); stroke-width: 0.199997;stroke-linejoin: bevel;stroke-miterlimit: 10.000000;fill: none;"></path>
  <path d="M1.000000 368.813080L1.000000 368.813080" style="stroke:rgb(30.000305%,30.000305%,30.000305%); stroke-width: 0.199997;stroke-linejoin: bevel;stroke-miterlimit: 10.000000;fill: none;"></path>
  <path d="M1.000000 358.850464L1.000000 358.850464" style="stroke:rgb(30.000305%,30.000305%,30.000305%); stroke-width: 0.199997;stroke-linejoin: bevel;stroke-miterlimit: 10.000000;fill: none;"></path>
  <path d="M1.000000 348.887848L1.000000 348.887848" style="stroke:rgb(30.000305%,30.000305%,30.000305%); stroke-width: 0.199997;stroke-linejoin: bevel;stroke-miterlimit: 10.000000;fill: none;"></path>
  <path d="M1.000000 338.925232L1.000000 338.925232" style="stroke:rgb(30.000305%,30.000305%,30.000305%); stroke-width: 0.199997;stroke-linejoin: bevel;stroke-miterlimit: 10.000000;fill: none;"></path>
  <path d="M1.000000 328.962616L1.000000 328.962616" style="stroke:rgb(30.000305%,30.000305%,30.000305%); stroke-width: 0.199997;stroke-linejoin: bevel;stroke-miterlimit: 10.000000;fill: none;"></path>
  <path d="M1.000000 319.000000L1.000000 319.000000" style="stroke:rgb(30.000305%,30.000305%,30.000305%); stroke-width: 0.199997;stroke-linejoin: bevel;stroke-miterlimit: 10.000000;fill: none;"></path>
  <path d="M1.000000 309.037384L1.000000 309.037384" style="stroke:rgb(30.000305%,30.000305%,30.000305%); stroke-width: 0.199997;stroke-linejoin: bevel;stroke-miterlimit: 10.000000;fill: none;"></path>
  <path d="M1.000000 299.074768L1.000000 299.074768" style="stroke:rgb(30.000305%,30.000305%,30.000305%); stroke-width: 0.199997;stroke-linejoin: bevel;stroke-miterlimit: 10.000000;fill: none;"></path>
  <path d="M1.000000 289.112152L1.000000 289.112152" style="stroke:rgb(30.000305%,30.000305%,30.000305%); stroke-width: 0.199997;stroke-linejoin: bevel;stroke-miterlimit: 10.000000;fill: none;"></path>
  <path d="M1.000000 279.149536L1.000000 279.149536" style="stroke:rgb(30.000305%,30.000305%,30.000305%); stroke-width: 0.199997;stroke-linejoin: bevel;stroke-miterlimit: 10.000000;fill: none;"></path>
  <path d="M1.000000 269.186920L1.000000 269.186920" style="stroke:rgb(30.000305%,30.000305%,30.000305%); stroke-width: 0.199997;stroke-linejoin: bevel;stroke-miterlimit: 10.000000;fill: none;"></path>
  <path d="M1.000000 259.224304L1.000000 259.224304" style="stroke:rgb(30.000305%,30.000305%,30.000305%); stroke-width: 0.199997;stroke-linejoin: bevel;stroke-miterlimit: 10.000000;fill: none;"></path>
  <path d="M1.000000 249.261688L1.000000 249.261688" style="stroke:rgb(30.000305%,30.000305%,30.000305%); stroke-width: 0.199997;stroke-linejoin: bevel;stroke-miterlimit: 10.000000;fill: none;"></path>
  <path d="M1.000000 239.299072L1.000000 239.299072" style="stroke:rgb(30.000305%,30.000305%,30.000305%); stroke-width: 0.199997;stroke-linejoin: bevel;stroke-miterlimit: 10.000000;fill: none;"></path>
  <path d="M1.000000 229.336456L1.000000 229.336456" style="stroke:rgb(30.000305%,30.000305%,30.000305%); stroke-width: 0.199997;stroke-linejoin: bevel;stroke-miterlimit: 10.000000;fill: none;"></path>
  <path d="M1.000000 219.373840L1.000000 219.373840" style="stroke:rgb(30.000305%,30.000305%,30.000305%); stroke-width: 0.199997;stroke-linejoin: bevel;stroke-miterlimit: 10.000000;fill: none;"></path>
  <path d="M1.000000 209.411224L1.000000 209.411224" style="stroke:rgb(30.000305%,30.000305%,30.000305%); stroke-width: 0.199997;stroke-linejoin: bevel;stroke-miterlimit: 10.000000;fill: none;"></path>
  <path d="M1.000000 199.448608L1.000000 199.448608" style="stroke:rgb(30.000305%,30.000305%,30.000305%); stroke-width: 0.199997;stroke-linejoin: bevel;stroke-miterlimit: 10.000000;fill: none;"></path>
  <path d="M1.000000 189.485992L1.000000 189.485992" style="stroke:rgb(30.000305%,30.000305%,30.000305%); stroke-width: 0.199997;stroke-linejoin: bevel;stroke-miterlimit: 10.000000;fill: none;"></path>
  <path d="M1.000000 179.523376L1.000000 179.523376" style="stroke:rgb(30.000305%,30.000305%,30.000305%); stroke-width: 0.199997;stroke-linejoin: bevel;stroke-miterlimit: 10.000000;fill: none;"></path>
  <path d="M1.000000 169.560760L1.000000 169.560760" style="stroke:rgb(30.000305%,30.000305%,30.000305%); stroke-width: 0.199997;stroke-linejoin: bevel;stroke-miterlimit: 10.000000;fill: none;"></path>
  <path d="M1.000000 159.598145L1.000000 159.598145" style="stroke:rgb(30.000305%,30.000305%,30.000305%); stroke-width: 0.199997;stroke-linejoin: bevel;stroke-miterlimit: 10.000000;fill: none;"></path>
  <path d="M1.000000 149.635529L1.000000 149.635529" style="stroke:rgb(30.000305%,30.000305%,30.000305%); stroke-width: 0.199997;stroke-linejoin: bevel;stroke-miterlimit: 10.000000;fill: none;"></path>
  <path d="M1.000000 139.672913L1.000000 139.672913" style="stroke:rgb(30.000305%,30.000305%,30.000305%); stroke-width: 0.199997;stroke-linejoin: bevel;stroke-miterlimit: 10.000000;fill: none;"></path>
  <path d="M1.000000 129.710297L1.000000 129.710297" style="stroke:rgb(30.000305%,30.000305%,30.000305%); stroke-width: 0.199997;stroke-linejoin: bevel;stroke-miterlimit: 10.000000;fill: none;"></path>
  <path d="M1.000000 119.747681L1.000000 119.747681" style="stroke:rgb(30.000305%,30.000305%,30.000305%); stroke-width: 0.199997;stroke-linejoin: bevel;stroke-miterlimit: 10.000000;fill: none;"></path>
  <path d="M1.000000 109.785065L1.000000 109.785065" style="stroke:rgb(30.000305%,30.000305%,30.000305%); stroke-width: 0.199997;stroke-linejoin: bevel;stroke-miterlimit: 10.000000;fill: none;"></path>
  <path d="M1.000000 99.822449L1.000000 99.822449" style="stroke:rgb(30.000305%,30.000305%,30.000305%); stroke-width: 0.199997;stroke-linejoin: bevel;stroke-miterlimit: 10.000000;fill: none;"></path>
  <path d="M1.000000 89.859833L1.000000 89.859833" style="stroke:rgb(30.000305%,30.000305%,30.000305%); stroke-width: 0.199997;stroke-linejoin: bevel;stroke-miterlimit: 10.000000;fill: none;"></path>
  <path d="M1.000000 79.897217L1.000000 79.897217" style="stroke:rgb(30.000305%,30.000305%,30.000305%); stroke-width: 0.199997;stroke-linejoin: bevel;stroke-miterlimit: 10.000000;fill: none;"></path>
  <path d="M1.000000 69.934601L1.000000 69.934601" style="stroke:rgb(30.000305%,30.000305%,30.000305%); stroke-width: 0.199997;stroke-linejoin: bevel;stroke-miterlimit: 10.000000;fill: none;"></path>
  <path d="M1.000000 59.971985L1.000000 59.971985" style="stroke:rgb(30.000305%,30.000305%,30.000305%); stroke-width: 0.199997;stroke-linejoin: bevel;stroke-miterlimit: 10.000000;fill: none;"></path>
  <path d="M1.000000 50.009369L1.000000 50.009369" style="stroke:rgb(30.000305%,30.000305%,30.000305%); stroke-width: 0.199997;stroke-linejoin: bevel;stroke-miterlimit: 10.000000;fill: none;"></path>
  <path d="M1.000000 40.046753L1.000000 40.046753" style="stroke:rgb(30.000305%,30.000305%,30.000305%); stroke-width: 0.199997;stroke-linejoin: bevel;stroke-miterlimit: 10.000000;fill: none;"></path>
  <path d="M1.000000 30.084137L1.000000 30.084137" style="stroke:rgb(30.000305%,30.000305%,30.000305%); stroke-width: 0.199997;stroke-linejoin: bevel;stroke-miterlimit: 10.000000;fill: none;"></path>
  <path d="M1.000000 20.121521L1.000000 20.121521" style="stroke:rgb(30.000305%,30.000305%,30.000305%); stroke-width: 0.199997;stroke-linejoin: bevel;stroke-miterlimit: 10.000000;fill: none;"></path>
  <path d="M1.000000 10.158905L1.000000 10.158905" style="stroke:rgb(30.000305%,30.000305%,30.000305%); stroke-width: 0.199997;stroke-linejoin: bevel;stroke-miterlimit: 10.000000;fill: none;"></path>
  <path d="M1.000000 0.196289L1.000000 0.196289" style="stroke:rgb(30.000305%,30.000305%,30.000305%); stroke-width: 0.199997;stroke-linejoin: bevel;stroke-miterlimit: 10.000000;fill: none;"></path>
  <path d="M1.000000 20.121521L1.000000 20.121521" style="stroke:rgb(0.000000%,100.000000%,100.000000%); stroke-width: 1.000000;stroke-linejoin: bevel;stroke-miterlimit: 10.000000;fill: none;"></path>
  <path d="M1.000000 0.196289L1.000000 0.196289" style="stroke:rgb(0.000000%,100.000000%,100.000000%); stroke-width: 1.000000;stroke-linejoin: bevel;stroke-miterlimit: 10.000000;fill: none;"></path>
  <path d="M1.000000 358.850464L1.000000 358.850464" style="stroke:rgb(0.000000%,100.000000%,100.000000%); stroke-width: 1.000000;stroke-linejoin: bevel;stroke-miterlimit: 10.000000;fill: none;"></path>
  <path d="M1.000000 99.822449L1.000000 99.822449" style="stroke:rgb(0.000000%,100.000000%,100.000000%); stroke-width: 1.000000;stroke-linejoin: bevel;stroke-miterlimit: 10.000000;fill: none;"></path>
  <path d="M1.000000 299.074768L1.000000 299.074768" style="stroke:rgb(0.000000%,100.000000%,0.000000%); stroke-width: 1.000000;stroke-linejoin: bevel;stroke-miterlimit: 10.000000;fill: none;"></path>
  <g transform="matrix(1.500000,-0.000000,-0.000000,1.500000,1.000000 319.000000)" style="fill: rgb(0.000000%,0.000000%,100.000000%);">
    <text font-size="9.962646">1</text>
  </g>
  <path d="M1.000000 319.000000l0 0" style="stroke:rgb(0.000000%,0.000000%,100.000000%); stroke-width: 3.000000;stroke-linecap: round;stroke-linejoin: bevel;stroke-miterlimit: 10.000000;fill: none;"></path>
  <g transform="matrix(1.500000,-0.000000,-0.000000,1.500000,1.000000 319.000000)" style="fill: rgb(0.000000%,0.000000%,100.000000%);">
    <text font-size="9.962646">2</text>
  </g>
  <path d="M1.000000 319.000000l0 0" style="stroke:rgb(0.000000%,0.000000%,100.000000%); stroke-width: 3.000000;stroke-linecap: round;stroke-linejoin: bevel;stroke-miterlimit: 10.000000;fill: none;"></path>
  <g transform="matrix(1.500000,-0.000000,-0.000000,1.500000,1.000000 319.000000)" style="fill: rgb(0.000000%,0.000000%,100.000000%);">
    <text font-size="9.962646">3</text>
  </g>
  <path d="M1.000000 319.000000l0 0" style="stroke:rgb(0.000000%,0.000000%,100.000000%); stroke-width: 3.000000;stroke-linecap: round;stroke-linejoin: bevel;stroke-miterlimit: 10.000000;fill: none;"></path>
  <g transform="matrix(1.500000,-0.000000,-0.000000,1.500000,1.000000 319.000000)" style="fill: rgb(0.000000%,0.000000%,100.000000%);">
    <text font-size="9.962646">4</text>
  </g>
  <path d="M1.000000 319.000000l0 0" style="stroke:rgb(0.000000%,0.000000%,100.000000%); stroke-width: 3.000000;stroke-linecap: round;stroke-linejoin: bevel;stroke-miterlimit: 10.000000;fill: none;"></path>
  <g transform="matrix(1.500000,-0.000000,-0.000000,1.500000,1.000000 319.000000)" style="fill: rgb(0.000000%,0.000000%,100.000000%);">
    <text font-size="9.962646">5</text>
  </g>
  <path d="M1.000000 319.000000l0 0" style="stroke:rgb(0.000000%,0.000000%,100.000000%); stroke-width: 3.000000;stroke-linecap: round;stroke-linejoin: bevel;stroke-miterlimit: 10.000000;fill: none;"></path>
  <g transform="matrix(1.500000,-0.000000,-0.000000,1.500000,1.000000 319.000000)" style="fill: rgb(0.000000%,0.000000%,100.000000%);">
    <text font-size="9.962646">6</text>
  </g>
  <path d="M1.000000 319.000000l0 0" style="stroke:rgb(0.000000%,0.000000%,100.000000%); stroke-width: 3.000000;stroke-linecap: round;stroke-linejoin: bevel;stroke-miterlimit: 10.000000;fill: none;"></path>
  <g transform="matrix(1.500000,-0.000000,-0.000000,1.500000,1.000000 319.000000)" style="fill: rgb(0.000000%,0.000000%,100.000000%);">
    <text font-size="9.962646">7</text>
  </g>
  <path d="M1.000000 319.000000l0 0" style="stroke:rgb(0.000000%,0.000000%,100.000000%); stroke-width: 3.000000;stroke-linecap: round;stroke-linejoin: bevel;stroke-miterlimit: 10.000000;fill: none;"></path>
  <g transform="matrix(1.500000,-0.000000,-0.000000,1.500000,1.000000 319.000000)" style="fill: rgb(0.000000%,0.000000%,100.000000%);">
    <text font-size="9.962646">8</text>
  </g>
  <path d="M1.000000 319.000000l0 0" style="stroke:rgb(0.000000%,0.000000%,100.000000%); stroke-width: 3.000000;stroke-linecap: round;stroke-linejoin: bevel;stroke-miterlimit: 10.000000;fill: none;"></path>
</svg>
