<?xml version="1.0"?>
<!-- Created by MetaPost 2.01 on 2022.04.18:1117 -->
<svg version="1.1" xmlns="http://www.w3.org/2000/svg" xmlns:xlink="http://www.w3.org/1999/xlink" width="398.704651" height="398.704651" viewBox="0 0 398.704651 398.704651">
<!-- Original BoundingBox: -0.100006 -79.800934 398.604645 318.903717 -->
  <path d="M0.000000 397.700928L398.504639 397.700928L398.504639 -0.803711L0.000000 -0.803711Z" style="stroke:rgb(100.000000%,0.000000%,0.000000%); stroke-width: 0.199997;stroke-linejoin: bevel;stroke-miterlimit: 10.000000;fill: none;"></path>
  <g transform="matrix(1.000000,-0.000000,-0.000000,0.823520,0.000000,0.000000)">
    <path d="M164.383163 233.717424C164.383163 266.018596,166.970963 299.948686,185.304565 323.239777C203.168365 345.934001,230.888931 351.814838,255.042877 340.176343C276.300751 329.933303,285.177933 311.244399,291.904678 284.527493" style="stroke:rgb(0.000000%,0.000000%,0.000000%); stroke-width: 42.341415;stroke-miterlimit: 10.000000;fill: none;"></path>
  </g>
  <path d="M59.472946 162.058075C62.636246 144.117859,80.676025 133.691681,99.626160 133.691681C114.905685 133.691681,131.963486 133.068130,140.153488 145.646744C147.347305 156.695374,141.967438 170.516983,141.967438 183.504684L186.798904 183.504684C186.798904 163.371521,185.827484 142.511475,174.665237 125.721436C158.735641 101.760437,128.742767 93.841064,99.626160 93.841064C61.375168 93.841064,26.740280 118.204575,20.227966 155.138214Z" style="fill: rgb(0.000000%,0.000000%,0.000000%);stroke: none;"></path>
  <path d="M185.553864 188.485992C185.553864 159.165054,197.750488 129.610504,223.631454 129.610504C258.201294 129.610504,275.535263 142.433319,275.535263 175.628830C238.484192 175.628830,201.434235 176.032730,164.383163 176.032730C94.506470 176.032730,14.943924 178.026886,14.943924 238.299072C14.943924 312.400589,131.386017 338.629181,174.345856 248.261688C183.164993 229.710312,185.553864 209.006668,185.553864 188.485992L143.212448 188.485992C143.212448 209.108582,145.807022 230.912064,134.495239 248.261688C111.936005 282.862289,64.757004 270.023895,64.757004 238.299072C64.757004 198.239105,118.384109 200.939270,164.383163 200.939270C213.675415 200.939270,262.966827 201.343170,312.259079 201.343170C312.259079 133.761475,294.474350 95.929581,232.656235 95.929581C182.681793 95.929581,143.212448 137.924683,143.212448 188.485992Z" style="fill: rgb(0.000000%,0.000000%,0.000000%);stroke: none;"></path>
</svg>
