<?xml version="1.0"?>
<!-- Created by MetaPost 2.01 on 2022.04.18:1117 -->
<svg version="1.1" xmlns="http://www.w3.org/2000/svg" xmlns:xlink="http://www.w3.org/1999/xlink" width="36.015396" height="398.704651" viewBox="0 0 36.015396 398.704651">
<!-- Original BoundingBox: -6.027542 -79.800934 29.987854 318.903717 -->
  <path d="M6.000000 397.700928L35.887848 397.700928L35.887848 -0.803711L6.000000 -0.803711Z" style="stroke:rgb(100.000000%,0.000000%,0.000000%); stroke-width: 0.199997;stroke-linejoin: bevel;stroke-miterlimit: 10.000000;fill: none;"></path>
  <path d="M25.925232 21.612183C-1.495575 99.332169,-4.966080 183.491837,15.962616 263.205612C18.831421 274.132385,22.155182 284.934631,25.925232 295.584106" style="stroke:rgb(0.000000%,0.000000%,0.000000%); stroke-width: 4.981308;stroke-linejoin: bevel;stroke-miterlimit: 10.000000;fill: none;"></path>
</svg>
