<?xml version="1.0"?>
<!-- Created by MetaPost 2.01 on 2022.04.18:1117 -->
<svg version="1.1" xmlns="http://www.w3.org/2000/svg" xmlns:xlink="http://www.w3.org/1999/xlink" width="106.363861" height="398.704651" viewBox="0 0 106.363861 398.704651">
<!-- Original BoundingBox: -17.070618 -79.800934 89.293243 318.903717 -->
  <path d="M17.000000 397.700928L96.700928 397.700928L96.700928 -0.803711L17.000000 -0.803711Z" style="stroke:rgb(100.000000%,0.000000%,0.000000%); stroke-width: 0.199997;stroke-linejoin: bevel;stroke-miterlimit: 10.000000;fill: none;"></path>
  <path d="M81.757004 253.242996C76.851257 262.441284,67.275177 268.186920,56.850464 268.186920C43.720490 268.186920,39.492157 252.494415,36.925232 238.299072C19.329910 140.995422,-38.598251 22.631668,51.869156 21.612183C147.525391 20.534210,81.757004 146.516434,81.757004 238.299072L81.757004 288.112152C81.757004 296.124146,71.031586 295.584106,61.831772 295.584106C50.612183 295.584106,36.925232 298.205307,36.925232 288.112152" style="stroke:rgb(0.000000%,0.000000%,0.000000%); stroke-width: 4.981308;stroke-linejoin: bevel;stroke-miterlimit: 10.000000;fill: none;"></path>
</svg>
