<?xml version="1.0"?>
<!-- Created by MetaPost 2.01 on 2022.04.18:1117 -->
<svg version="1.1" xmlns="http://www.w3.org/2000/svg" xmlns:xlink="http://www.w3.org/1999/xlink" width="105.500122" height="398.704651" viewBox="0 0 105.500122 398.704651">
<!-- Original BoundingBox: -20.371567 -79.800934 85.128555 318.903717 -->
  <path d="M20.000000 397.700928L89.738312 397.700928L89.738312 -0.803711L20.000000 -0.803711Z" style="stroke:rgb(100.000000%,0.000000%,0.000000%); stroke-width: 0.199997;stroke-linejoin: bevel;stroke-miterlimit: 10.000000;fill: none;"></path>
  <path d="M29.962616 238.299072C29.962616 148.268829,-45.674286 21.612183,52.378494 21.612183C150.431274 21.612183,74.794388 148.268829,74.794388 238.299072C74.794388 258.660309,42.415894 262.769608,42.415894 283.130844L42.415894 298.074768" style="stroke:rgb(0.000000%,0.000000%,0.000000%); stroke-width: 4.981308;stroke-linejoin: bevel;stroke-miterlimit: 10.000000;fill: none;"></path>
  <path d="M42.415894 295.584106l0 0" style="stroke:rgb(0.000000%,0.000000%,0.000000%); stroke-width: 4.981308;stroke-linejoin: bevel;stroke-miterlimit: 10.000000;fill: none;"></path>
</svg>
