<?xml version="1.0"?>
<!-- Created by MetaPost 2.01 on 2022.04.18:1117 -->
<svg version="1.1" xmlns="http://www.w3.org/2000/svg" xmlns:xlink="http://www.w3.org/1999/xlink" width="79.900940" height="398.704651" viewBox="0 0 79.900940 398.704651">
<!-- Original BoundingBox: -0.100006 -79.800934 79.800934 318.903717 -->
  <path d="M0.000000 397.700928L79.700928 397.700928L79.700928 -0.803711L0.000000 -0.803711Z" style="stroke:rgb(100.000000%,0.000000%,0.000000%); stroke-width: 0.199997;stroke-linejoin: bevel;stroke-miterlimit: 10.000000;fill: none;"></path>
  <path d="M59.775696 243.280380C59.775696 227.289398,53.846100 210.901886,39.850464 210.901886C25.854828 210.901886,19.925232 227.289398,19.925232 243.280380L19.925232 283.130844C19.925232 298.296829,26.427963 313.509338,39.850464 313.509338C53.272964 313.509338,59.775696 298.296829,59.775696 283.130844" style="stroke:rgb(0.000000%,0.000000%,0.000000%); stroke-width: 4.981308;stroke-linejoin: bevel;stroke-miterlimit: 10.000000;fill: none;"></path>
</svg>
