<?xml version="1.0"?>
<!-- Created by MetaPost 2.01 on 2022.04.18:1117 -->
<svg version="1.1" xmlns="http://www.w3.org/2000/svg" xmlns:xlink="http://www.w3.org/1999/xlink" width="97.291809" height="398.704651" viewBox="0 0 97.291809 398.704651">
<!-- Original BoundingBox: -0.100006 -79.800934 97.191803 318.903717 -->
  <path d="M0.000000 397.700928L79.700928 397.700928L79.700928 -0.803711L0.000000 -0.803711Z" style="stroke:rgb(100.000000%,0.000000%,0.000000%); stroke-width: 0.199997;stroke-linejoin: bevel;stroke-miterlimit: 10.000000;fill: none;"></path>
  <path d="M64.757004 238.299072C64.757004 148.769455,143.912140 21.612183,44.831772 21.612183L19.925232 21.612183L19.925232 295.584106L44.831772 295.584106C54.031586 295.584106,64.757004 296.124146,64.757004 288.112152L64.757004 238.299072" style="stroke:rgb(0.000000%,0.000000%,0.000000%); stroke-width: 4.981308;stroke-linejoin: bevel;stroke-miterlimit: 10.000000;fill: none;"></path>
</svg>
