<?xml version="1.0"?>
<!-- Created by MetaPost 2.01 on 2022.04.18:1117 -->
<svg version="1.1" xmlns="http://www.w3.org/2000/svg" xmlns:xlink="http://www.w3.org/1999/xlink" width="99.826172" height="398.704651" viewBox="0 0 99.826172 398.704651">
<!-- Original BoundingBox: -0.100006 -79.800934 99.726166 318.903717 -->
  <path d="M0.000000 397.700928L99.626160 397.700928L99.626160 -0.803711L0.000000 -0.803711Z" style="stroke:rgb(100.000000%,0.000000%,0.000000%); stroke-width: 0.199997;stroke-linejoin: bevel;stroke-miterlimit: 10.000000;fill: none;"></path>
  <path d="M29.887848 313.509338L29.887848 21.612183" style="stroke:rgb(0.000000%,0.000000%,0.000000%); stroke-width: 4.981308;stroke-linejoin: bevel;stroke-miterlimit: 10.000000;fill: none;"></path>
  <path d="M74.719620 21.612183L29.887848 288.112152" style="stroke:rgb(0.000000%,0.000000%,0.000000%); stroke-width: 4.981308;stroke-linejoin: bevel;stroke-miterlimit: 10.000000;fill: none;"></path>
  <path d="M52.303726 154.862167L74.719620 313.509338" style="stroke:rgb(0.000000%,0.000000%,0.000000%); stroke-width: 4.981308;stroke-linejoin: bevel;stroke-miterlimit: 10.000000;fill: none;"></path>
</svg>
