<?xml version="1.0"?>
<!-- Created by MetaPost 2.01 on 2022.04.18:1117 -->
<svg version="1.1" xmlns="http://www.w3.org/2000/svg" xmlns:xlink="http://www.w3.org/1999/xlink" width="199.452332" height="398.704651" viewBox="0 0 199.452332 398.704651">
<!-- Original BoundingBox: -0.100006 -79.800934 199.352325 318.903717 -->
  <path d="M0.000000 397.700928L199.252319 397.700928L199.252319 -0.803711L0.000000 -0.803711Z" style="stroke:rgb(100.000000%,0.000000%,0.000000%); stroke-width: 0.199997;stroke-linejoin: bevel;stroke-miterlimit: 10.000000;fill: none;"></path>
  <path d="M182.240265 162.839127C175.614578 114.318665,153.578125 95.086472,104.607468 95.086472C41.705261 95.086472,14.943924 132.475494,14.943924 198.448608C14.943924 261.961716,40.147034 301.810745,99.626160 301.810745C154.280884 301.810745,175.738342 288.007706,182.240265 235.054413L142.541061 231.581100C139.252914 258.360489,127.645309 264.450912,99.626160 264.450928C67.367676 264.450928,64.757004 235.915588,64.757004 198.448608C64.757004 159.296173,70.437851 132.446289,104.607468 132.446289C128.878220 132.446289,139.799805 142.196930,142.541061 166.312439Z" style="fill: rgb(0.000000%,0.000000%,0.000000%);stroke: none;"></path>
</svg>
