<?xml version="1.0" standalone="yes"?>
<svg width="728" height="546" viewBox="0 0 728 546">
<path style="stroke:#000000; fill:none;" d="M1 29L482 31M368 59L374 57M370 57L369 58M396 57C394.294 62.2512 402.299 59.9333 401 59M373 58L378 62L378 59M400 58L401 59M1 59L368 60M371 61L369 61M379 61L394 59M403 59C421.344 65.3009 446.713 61 466 61M404 60L402 62M402 63C406.892 66.8796 426.213 76.5732 426.213 83.0887C426.213 91.5794 411.14 88.679 406 89.2855C391.212 91.0303 375.89 90 361 90C352.3 90 344.452 91.1159 337 86L335 90L331 86L376 63M427 81L430 90L435 86L440 90L433 90M323 86L329 91L327 87M424 85L425 86M427 85L429 85M432 85L434 87M321 87L323 87L321 87M339 87L340 90M427 87L428 90M431 87L432 87M322 88L322 90M327 88L325 89M436 88L434 90M1 89L218 89L281 89C294.622 89 308.127 87.7075 321 92M318 89L319 89M325 89L323 91M445 89L449 89M454 89L454 91L449 91M330 90L332 90M425 90L426 90M440 90C456.497 95.459 473.07 100.844 490 105.709C495.22 107.209 504.34 108.745 505.994 115.04C506.912 118.537 503.53 121.404 501.745 124C496.062 132.263 489.784 138.683 482 145C486.665 152.124 491.528 150.196 499 150.665C514.433 151.635 531.628 152.528 547 150.715C567.608 148.283 589.245 150 610 150L727 150M447 90L445 92M458 91L459 91M462 91L465 91M469 91L606 91M637 91L655 91M666 91L727 91M319 92C308.309 101.292 282.16 105.075 277 119L283 119L281 118M451 104L476 120C470.135 121.587 464.01 120.011 458 120.314C442.686 121.086 427.362 121 412 121C370.426 121 327.232 124.284 286 119L285 120L284 121L283 120M273 114L275 116L273 118L274 115M1 119L196 119L250 119L270 118L271 117L271 115M269 117L265 119M275 117L277 120M478 117L487 122M509 117L509 118M284 118L287 121M463 118L463 120M468 118L466 120M480 118L476 120M253 147L253 150C249.196 142.042 267.669 119.071 276 121M484 119L486 120M507 119L528 121L570 121L727 120M268 120L270 119M488 121L496 121M498 121L499 121M498 125L501 124M417 142C418.803 133.065 425.4 131.867 433 135L424 142.52L410.318 145.561L406 157C402.778 152.585 402.863 149.532 408 147M431 134L422 143M426 135L419 142M434 135L426 144M436 136C436.322 140.786 432.786 144.322 428 144M436 138L437 139M439 138L442 151L464 146L471 150L460 149M248 144L240 150L241 146M389 144L391 150L384.03 163.996L370 175L376 178L358 179M1 149L162 149C186.771 149 217.605 153.801 241 146M465 146L480 150L475 145L475 149M251 146L248 150M430 146L434 154M433 146C442.768 152.956 449.304 159.321 462 152M473 146L474 146M480 146L481 148M386 147L389 151M393 147L394 147M245 150L247 150M238 149L239 149M464 149L465 151M472 150L474 149M242 150L245 151M255 151C263.741 149.521 274.036 151 283 151C315.028 151 351.524 155.843 383 150M391 150L402 151M480 150L484 151M244 152L226 177L232 180L229 175M466 152L468 151M435 155C437.885 158.154 439.574 159.863 438 164C432.426 158.908 417.316 162.701 420.921 171.995C422.071 174.958 429.172 180.574 430.508 174.89C432.361 167.007 423.375 168.989 420 172M441 155L440 159M434 156L437 159M412 157C404.185 160.646 407.306 166.749 415 167L406 158M430 158L431 159M436 158L434 160M415 165C418.426 160.932 420.6 159.172 426 160M410 160L411 161M425 160C418.439 166.59 412.034 176.513 412 186L399 195.487L386 201C393.214 208.212 396.649 208.946 406 211M430 161L438 165M434 162L434 163M408 164L411 164M433 166L432 170M415 167L417 169M363 179C362.727 175.089 364.619 173.792 368 172M233 174L232 176M359 181C358.508 177.689 358.971 176.461 362 175M364 175L369 175M402 175L409 178L400 180C402.512 183.228 403.048 184.419 401 188L391 179C386.38 182.115 380.269 181.493 375 180M436 175L484 175M512 180L514 180L510 178L511 177L512 178C507.817 182.423 502.459 180.147 498 177C512.328 172.15 536.08 173.088 550 179L547 181M1 179C75.4643 179 150.941 181.839 225 177M371 176L368 179M383 176L384 179L390 179M499 180C495.702 179.745 493.934 179.515 494 176L497 176M363 177L362 178M366 177L366 179M392 179L400 178M493 179L486 179L493 177M515 177L516 181L528 180L524 177M519 177L522 177M529 177L530 177M551 179L556 178M558 177C564.223 190.403 580.531 192.354 582 209L584 207M562 180L564 180L563 177L564 177M227 178L225 180L228 180M230 178L230 180M357 181L357 178M376 178L382 179M398 178L394 180M409 178L412 178M440 182L437 179L449 179L441 179M475 178L481 179C478.126 180.356 476.681 180.872 475 178M509 178L510 178M534 178L536 180L528 179M568 179L566 179L632 180L727 181M219 179L224 180M234 180L310 181L355 179M403 179L401 183M432 179L437 179M449 179L474 179M481 179L486 179M538 179L537 181M558 179L552 179M223 180L224 180M398 180L400 180M430 180L435 191L433 180M539 180L545 181M355 181L356 182M521 181L522 181M356 182C350.719 186.49 331.126 194.141 339 203M391 182L392 182M405 182L404 183M439 182L437 188M222 183C219.352 186.334 204.276 204.311 210 205M508 183C505.473 187.021 503.82 190.267 505 195C514.598 185.628 525.991 184.001 539 184M440 185L445 187L436 194L435 191M413 187C416.292 188.074 419.745 187.108 423 188.939C428.612 192.095 431.017 197.463 438 197.862C445.04 198.264 450.512 193.569 446 187M401 188L399 194M425 188L426 188M414 189C412.761 197.023 406.145 199.111 399 197M394 211L383 202C376.964 205.558 370.423 202.132 374 195L386 201M437 195L437 197M505 195C500.848 198.857 495.876 201.892 498 208M336 198L331 197L336 196M458 203C458.979 202.036 460.071 200.81 461.16 199.917C469.474 193.108 467.645 207.834 458 203M518 197C527.669 195.92 547.696 198.764 553 208M410 197C415.97 200.186 425.568 199.901 432 198M476 197C474.14 201.544 470.981 204.527 466 205M324 200L322 198C327.006 201.535 330.935 209.121 337 204M329 198C328.202 199.197 327.865 199.625 328 198M369 205L360 200L374 204M326 199L327 199M340 201L344 200M443 199C433.299 208.701 424.769 212.584 411 208M445 199C448.966 203.216 437.209 210.595 433 210M477 199L485 201L482 202M329 200L333 204L337 200M334 200L332 202M359 202L360 200M449 200C452.115 205.411 443.777 210.263 439 211M323 201L319 203L323 208L323 204M359 203L360 208L356 201M479 201L471 206M485 201L492 204M352 209L345 206C350.225 204.951 352.568 208.786 355 213L354 202M452 202L456.318 212.529L478 227C481.471 224.77 484.204 222.955 488 225L485 210L475 207M491 202L490 203M339 203L339 210L343 210M349 204L352 203M455 203L458 203M480 203L476 207M484 203L480 208M201 208L200 210L201 204L207 205M485 204L486 204M318 205L318 210L318 207M332 205L332 206M380 205C379.872 215.802 366.957 219.5 359 225L361 221M485 210L490 207L483 209M496 205L493 209C503.827 214.778 523.811 211 536 211M206 206L209 210L213 207C219.714 211.829 230.913 211 239 211L291 211C299.37 211 309.199 212.42 317 209M326 207L326 216L331 207M489 206L488 207M326 207L329 207M335 207L337 209M340 207L342 209M363 207L365 206M491 207L493 209M555 207L558 208M206 209L204 211L203 210L205 208L207 210M314 209L316 208M344 208L348 210M360 208C359.436 215.476 353.003 219.997 348 225L357 218M419 208L421 210M581 208C573.567 211.987 564.21 211 556 211M1 209L199 209M335 209L335 215L330 212M491 209L488 214M585 209L585.266 230L585.492 238.142L596 240L623 240L727 241M589 210L727 211M212 210L214 210M488 210L489 211M494 210L489 215M582 210L580 210M320 211C320.941 214.198 321.651 215.26 325 215M343 211L350 214M347 211L347 213M350 211L353 220M408 211L412 211M539 211L540 211M552 211L554 211M201 212L187 234L190 233M354 213L352 215M493 213L492 214M478 214L482 219M492 214C492.015 221.362 487.478 224.751 486.631 230.969C485.749 237.447 493.234 233.232 495 231L490 234M327 216L332 215C342.474 227.164 330.032 242.616 316 234L313 239C314.667 239.538 316.963 240.311 316 238M339 215L336 218M346 215L349 223L346 228L349 227M335 216L334 217M487 216L489 218M323 217L319 235M341 218C343.559 220.754 343.635 223.13 348 222M349 218L348 220M484 218L486 222M329 219L335 223M358 219L357 224L355 224L353 222M364 219L365 220M375 219L378 223M337 220L341 220M349 220L351 222M341 222L347 227M346 224L344 226M467 224L465 226M343 225L343 230L343 228M351 225L359 226M484 225L485 232L478 237L483 238L483 234M488 225L490 231L493 225M346 228L342 232L341 227M352 227L354 227M358 227L340 238L344 242L360 239L355 237M479 227L482 232M486 227L488 227M318 228L320 231M336 228L338 228M347 230L345 231M353 229L347 235M494 229L494 230M347 230L349 232M495 231L501 234L501 232M184 232C190.535 241.493 208.274 240.996 219 241C250.01 241.012 281.068 240 312 240M316 233L319 234M353 232L355 235M355 233L358 234M490 232L491 233M181 233C181.606 236.74 182.478 237.645 186 236L186 236M342 233L344 235M183 234L184 235M312 236L315 236M497 234L498 235M541 238L546 234M1 239L167 238.981L179 236M334 235L334 248M498 235L491 237M500 241L507 239C497.3 231.419 497.569 244.743 499 244M177 236L181 240L167 270L166 269M343 236L346 239M503 236L501 245M514 236L515 236M187 238L185 239M318 237L317 238M350 237L350 238M489 237L485 238M507 239L519 237M532 241L527 240L540 237M580 237L586 239L586 239M173 238L176 240M180 238L180 239M187 238L190 239M337 238L340 238M452 241L477 238M505 238L502 241M548 238L550 238M552 238L554 238M577 238L577 243L578 240M188 239L181 240M360 239L419 241M560 239L567 239M317 240C320.025 244.129 320.639 246.968 320 252L314 247L313 248L322 258L310 268L305 263C302.667 265.989 301.39 267.821 305 270L303 266M319 241L321 240M516 240L527 240M534 240L519 258L521 253M571 240L560 241.17L535 241M582 240L580 242M430 241L439 241M572 241L576 241M581 241C586.806 244.348 593.551 244.083 598.91 248.529C612.822 260.072 615.938 283.184 608 299C611.046 300.349 613.226 300.632 614 297M343 243C340.65 247.4 339.086 250.151 344 253M499 243L499 244M505 246C502.686 241.662 507.505 246.062 507.667 248C507.874 250.482 504.022 256.726 503 254M318 244L320 248M314 245L314 247M494 245L500 249L499 247M328 246L332 249L330 247M503 246L503 249L500 249M494 252L492 248L493 247L494 248C492.014 252.787 485.323 269.976 498 261L492 253M337 248L334 251L332 248M328 249L321 256M496 249L498 251M498 249L499 258L502 256M312 250L320 259M333 250L332 254L334 252M505 250L501 251M338 251L340 252M510 255C507.798 259.395 503.043 264.083 498 264C503.111 258.889 509.208 251.733 517 252C513.018 256.463 513.018 258.537 517 263L514 258M311 252L320 261M338 252L333 253M493 254L495 252L499 254L500 253M508 252L509 253M518 252L519 253M321 253L321 254M339 253L343 255M327 256L333 263L329 255C333.541 258.199 337.015 263.177 342 265.687C352.997 271.223 367.967 270.999 380 271M336 255L334 257M336 255L340 260L342 256M333 256L334 257M510 256L512 258M514 258L517 256M321 259L331 269L333 267L326 257M335 257L338 260M533 257C547.341 257.009 562.443 260.188 574 269L568 271M322 258L324 258M478 258C481.423 261.38 483.965 264.422 489 264M500 258L498 260M519 258L519 260M340 260L339 263M512 260L517 264M302 264L305 262M320 261L330 269M474 261L484 265M318 262C326.248 270.249 330.69 278.386 320 287C323.258 291.268 323.142 293.685 320 298C323.442 302.786 330.134 327.851 319 325L325 319M475 262L479 267L475 269L475 264M511 262L516 266M333 263L339 266M497 264L498 264M511 264C507.268 266.673 505.112 267.147 501 265M467 270L469 270L463 268L468 265M1 269L116 269C128.057 269 150.009 273.187 160 266L163 271L164 270M163 266L162 267M314 266L310 278C315.658 275.64 316.05 271.623 316 266M320 266C320 268.463 317.87 282.339 322 280M463 266L464 267M470 268L473 266M309 267L307 269M462 271L457 268L464 270M471 267L474 270M509 267C511.705 268.946 513.017 269.987 515 267L515 267M518 267L520 268L515 270M615 267C607.692 274.044 583.336 272.76 574 270M166 268L166 269M310 268L310 275M432 271L457 269M573 268L571 270M169 269L300 269M159 270L160 270M163 270L164 270M471 270L472 270M519 271L556 271M615 271L649 271L727 271M306 271L310 278M384 271L391 271M511 271L507 284C514.299 283.431 513.353 276.951 513 271M559 271L562 271M162 272C158.955 280.318 153.82 287.43 147 293C154.105 303.99 173.521 299.077 185 300.17C216.574 303.174 250.553 302.315 282 299.171C290.502 298.32 300.172 302.286 308 300L300 291L297 298M460 272C450.182 278.991 429.613 284.196 424 295L457 290.894L471 296C468.227 292.143 465.837 290.135 461 290M319 278C313.085 283.916 308.381 288.294 308 297M311 279L311 285M484 282L485 285L486 283M321 283L319 287M483 284L484 284M488 284L496 292L484 287.244L467 289M324 285L324 289M506 285C503.46 289.343 501.123 291.613 496 292M513 285C513.256 290.513 511.813 293.025 508 297L510 299L514 295C521.949 303.301 550.587 302.422 560 297M311 286L318 287M578 287L568 300L572 298M326 288L326 290M316 289L319 297M480 289L491 295M300 290L300 291M474 290C477.478 293.365 480.006 296.1 485 295M333 291C331.209 294.879 329.071 294.952 325 295M442 298L446 298C434.236 300.919 426.442 299.237 416 294C419.026 291.297 420.73 291.817 424 294M502 291L508 297M146 293L141 298C144.262 299.548 145.793 299.6 147 296M151 293L150 295M514 293L514 295M138 294L139 294M422 294L423 296M158 295L158 298M415 295C417.056 298.933 419.713 299.996 424 299M576 299L576 295C582.417 304.107 599.053 295.931 608 300C603.504 307.675 597.792 313.214 590 317.663C587.174 319.276 583.264 321.996 581 319M580 298L581 295L582 298M131 299L129 302L125 299C129.68 296.685 132.378 298.273 137 300L137 296L138 297L139 298L140 297M471 296L478 296M505 296L508 305L510 299M612 296L612 297M134 297L135 297M319 297L308 302M326 297L328 299L326 301L326 297M415 297L413 301L412 299M447 299L464 297M138 298L142 300M423 298L421 300M511 298L517 299M565 298L563 302L565 300M1 299L125 299M129 299L130 299M129 299L127 301M131 299L134 300M147 299L149 299M328 299L356 301M561 301L563 301M603 299L606 302M403 301L411 300M414 300L416 300M516 300L520 300M559 300L560 300M566 301L568 300M573 300L574 300M615 301L652 300.985L727 301M138 301L139 301M384 301L394 301M515 301C507.948 313.457 493.925 323.787 480 313L467 314.783L443 325C447.724 330.665 445.805 334.149 439 336L443 337M129 302L71 325L75 329L79 325C84.0112 330.204 90.2309 329 97 329C111.034 329 125.027 329.999 139 330C181.637 330.003 224.296 331.208 267 330.999C279.971 330.936 292.803 328.699 306 329L307 336L307 328M518 302C523.482 319.768 542.233 329.89 560 329L563 324C558.949 320.575 557.469 324.115 553 324.725C547.775 325.44 542.266 322.7 537 323M510 303L513 303M542 309L562 303M309 304L301 325C305.395 321.651 311.259 317.955 309 312M318 304L311 314M517 305L519 308M508 306L509 310M512 309L521 318L516 322L507 313M518 309L520 312M509 311L518 320M520 312L519 315M458 313L462 317M505 315L515 322M525 315L521 319C530.241 327.876 535.375 331.973 549 330M479 316L481 316M477 317C480.457 319.451 482.178 319.921 486 318M312 318L318 325M466 318L471 318M542 320L541 323M543 321L557 321M573 321L573 323M578 321L581 322M313 322L307 328M464 324C469.786 322.942 484.153 322.282 485 330C487.617 329.471 488.801 328.384 486 327M504 330L501 328C513.159 326.116 519.831 331.398 531 323M558 323L560 325M568 323L564 324M56 324L53 327L62 331L61 327M296 324L296 328M559 324L556 326M727 331C688.753 331 650.189 330.712 612 329.039C603.886 328.684 595.931 327.496 588 327.026C582.723 326.714 578.909 331.495 576 325L579 323M583 324C581.92 328.115 583.978 329.303 588 329M73 329L69 325L71 325M334 331L334 329C342.968 333.786 358.967 331.301 369 330.804C393.837 329.574 418.263 326.969 443 325M489 331L500 325M582 325L584 327M70 329L66 326L68 326M300 326L300 328M323 326L331 330M492 327L494 326M535 326L535 329M563 326C566.531 328.994 570.752 326.835 575 326M580 326L575 332C588.243 341.703 592.525 352.42 589.535 369C588.497 374.757 583.985 380.33 586 386L587 383M54 330L53 327M63 327L65 327M480 327L484 331M496 327L501 328M554 327L553 328M572 327C572.352 331.389 569.098 330.564 566 329M48 330L44 329L52 330M48 328L51 328M490 328L491 329M497 328L491 331M1 329C14.0187 329 32.3948 325.616 44 332M42 329L44 329M77 329L80 329M455 329C460.6 333.242 472.15 331 479 331M501 329L497 330M553 329L550 331M574 329L577 329M63 330L66 330M527 330L528 330M561 330L564 329M589 330L592 329M58 331L59 331M451 331L452 331M45 333L1 346M329 332C331.571 336.796 332.763 341.323 339 340M574 332L575 332M442 333L442 335M323 334C325.066 339.608 329.663 351.528 335.667 354C337.151 354.611 333.819 349.785 335 352M309 335L315 343L322 339L322 340L320 341M307 336L308 340L311 337M440 338C436.953 342.477 434.318 349.058 429.722 352.171C416.243 361.302 392.328 356.129 377 359.352C372.721 360.252 351.532 357.792 351 361M442 338L439 339M308 340L314 348L315 343M322 341C324.427 347.386 317.133 354.146 317.374 361C317.736 371.276 329.007 372.184 335 377L315 391C310.477 386.358 300.321 389 294 389C277.94 389 262.121 391 246 391C239.857 391 230.251 388.526 225 391L215 367M441 341C440.665 347.781 441.818 352.638 437 358L434 355L439 350M323 342C320.895 344.147 316.435 347.276 319 350M335 342L346 360L351 357M330 343L329 344M438 343L440 345M0 346L1 346M332 346L336 351M334 346L333 347M329 347L322 354C326.058 355.946 327.581 354.564 330 351M305 351L315 348M307 350L307 352M316 350C312.799 353.35 309.47 356.193 310 361L319 352M338 352L339 353M206 353C213.131 363.266 224.709 361 236 361C256.897 361 278.263 361.263 298.907 357.852C302.326 357.287 304.481 354.574 308 354M431 353L433 355M333 354.333L334 354.667L333 354.333M441 354L445 357M593 354C597.467 362.856 617.326 359 626 359C659.364 359 692.609 360 726 360M307 355L303 359M333 355L333 359L341 358L342 357L343 356M336 355L337 357M340 355L337 357M340 355L342 357M347 356L348 357M310 357L312 360M328 357L331 357M2 359L207 361M316 358C310.039 365.225 313.169 380.269 319 387M348 358C349.196 360.242 349.242 360.196 347 359M208 359L209 360M307 359L308 359M439 359L443 359M443 359C445.058 361.255 446.895 363.576 448.746 366.002C453.69 372.48 454.581 380.203 444 381.713C430.877 383.585 415.358 379.818 403 384C410.015 392.413 398.825 400.034 391 403C397.096 410.95 392.93 419.116 383 418.919C367.206 418.606 350.483 417.138 336 411M487 361C519.137 360.734 554.204 364.907 586 359M335 360L337 360M356 376C353.754 371.788 358.826 375.719 360 377C354.96 377.353 338.031 364.579 344 360M454 361L482 361M211 361L213 361M443 361L445 365L442 368M447 361L448 361M450 361L451 361M213 364L214 365M351 364C356.296 369.065 367.205 381.206 373 372M442 364L444 367M452 364C458.784 370.089 466.397 372.577 475 375M444 367L450 368M346 368C339.946 377.942 340.685 379.402 348 388L363 379L361 375M448 368L450 370M326 370L328 375M447 370L446 378L453 371M348 372L349 373M349 373L340 381M351 374L355 378M328 375L332 378M449 383C450.313 381.693 451.614 380.221 453.045 379.033C461.452 372.049 461.021 389.284 448 382M358 376L358 382M459 376L451 384M336 377L326 387M353 377L346 384M370 377L378 379M337 378L339 378M446 378L443 381M339 379L328 388M361 379L362 380M364 380L358 386M470 380C466.442 383.433 464.076 385.56 459 385M340 381L330 389M376 387C381.581 381.956 385.8 379.796 392 385C388.419 387.048 387.228 386.512 384 384C377.883 389.14 369.211 389.043 362 386M342 382L332 390M369 382L364 387M378 382L379 382M384 382L383 384M478 382L483 391C485.6 388.26 486.526 387.385 490 389L485 390M475 383L466 387L465 397C455.062 401.048 433.144 396.168 433 384M478 383C475.166 386.142 473.642 387.861 475 392L481 389M314 384L314 387M392 385L403 384M579 384L584 384M488 389L546 389L577 386M575 385L573 387M485 386L486 387M583 386L579 390L580 391L583 386M586 386C590.358 392.721 613.37 389 621 389L726 389M471 387L473 389M226 388L230 390L230 390M348 388C349.304 396.862 352.691 401.619 361 405L353 414M575 388L577 390L577 392M382 389L386 389M567 389L574 391L575 392L575 393M0 390L220 391M577 390L579 390M483 391C482.134 396.425 479.295 396.96 475 394C471.158 396.649 468.48 396.857 467 392M489 391C491.272 396.105 487.69 397.24 483 397M228 392C229.967 398.88 234.676 405.082 236.233 411.999C236.787 414.462 235.685 418.79 232.198 417.656C228.427 416.429 231.636 413.82 234 414L235 415L235 416M475 392L475 394M461 394L462 394M493 394L498 397L493 400L518 404.115L545 415C539.864 419.332 533.986 419.976 531 413M574 394C567.012 403.921 557.55 412.453 545 413M463 395L460 398M498 397L516 403M396 398L393 401M490 399L492 399M354 403C351.114 406.014 348.938 407.822 350 412L358 404M380 418C380.514 411.181 385.659 406.763 391 403M395 403L395 405M412 403C412.67 417.632 425.342 425.25 436 433M361 405C364.401 408.611 353.843 417.762 350 418.632C337.809 421.392 322.492 419 310 419C303.134 419 297.571 419.511 292 415L291 416L294 419M517 405L518 405M338 406L337 407M364 406L368 407L359 417M342 407L348 410M368 407L384 407M374 408L371 418M385 408L393 416M534 408L537 409M552 409L553 409M346 410L346 413M544 410L546 410M299 411L293 417M234 414L231 417M347 414L347 417M533 414L534 416M556 414C563.399 423.706 588.669 419 600 419L726 419M558 414L559 414M295 415L297 417M536 418L539 415L542 419M542 415L542 418M558 419L553 416L555 416M562 415L565 417M294 419C291.316 419.237 289.884 418.791 291 416M530 416L533 419M545 416L547 418L549 416L552 419M555 416L555 418M230 417C224.568 421.482 219.56 419.546 213 420.17C198.086 421.588 182.992 421 168 421L1 421M239 417L239 420M285 417C279.582 424.628 255.57 421 247 421M395 417L395 420M397 417L399 421L399 418M546 417L543 420M279 420L286 419L287 418L288 419M245 419C238.401 423.593 242.872 429.623 245 436C249.571 449.7 253.7 465.477 254 480L307 480L414 480L456 479L475 478L468 474M288 420L286 421M424 419L422 421M450 421L529 419M551 420L544 420M236 420L237 420M240 420L241 421M392 420L393 420M398 420C395.183 427.925 404.713 439.515 412 442C405.85 451.445 393.159 451 383 451L310 451L1 451M400 420L418 421M424 421L436 421M548 420C548 428.635 540.297 449.557 553 449L543 451L536 443L537 449L540 446M0 421L1 421M400 440L408 441L408 441M418 442L414 444L418 446M241 443L241 444M405 444L405 447M418 446L422 446L417 447M538 444L535 447M240 450L244 445L245 449M412 445L416 449L409 448M544 446L542 448M414 447L412 449M422 447C432.684 452.79 448.249 449.866 460 449.71C484.276 449.387 508.674 448 533 448M545 447L545 449M539 448C541.934 458.763 521.222 468.99 515 476C530.801 484.391 559.347 479 577 479L726 479M416 449L418 449M418 449L423 449M537 449L540 452M553 449L726 449M0 451L1 451M423 451C429.067 458.731 441.828 462.186 451 464.86C454.979 466.019 461.401 467.106 461 472M206 465L211 463M503 471L513 464M181 478L176 480C180.498 472.272 195.906 469.321 204 466M449 468L448 469M465 472L504 469M450 470L452 471L448 471M458 470L459 471M463 470L465 470M509 473L507 474M485 474C488.562 480.176 479.975 481.786 476 478M491 474L494 474M500 474C504.352 478.266 506.405 480.446 513 480L505 475M518 474L521 477M481 480C480.74 477.133 481.133 476.74 484 477L478 478M492 475L483 482M496 475L498 477L495 478L496 475M169 476L168 477M489 476L491 477M512 477L519 480M175 481L172 480L177 477M498 478L502 477M516 477L513 480M167 480L165 478L172 479M494 479L488 479M154 485L164 479M180 479C186.036 482.22 194.255 481.009 201 481C217.684 480.979 236.581 476.926 253 481M477 479L474 481M494 479L495 483L503 479M499 479L499 480M32 481L119 480L161 480M170 481L171 481M179 481L180 481M487 481L495 481M496 481L497 482M488 482L485 483M486 485C475.269 492.334 462.107 491.389 450 494.745C444.703 496.214 438.143 497.492 436 503M149 487L152 486M426 510L435 500M427 503L424 509L383 508.981L309 510L45 511M417 508L418 505L421 509M390 509L395 509M421 509L424 510M428 510C461.507 505.765 497.212 509 531 509L726 509M422 512C414.954 520.889 405.331 514.602 396 514.572C389.621 514.551 383.347 516.575 377 517.086C356.069 518.771 336.69 527.24 316 529.714C297.053 531.981 280.961 526.434 263 536C270.951 541.616 285.542 539 295 539L375 539L553 539C580.647 539 610.612 542.348 638 539.295C643.135 538.722 647.839 535.933 653 535.75C662.103 535.428 671.882 537.358 680.911 535.852C684.691 535.221 686.624 531.767 690.004 530.31C694.264 528.474 699.627 530.136 704 530.725C707.98 531.26 722.724 529.602 724.377 533.315C728.628 542.861 709.729 540.956 706 537M695 530L695 533M704 531C700.514 535.849 700.265 540.225 707 541M292 532L293 532M710 532L711 539M277 535L280 533M270 538C271.125 535.543 271.875 535.543 273 538M319 535L320 538M715 535L715 538M719 535L719 538M262 540L259 537L265 539M262 536L263 536M69 541C106.047 541 143.081 539 180 539C202.007 539 227.591 542.499 249 537M258 537L257 540M685 537L700 541M243 538L240 539M247 538L255 540M244 539L244 541L248 540M241 541C238.041 545.494 230.029 545.896 225 546M258 541L260 540"/>
</svg>
