<?xml version="1.0" standalone="yes"?>
<svg width="728" height="546" viewBox="0 0 728 546">
<path style="stroke:#000000; fill:none;" d="M195 1C208.449 14.447 223.969 11 242 11L312 11C321.656 11 334.525 13.2559 343.83 10.6821C347.484 9.67169 349.443 5.89337 353.001 4.60651C357.084 3.1297 360.925 4.10791 365 2M365 2L372 7L359 22L358 18L350 14C352.862 11.4229 354.239 10.0276 358 11L360 5M386 1L372 6M388 1L398 6.72144L411.852 5.60339L416.027 13.4553L427 18L423 20M415 6L433 1L441 4L442 5L439 18L433 13C435.942 10.9117 436.731 10.5156 440 12M442 5L459 3L460 4L461 3L462 2M462 2C465.996 3.10364 468.396 4.63983 472 2M472 2L476 4L472 5M476 5C478.942 2.91168 479.731 2.51569 483 4L477 6L478 13C481.627 11.2348 482.929 10.0795 482 6M483 4C489.06 4.01276 493.896 4.73468 499 1L508 5L507 2M503 4L507 2M508 3L510 1L512 3L509 4M512 18L505 15L517 18L516 4L522 1C533.999 8.15741 533.999 6.97522 532 21L530 22C525.77 18.1218 520.337 15.9915 524 10L521 11M541 1L535 7M512 3L515 3M365 4L367 4M461 4C453.173 10.5248 460.029 16.9058 468 17L470 22L489 14L482 12M490 22L502 4M430 5L433 12M432 5L435 5M437 5L437 9M454 5L457 8M462 5L465 4M468 5C468.105 10.0886 468.179 15.3502 473 18M492 5L487 13M508 5L512 9L515 7M521 5C526.247 7.36041 526.876 10.8324 525 16M376 15C381.572 19.7008 386.318 19.465 392 15C385.109 8.28033 381.891 8.28033 375 15C374.768 -0.553589 390.196 11.3953 396 11L397 10L397 9L397 8M426 6C426.054 10.868 426.988 19.2579 433 14M428 6L430 10M401 7L408 20L415 14M505 7L505 13M524 7L522 9M361 9L359 17M372 9L362 18M487 11L489 9M493 10L496 10M346 11L349 14M359 11L362 13M364 11L366 13M372 11L374 13M378 14L387 12M397 11L405 19M524 11L526 13M386 12L385 18M430 12L428 14M437 12L435 12M382 13L384 15M493 13C492.362 15.7719 491.826 17.7711 489 16M512 15L517 15M374 14L367 16M393 15L401 19M436 14L435 15M458 14C452.893 18.7223 447.192 21.1879 441 17M477 14L477 16M484 14L484 16M490 14L492 16M542 14C543.762 19.803 548.776 18.9996 554 19L586 19L726 19M365 15L366 16M535 15L539 22L538 20M494 17L495 18M504 17C504.857 19.73 505.167 20.261 508 20L508 20M522 17L517 24M531 17L528 20M535 17L533 22M432 18L436 18M498 18L503 17M524 18L523 22M1 19L193 19M365 19L367 19M483 19L484 22L488 19M514 19L515 22L518 19M518 19L520 19M408 20L408 22M511 20L509 24M478 22L479 22M467 25L484 25M288 98L289 104L287.353 93L287 78C284.218 81.2834 285.409 82.8466 288 86C300.991 71.7677 273.948 73.0164 266 73C263.782 72.9954 260.472 73.4776 258.607 71.9722C255.215 69.234 257.01 50.4644 257.575 46C258.025 42.4444 255.534 34.4782 258.604 32.0278C262.699 28.7596 274.933 31 280 31L329 31C334.401 31 343.772 29.1938 348.682 31.6034C351.271 32.8737 351.723 37.4542 352.12 40C352.989 45.5566 354.321 67.4743 350.397 71.3966C345.532 76.2579 333.334 71.6197 327 75L333 79M195 35C192.251 39.9856 187.105 39 182 39L148 39L1 39M539 35L545 38L542 37M533 38L533 40M350 39L352 44M546 39L726 39M508 42C511.033 45.2941 510.462 47.4618 508 51L508 42M223 45L239 45M332 45L332 55M457 45L468 54M468 45L462 50M306 47L307 54M275 53C276.717 47.4998 283.283 47.4998 285 53M290 55C286.416 47.2785 296.646 49.2734 290 55M297 55L299 48L302 55M311 53L313 48M316 50L320 49L318 55L319 54L320 54M325 48C328.426 50.049 327.95 51.7739 326 55L325 48M514 49C511.152 54.7183 507.091 54.3485 503 50M223 50L239 50M280 50L280 53M462 50L457 55M325 51L328 51M195 54C193.238 59.803 188.224 58.9997 183 59L149 59L1 59M223 54L239 54M533 57L533 58M537 57L532 60M536 60L553 59L591 59L726 59M350 59L352 64M302 60L303 66C308.428 65.9958 311.748 65.5959 316 62L326 77M288 78L302 67M313 67L317 67M356 73L357 73M461 73L467 80M195 75C192.251 79.9856 187.105 79 182 79L148 79L1 79M368 75L369 75M541 75C543.749 79.9856 548.895 79 554 79L586 79L726 79M324 76L320 80M326 77C326.049 81.4347 326.411 91.8553 329.027 95.4082C334.034 102.209 334.477 89.5795 334 87M375 77L373 80M452 77L453 80L454 77M198 78L195 79M341 78L345 80M364 78L365 78M377 79L382 80M273 79L276 80M291 79L291 81M368 79L371 79M469 79L470 80M524 79L524 80M245 80L248 80M253 80L255 80M259 80L261 80M331 80L328 85M349 80L353 80M403 80L407 80M420 80L422 80M429 80L432 80M437 80L438 80M472 80L478 80M481 80L483 80M485 80L488 80M201 83L205 84L203 85M197 84L198 88M201 86L205 88M463 90L460 94L462 92M275 98C272.224 97.2108 272.129 96.705 273 94C277.39 99.3842 281.571 99.373 287 95M262 99L258 97L239 100L237 95M243 95L245 95M247 95L248 95M339 95L340 95M461 95L458 99M541 95C543.749 99.9856 548.895 99 554 99L586 99L726 99M354 101L356 100L356 96M254 98L256 97M257 99L263 98M264 98L271 97M327 97C330.026 105.131 334.857 119.074 329 126C325.552 121.184 326.267 118.418 330 114M334 97L339 99M343 99L350 97L349 100M364 97L369 99M362 98L363 98M371 98L371 100M416 100L428 100M433 100L435 98M448 98L447 100M537 98L537 99M542 98L539 100M1 99L128 99L199 100M430 99L430 100M438 99L436 100M513 99L513 100M531 99L529 107M215 100L216 100M222 100L227 100M235 100L237 100M242 100L244 99M326 100L329 108M351 100L351 101M409 100L413 100M442 100L444 100M475 100L476 100M480 100L484 100M486 100L504 100M528 106C525.696 102.539 525.603 100.742 530 100L530 100M537 104L532 105L537 104M464 103L464 110M429 104L430 104M540 104L540 108M289 105L287 126C284.961 122.156 284.961 119.844 287 116M418 109L419 105L424 106L424 109M434 110L436 105M442 110C439.827 107.82 439.743 106.358 443 106M461 110C458.13 108.571 457.237 106.414 461 106M470 108L473 106C472.273 108.296 471.647 109.03 474 109M525 105L525 108M427 106L430 106L431 107C428.82 109.173 427.358 109.257 427 106M446 106L448 106L449 107L447 110L446 106M451 106C451.977 109.704 454.023 109.704 455 106L455 106M465 106L468 109M533 107L536 108M386 119C369.088 118.138 383.028 103.898 388 119L393 112L387 111M449 112L446 119M382 113L384 113M379 114L378 115M383 115L382 118M329 117L330 137C335.096 134.233 335.366 131.46 335 126M346 117L347 117M360 117L364 117M369 117L372 117M460 117L460 118M463 117L463 119M521 120L594 119L726 119M439 118L436 119M458 118L458 120M1 119L194 119M277 119L280 119M370 119L371 119M511 120L515 120M258 120L267 120M418 120L420 120M449 120L450 120M460 120L461 120M468 120L472 120M498 120L499 120M501 120L502 120M504 120L506 120M518 120L519 120M287 126L287 146C290.309 141.933 290.309 140.067 287 136M439 128L440 130M381 129L382 129M403 129L405 129M416 129L417 129M514 129L513 133L516 130M390 130L391 130M411 130L412 130M420 130L433 134L434 133L435 132L436 131M435 134L465 137.042L484 130M483 132L490 130M363 140L385 131M416 131L418 131M430 132L433 133M439 131L439 133M480 131L481 132M421 132L424 132M195 134C193.238 139.803 188.224 139 183 139L149 139L1 139M229 135L224 140M432 135C427.305 139.009 423.073 139.95 417 140M480 137L484 140L486 135L488 135L489 140M495 140C492.011 139.202 490.786 137.486 494 136M497 135L497 140M501 135L501 140M515 138C518.086 138.973 518.075 137.754 517 135C514.207 137.106 509.052 140.208 505.296 139.315C501.439 138.398 505.43 135.424 507 135M522 136L523 140L528 135M531 135L535 140L535 137M329 136C326.18 139.983 326.18 142.017 329 146L332 137M511 137L514 138M206 137L211 140M330 137L330 143M335 137L348 140M396 137L394 139M229 138L228 139M378 138L379 138M429 138L431 140M486 138L488 138M498 138L500 138M504 138L507 138M526 138L530 139M280 139L280 140M288 139L288 143M328 139L328 143M360 139L357 140M536 139L726 139M243 140L255 140M353 140L355 140M373 140L374 140M399 140L401 140M453 140L454 140M526 140L529 140M287 146L286 166C288.673 162.268 289.147 160.112 287 156M336 146C337.593 150.815 342.456 150.804 347 151L348 159C353.069 156.434 353.069 152.566 348 150M329 147L330 155L332 156L338 150M200 149C204.957 152.461 210.034 149.195 214.852 152.154C221.037 155.953 216.558 162.568 211 163M342 151C342.047 154.935 341.954 157.657 346 159M411 154L411 151M203 152L203 159M337 152L344 155M509 152C507.085 159.271 497.89 163.073 494 155M340 154L336 158L333 155M349 154L349 156M389 154L393 159M393 155L396 154M195 155C192.251 159.986 187.105 159 182 159L148 159L1 159M330 155C326.336 159.393 326.336 161.607 330 166L332 156M423 155L429 160L435 158L434 161M541 155C542.655 159.987 547.46 159 552 159L585 159L726 159M376 156L373 159M398 158L402 158L398 161L399 162L400 162L401 162M453 158L456 158L454 162L455 162L457 161M494 160L493 156M337 157L341 159M386 157L386 160M402 158L420 158L416 158M437 159L443 159M446 159L449 158M494 157L492 159M517 158L517 159L517 158M230 158L225 160M287 158L287 163M329 158L329 163M336 158L336 163M407 160L410 158L413 160M459 158L460 158M491 158L488 160M529 158L524 159M223 159L222 160M232 159L237 160M246 159L247 160M356 159L358 160M378 160L384 159M215 160L217 160M253 160L254 160M271 160L273 160M276 160L277 160M426 160L428 160M483 160L484 160M420 161L419 162M203 163L209 163M425 162L426 162M286 166L287 185L283 181L282 182L284 185L287 186M330 166L331 175C339.337 177.34 346.569 190.122 355 180C350.71 177.895 345.687 177.902 344 183M538 166L540 171M222 168L226 169M227 170L231 174L226 171M502 170L504 172M411 172L411 178M232 174L237 178L234 176M502 174C501.932 178.08 500.478 179.111 497 181M195 175C192.251 179.986 187.105 179 182 179L148 179L1 179M269 175L269 181M331 175C327.941 178.633 325.913 188.621 334.056 188.029C337.53 187.777 338.845 183.114 341 181M241 176L241 180M246 176L243 179M250 176L251 176M266 176L265 180L263 179M478 177L481 177M273 177L273 179M285 177L285 181M331 177L331 185M338 177L342 180M469 185L475 177M522 177L527 180M525 177L526 177M276 179L278 179L276 181L279 182M283 178L283 181M364 179L357 181L365 184C366.211 180.09 368.058 178.819 372 180M518 178L508 180M524 178L518 180M221 180L230 180M247 179L248 179M250 179L257 181M278 179L282 178M287 179L287 185M324 179L324 180M371 179L368 180M421 180L425 179M483 179L482 180M536 185C536.962 179.218 541.862 179.065 547 179.004C558.33 178.868 569.669 179 581 179L726 179M202 180L204 180M206 180L207 180M342 180L344 180M378 180L379 180M387 180L388 180M403 180L404 180M434 180L437 180M445 180L455 180M457 180L461 180M463 180L467 180M473 180L478 180M486 180L488 180M492 180L495 180M530 180L533 182M355 181L357 181M369 181L371.914 189L380.04 197.519L409 196L404 200M460 182L460 185M463 182L463 184M526 182L526 185M471 183L472 184M455 184L456 184M343 185L339 186M366 185L368 185M286 187C285.982 191.965 283.344 195.449 282.897 200C282.525 203.778 285.446 206.876 284.896 211C284.007 217.66 279.999 220.003 285 226C287.82 222.017 287.82 219.983 285 216M332 189L331 211M250 190C253.149 196.121 260.159 200.62 266 196M448 195L449 190L458 194L453 192M468 190C467.79 192.987 467.526 194.478 465 192L464 193L464 194L464 195M470 190L472 195M476 190L479 195M490 190L491 194M493 190L494 195L496 190M499 190L502 190M516 190L517 194L516 190M524 195C520.156 193.723 520.156 191.277 524 190M536 190L536 196L533 191M539 190C541.31 204.616 572.224 199 583 199L726 199M414 192L412 197C414.426 196.912 418.523 196.029 418 193M452 191L450 193M461 191L461 195M511 191L511 194M417 192L418 193M481 192L484 192M504 192L507 192M526 195L527 192L531 193L531 195M487 193L487 194M496 193L498 195L501 194L502 195M272 195L270 197M278 195L279 199M421 195L430 200M508 195L507 200L506 197M286 196C288.541 199.692 288.541 201.308 286 205M377 196C373.751 200.731 375.327 203.012 379 207L380 199M409 196L412 196M450 196C447.338 200.684 438 199.429 433 200M522 199L528 196C530.814 201.015 537.985 198.6 543 199M541 196L541 198M273 197L274 200M416 197L422 197C422.143 201.484 419.949 210.287 424.419 213.187C429.084 216.213 440.671 207.447 447 208.305C451.578 208.925 457.421 211.028 459.938 215.185C461.394 217.591 460.682 221.489 463.316 223.133C466.509 225.125 468.662 221.21 470 219L468 217L463 217M452 197L454 200M475 197L478 200M213 198L213 199M285 198L285 203M386 198L387 203L381 206M413 198L421 206M439 198L440 199M456 198L456 199M462 198L466 200M467 198L469 200M480 198L481 198M484 198L481 200M495 198L491 200M500 198L498 199M512 198L512 200M1 199L193 199M198 200L208 199M242 199L244 200M265 199L264 200M418 199L419 203L420 199M486 199L489 199M516 199L516 200M237 205L240 200M458 200L459 200M385 201L385 202M245 202L247 202M260 202L260 208M244 204C243.588 207.721 246.413 207.721 246 204M250 204L250 207M253 204L252 207M255 204L256 207M266 209C264.11 206.789 264.11 206.211 266 204L266 206M270 204L273 204M278 205L283 213M240 206L237 208M379 207L379 214M270 209L271 210M488 209L483 214L485 214M485 211L486 212M272 222C268.048 224.338 266.456 223.84 264 220L271 217L273 222C275.108 216.338 277.174 214.577 283 213M468 214L468 217M195 215L197 215M424 215C414.179 226.662 433.795 226.017 426 215M484 215L480 219M191 218L195 218C175.574 222.82 151.014 219 131 219L1 219M503 216L500 219M515 216L513 219M263 217L265 219M197 218L198 220M228 218L231 218M284 218L284 223M423 218L423 224M427 218L427 222M269 219L271 223M286 219L286 223M465 219L465 224M471 219L476 219M519 219L726 219M211 220L212 220M244 256C246.028 260.041 245.454 262.112 242 265C241.508 254.268 249.436 250.092 253.798 241.896C257.416 235.097 259.4 226.173 264 220M269 221L266 225M472 224C465.57 230.955 465.347 244.026 468 253L474 249L475 250C471.159 258.011 465.185 261.763 468 272L475 267M263 226L265 226M285 226C284.993 236.441 279.815 253.747 284 263C280.902 264.425 279.051 264.963 277 262L281 261M423 226L423 231M466 226L468 228M475 227L470 228M478 228L480 228M473 230L468 236M193 235C194.556 239.926 198.336 239.958 203 240M471 235L482 240M508 236C509.033 240.82 515.967 238.726 520 239.389C532.495 241.443 546.282 239 559 239L726 239M249 241C246.654 239.61 247.486 242.348 248 244L254 237M492 238L492 239L492 238M506 237L507 240M206 238L207 239M249 239L252 238M500 238L505 240M1 239L192 239M243 239L244 240M421 239L422 240M209 240L217 240M485 240L487 240M252 241L254 243M523 247L528 245L523 251C526.046 251.484 527.073 251.177 527 248M248 245L249 246M534 252L532 247C539.527 254.554 529.499 260.462 522 258L526 257M538 247L539 252M498 250L499 250M502 251L517 255L514 258L515 259L522 257L517 255M468 253L468 255M543 255C544.655 259.987 549.46 259 554 259L587 259L726 259M472 256L475 258M495 256L498 257M222 257L228 260M281 257L278 260M507 259L505 259L508 257M494 258L496 259M500 258L501 258M1 259L194 259M240 259L241 264M488 260L491 259M535 259L542 259M197 260L198 260M238 260L238 261M500 260L501 260M243 265L240 286C236.245 281.792 231.051 274.701 240 274M495 267L495 271M508 267L508 271M530 267L530 271M533 267L533 272M536 267L536 269M490 268L490 271M501 268C501.809 271.066 503.267 272.071 505 269M519 271L520 268L524 269L524 271M474 269C470.456 276.499 466.028 280.898 468 290L475 290L470 295L481 301M478 269L478 271M484 269L485 269M496 269L499 271M509 269L512 271M225 270L225 272L225 270M228 270L227 271M482 270L482 271M223 271L224 271M484 271L487 272M539 271L537 272M225 272L225 274M468 272L468 274M522 273C516.002 278.65 509.935 278.999 502 279M201 278L203 280C200.183 278.026 200.142 275.93 203 274M210 274L205 279M213 274L214 274M223 274L224 279M471 275L481 280M227 277L231 277M240 276L236 280M496 276C496.072 279.101 494.96 279.331 492 280M534 276L529 280M210 277L220 279M235 277L237 277M525 277L525 279M490 278L489 280M539 278C556.485 283.168 580.739 279 599 279L726 279M1 279L194 279M228 279L228 280M239 279L239 283M241 279L241 283M532 280L538 280M207 280L209 280M295 280L296 280M240 286L244.597 301.015L245.404 311.998L252.156 321.179L258 344L259 338L265 341L262 345C265.711 350.051 270.171 354.433 269 361L270 362L271 359M224 289L223 290M209 290L210 290M365 290L366 290M408 290L409 290M468 290L468 308C472.49 303.359 475.948 297.646 475 291M377 291L378 292L374 297L377 291M510 291L505 293M1 299L128 299L190 298.852L213 292M534 292L535 292M539 292L540 300L542 294M521 299C518.908 297.418 519.267 296.894 521 295L522 300L523 300L524 299L523 298M233 296L239 297L241 304L242 298M399 296L402 297M486 296L490 299L486 301L486 296M495 296L498 299L493 299M506 297L501 299L506 297M526 296L524 299M535 296L535 299M542 296C553.099 303.984 579.528 299 593 299L726 299M503 297L503 299M510 297L511 301L515 297M531 297L526 299M194 298L196 300M228 300L228 298L233 299M214 299L213 300M220 300L226 299M313 299L328 299M334 300L331 301C340.547 294.569 338.831 311.031 342.305 315.62C343.942 317.783 348.455 317.907 349.248 320.388C350.902 325.558 344.145 322.936 343 319M344 299L345 302L344 299M352 300L350 302L352 300M541 299L543 299M205 300L206 300M322 300L323 305L328 302M340 301L343 300M352 300L359 300M459 300L460 300M355 301L350 318M200 302L200 305M218 306L216 302L218 303M226 302L226 303M313 302L331.872 318.263L339 311M479 302C477.549 305.959 460.035 318.253 477 318L468 309M197 303L196 306M209 303L209 305M212 303L213 303M232 303C233.582 305.092 234.106 304.733 236 303M501 303L505 303M242 304L244 306M335 304L339 307M206 305L206 306M230 305L229 306M498 309L498 310M468 313C465.609 317.384 465.152 323.731 459 321L461 321M500 313L503 319L504 317M480 314L478 318M465 315L461 319M205 316C213.523 322.131 226.104 317.644 236 320M372 316L375 316M399 316L402 316M469 316L461.894 330.054L458 345L463 351L458 355L462 359L461 354M544 319L543 316C554.099 323.984 580.528 319 594 319L726 319M246 317L251 327M324 317L326 324L327 319M487 317L494 319M510 317L509 318M516 317L519 320L522 320M341 318L344 325M513 318L517 320M538 318L537 320M1 319L132 319C152.442 319 177.111 315.265 197 320M202 319L206 319M239 320L241 320M250 319L252 323M329 319L330 325L331 320M345 319L345 322M348 319L348 323M463 319L463 321M482 320L488 319M528 320L532 320M534 319L535 319M250 321L248 323M465 321L468 324M491 323L494 324M499 323L499 333M462 324L462 326M472 324L469 333L470 328M467 326L469 328M480 329L486 328L481 330L486 332M463 327L467 331M468 334L478 327M495 329L491 333C488.947 328.669 490.669 326.947 495 329M503 329C507.914 334.776 502.017 338.489 496 338.9C487.077 339.51 481.329 339.473 477 331L476 332L477 335M504 331L504 333M470 332L472 334M255 335L251 339M499 337L506 338L506 336M501 335L502 335M541 335C551.612 343.983 577.648 339 591 339L726 339M458 343C458.212 336.534 461.063 336.021 467 336M467 336C471.267 339.46 474.971 340.506 480 338M258 337L259 338M457 337C455.48 339.863 454.126 342.786 457 345M522 338L525 340M532 338L544 339M1 339L207 339M215 339L215 340M529 339L528 340M262 340L262 343M521 340L522 340M260 345L262 345M462 346L462 348M456 347L455 355L458 355M515 349L518 358L497 357.545L481.083 352.417L477 357M464 351L472 354M487 351L486 354M473 353L476 354M480 353L481 353M541 353C542.454 359.643 547.11 359 553 359L585 359L726 359M454 354L449 364L448 358C446.308 360.261 445.613 362.149 448 364M537 354L537 355M478 355L481 355M523 358C525.793 355.441 527.709 355.122 529 359L524 359C525.628 363.884 535.925 359.985 540 358M468 356L468 357M271 357L281 363L273 363L275 365L276 362M450 357L450 361M473 357L463 359M1 359L160 359C186.331 359 215.133 362.802 241 358M263 358L260 360M466 358L466 359M495 358L491 360M519 359L523 358M241 360L245 359M275 359L275 361M406 403C399.413 390.011 425.488 397.071 431 396C429.49 392.929 428.901 391.758 431 389L428 385L441.199 371.775L446 359M484 360L486 359M474 360L475 360M537 361L540 363M272 363L273 363M280 364L272 368M280 366L285 372L284 379L292 377C291.187 382.54 296.313 383.917 301 385L296 383M447 366L453 369C449.218 372.737 446.379 376.465 441 374M473 366L475 366M467 367L471 370L468 371M449 368L449 371M454 369L459 371M264 371L264 373L267 371M269 370L270 370M286 372L288 374M518 379C510.61 378.274 513.598 370.797 521 380L536 379L534 378M518 373C522.786 373.176 527.072 372.452 528 378M523 374L523 377M195 375C192.251 379.986 187.105 379 182 379L148 379L1 379M246 380L262 374M447 376L452 379M468 376C476.025 381.772 503.29 381.648 512 377M292 377L298 380M428 383C428.642 379.059 430.127 377.807 434 377M194 378C203.393 382.675 218.611 380 229 380M295 378L295 382M270 379L270 380M272 379L273 380M299 379C304.911 381.172 305.47 386.205 302 391L309 396C310.675 392.045 309.602 390.302 307 387M421 380L428 379M461 379L469 379M542 379L726 379M302 380L302 382M524 380L526 379M304 385L300 390L300 388M427 389L425 386L428 385M427 393L422 386L425 386M230 387L232 387L232 393L230 393L230 387M270 393C270.307 389.117 271.276 388.07 275 387M283 387L283 393M417 394L421 387M264 394L266 392L264 389L265 388L266 388M289 388L288 394L287 390M308 388L304 392M238 390L236 392L238 390M239 390L245 393L250 389M277 390L280 390L279 394M298 389L299 389M230 390L232 390M247 392C251.649 392.259 257.68 388.422 261 393M197 394L197 399C209.839 399 216.721 399.341 227 391M256 391L252 392M275 391L275 392M523 391L518 395M236 393L248 395M238 393L243 393M427 393L425 395M311 394L325 396L326 397L325 402L321 397M236 395L238 396M262 395L266 399L285 398L282 397M275 396L275 397M290 399L289 396C294.893 400.239 303.032 400.078 309 396M304 396L304 398M436 400L460 399.406L473 398L474 399L475 398L476 397M525 396L532 400M235 400L235 397M243 400L265 399M264 397L260 399M327 397L332 397L333 402L334 401L334 398M394 404L396 406L395 407C392.893 403.851 391.866 402.419 388 403C389.091 396.565 398.573 397.5 404 397M222 400L233 398M328 398L330 403L332 401M336 398L342 399C341.453 402.56 342.51 403.419 346 404L342 399M398 398L398 402L401 398M527 398L521 400M1 399L193 399M237 400L239 400M268 399L270 399M286 399L287 399M347 399C354.971 399.423 359.048 400.225 365 406C370.097 401.054 380.972 397.855 386.08 405.518C387.303 407.353 384.459 411.47 385 414L386 414M379 402L388 399M391 399L391 401M393 399L393 403L397 403M395 399L395 401M471 399L472 399M542 399L726 399M196 400L196 404M349 400C350.188 407.201 358.057 408.038 364 406M384 400L384 403M334 401L340 404M328 402L322 405M527 402L527 405M537 402L537 403M314 403L311 407L318 408M333 403L335 403M379 403L375 407L382 410M401 403L400 406L397 406M404 403L406 407M524 403L524 405M532 403L532 405M534 403L537 406M316 404L314 407M342 404L343 409L347 405M390 404L392 405M498.001 405.225C507.194 404.978 507.218 418.543 498.003 418.543C489.4 418.543 489.389 405.457 498.001 405.225M382 405L384 408M335 406L336 407M394 406L387 409M353 407L346 408M367 407L375 407M312 408L308 410M389 409L391 411M392 409L393 410M201 410L199 414L206 410M498 411L498 412M308 412L305 419L334 420M471 412L471 413M488 412L490 412M199 414L195 420C176.958 414.667 151.845 419 133 419L1 419M200 414C210.419 421.045 220.461 418.328 232.285 418.423C256.816 418.62 280.173 419.947 304 415M304 415L301 416M471 415L471 416M541 415C540.908 420.23 547.003 419 551 419L584 419L726 419M392 416L393 416M422 416L424 416M193 419L196 417M302 417L298 418M388 417L390 417M396 417L402 419M418 417L419 417M421 418L432 418M296 418L294 420M367 418L364 420M426 418L429 419M436 419L441 420M336 420L341 419M369 420L372 419M378 420L387 420M404 419L404 420M406 419L406 420M451 419L451 424M465 420L469 420M472 419L474 420M524 419L528 420M303 420L304 420M347 420L353 420M356 420L359 420M408 420L411 420M432 420L433 420M443 420L444 424M454 420L457 421M459 420L463 420M503 420L504 420M446 421L447 422M297 422L298 422M432 422L433 424M435 422L439 423M441 422L441 423M453 422L454 423M465 422L469 424M300 423L301 423M429 424L431 425M457 424L455 425M472 424L474 424M292 425C291.577 429.492 294.306 430.199 296 426M442 429L439 430M532 429L527 432M296 431L299 431M436 437L433 437L438 434M241 434L245 439L246 440L247 439M260 436C257.32 437.07 256.662 436.952 257 434L264 438M483 440C485.715 433.39 469.916 438.881 467.337 438.178C463.424 437.112 467.748 434.653 470 435M509 434L509 435M526 434L521 439L523 440M231 435L231 439M237 435L238 439M283 435L284 440C295.041 437.371 315.565 443.964 324 436M435 439L442 435C444.125 436.904 444.682 437.694 447 436M456 435L457 439M496 438L489 438L507 436M541 435C543.749 439.986 548.895 439 554 439L586 439L726 439M201 438C203.01 436.159 202.806 437.789 203 440L210 437M219 439L216 438L220 436L222 440M262 437L264 437M374 436L372 439M450 439L451 436L454 440M459 436L463 436M492 436L492 438M1 439L151 439C162.594 439 174.431 439.696 186 438.947C190.57 438.651 195.892 435.533 199 440M215 440C213.499 438.188 213.842 437.978 216 437M221 437L228 437M247 437L253 437M266 440L281 437M272 439L279 437M405 437L406 440L407 437M437 437L438 438M503 437L498 438M505 437C508.262 441.617 514.47 439.911 519 438M529 437L527 439M194 439L191 439M331 438L330 440M334 438L333 440M502 438L504 440M196 439L195 440M225 439L226 440M248 440L253 440M269 439L269 440M425 439L420 440M441 439L443 439M473 439L475 438M207 440L209 440M366 440L367 440M379 440L385 440M387 440L394 440M398 440L400 440M403 440L404 440M412 440L415 440M441 448L442 448M322 450L325 450M444 449L445 449M509 449C501.84 459.038 485.845 455.375 475 460M512 449L511 450M312 456C308.3 454.758 307.915 451.819 312 451M315 450L323 460L324 460L326 454L321 454M335 454L334 452L335 457L343 450M366 450L369 450M420 452L422 452L414 462C418.036 461.597 419.371 459.959 420 456M448 450L449 450M455 450L459 451M329 451C329.262 455.132 329.079 457.431 325 459M367 452L364 455L376 455L376 453M451 451L456 452M341 452C345.892 456.967 348.617 455.561 354 452L354 456M358 452L361 457L362 452M367 452L369 454M371 452L371 455M206 453L207 459L216 458L212 457M224 453L226 460L228 460L228 460M255 453L255 454M310 453L311 453M461 453L477 457M529 459L530 453L532 453L532 459M541 453L541 458L536 457M219 454L221 456M229 454L230 460M235 454L234 459M238 454L241 459L243 454M247 454C248.306 458.661 252.907 457.608 257 458.403C268.088 460.555 280.709 459 292 459C296.024 459 305.016 460.766 304 455M315 454L315 455M337 454L342 456M351 454L353 456M409 458C410.463 453.603 413.889 454.258 418 454M519 454C517.794 461.162 510.113 456.689 505 456M522 455L527 455M219 456L218 460L224 460M414 459L417 458M361 457L365 460M379 457L377 459M530 457L532 457M251 458L242 459M256 458L253 459M1 459L194 459M311 460L321 460M345 460L352 460M543 459L726 459M202 460L206 460M238 460L240 460M342 460L343 460M370 460L372 460M383 460L387 460M399 460L402 460M425 460L429 460M433 460L434 460M410 462L413 463M475 463C474.809 475.825 487.281 469.632 493 465L494 466L492 468M479 464L479 469M522 464C520.122 470.685 513.492 474.29 508 478M503 465L514 473M361 469L363 469M376 469L379 469M383 469L386 469M330 470C326.185 474.427 312.637 473 307 473M331 471L334 471M199 472L202 472M227 472L228 472M232 472L239 472M242 472L246 472M482 473L488 478M495 475L501 473M195 475C192.251 479.986 187.105 479 182 479L148 479L1 479M541 475C543.749 479.986 548.895 479 554 479L586 479L726 479M522 482C516.652 491.75 505.982 490.841 499 484M475 484C482.351 491.781 492.776 492.303 500 485M513 484L513 488M496 492L505 491M195 494C193.238 499.803 188.224 499 183 499L149 499L1 499M541 494C541.995 499.959 546.956 499 552 499L585 499L726 499M214 498L214 507M285 498L285 499M299 499L306 499M312 499L320 499M216 503L219 507L224 499L225 508M249 500C254.628 499.504 257.556 501.178 258 507M232.299 501.346C235.901 500.06 237.42 506.246 233.826 507.387C230.271 508.517 229.172 502.461 232.299 501.346M240 500L247 501M252 500L254 509M258 501L261 500M264 503C266.773 501.352 267.51 500.934 270 503L264 505L264 507L270 508M276 501L280 500M241 502L241 508M280 502L274 507C277.365 507.967 278.607 507.557 281 505M285 502L285 508M298 502C299.173 507.623 303.927 509.57 307 504M247 503L247 508M312 503C312.848 508.083 315.835 508.181 320 506M290 508L289 511M195 514C193.238 519.803 188.224 519 183 519L149 519L1 519M541 514C541.995 519.959 546.956 519 552 519L585 519L726 519M485 523L488 525L487 530M217 524L218 525M506 524L506 526L506 524M483 525L483 529M494 525C494.547 528.547 493.547 529.547 490 529L494 525M498 525L499 530L503 526M514 530C510.686 528.899 509.899 527.052 513 525L514 527M228 526L228 531M230 526L233 531M238 526C239.651 528.418 238.364 531.885 236 529M243 531L245 526M247 526L247 531M251 526L252 526M254 526C253.501 529.006 253.085 529.861 250 530L250 530M506 526L506 529M212 527L215 531M225 527L225 531M218 530L217 531M221 530L223 531M669 532C664.792 540.343 652.744 536.072 645 537.325C620.361 541.311 594.008 539 569 539C562.079 539 542.435 542.597 541 534M685 532C683.926 538.435 676.85 538.169 674 533M704 532L701 538M708 533L710 533M195 534C193.238 539.803 188.224 539 183 539L149 539L1 539M715 535L715 537M726 535L725 538M719 536L719 537M668 537L674 537M706 537L711 539"/>
</svg>
