<?xml version="1.0" standalone="yes"?>
<svg width="728" height="546" viewBox="0 0 728 546">
<path style="stroke:#000000; fill:none;" d="M72 15C65.8206 21.1794 57.0322 26.5573 61 36C56.4278 38.4395 52.6362 38.2311 48 36C53.0354 26.6459 43.0244 22.1327 38 15C51.2542 8.62158 67.4795 15.123 81 16.4105C88.0527 17.0821 95.8444 16.0436 103 16.1389C140.605 16.6395 178.391 16.6395 216 16.1389C234.223 15.8964 257.239 12.3503 275 16.3943C280.755 17.7045 290.693 21.127 295 25.0587C301.225 30.7413 308.562 42.5666 317 44.6821C325.121 46.718 335.637 45 344 45L401 45L582 45L652 45C661.017 45 674.514 42.4745 683 45.6034C687.754 47.3561 691.515 52.5149 695 56C702.745 63.745 712.112 71.2308 718.682 80C723.125 85.93 715.794 91.6288 718.175 95.3681C720.421 98.8952 725.11 93.4615 727 99M16 25L17 60C20.7752 56.2248 24.4793 51.4878 29 48.6026C32.319 46.4844 37.7541 47.0741 38.0625 41.9854C38.1842 39.9772 37.4522 37.5713 35.5671 36.6026C33.1735 35.3725 30.4066 35.9176 28 34.3966C17.3253 27.6503 11.0863 15.0076 28 15L38 15M104 17L107 43L108 38M117 17L116 44M129 17C129 30.3329 124.186 42.758 124.921 56C125.11 59.406 123.774 65.551 126.028 68.3966C129.678 73.0055 148.442 69.8419 154 69.8488C166.384 69.8639 191.555 75.0832 196.306 59C198.138 52.7998 192.103 46.2508 193.372 40.179C193.983 37.2578 197.323 35.5619 198.698 32.9707C201.265 28.1285 200.999 22.3003 201 17M144 17L146 38M155 17L154 69M173 17L177.013 35.463L185.079 40.1659L179.879 50L177 69M215 17L216.802 36.7878L209 44C207.077 41.3477 207.236 39.806 210 38M229 17L229.317 32.8303L232 44L231 38M246 17C245.907 28.1229 242.232 32.3103 251 41L246 45C258.045 62.6953 227.521 80.4927 217.032 59C214.503 53.8192 217.996 44.7813 218 39M81 19C77.1839 30.6331 68.9769 34.8991 69 48C64.7011 47.217 54.5627 49.0108 60.6042 55.517C65.6231 60.9219 74.2719 65.2719 80 71C71.734 77.9841 55.1514 66.3684 60 57M282 21C273.652 29.3477 267.297 40.9501 255 36M80 26L91.7932 39.9846L77 55L70 48M80 28L80 50M37 36C41.0956 33.8174 43.9044 33.8174 48 36M229 35C222.254 44.3875 231.791 41.9972 233.682 49.0339C235.29 55.0157 234 62.8184 234 69M244 35C241.193 38.9061 239.731 42.8928 245 45M61 36L69 36M176 36C172.089 41.6934 175.725 44.6735 180 49M65 37L68 45M139 39L132 41C134.393 38.4429 135.635 38.0333 139 39M163 37L164 44C165.859 41.6382 166.482 39.9744 164 38M244 37L244 44M42 38L43 38M90 38L90 42M99 38L101 42M195 38L195 44M167 39L170 40M180 39L180 46M189 39L189 40M247 39L247 42M110 40L112 61L113.603 68.9722L124 70M125 40L125 42M134 40L134 41M262 41L286 65C275.105 74.4389 252.74 70 239 70M133 42C134.991 44.8027 136.626 44.1945 139 42M252 43L258 46M17 60C17.0027 84.8862 56.0056 63.672 49 47C53.4 44.8831 56.6611 44.6874 61 47M314 45C305.889 53.111 298.276 64.9566 286 65M147 46L145 69M513 46L513 91M520 46C520 57.6426 519.595 69.3658 520.018 81C520.119 83.7679 523.331 90.936 520.451 92.8241C515.974 95.7585 519.29 86.9997 520 86M48 47C43.9128 49.1694 41.1446 48.9913 37 47M99 52C101.038 62.977 97.4386 69.9985 111 70M77 55C77.0509 69.4067 87.2582 70 99 70M62 58L62 64M69 76C60.4731 76 49.1744 78.1606 42 73L57 60M83 69L81 71M189 70L225 70M36 71L42 73M651 91C650.65 101.754 637.065 98 629 98M294 92C293.769 95.0513 293.379 97.9286 289.941 98.821C277.101 102.154 255.129 100.77 242 99.2847C209.916 95.6538 176.249 100.178 144 99.5455C127.605 99.224 111.37 99.3039 95 99.7407C87.8163 99.9324 81.1916 98.2878 74 100M510 96L518 99M1 99L3 99M9 100L71 99M294 99L355 99M368 100L467 100L506 99M522 100L616 99M655 99L705 100M361 100L363 100M512 100L514 100M709 100L710 100M712 100L713 100M716 100L717 100M721 100L722 100M509 102L510 102M722 102L723 102M514 104L517 104M516 111C511.327 123.71 498.457 107.438 509.005 107.295C512.3 107.25 514.656 109.334 518 109M710 110C714.955 106.478 716.419 115.465 716 119M719 110L717 113M704 120C708.755 116.983 710.169 115.735 716 117M711 116C710.143 118.73 709.833 119.261 707 119L707 119M335 117L317 119L279 119.004L133 119M612 117C603.668 121.446 590.309 119 581 119C557.297 119 533.63 119.512 510 120M126 118L115 119.015L84 119M623 118L700 118M0 119C26.0071 119 55.4802 115.262 81 120M127 119L129 119M346 120L382 119M386 120L461 120L500 119M720 120L727 119M339 120L340 120M503 120L504 120M506 120L507 120M713 122L714 122M706 125L713 129M711 129L704 131M327 137C321.931 136.886 315.447 137.819 317 131C319.565 131.49 323.313 130.923 325.586 132.134C329.794 134.378 330.531 137.881 336 138.699C347.98 140.492 360.898 138.718 373 139.015C401.293 139.708 429.635 140 458 140L491 140C495.571 140 501.26 141.227 504 137M321 133L321 136M279 135C273.632 141.115 264.526 139 257 139L201 139M699 135L712 136M519 139L527 136M305 137L305 139M306 140L315 137M113 138L102 139.029L72 140M665 139L699 140M0 139L45 139M49 139L70 139M114 139L188 139M192 139L199 140M278 139L303 139M703 146C704.381 137.342 719.885 139.001 727 139M513 140L514 140M538 140L547 140M558 140L563 140M657 140L659 140M702 140L703 140M324 145L340 156C325.769 166.9 301.703 147.852 290 157L290 157M712 145L708 147M352 146L367 151C359.431 158.302 349.938 156 340 156M315 150L319 147M367 151C371.355 151.676 373.182 155.01 377.129 156.276C386.702 159.348 398.101 158.018 408 160.054C413.128 161.108 417.639 164.485 422.956 164.953C430.161 165.587 434.607 150.258 444 160L452 156L457 159L457 157M700 151C693.625 163.676 720.331 159 727 159M705 154L709 152L710 158M48 159C82.5861 159 119.746 163.236 154 158.93C160.469 158.117 166.726 154.52 173 153.889C197.385 151.435 223.458 154 248 154C260.711 154 276.804 151.395 289 155M367 153C368.099 156.321 369.59 156.737 373 157M446 158L451 155M367 156L363 157M443 156L446 156M302 157L289 159L290 157M439 157L442 160M628 161C637.286 156.127 645.714 157.175 652 166L635 168.443L627 164M143 158L144 159M365 158C365.002 178.682 381.508 180 398 180C406.036 180 413.278 181.496 419 175L379 167.488L369 173M438 158C435.025 171.128 432.94 176.762 419 175M463 158C471.433 162.5 491.87 161.699 501 159M680 158L692 158M7 159L45 159M245 159L248 159M413 160L417 160M422 159L424 159M459 159C464.225 165.322 463.327 170.392 463 178C454.123 178.69 445.817 192.303 440 177L433 175M520 159L597 159M624 159L627 159M237 160L243 160M453 160L454 160M461 160L463 160M651 160L652 160M675 160L676 160M650 163L646 167M627 164L622 166M626 166L632 169M275 169L268 179C279.686 176.301 284.746 179.137 294 169M639 170C639.016 174.421 638.849 177.711 643 180M405 173L409 173M459 171C455.556 178.147 448.915 177 442 177M157 172C160.125 178.195 166.875 178.195 170 172M369 173C366.639 174.828 363.569 176.557 362.013 179.184C360.044 182.509 360.023 192.793 365.768 192.793C371.456 192.793 373.875 183.212 374 179M456 176L458 178M302 177L361 179M624 177L639.982 186.113L648 180L645 183M653 177L649 179M16 179C48.6328 179 81.4003 178.268 114 179.015C126.478 179.3 147.885 182.876 159 177M652 178L655 180M683 178L694 180M0 179L8 180M204 179L204 180M464 179L497 180M513 179L594 179M704 179L726 179M618 180L619 180M621 180L622 180M657 180L659 180M674 180L676 180M629 181L630 183M274 188C268.049 193.951 263.78 198.868 255 199.125C252.214 199.207 246.473 197.151 246 200M253 190L246 197M170 192C164.664 202.579 142.876 199 133 199C95.8266 199 58.1524 200.968 21 199M301 192C303.49 196.937 307.163 196.527 312 197.992C325.257 202.005 340.673 195.556 353.892 199.457C358.803 200.906 363.314 210.283 367 214L373 204M364 193L357 199M367 194C376.368 203.064 390.728 200 403 200L490 200M676 195L684 198M491 196L491 197M11 197L1 199M516 197L556 198M561 199L606 200M507 199L519 200M670 200L674 199M699 199L727 199M190 200L194 200M665 200L666 200M235 206L224 218L233 217C240.97 221.697 246.964 213.646 252 208M301 211C302.984 217.84 310.183 218.723 313 212M170 212C167.334 217.285 163.176 216.569 158 217.861C145.268 221.041 131.693 216.978 119 220M621 212C626.188 221.905 599.203 219.343 593 219.857C563.183 222.331 531.09 219 501 219M366 213C356.068 222.589 325.092 221.893 312 218M368 213C371.868 215.754 378.287 217.817 379.369 223.015C379.972 225.914 375.637 231.134 377.751 233.249C379.842 235.342 383.229 231.552 385.701 232.336C392.635 234.535 394.308 239.226 403 235C399.305 227.966 394.986 228.646 388 230M625 220L655 214M357 218L362 215M45 217C52.7097 220.267 61.7638 218.987 70 219C84.7005 219.024 102.74 222.215 117 218M593 217L597 219M651 217C659.127 221.337 671.92 219 681 219M0 219L16 219M26 219L47 219M382 220L450 220L486 219M700 219L726 219M366 223L375 234M232 227L217 238.837L199 239M209 231L203 237M397 231L399 236M151 232L151 234M170 232C165.969 239.991 151.812 238.926 144 239.004C119.035 239.251 93.8892 238.036 69 240M301 232C304.007 237.963 310.332 238.367 313 232M373 233C361.956 242.844 344.903 239 331 239C324.735 239 318.042 239.797 312 238M378 235C377.907 242.847 372.78 248.431 365 250L369 245M380 235L387 237M456 236L461 236M403 237L426 240M494 237L500 237M504 237L632 239L678 239.101L697 239M202 238L205 239M716 238L727 239M0 239L24 240M30 239L46 240M48 239L65 239M440 240L441 240M445 240L447 240M456 240L457 240M474 240L475 240M490 240L491 240M706 240L707 240M713 240L714 240M360 241C358.753 245.934 358.25 249.64 364 251M393 247C393.662 258.162 405.607 260.094 406 248M190 248L191 248M198 249C201.284 252.646 202.582 254.587 200 259L195 253M208 249L207 250M170 252C166.326 259.284 153.301 258.806 146 259.078C122.062 259.971 97.9571 259 74 259M301 252C304.007 257.963 310.332 258.367 313 252M312 258C325.868 262.124 349.362 260.975 361 252L367 256M360 254C367.253 260.828 386.71 261.963 395 256M183 259C187.798 253.257 189.921 257.371 195 260M373 255L374 258M404 256C409.855 260.212 417.065 259 424 259M458 260C466.306 257.274 467.973 255.762 476 260M515 256L518 256M445 259C454.522 255.006 451.226 270.739 451 276M7 258L28 260M463 258L466 259M557 258L615 259L717 259M35 259L71 259M488 276C489.073 267.508 489.502 260.053 500 260M510 259L511 260M528 259C535.117 263.954 535.045 267.8 535 276M4 260L5 260M175 260L177 260M482 260L484 260M486 260L489 263M492 260L493 260M499 276C499 268.514 498.356 262.062 507 260M515 260L517 275M522 260L526 260M537 260L538 260M540 260L541 260M186 262L190 267M495 262L499 265M504 262C510.945 264.064 509.048 270.109 509 276M349 263L349 267L348 265M362 263L354 273C362.092 280.83 371.409 279 382 279C385.259 279 390.952 280.004 393.473 277.397C395.712 275.081 394.066 269.922 394 267M473 263L473.089 271.946L469 279L472 280M525 263L525 276M174 266L183 274M466 266L470 266M349 267L352 273C349.273 275.1 346.346 277.717 343 278.757C333.945 281.571 305.658 281.236 301 272M407 269C405.534 274.166 402.155 276.181 397 277M727 270L727 271M171 271L180 278M313 272L310 277M352 274L354 273M462 273L468 278M352 274C358.92 281.557 354.15 287.503 347 293C343.69 288.461 342.016 285.661 343 280M556 274C561.201 283.662 588.232 279 598 279L726 279M128 276L143 279M39 277L57 279.086L107 279.015L131 278M149 279L176 280M405 277L424 279M0 279L28 280M478 279L478 280M495 279L494 280M500 279L500 280M502 280L505 280M516 279L516 280M33 280L34 280M36 280L37 280M448 280L450 280M463 280L464 280M481 280L483 280M491 280L492 280M509 280L510 280M518 280L520 280M522 280L524 280M526 280L527 280M529 280L532 280M534 280L536 280M540 280L541 280M176 282L177 282M154 285C151.283 288.682 144.673 295.312 150 299M173 286L173 287M394 286L401 296C392.82 302.272 376.033 299 366 299C362.26 299 357.637 299.828 354 298.972C350.684 298.192 348.322 295.288 346 293C331.872 303.772 319.46 295.544 304 297.286C270.392 301.075 234.839 298 201 298C186.025 298 165.737 301.017 152 295M408 286C411.936 295.087 410.835 296.415 401 296M170 291L167 297M410 291L405 296M422 300L556 297M575 298C582.099 299.318 588.312 296.427 595 297.278C637.652 302.705 682.868 299 726 299M0 299L49 300M58 299C86.024 300.469 118.199 302.587 146 299M350 299C349.392 305.697 345.586 309.399 341 314C347.525 320.215 353.503 319 362 319L401 319C407.697 319 414.349 320.065 420 316L405 304M52 300L55 300M557 300L572 300M590 300L598 299M336 302L341 314M556 302C562.229 306.277 565.771 306.277 572 302M154 303L155 305M558 303C550.442 309.151 545.639 320.019 548.948 329.956C550.151 333.569 554.336 334.183 554 338L553 339L552 340L551 340M559 314L579.682 313.562L584 303C598.325 317.314 620.533 319 640 319C668.59 319 697.748 317.809 726 319M426 305C432.343 308.017 438.65 314.331 445.039 316.277C472.909 324.767 509.066 319 538 319M557 306L559 306M569 306C574.402 306.175 577.179 308.303 581 312M141 308C138.103 314.719 136.656 320.299 128 319M143 319L155 317C147.703 311.523 149.257 307.466 158 311M340 313C332.085 318.756 326.219 323.799 334 333C326.583 338.388 318.161 341.001 309 337.988C299.313 334.802 292.688 327.085 281.171 330.318C274.29 332.249 271.59 352.004 277.434 355.969C284.618 360.844 293.326 353.584 300 353.627C304.567 353.657 314.056 358.448 319 360C315.066 377.387 340.405 367.072 328 353L319 359M343 313L348 318M583 313L592 312M596 313L597 327C600.92 322.76 601.98 319.702 602 314M586 314C586.006 321.495 588.609 329.578 597 331.682C601.675 332.854 605.74 331.291 610 334.299C620.233 341.523 633.763 339 646 339L726 339M588 314L588 323M441 315L420 316M161 318L195 317.001L279 317L308 318.985L330 321M712 317L716 318M0 319L65 320M74 319L82 319M85 320C96.1353 317.38 113.807 317.335 125 320M553 320L559 320M555 322L556 322M343 323L334 334C341.113 342.417 335.167 347.467 328 353M147 324L151 324M129 328C127.25 342.244 140.107 339.145 147 331C143.556 328.98 129.408 332.404 138 325M139 339C146.588 341.18 169.552 340.903 177 337.74C184.674 334.481 190.468 329.123 199 327.615C205.284 326.505 218.831 325.903 225 327.321C227.879 327.983 230.028 330.392 233 330.691C241.635 331.56 252.515 327.431 260.957 330.614C265.537 332.341 267.444 337.824 272 340M263 330C268.324 326.17 273.676 326.17 279 330M447 327C451.19 330.314 467.141 341.069 465 328L459 333M597 327C592.423 331.429 581.767 337.352 577 330M210 329C210.184 334.681 212.137 338.092 218 339M255 331C254.291 336.767 254.246 340.183 261 340M188 332L199 339M233 332L242 340M577 333C571.868 342.681 582.079 345.975 589 350L581 358C586.074 358.416 590.354 355.243 590 350M267 337L275 335M458 335C449.808 341.928 435.231 339 425 339C398.222 339 369.545 336.082 343 339M556 336L575 335M91 336L117 340M465 336L486 338.985L549 340M0 339C26.9859 339 57.4692 335.074 84 340M87 340L88 340M91 340L93 339M245 340L253 340M281 340L286 340M288 340L289 340M258 342C256.668 343.787 257.329 345.773 257.336 348.002C257.367 359.214 265.986 356.95 275 357M200 342C195.956 353.894 181.85 356.715 178 343M267 342L267 356M324 342L329 352M611 342L595 352L603 360L597 351M247.667 343.333L248.333 343.667L247.667 343.333M259 343L258 345M283.667 343.333L284.333 343.667L283.667 343.333M135 345L123 353C132.925 362.399 148.466 357.86 161 358.004C165.797 358.059 171.316 359.66 176 358.127C179.247 357.065 181.629 354.314 184 352M248 345C248 353.199 247.875 356.968 257 357M284 345L284 356M469 346C477.056 350.787 485.12 360.38 489 346M116 347C113.634 352.253 116.585 356.713 122 353M213 351C217.838 361.038 224.337 354.409 232 354.307C236.758 354.244 241.765 356.999 247 357M193 352C199.199 357.732 204.691 358.021 212 354M592 352L595 352M121 355L127 359M479 355C468.265 362.546 452.421 358.282 440 358.684C415.924 359.462 391.326 359 367 359C356.652 359 342.757 361.395 333 358M485 355C491.32 360.215 499.291 357.376 507 358.285C531.438 361.169 556.536 358.016 581 358M433 357L437 359M604 359L726 359M1 359L38 359L100 359M588 363C592.439 366.801 594.58 366.845 599 363M180 364C190.077 367.781 201.4 366 212 366L273 366C285.46 366 298.924 364.183 310 371C298.873 381.972 279.695 377.976 265 378C226.626 378.062 188.383 378 150 378C136.792 378 111.433 380.542 105 365M120 365C121.489 369.218 121.594 371.273 119 375M489 367C493.027 368.148 498.425 369.335 501.871 371.735C504.775 373.756 506.179 377.22 509.849 378.142C526.868 382.416 548.505 379 566 379C577.091 379 593.946 383.357 594 368M472 368C479.384 378.024 492.574 377 504 377M311 371C311.493 375.419 309.269 377.311 305 378M324 372C321.808 373.518 319.141 374.725 317.15 376.496C313.396 379.837 313.014 390.793 320.001 390.793C329.81 390.793 326.7 377.196 323 373M313 373L318 375M116 375L99 380M479 375C469.65 382.907 449.774 379 438 379L329 379M310 378L313 379M595 378L605 378C605.704 382.617 613.606 396.602 618.059 398.397C626.703 401.881 641.7 399 651 399L726 399M0 379L81 379M606 379L726 379M84 380L85 380M93 380L95 380M582 382L585.263 393L591 415C603.373 415.935 610.21 408.736 615 398M600 382L595 392C600.723 393.983 603.787 390.542 607 386M586 383C585.24 388.381 589.054 391.611 594 393M496 386C495.177 398.266 507.408 398.912 509 387M118 388L122 395C114.762 401.583 90.7396 401.664 82 397L75 400M319 393C329.121 402.973 347.459 399 361 399L456 399C468.186 399 486.169 402.037 497 396M588 393L590 393M589 394C589.121 404.237 598.676 403.965 599 394M122 395L170 398.746L246 398.894L307 399M584 395C577.683 400.043 570.702 399 563 399L524 399C517.303 399 510.651 400.065 505 396M587 395L587 402M31 397C37.7704 400.613 50.6971 400.159 58 398M2 398C5.6178 402.655 24.9442 399.999 31 400M0 399L1 399M63 400L65 400M69 400L70 400M312 404L318 414L324 405M181 405L196.043 417.291L232 418.004L292 418.09L312 418L318 431C308.583 440.383 294.955 438.999 282 439C252.833 439.002 215.348 444.562 191 426M491 405L491 406M139 406L142 406M504 406C502.46 413.797 491.916 422.26 490 410M144 407C153.871 408.275 164.902 409.949 173 416C161.249 424.453 139.007 416.399 125 419M174 416C180.614 412.008 184.181 416.505 191 417M319 413C330.023 421.734 345.371 418 359 418C390.011 418 420.948 419 452 419C463.241 419 482.651 422.725 492 416M603 413L607 413M317 414L313 418M591 415C586.119 421.899 591.785 426.239 597 431L599 425C600.521 427.696 601.782 430.522 598 431M1 419C12.0935 419 26.0672 421.464 36 416M501 416C507.71 420.429 516.248 419 524 419L566 419C572.706 419 580.653 420.209 587 418M599 416L606 419L602 433C607.852 436.723 618.724 439.666 615.877 449C614.11 454.795 604.513 461.173 606.708 467.848C609.221 475.495 621.157 466.835 623 463M171 418L174 420M0 419L1 419M52 420L114 419M606 419L726 419M48 420L49 420M326 420C326.458 425.726 324.929 432.468 318 432M215 425C219.361 428.331 223.822 430.299 225 436M506 425C506.278 436.504 495.576 438.804 493 427M321 433C330.466 440.56 328.63 445.438 320 453C332.161 464.766 359.793 459 376 459L525 459L566 459C573.047 459 579.332 460.127 584 454L565 451.91L522 449.155L499 445M319 434L311 438M602 434L596 438M678 435C693.421 440.016 709.926 439 726 439M496 436C485.69 443.416 462.463 439 450 439C409.605 439 369.324 438.666 329 439M504 436L542 438.004L595 439M618 439C628.812 439 641.139 440.957 651 436M207 437C198.805 441.305 184.285 438 175 438M1 439L11 440M244 438L241 439M0 439L1 439M24 440L40 439M599 439L611 451L604 448M16 440L20 440M665 440L666 440M669 440L671 440M674 440L677 440M681 440L682 440M232 443C229.698 446.346 226.863 449.371 224 445M316 443L320 453M77 448C86.6067 440.419 92.3115 453.248 81 455M131 445L133 445M236 445C233.32 452.595 238.099 455.584 242 448M61 447C68.3077 445.771 67 452.609 67 458M594 446C596.751 454.685 592.562 459.967 584 454M257 449L258 449M107 460C97.6795 450.864 122.256 445.535 125 458M140 465C140 461.73 139.246 457.274 140.603 454.225C142.157 450.735 147.53 449.6 149.552 453.243C151.272 456.343 150.135 460.643 150 464M246 450L243 456M132 451L132 464M251 452C248.839 462.614 239.063 459.073 231 459.003C211.603 458.835 192.404 458 173 458M256 452L254 458L256 460C261.919 456.528 263.043 453.053 268 460L276 458L272 460M269 452C285.623 452.343 300.637 457.187 317 452M114 453L114 465M612 453L613 453M86 455C90.3119 462.177 85.1898 466.812 78 463M299 456C293.465 460.636 287.813 459.482 281 459M709 456L711 456M586 457L582 459M596 457L608 460M1 458L40 459M249 458L254 458M103 459L104 464M305 459L310 459M627 460L726 459M75 460L79 460M84 460L85 460M93 460L94 460M258 462L257 466M337 462L338 462M125 463L125 464M294 463C292.597 467.818 290.167 468.693 286 466M341 463L342 463M280 464L280 466M307 464L312 469C308.646 471.063 307.388 471.005 304 469M270 465L272 465M330 465L330 466M327 466L327 473M350 466L352 480C356.908 475.622 357.159 465.565 365 471C362.704 475.44 363.636 477.775 366 482M589 466C593.088 476.783 600.368 478.479 609 471M316 467C317.037 470.575 318.223 472.062 322 472M335 476C333.72 472.287 333.499 469.263 337 467M341 468C348.238 468.321 346.901 477.314 340.981 479.322C336.411 480.872 330.668 479.242 326 479.039C314.088 478.522 301.89 478.213 290 478.271C275.865 478.34 261.41 480.236 247 479.995C218.186 479.514 189.935 477.477 161 480M344 477L339 475L346 472M365 471C373.23 474.849 374.99 480.887 385 477M357 472L361 474M370 474L366 480M607 474C615.799 482.49 629.492 479 641 479L727 479M339 476L336 479M595 476L590 482M345 477L350 478M608 477C607.522 483.286 603.357 487.052 597 486M1 478L53 480M380 478L383 479M357 479L362 479M385 479C393.518 480.513 413.248 488.582 397.561 498.184C393.164 500.876 383.118 499 378 499L329 499C267.21 499 205.839 498 144 498M397 479L528 479C546.553 479 571.237 474.749 589 480M588 483C582.673 488.784 578 496.418 570 498.807C561.574 501.324 548.019 499 539 499L470 499C461.336 499 444.059 495.643 436.353 499.603C427.876 503.96 437.976 515.242 443 516.857C450.764 519.352 454.535 517.301 462 517.273C471.679 517.238 482.007 519 492 519C505.705 519 526.227 515.033 539 519L537 520L536 520L535 519M380 485C382.192 488.944 384.679 488.736 387 485M589 495L592 489L590 495C593.393 496.155 594.59 495.651 597 493M388 493L397 492L392 497M398 492L401 492M399 493L393 499M405 494C408.813 501.64 413.173 509.303 424 507L423 506M407 495L434 501M589 495C580.377 502.907 573.786 495.445 565 499M585 496L586 497M622 497L655 500M574 498L574 499M693 498L683 499.004L657 499M0 499L133 499M587 499L589 500M596 500L623 499M695 499L727 499M567 505L570 503M577 504L582 509M422 505L423 506M431 511L426 506L434 512M574 505L578 514M424 510L428 510M566 522L560 512C566.11 508.123 573.8 516.911 573 518M575 514L573 517M540 519C547.586 518.932 551.097 513.223 558 519M438 516L436 522L434 516C427.825 521.094 418.686 519 411 519L357 519L142 519M441 517L441 524L437 521M556 517L546 519M619 517L626 517M724 517C725.392 521.264 707.215 519.769 703 519.222C692.389 517.847 681.528 520.109 671 519.694C656.362 519.118 640.444 517.451 626 520M0 519L132 519M445 519L446 523L447 519M456 519L461 519M461 519L464 519M566 520L570 519M575 520L620 519M459 521L484 542M532 522L533 522M436 523L438 524M446 523C441.277 532.692 465.114 533.049 471 531M527 523L528 523M548 523L548 524M441 524L443 526M516 526L525 524M543 524L544 525M560 525L561 526M127 526C129.972 527.018 135.296 528.031 137.343 530.538C142.539 536.9 132.054 539.465 128 539M511 526L512 526M538 526L541 533C536.059 534.633 524.447 522.032 530 537L535 534M555 526L550 529M499 527L499 528M131 528C131.341 532.479 132.734 534.501 137 536M500 538L504 531C506.291 539.831 492.914 542.833 487.618 537.393C482.556 532.193 490.276 527.873 495 530M545 528L545 531L549 532M507 538L515.512 538.049L520 530.346L529 538M511 537C509.87 532.033 512.425 531.15 517 531M545 531L539 533M669 531L674 537C671.244 537.957 668.879 538.433 670 535M685 531L686 538L687 538L688 538M674 532L674 535M709 533L710 533M189 534C177.913 543.153 155.763 539 142 539M501 535L504 535M685 537L679 537L683 535M700 535L701 535M710 536L712 539M715 536L715 537M121 537C116.949 542.151 97.5218 539 91 539L1 539M524 537L518 538M605 538L621 539L668 537M674 537L679 537M186 539L367 539L421 539L450 540M456 538L466 540M0 539L1 539M535 540L604 539M717 539L717 540M723 539L726 539M453 540L457 540M125 546L138 546"/>
</svg>
