<?xml version="1.0" standalone="yes"?>
<svg width="728" height="546" viewBox="0 0 728 546">
<path style="stroke:#000000; fill:none;" d="M10 1L1 7L1 9L11 9L9 7M13 1L12 2M43 1L48 6C44.8619 8.7998 43.1189 10.3232 39 9C52.3645 1.51385 53.7835 14.6705 65 17.8079C69.5287 19.0746 73.576 16.3907 78 16.0571C83.4771 15.644 89.6722 17.1996 95 15.7322C100.945 14.095 108.551 6.36688 113 2M113 2L121 3L121 8L142 7L143 8L141 10M133 1L122 2M147 1L153 2C155.951 5.34308 164.588 9.97144 164 2M151 1L150 2M152 1L153 2M157 1L155 3M158 1L161 6M161 3L164 2M177 1L166 3M179 1L181 4L164 6M189 1L182 3M218 1L219 2M220 1L219 2M247 1L252 2M253 1L252 2M273 1C269.047 10.3753 255.34 6.96838 247 6.86108C229.324 6.63373 210.996 9.00116 193 9C185.937 8.99951 176.34 10.0778 170 7M281 6L274 3L276 1L284 4L285 3L286 2M287 1L286 2M293 1L302 3C296.565 7.9126 289.912 8.04315 283 6M339 1L338 9C332.387 6.09332 329.745 8.89984 324 9.6759C316.752 10.655 304.418 10.4248 298 7M340 1L344 2M345 1L344 2M348 1L345 4M358 1L349 2M367 1C372.806 8.50562 375.766 5.15918 383 3C384.073 6.53571 385.325 7.53992 389 7L384 2M370 1L369 2M376 1L378 2M388 1L387 2M391 1L403 2C404.179 5.97522 406.429 7.73682 410 5L407 2M404 1L403 2M406 1L407 2M442 1L432 6L439 8L439 14C431.365 16.053 425.243 19.594 417 17L421 36C424.555 33.8802 427.827 29.0676 422 28L421 28M445 1C453.394 8.9491 480.304 10.4741 489 2M470 5L474 1L478 5M490 1L489 2M492 1C495.791 5.29956 496.026 8.45087 496 14L457 14L456 8C451.058 12.924 447.299 16.8692 440 15M504 1L497 6M505 1L513 6L501 7C501.108 16.0728 509.561 17.2644 511 8M563 1C552.135 11.0521 527.192 6 513 6M567 1C567.414 5.61932 562.875 7.05707 559 6M570 1L569 2M702 1L716 3M717 1L716 2M149 2C148.069 6.5882 150.803 7.4884 155 7M393 2L391 6L398 4M117 3L111 7M133 5L147 4M249 3L246 6M298 3L294 7M302 3L322 5L318 9M333 6L337 3M359 3L360 3M507 3L504 6M566 7L575 3M151 4L151 7M171 4L172 5M226 4L227 4M325 9L323 5L332 6M354 4L368 6M571 7C579.303 7.22278 583.911 1.93854 591 10C599.003 6.10614 613.008 8.88257 622 8.98151C639.243 9.1712 656.638 9 674 9C681.532 9 690.789 7.45264 698 9L694 10L694 22C704.523 14.7119 713.487 19 726 19M717 4L725 6C718.325 12.8159 706.194 6.56146 698 10M229 5L238 7M403 5L397 8M439 5L449 7L449 13M583 5L576 8M145 6L145 9L149 7M174 6L174 8M410 6L431 7M587 6C580.93 14.5492 591.479 12.6248 586 9M590 7L594 7M340 9L355 7M421 7L422 12L425 7M431 7L424 17M451 7L451 11M464 7L464 13M469 7L469 12M479 7L479 11M482 7L482 11M487 7L496 7M549 7L553.577 24.6428L561.946 27.0618L579 37C582.042 33.9604 585.517 29.1992 590 28.4175C599.485 26.7635 607.375 32.986 601.975 42.9105C600.236 46.1074 596.595 48.5142 594 51C596.17 53.0245 598.765 55.9988 601.995 56.1096C611.277 56.4279 606.37 47.7825 601 46M553 7L553 13M120 9L115 18C113.553 13.0937 113.539 7.52954 120 9M259 8L270 19L288 17L321 15.6034L332 16L328 10M266 8L266 15M305 18L305 26C299.816 26.3907 295.846 31.9873 291 31.5339C288.449 31.2952 273.141 25.6595 271.603 23.743C266.961 17.9588 269.897 9.34003 276 7M321 8L321 10M334 8L334 16L340 18C335.775 21.9301 332.699 23.8694 327 22C325.835 27.1128 329.411 28.6658 332 24M379 8L383 8M445 8L445 15M474 8L474 12M491 8L491 10M561 8C560.829 13.2563 559.428 15.5859 554 16M569 8L569 14L583 14M11 9L23 10M26 9C30.8526 9.65399 33.6167 11.1403 35 16L20.9105 19.6868L1 20M35 12L39 9M129 9L133 9M403 15L402 19C400.824 14.2481 400.758 10.8978 405 8M582 9L584 9M593 9L597 9M29 10C29 13.6281 27.7021 20.5316 30.6034 23.2886C35.6756 28.1085 38.0959 20.0181 35 16M326 10L326 15M549 10L545 16L553 17M689 10L693 21M41 11L42 21L43 11M425 11L427 13M431 11L435 13M595 11L589 13M699 11L699 16M132 12L133 12M387 12L389 12M147 13L151 13M156 13C157.398 21.2384 172.215 19.9401 179 20M391 13L398 17L397 24L397 18M398 13L398 15M419 13L417 17M433 13L433 15M599 13L598 17L608 18L603 19M148 18L152 18L139 16L145 14M457 14L449 16M588 14L597 18M140 18C136.954 18.4838 135.927 18.1769 136 15L138 15M396 15L396 20M497 15L500 15M568 15L571 19L564 16L568 15M641 15C644.473 15.2009 652.732 14.677 654.548 18.3279C656.109 21.4682 653.988 25.454 656.027 28.5355C659.609 33.9486 663.916 34.652 660 42C657.146 32.2279 667.079 28.7603 674 24C668.617 19.034 663.075 18.5802 656 18M97 16L107 26L115 18M112 28C112 32.4347 112.401 52.1965 104 43L109.028 28.6636L116 25.5632L135 16M169 17L183 17M319 16L322 17M440 16L433 17M455 16L467 20M508 16L499 21M519 17C517.925 23.6828 510.962 23.376 508 18L544 17M562 16L564 16M645 16C646.514 18.36 647.954 19.2606 650 17M91 17C91 21.9385 89.2434 38.1861 98 34C99.7267 39.8005 97.1531 49.356 106 47M156 17L153 19M223 19C228.685 17.0011 232.128 20.3583 233 26L227 18C215.116 22.1358 195.634 19.6625 183 19M230 18C236.461 19.0019 242.485 18.075 245.972 25.0008C247.456 27.9471 245.91 32.8578 248.603 35.088C255.842 41.0818 265.849 28.1508 270 24M247 24C252.274 17.6004 255.944 18.5047 263 16M316 17C319.81 19.3431 322.07 19.0345 326 17M525 17C525.671 25.7938 537.581 26.8979 539 18M546 17L548 23L550 18M612 19L610 17L634 19C633.938 32.0115 643.466 28.5431 654 30M639 19L637 17C641.77 19.8499 642.936 22.5472 643 28M62 18C56.7974 22.8104 47.8705 20.7131 44.0332 25.3179C40.8397 29.15 44.8518 39.4955 50.3164 36.8241C55.8473 34.1202 62.415 23.5849 67 19M155 18L158 19M260 18L260 32M307 18C307.042 29.7743 315.604 27.7635 325 28M327 18L327 22M341 18L346 22C341.368 26.539 338.445 28.0569 332 28M352 23C354.399 20.782 370.442 14.2735 369.079 22.9082C368.073 29.2778 354.823 25.1644 352 23M395 24L387 21L393 19M401 18L399 20M406 18L415 18M597 18L571 19M635 18L636 18M645 18L643 20M71 19C73.3826 27.4885 83.951 37.2556 93 37M130 19C128.741 27.156 121.907 32.9133 115 27M132 19L134 19M136 19C137.568 24.5991 144.745 22.5933 149 21M144 19L144 21M378 26L374 21C378.839 18.5922 382.605 18.863 387 22C383.858 24.2314 381.39 25.6283 379 22L379 21L379 20M393 19L393 23M410 19L415 25M414 19L414 24M420 19L421 24C426.462 21.9659 434.368 26.7891 435 19L435 19M456 19C456 28.3768 457.284 39.5424 470 38L471 39L472 46L473 46L475 38L471 38M651 20L655 19M659 19L659 30M0 20L1 20M364 20L364 25M508 20L507 24L509 22M597 20L600 20M616 20L615 31L604 28M631 20L633 27M651 20L651 29M665 20L665 29M43 21L45 23M711 21L704 31C709.893 37.6839 708.55 47.6505 707 56C715.637 56.0763 715.999 53.0235 716 45C711.499 46.0717 705.426 44.7882 701.318 46.7423C695.273 49.6174 702.445 56.179 706 57M71 22L52 39M136 22L129 36L160 40.9151L175 54C168.888 57.6511 160.718 55.6921 155.483 59.0278C149.651 62.7436 153.239 71.2615 146.981 75.3966C141.763 78.8438 132.011 77 126 77C109.522 77 93.8882 82.1624 78 76M321 27L320 23L326 23M346 22L352 23M470 22L472 29L483 25M495 22L497 22M505 22L504 26C513.568 27.149 522.989 31.53 532 26L536 30L545 29L545 26M545 22L547 23M674 24C680.837 23.4558 684.486 22.0159 690 27C681.807 35.187 674.699 40.0886 665 31M695 22L691 27L690 27M137 23L141 25M187 23L189 23M197 23L198 23M424 23L424 32M465 35L460 23L469 28M474 23L476 25M491 23L493 23M520 23L524 23M539 24L544 24M191 24L192 24M202 24C205.753 31.441 212.462 27.3343 218.83 29.7794C222.256 31.0948 224.621 34.4158 228 36C227.981 30.5536 227.364 24.853 221 29M404 24L416 33L412 35L411 28L402 31L413 33M421 24L419 27M427 24L433 37L444 32L435 24M485 24L489 24M72 25C72 32.758 69.6759 43.3516 79 46L80 52C84.0799 46.4154 81.0051 40.5576 81 34M142 26L145 26M194 25L196 25M377 25C373.802 27.3728 372.567 27.8278 369 26M479 25L474 28M34 26C26.1741 32.6132 10.9267 30 1 30M108 26L99 34M128 26L133 28M138 26C140.622 30.4374 145.385 29.0172 150 29.0008C157.433 28.9745 174.686 25.8499 180.682 30.7191C185.777 34.8566 179.754 47.1402 189.002 48.3688C197.46 49.4926 203.226 29.4021 214 37M139 26L141 28M230 26L228 28M233 26L243 36L232.603 42.5988L231 61L230 62L226 62L225 61C223.341 51.0541 207.783 56.5515 203 61C208.151 65.7914 214.912 67.301 221.995 66.3935C227.48 65.6909 228.927 59.8887 226 56M353 26C353.314 30.0207 354.521 31.1105 358 33L356 37L365 38L364.833 46.5648L374 48.0648L401.005 45.8981L415 42M407 26L405 28M432 26L430 28M480 26L479 37C484.503 38.8114 490.728 45.5428 495 39L487 39M478 37L478 33L502 26M554 26L551 35C556.959 36.4787 561.255 36.0125 566 32M187 27L202 29L202 36M227 27L222 28M275 27C275.036 37.1435 281.167 37.4696 288 31M277 27L277 35M306 27C306.049 40.8507 330.516 39.6488 341 37L339 29M356 27L356 31M378 27L374 29M419 27L416 30M444 28L458 28M481 29L487 30M543 27L544 27M555 27L555 35M692 27L704 31M712 27C720.957 29.9421 728.176 30.5086 719 40L709 36M114 28L112 43M181 29L185 29L183 31M312 28L312 35M432 28L436 28M465 28L465 33M469 28L470 35L472 29M509 28C500.839 39.3929 519.11 38.0365 526 36L521 31M533 29L535 31M551 36C549.586 32.5807 548.637 30.2131 552 28M205 29L205 35M319 29L319 32M430 29C428.494 32.3815 428.568 34.1567 431 37M475 29L477 32M478 29L479 29M482 30L486 29M525 29L529 29M531 29L533 29M538 29L550 37M542 29C537.192 33.7912 533.126 38.7113 526 36M545 29L549 29M594 29L595 34L596 30M692 29C692.006 36.9547 694.413 40.3936 700 46M716 29L716 37M0 30L1 30M179 30L182 43M185 30L189 30M191 30L191 47M194 30L194 44M199 30L199 39M214 30C214 41.0786 216.575 52.6584 230 43M539 30L540 29M647 40C635.64 40 629.45 40.4202 621 32L634 29M117 31L118 44C125.642 41.4567 127.81 37.5945 122 31M186 31L186 45M219 31L220 32M295 31L305 36M535 31L536 34M42 32C34.2817 39.467 15.513 40.1994 7 33L4 37L9 38M121 32L121 42M220 32L216 36M376 36L377 32L381 36L366 37M433 32L437 34M444 32L456 33M522 32L518 38M604 36L621 32M664 32L665 43L666 34M401 36L389 38L394 33M396 33L396 36M409 33C410.508 37.8477 417.728 39.2993 416 33M449 33C445.341 37.8006 441.669 37.7266 436 38M476 33L472 36M31 37L38 34M444 34L447 36M496 34L505 37M595 34C590.646 38.3543 583.055 43.3092 584 50C590.363 45.5174 594.734 37.6231 603 37M616 34L614 42L611 37M133 35L135 37M412 35L412 37M442 35L440 37M449 35L454 36M465 35L468 35M544 35L536 37M127 36L129 36M228 36L233 41M243 36L246 36M258 36L267 45L276 36M460 36L460 40L467 41M668 36C668.047 39.9346 667.954 42.6571 672 44L672 37M4 37L1 40M95 37L99 45M158 37L155 40M209 37L211 47L212 37M218 37L225 36M250 37C250 45.9149 249.41 63.8352 261.975 51.9946C263.692 50.3767 265.332 48.6678 267 47C272.073 52.487 271.682 66.6287 281.975 59.7971C283.71 58.6458 285.335 57.2493 287 56C282.279 48.8909 280.384 43.3172 272 51M282 37L278 46M341 37L356 37M382 37L388 39M424 37L428 37M579 37L583 47M608 37L609 43L611 41M676 37C675.843 50.2579 665.889 50.0458 658 57L670 54M678 37L675 55L679 47M91 38C91.0653 43.5272 92.0641 47.0731 98 48M243 38C243 45.4968 240.378 55.8039 250 57L246 66L245 57M318 38C317.026 50.915 308.569 43.263 301 43.9468C295.393 44.4534 290.866 46.9955 285 47M320 38L321 42L322 39M454 38L458 38M475 38L477 38M496 38L498 38M518 38L520 46L522 42C528.344 46.3406 530.312 47.239 537 43C537.852 47.1804 535.875 48.2765 532 47M528 38L530 42L531 38M544 38L549 37M692 38L679 52M156 39L158 41M354 39L355 44L362 39M358 39L358 42M360 39L360 42M447 39L451 38M465 39L465 41M493 39L493 41M0 40L1 40M719 40C722.206 46.9273 729.617 56.6227 716 56M107 41L110 44M156 41C149.915 45.969 138.559 53.4042 141 62L142 55M661 41L663 43M693 41C693 48.8965 691.679 51.7774 687 58L698 54M330 47L323 47C325.283 39.5758 328.922 46.4476 333.715 46.1034C341.999 45.5085 353.229 46.3717 362 48L359 49M331 45L335 42M374 42L376 42M462 42L464 43M487 42L477 45C483.404 51.651 512.016 52.1686 519 46M531 42L521 48L526 61C531.04 57.5815 535.785 55.4991 536 49M532 43L535 44M719 42L716 45M9 43L11 43M95 43L92 46M100 43L104 43M157 43L170 56M321 43L323 45M362 43L359 44M368 43L371 49M462 43C454.619 49.2424 446.771 45.8658 438 46.7377C428.426 47.6895 423.049 50.1357 413 47C409.009 49.7544 403.519 49.3351 399 48M532 43L532 45M609 43C609.172 49.5156 625.589 50.2123 631.667 52C633.096 52.4204 630.037 48.194 631 50M13 44L29 47C21.361 52.4906 8.78599 50.4215 1 46M81 44L79 46M355 44C355.042 55.7619 365.036 61.7431 371 49M417 45C420.176 43.999 430.383 43.7848 429 48M463 44C463.962 47.5921 466.583 47.9249 467 44M672 44L674 46M114 45L110 48M267 45L267 47M474 45L477 45M539 45L544 47L541 56C549.504 56.6411 555.327 65.3265 561 71C550.007 81.1634 539.514 66.7115 536 56M697 45L697 53M0 46L1 46M84 46L90 46M196 46L208 46M315 46L322 48C323.794 59.4868 347.952 57 357 57M410 47L412 46M431 46L434 46M468 46L470 46M473 46L479 48L479 48M680 46L684 46M29 47C43.1793 47 61.4063 50.0181 75 46M113 47L132 49M211 47L211 55M219 47L219 55M295 47C299.574 49.8227 303.325 49.5302 308 47M425 47L425 49M528 47L525 51M544 47C551.394 50.448 561.912 60.4469 565 68L562 71M702 47L707 55M336 48L342 47M365 48C365.491 63.1323 383.625 53.7916 393 53M460 48L462 48M518 50L521 48M529 48L529 57M538 48L541 51M319 49C315.658 60.8647 297.703 57.575 288 57M357 49L357 52M368 49L368 52M534 49L534 55M632 49L633 50M0 50L1 50M190 50L167 73C163.225 69.0011 164 64.2195 164 59M384 50L386 49M397 50L398 50M414 50L415 50M584 50C583.971 58.6133 573.679 66.267 576.593 73.9992C580.634 84.7207 593.658 81.514 601.17 77.4529C605.884 74.904 610.986 76.9889 615.714 75.2554C622.137 72.9006 628.946 63.3202 633 58L606 57M636 50L644 50M648 50L653 50M655 50L662 50M664 50L666 50M684 50L689 53M249 51L246 55M586 51L594 51M674 51L686 59M701 51L701 52M139 55L134 60L131 57L112 59L76 59L78 52M175 54L186 52M438 52L439 52M437 58L437 61C448.08 55.0869 459.321 59.1593 471 59.5085C483.992 59.8969 499.646 57.4829 511 52L524 65C510.074 80.0644 540.336 77.5316 549 77M631 52C634.672 53.2826 636.627 56.5153 640.129 57.8526C651.174 62.0703 665.35 62.7826 675 55M45 54C60.9133 56.9542 77.1554 54.261 93 53M147 53L155 58M323 53L319 56L331 60M442 53L444 53M632 53L629 58M635 53L631 57M693 53L695 55M188 54C187.461 70.5981 165.11 84.1218 152 72M446 54L448 54M12 55L1 59M389 60L386 58L397.001 58.713L410 55.368L421.996 58.7724L435 59L429 60M450 55L452 55M462 55L463 58M508 55C507.978 65.9338 511.532 64.6786 519 71M698 55C703.597 65.9172 715.13 70.3842 726 63M26 56C40.9025 62.1123 58.9963 59.3127 75 60M229 56L242 56M315 56L321 59M318 56L319 56M378 56C381.984 59.9844 387.859 63.9206 387 70L401 67.1597L428 67L431 70L433 77C434.439 71.9306 432.975 69.2753 429 66M465 56L474 58M538 56L540 57M653 58L658 56M16 57L20 59L13 61M215 57L215 65M240 57C240.053 61.4488 240.24 64.851 245 66M252 57L253 63L257 57M259 57C259.758 61.9099 262.223 64.6543 267 66L267 72C269.33 70.205 271.929 64.3907 267 66M376 57L380 59M414 57L405 58M469 57L469 59M500 57L507 64M540 57L540 63M637 57L634 58M658 57L655 60M703 57L701 59M714 57L714 65M717 57L717 65M7 59L12 58M134 58L135 59M291 58L292 65L299 65C296.204 67.8152 294.493 67.76 291 66M300 58C300.887 63.3008 304.549 62.7731 306 58M309 58L306 62M387 71C383.497 65.9962 378.457 61.6805 386 58M495 58L498 66L492 68C491.137 65.0481 491.158 62.974 488 64L487 63L486 63M608 58L608 75M611 58L611 75M614 58L614 75M620 58L620 70M625 58L625 65M629 58L629 61M704 58L704 63M21 59L26 60M386 59L384 61M414 59L417 58M452 59L457 59M635 59L642 67L632 77C637.088 81.4859 641.535 81.0007 648 81C648 75.039 649.83 67.226 642 67M682 59C676.011 70.4365 697.574 67.8994 704 66M694 59L698 59M11 60L12 60M487 60L489 62M188 61L202.671 84L207 92M190 61L203 61M272 61L269 64M527 61L524 64M655 61L648 68M15 62C17.7586 63.0432 21.5401 63.9667 22.6667 67.0278C24.2972 71.4584 20.1357 80.7434 26 82M142 62L151 67M257 62L258 74M280 62L291 66M300 62L298 64M336 62L337 62M347 62L348 62M379 62C377.426 66.1369 379.115 67.8457 382 71C375.419 76.5648 364.421 75.5093 356 76L356 68C358.42 68.5528 360 69.608 360 67M439 62L451 69L448 68M483 62L484 62M635 62L622 77M646 66L652 64L652 64M32 63L33 63M226 63L227 64M254 63L247 66M339 63L340 63M382 63L381 64M489 63L492 64M343 64L344 64M492 64L495 67M37 65L45 69L30 68L28 76L30 70M50 65C69.4402 74.0893 100.824 70.2211 122 69.1304C129.315 68.7536 138.462 69.4892 145 66M346 65L353 66M430 65L431 65M225 66C230.21 70.0481 235.522 69.4269 241 66M251 66L263 66M4 84L11 88C3.02608 90.1059 -1.46914 74.4305 2.66049 69.3719C7.11782 63.9119 15.6192 71.0089 16 76L26 76M22 68L27 69M211 67C209.671 73.5801 204.401 76.3748 200.059 81.0146C196.364 84.9626 196.82 90.7239 192.852 94.1374C185.482 100.477 172.804 95.4728 164 97.2986C158.122 98.5175 145.21 102.728 140 98M244 67C244.111 76.3245 248.219 72.5524 255 74M299 68L356 68M361 75L376 67M445 67C441.398 69.6784 440.767 71.6784 442 76L447 69M498 67C502.393 70.6635 504.607 70.6635 509 67M566 67L574 67M666 87C665.459 84.7708 667.945 82.6529 667.674 80.098C666.85 72.3201 657.82 79.0996 655 81L655 69L679 67M681 67C682.532 72.0469 686.393 71.8867 691 73M16 70L22 68M253 68L253 72M407 68L407 76C410.963 74.4391 410.953 71.9916 411 68M409 68L409 75M423 68L427 71M492 68C480.409 72.034 463.312 69 451 69M650 68L654 68M723 68L725 68M3 69C7.07297 73.8161 7 77.9294 7 84M9 69L6 72M45 69L52 70M235 69L238 76L238 69M354 69L357 70M361 69L364 69M415 69C415.171 74.282 416.718 77.4997 422 79L422 84C430.801 81.1914 429.861 73.4189 422 79M417 69L417 73L418 74L423 73L423 70M435 69L441 69M443 69L443 75M652 69C652 72.4786 650.183 82.5729 655 81M61 70L62 70M229 70C229.3 73.8643 230.089 75.3483 234 76M232 70L230 87L224.387 77.1088L207 76M370 70L370 73M659 70L659 76M664 70L664 75M382 71L386 72M426 71L426 82M503 71C498.866 75.4713 497.236 79.0177 499 85L519 74M267 72L259 74M268 72L277 73M390 72C390.006 80.0192 393.705 85.5524 400 77L393 72M675 72L677 72M697 72L712 72M58 73L59 73M100 73L108 76M257 73L255 78L287 79.0031L351 79L346 83M348 78L351 73L355 77M392 73L392 81M679 73L680 73M167 74L164 77M244 74C242.198 81.9958 242.114 83.3924 233 84M418 74L416 76M423 74L425 76M682 74L692 75M693 74L726 79M51 75L52 75M247 75L254 79M267 75L269 74M576 75C572.829 78.1822 568.876 81.3187 568.148 86C567.488 90.2433 569.814 97.8595 566.397 101.146C561.591 105.767 546.418 106.932 540 107.189C532.652 107.483 524.905 109.658 518 109.632C512.738 109.612 508.94 106.269 504 105.393C495.111 103.818 485.884 104.649 477 103M671 75C674.272 80.9338 688.746 80.9012 692 75M4 76L15 77M29 76C36.5939 79.2681 41.3703 78.4977 49 76M60 76L61 76M65 76C65.4769 80.2338 56.6034 79.0965 54 78M227 76L228 76M239 77L242 76M401 76L406 77M411 76L414 76M434 76L440 76M453 80L449 77C461.635 76.538 481.16 84.6905 493 77L498 86M494 77L498 76M621 76L621 83.0015C621 84.6626 620.946 86.3356 621.019 87.9954C621.605 101.264 636.866 78.1582 622 77M694 76L696 78L692 79M698 76L696 78M11 77L8 85M15 77L16 83L18 77M68 77L78 80M222 77L216 86L224 87L223 83M239 77L239 83M345 77L345 79M406 77L410 85L412 77M433 77L430 82M446 77L449 77M487 78L489 78M521 77L522 95C525.752 89.7844 525 84.1875 525 78M618 77L620 77M629 77L632 77M666 77C665.444 84.3732 661.379 85.7998 656 81M211 78C211.053 82.4342 211.195 85.198 216 86M216 78L216 84M352 78L354 77M536 78C536 82.5813 537.474 90.0286 534.512 93.8519C529.523 100.293 510.768 97.042 507 91C492.942 100.737 473.84 98.0335 458 93M540 78L538 92M546 78C546 82.1606 544.326 90.9964 547.028 94.3966C552.351 101.095 563.808 86.1916 567 83M42 80L53 79M417 79L419 87L422 84M669 79L671 79M699 79L702 78M57 80L58 80M67 80L69 79M400 80L405 84M515 80L515 95M599 80C605.235 86.2356 610.513 94.4409 620 94M18 81L22 83M580 81C580 88.1726 578.644 95.9443 583 102L585 82M594 81C600.501 87.5015 608.282 99.2674 618 100M634 81C634 84.2805 632.802 90.6342 635.028 93.3163C640.263 99.6253 649.371 87.4503 652 84M648 81L651 84M15 82L12 84M199 82L200 83M224 82L225 82M250 82L251 82M455 82C453.893 84.2957 452.742 86.5984 449.981 87.2546C446.95 87.9748 444.12 85.5741 441 85.8927C432.949 86.7148 426.896 91.4991 419 87M588 82L590 102C594.837 97.2632 593 88.3577 593 82M637 82L637 94M48 83L53 86C48.9043 88.1826 46.0957 88.1826 42 86C34.3024 91.537 21.1731 89 12 89M114 83L123 86C120.446 87.8429 116.802 90.361 114 88M200 83C200.004 87.6767 199.442 95.4465 206 94M253 83L254 83M452 83L452 85M86 84L103 90M309 108L307 115C303.258 101.868 328.476 110.127 335.871 108.108C340.718 106.785 342.595 100.518 348 99L349 90L340 92L336 88L344 84M509 84L507 91M102 85L113 89M195 85C187.939 88.902 179.846 87 172 87C155.341 87 137.128 84.8949 121 89M258 85L301 89L323 90M269 85L265 86M413 85L416 85M596 85L595 102L592 101M54 86L59 89L57 90M124 86L125 87M205 86L210 86M454 86C461.733 90.5849 486.222 88.5947 495 86M498 86L506 86M665 86C664.963 96.4782 660.041 96.8987 653 90L653 102L656 95M81 87C81.5875 91.5591 91.3711 89.8322 95 89M193 87L192 93M224 87L228 87M231 87C238.699 91.0876 243.992 84.7455 247 95L249 93L248 90M255 89L254 87L265 89M328 87L333 89C333 97.5235 332.279 107.325 342 98C336.988 95.0276 331.118 97.012 330 90M651 87L653 89M666 87L683 88.1034L726 89M247 88L252 90M263 88L263 89M334 88L336 88M452 88L453 100L452 96M41 89L42 89M60 89L79 90M320 89L321 90M325 89L328 90M433 91L445 89M240 90L243 89M350 90C356.956 91.9881 354.544 99.4458 348 99M357 90L358 90M424 90L417.461 101L425 116C418.341 116.005 411.615 115.972 411 124L406 125L409 129L412 125M430 90L430 92M204 91L202 93M351 91L351 98M253 139L237.028 126L239.08 107L228 96L238 92M252 92L254 100C264.258 96.9679 281.562 103.566 290 97L306.09 96.0895L330 97M316 92L317 92M320 96L325 92M340 92L340 94M437 92L438 92M541 92L545 96M603 92C602.968 101.064 597.499 101.036 594 108L598 109C595.643 117.903 604.85 116.326 611 116C610.729 107.852 604.615 109 598 109M628 92L633 95M63 93C61.1858 95.8701 59.9004 98.1348 64 99L64 96M109 93L110 93M197 94L199 93M309 94L314 93M423 93L427 99M434 93L435 93M9 100L54 94M142 94L161 96M197 94C197.758 97.3959 198.426 98.8549 202 99L200 98M209 94L210 94M322 94L325 99M436 103L432 105L432 104C437.55 103.342 441.44 102.627 445 98C441.728 98.0729 429.73 99.6434 432 94M77 95L77 96M114 95L117 96M127 95L128 95M247 95L239 105M427 96L430 95M664 96L685 98.9969L702 98L698 99M3 97L7 96M56 96L60 96M66 96L77 100M130 96L139 99M229 99L223 98L228 96M246 96C250.114 100.933 248.969 107.504 242 103M424 99L426 96M81 97C90.9784 101.032 103.841 100.326 114 97M210 97L215 100M218 97L223 101M446 97L451 97M468 97L454 99M502 97L508 97M534 97L543 96M660 97C658.904 100.067 658.288 101.265 655 101M666 97L670 99M121 98L113 100M192 98L197 98M202 98L208 100M221 98L223 98M289 98L291 100M328 98L327 107M342 98L344 100M413 103L402 107C402.148 94.5382 408.839 102.512 416 102M417 103L423 98M702 98L726 99M44 99L51 99M122 99L129 100M304 99L309 98M351 101C359.826 103.633 361.257 102.838 364 112C373.915 107.373 374.858 99.3219 387 100M401 108C397.519 105.743 397.91 102.731 399 99L402 101M427 99L431 98M439 99L439 102M59 100L60 100M65 100L69 99M293 100L289 104L290 102M325 100L327 102M381 100L382 104L383 100M389 100L394 105L391 101M394 101L398 100M588 100L585 101M620 100L623 100M222 101C222.303 110.328 228.783 109.446 235 114M225 101L225 108M228 101L228 110M339 109L350 101M425 101L421 105M3 102L8 103M12 102L15 102M64 102C62.8777 116.711 33.6978 106.334 25 106.096C20.4041 105.971 16.1242 109.94 11 110M218 116L219 123L220 123C219.922 116.468 212.846 105.95 206 110L202 106L212 102M253 102C253.065 107.791 251.59 111.447 248 116C255.003 124.61 244.984 125.999 238 126M106 103L107 103M328 103L332 104M364 103L373 104M387 103C386.313 109.688 374.911 114.93 389 118M659 104L708 107L710 112C704.818 114.356 699.645 113.244 697 108M5 104L5 108L13 105M34 108L41 104M85 104L88 105M137 104L141 106L118 110M332 104L329 107M335 104L333 108M382 104L378 108L379 110M414 104L416 116M101 105L102 105M290 105C292.912 109.495 300.164 108.567 305 108M394 105L397 108M508 107C510.628 105.333 520.718 102.818 519 108M90 106C90.7753 112.687 67.0012 110.135 63 108M105 106L106 106M141 106L143 106M206 110C202.508 122.1 186.994 111.4 202 106M248 106L252 110M372 106L377 108M502 106C497.405 110.692 489.158 109 483 109L446 109C440.725 109 434.702 107.583 430 110M517 106L514 109M521 106L524 106M709 106L724 107M23 107L29 108M92 107L95 108L91 109M108 107L116 109M157 107C166.11 109.336 173.703 109.072 183 109.333C185.499 109.404 192.016 110.565 191 107M213 108L225 111M507 107L502 108M549 107C555.296 111.259 568.751 111.143 576 109M612 109L619 107M0 108L2 108M96 108L95 110M147 108L140 110M193 108L195 110M195 108L197 108M255 108C264.018 110.685 279.984 110.681 289 108M397 108L392 120M420 108L420 126C426.946 126.106 428.044 121.711 425 116M536 108L536 112L539 108M588 115L582 110L593 109M625 110L623 108L641 110M97 109L105 110M148 109L155 110M198 110L204 109M249 109L249 113M298 109L301 116L293 115L292 116L292 117L292 118L294 119M301 109L301 114M304 109L307 116M316 109L317.603 116.972L330 118L362 116.583L372.586 117.312L379 110M376 109L370 116M593 109C593.113 112.475 593.05 115.316 597 115M203 110L203 114M254 110L255 120L291 119M588 110L586 123C580.985 119.692 573.787 114.157 582 110M585 110L585 112M618 110L621 117L612 117M199 111L199 115M582 117L579 112L586 116M624 111C624.002 132.109 650.34 121.077 663 120M627 111C626.853 115.517 626.028 119.279 621 117M6 112C8.68304 124.866 38.708 114.438 48 120M204 117C203.709 125.97 195.333 128.968 189 134L174 117L186 112M224 112L220 116M342 112L342 117M389 112L389 113M526 112C530.498 113.344 533.628 115.033 532 120C524.727 116.053 511.418 119 503 119C479.341 119 450.798 123.273 428 117M710 112L724 116M49 113L44 118M289 113L292 117M534 113C544.764 122.103 565.666 118.171 577 113M1 114C1.37131 118.578 3.06898 119.277 7 117L7 117M114 114L115 114M130 114L131 114M163 114L168 116M531 114L529 116M692 114L697 119L696 120L692 114M709 114C712.204 120.753 701.368 118.946 697 119M117 115L127 119L92 119.571L50 119M166 115C155.981 122.069 145.91 118.977 135 116M381 115L375 119M593 115L590 116M40 117L43 117M196 116L187 130M210 116L212 123L210 121M222 116C221.987 118.658 221.356 122.203 222.889 124.545C225.961 129.239 234.492 129.912 236.377 135.083C239.803 144.478 228.756 141.533 225 138L213 152C205.129 142.793 196.848 153.175 188 145C183.703 151.761 179.03 155.608 179 164C184.894 162.682 183.999 158.163 184 153M237 116L248 116M301 116L303 116M307 116L315 118M583 117L584 121M173 164C167.92 164.917 171.624 157.691 173 156C166.978 147.587 176.208 141.792 182 136C178.483 132.478 168.842 122.106 174 117M201 117L201 124M361 117L366 118M532 117L530 119M591 117C590.985 136.349 572.029 121.897 560.317 127.603C557.923 128.77 557.201 132.807 556 135C563.506 140.668 579.602 137 589 137C592.486 137 597.43 137.869 600.681 136.397C603.968 134.908 605.699 128.324 601.683 126.577C598.777 125.313 594.112 127.785 591 128M595 117C594.294 121.427 592.435 122.988 588 122M599 117L599 125M603 117L603 126M607 117C607.041 128.533 616.812 127.646 624 121M612 117L612 125M712 117L716 117M9 118L4 121M165 120L171 118M299 118L309 130C311.731 126.289 311.699 124.726 309 121L311 128M301 118L301 122M309 118L309 121M414 118L415 133C415.865 129.743 416.046 127.734 413 126M429 118C429.693 122.087 434.653 128.696 439.019 129.093C458.606 130.873 479.309 129 499 129C507.093 129 517.732 130.879 525 127C523.78 123.3 524.429 121.616 528 120M534 118L537 117M573 118L578 118M693 118C688.078 124.466 686.741 139.411 682 124C676.067 126.325 675.023 127.413 675 134L674 134C672.443 128.94 672.03 124.071 666 128L672 126M128 119L134 120M249 119L249 123M312 119L312 122M400 119L397 120M431 119L431 122M575 119L576 122L577 119M173 127C171.399 123.849 170.875 122.053 174 120M409 120L409 123M657 121L653 126L652 126M660 121L660 127L666 128M0 122C9.53916 131.23 16.7673 125.02 27.8302 127.424C57.7083 133.914 92.1317 129.998 123 130C130.968 130.001 148.295 126.07 155 130M5 122L4 125M152 122L153 122M165 122L164 132M255 122C256.21 129.587 262.117 127.297 268 127.039C279.176 126.55 289.443 128.127 300 124M317 122C319.498 131.259 332.35 128.061 340 127.884C362.41 127.365 384.459 130.003 406 125M341 122L342 127M527 122L530 122M594 122L598 126M700 122L701 123M141 123L142 123M157 124L159 123M430 123L428 125M533 127L537 123L541 135L544 128L525 129M30 126L40 124M211 124L212 134L211 128M586 124L583 127M684 124L688 124M147 125L150 126M301 125C302.064 127.763 307.572 136.63 309 130M308 125L306 127M640 125C641.632 141.372 613.564 140.243 605 133M222 126C218.42 131.06 220.029 133.701 224 138M249 126C251.48 129.02 252.42 130.317 251 134L250 129M417 126L419 127M605 126L606 126M657 126L659 128M679 126L680 134L683 132M703 126C704.466 128.848 703.606 132.103 705.077 134.751C708.396 140.725 720.361 138.988 726 139M26 127L29 130M152 127L154 128M235 127L234 131M419 127L420 134L424 127M545 127L558 128M296 128L300 128M316 135L321 137C315.421 137.827 311.883 131.333 317 128C315.928 131.257 313.48 133.115 311 130M547 128L545 133M642 128C646.922 134.358 658.003 141.186 659 128M706 129L726 128M156 129L163 130M330 129C332.776 134.29 336.114 137.591 341 133C347.017 139.368 352.933 137.522 361 138C361.141 143.064 363.567 147.366 369 147L369 144M362 129L362 134L358 134L358 135L358 136L358 137M365 129L366 137L367 129M369 129L370 135L372 129M392 129L389 136L389 133M403 131L407 129M525 129C526.3 135.559 528.47 138.336 534 133M555 129L548 138L555 138L558 146L561 139M666 130C665.266 134.599 663.296 135.992 659 134M194 131L203 138L202 146M231 131L225 138M304 131C297.175 140.598 281.741 136.988 271 137C266.965 137.005 260.559 135.609 258 139L261 138M644 131L637 137M233 132L233 142M335 134L338 132M400 132L401 132M416 133C413.401 134.4 407.448 137.125 408 132M435 132L425 139L437 140M306 133L301 137M419 133L414 138C415.417 140.441 415.778 140.795 418 139M548 135L553 133M679 133L672 140L665 136M189 134L188 145M212 134L212 136M256 134L256 140M310 134L315 138M165 135C162.09 144.227 134.274 139.938 126 139.997C84.3537 140.291 42.667 140 1 140M363 135L364 137M375 156L379 153L378 158C369.699 151.085 381.657 143.31 374 137L389 136M434 135C448.162 139.573 461.203 139 476 139C479.486 139 488.469 140.853 489 137M541 135L532 138M182 136L187 136M363 136L361 138M367 136L370 136M412 136L414 138M552 136L552 138M647 136L641 138M321 137L334 137M364 137L362 144M366 137C365.83 151.419 352.359 147 342 147C325.711 147 309.273 146.35 293 147.019C281.066 147.51 273.186 149.886 261 147M371 137L374 137M380 137L378 139M422 139L420 139L425 137M490 139L525 137M541 137L547 139M705 137L703 139M204 138L208 141L204 146M305 138L309 138M339 138L343 138M359 138L359 141M674 148L679 145C674.363 143.772 669.138 146.989 664 147C645.401 147.038 624.512 149.84 606.147 147.258C600.448 146.456 602.072 138.825 607 138M376 139L376 142M414 139L414 142M418 139L420 139M541 139C543.017 147.46 549.553 149.142 557 146M543 139L543 142M547 139L551 142M708 139L710 139M0 140L1 140M206 140L206 142M411 143C410.619 141.093 410.453 140.544 412 142M423 140L424 140M677 140L678 140M695 140L695 141M359 141L353 147M165 142L166 149M256 142L257 145M708 142L710 142M254 143L256 150L257 147M357 143L361 143M374 149C370.889 146.713 372.303 143.913 376 145M401 147L404 143L406 145C400.357 150.583 394.478 146.317 388 145.843C383.788 145.536 381.394 148.39 377 147M406 144L409 143M444 143L445 143M563 147C567.259 143.649 569.628 143.927 574 147L559 146M690 143L688 150C691.908 148.43 694.283 147.339 695 143M384 145L386 145M447 144L448 144M461 144L462 144M494 144L543 147M711 144L724 147M280 145L287 146M359 145L357 147M450 145L451 145M570 145L568 147M696 147L701 145M453 146L454 146M467 146L482 150M125 147L128 147M173 147L173 154M454 149L459 149L448 148M501 147L483 149M574 147L602 148M713 147C710.18 150.983 710.18 153.017 713 157L694 161M131 148L136 148M163 148C157.278 152.335 144.761 150.255 138 149M406 148L447 149M588 148C588.847 151.36 590.342 155.673 594.125 156.677C597.158 157.483 603.328 155.294 600 152M634 148L633 163L638 166C631.979 169.852 623.83 167.557 617 167.09C602.887 166.124 588.174 167 574 167C568.015 167 560.042 166.38 555 170M637 148C637.065 153.465 638.068 154.842 643 157L645 148M641 148L641 155M82 149L55 150L1 150M202 149C205.431 152.005 207.504 153.11 212 152M213 149L215 149M365 149C366.278 153.472 368.642 154.814 373 156M367 149L367 152M370 149L370 155M372 149L372 155M377 149L377 152M379 149L379 153M385 149L390 149M459 149L469 150M0 150L1 150M186 150C191.514 155.699 193.428 159.879 185 163M210 150L210 152M254 150L257 158M166 152L168 179M186 152L186 162M257 152L258 158M675 152L676 152M263 153L264 153M381 153L391 153M476 153L477 153M603 153L611 157L601 158M645 156C655.898 160.036 673.581 158.41 683 153M1 154L2 155M308 154L329 157C319.343 163.827 296.182 160.553 286 156M479 154L480 154M493 154L489 156M513 154L525 157C515.305 162.174 498.83 159.138 488 159.119C461.65 159.071 435.232 160.22 409 159.208C399.336 158.835 386.893 162.118 378 158M607 154L604 157M189 155L189 161M268 155L272 157C267.33 160.26 263.987 159.207 259 157M482 155L483 155M711 155L709 159M4 156C6.69736 157.41 10.5793 160.55 13 158M173 156L178 156M181 156L181 163M368 156C358.75 160.746 339.639 157 329 157M380 156L383 155M485 156L487 156M703 158L707 157L705 159M177 157L178 165M324 157L322 159M525 157L590 157M611 157L634 157M643 157C643.555 162.618 645.813 167.872 638 166M707 157L709 157M713 157L724 157M173 158C172.976 166.569 173.94 181.616 170 189L169 182M271 158L273 160L275 160M624 158C624.882 163.28 628.382 162.71 633 163M630 158L630 162M647 158C647.687 162.439 650.307 166.307 655 167.397C659.532 168.449 665.276 166.825 670 167.039C682.993 167.629 709.31 175.697 716 162L724 167M651 158L651 164M276 159L283 160M677 159L689 160M0 160L2 160M15 160L86 160M147 160L164 160M255 160L257 178L259 174M258 162C258.099 170.36 263.396 171.512 270 167L265 165M624 162L619 167M230 168C232.392 163.934 235.182 163.175 237 168L237 168M244 163L244 172M546 163C549.496 164.077 555.833 163.61 555 168M632 163L628 167M690 163L687 165L690 166M8 164L20 170M262 164L263 164M291 164L292 164M20 165L21 165M174 165L176 165M635 165L632 168M684 167L687 165M245 166L247 166M296 166L298 170L299 167M310 166C338.795 171.117 367.508 169.583 397 169.221C428.732 168.831 460.292 170.574 492 169.065C505.721 168.412 520.201 168.543 534 169.13C538.733 169.331 549.091 171.139 553 169M557 166L560 166M650 166L644 168M271 167L275 169L269 169M286 167L296 168M686 167L686 168M715 167L719 167M25 168C38.325 173.646 58.6316 170 73 170C78.3787 170 85.5613 171.363 90 168M103 170L112 170M240 168L243 168M589 168L591 176L592 168M597 168L598 175L605 168M599 168L599 172M602 168L604 178L599 178C599 183.892 597.587 192.547 606 190L608 192C607.389 194.067 607.052 195.83 607.015 198.005C606.664 218.454 633.347 195.973 618.941 192.343C615.844 191.562 612.193 192.298 609 192M1 170L14 169M276 169L282 170M303 169L309 170M637 169L640 169M0 170L1 170M593 192L582 190L583 178C573.904 178.433 563.335 180.207 556 174L551 178L552 172M661 172L670 175L664 175L647 178L604 178M214 173L213 178M549 173L549 178M233 174C232.425 177.647 233.647 178.192 237 177L238 177M294 175L295 175M310 175L311 175M313 176L324 177M319 175L322 176M671 175L681 179L679 178M29 176L37 180M40 176C53.7517 184.64 78.1573 180 94 180M207 176C208.315 179.488 208.844 183.327 213 183M297 176L304 179L272 180L259 178M337 176L338 176M584 177L592 176M593 177L597 176M597 176L599 178M673 176C670.543 180.39 669.76 185.417 672 190L678 186L672 181M340 177C355.629 182.117 373.744 180 390 180C418.945 180 448.123 180.912 477 179.482C488.519 178.912 510.306 183.79 520 177M593 177C593 182.481 590.063 201.422 594.603 204.914C597.249 206.948 602.836 205.919 606 206M257 178L258 190L259 183M327 178L326 180M358 178L358 179M531 180L546 178M554 178L558 178M662 178L668 178M676 178L673 181M681 178C693.635 182.397 712.572 179 726 179M1 180L32 179M41 179L42 180M199 195C196.209 192.675 191.497 181.086 198.149 179.921C202.782 179.11 202.83 187.458 201.871 189.975C201.171 191.813 200.068 193.371 199 195M305 179L312 180M329 179L334 180M520 180L529 179M566 179L567 185L572 180M568 179L568 182M579 179L582 191M669 179L670 179M677 179L677 182M0 180L1 180M98 180L132 180M606 180L606 190M529 182C515.048 198.252 543.052 199.983 552 191C555.531 194.696 557.299 197.091 562 194L556 194M682 182L684 182L682 182M685 182C687.683 184.849 692.422 191.646 696 187L692 188M5 183C8.00173 185.095 10.2819 186.232 10 190M189 183C188.932 188.756 187.639 191.24 182 193L182 202M683 183L681 187L687 184M321 184L322 184M685 184L686 185M45 185L50 189C40.2017 191.328 22.1732 192.352 13 188M211 185L211 188M324 185L325 185M340 185L341 185M343 186L359 191M523 188L519 186L524 185M528 185C535.1 188.789 562.163 182.552 562 193M622 192C631.683 183.054 645.605 192.709 656 185C659.735 187.811 663.245 186.725 666.98 188.784C679.686 195.788 666.715 205.227 661 210L658 205M517 189L515 190L519 186M529 186C526.111 188.418 523.522 190.718 521 187M561 187L567 186M678 186L680 186M697 186L696 187M59 187C68.8279 191.257 80.4648 190 91 190C110.891 190 131.169 188.844 151 190M182 187L181 192M329 187C330.233 191.402 316.155 190 313 190C297.106 190 275.072 193.908 260 189M365 187C414.219 195.236 465.443 187.08 515 189M517 187L521 187M575 192C567.553 198.061 564.827 188.565 569.149 187.921C572.732 187.387 577.004 191.699 581 192M17 188L16 189M43 188L42 189M238 188L235 205M331 188L334 189L331 190M552 188L552 191M559 188L559 191M683 188L684 197L694 196L693 190M685 188L688 188M51 189L55 190M335 189L341 190M633 189L634 199C637.915 196.011 648.628 198.472 647 193L648 192L655 195L658 188M638 189L638 195M650 189L650 192M661 189L662 197L671 196M696 189L726 189M0 190L2 190M187 190L188 191M230 190L234 195M519 190L520 191M599 190L594 191M673 190L671 192M691 190C691 196.348 690.614 214.441 702 207L699 208M695 190L695 194M257 191L259 209M516 191L517 196L523 191M20 192L30 199L2 200M170 192L170 200M190 192L190 199M362 192L363 192M520 192L521 193M591 192L592 206M597 192L597 205M601 192L601 205M701 195L700.333 193L706 198.5L712 197.5L726 199M260 193L260 199M348 193L349 193M365 193L366 193M610 193L610 205M614 193L614 205M173 194L172 210L171 202M351 194L352 194M368 194L371 195M74 195C84.6009 201.481 95.9441 200 108 200L168 200M221 195C221.004 200.369 220.154 210.289 228 207M354 195L357 196M516 195C504.94 205.651 532.616 213.749 535 204C532.908 205.582 533.267 206.106 535 208M649 195L651 197M655 195L660 197M700 195C696.809 197.58 695.034 198.798 696 203L698 203L699 197M64 196L71 200M512 198L421 200L373 199L377 196M656 196C652.791 198.344 651.541 198.857 648 197M359 197C360.273 201.566 340.697 199.999 337 200L263 200M520 197L526 197M528 197L526 204L524 198M537 197L541 203L541 197M549 197L555 197M561 197L568 196M657 197L658 202L660 197M662 197L664 205M684 197L674 201M704 197L701 198M16 198L15 199M31 199L66 199M216 198L216 209L209 206L209 207L209 208L209 209M361 198L364 199L361 200M365 199L373 198M553 198L555.318 205.82L566 206.114L590 206M644 198L644 206C639.529 206.053 630.773 211.692 638.318 215.535C643.501 218.176 655.117 216 661 216L661 210M697 198L697 202M714 198L711 200M634 199L632 201L637 206M717 199L718 200M209 200L211 203M371 200L372 200M651 200C650.703 203.845 649.979 205.562 646 206L645 207M702 200L700 202M624 201L632 201M680 201C685.689 207.453 683.753 210.291 677 214C685.321 221.037 705.143 220.265 713 213L714 214C713.625 219.025 718.005 218.606 722 218L721 213M208 202L208 203M628 202C627.777 220.907 606.708 214.956 594 216.17C588.342 216.71 579.399 219.083 574.148 215.972C570.9 214.048 571.039 210.305 571 207M675 202L677 214M679 202L679 212M719 202L727 205C721.163 211.631 710.009 208.005 702 208M38 203L46 209L14 210M512 203C505.791 208.251 496.864 207.656 489 208.039C474.271 208.755 459.821 210.018 445 210C386.674 209.929 328.332 210 270 210M541 203C542.943 206.775 541.628 211.407 544.725 214.682C548.95 219.15 566.538 217.871 572 216M660 203L659 204M200.024 205.346C204.616 203.821 205.137 217.225 200.96 218.654C195.99 220.355 194.942 207.033 200.024 205.346M261 204L261 210M514 204L509 207M672 204C671.999 209.692 673.192 218.836 665 217L667 207M692 206L695 204M695 204L697 208M80 205L85 209C74.934 211.975 57.1557 211.637 47 209M92 205C101.228 211.08 110.344 210 121 210L169 210M526 205L525 206M536 205L541 208M682 205L682 211M545 206L552 206M661 206L659 206M670 206L668 214M685 206L690 206M513 207L519 207M531 207L531 208M546 207L545 214M599 207L598.082 225.394L606 226.873L629 226C628.977 219.564 628.061 218.012 622 216M617 207L617 215M645 207C645 211.363 643.21 220.839 646.028 224.397C648.368 227.351 655.684 226 659 226C668.833 226 683.096 224.69 692 229L696 223M648 207L648 215M652 207L658 207M3 208L12 210M524 208L525 213L526 210M86 209L90 210M536 209L537 209M0 210L4 210M175 210C174.99 212.932 175.53 216.984 172.682 218.833C168.808 221.349 161.413 220 157 220C143.897 220 126.244 223.037 114 218M528 210L526 213M629 211L635 216M719 211L716 218M172 212L172 219M259 212L263 240M261 212L261 214M538 212L534 214M715 212L716 213M727 212L723 219M55 213L56 214M216 213L217 213M244 213L248 215L243 215M523 213C518.638 218.237 512.286 217 506 217C491.592 217 478.301 220 464 220L295 220M96 214L97 215M210 214L210 216M527 214C529.372 220.752 538.696 218.87 544 217M675 214C674.722 217.756 676.413 218.522 680 218M712 214L712 216M58 215L63 219C45.2503 223.316 23.2574 220 5 220M239 215L241 219M476 215L480 218M726 218L726 215M99 216C99.371 220.66 94.7377 219.992 91 220C82.3007 220.018 72.4462 221.193 64 219M262 216L262 227M631 216L629 218M723 216L724 216M232.167 217.667L232.833 219.333L232.167 217.667M238 217L239 219M482 217L483 218M563 217C564.134 223.856 571.842 223.025 577 226C570.816 230.179 564.224 227.614 559 223C547.708 232.55 520.994 228.193 507 227.321C500.675 226.927 496.895 228.243 491 225M639 217L644 226M662 217L665 217M710 217L714 220M102 218L101 220M522 218L526 218M568 218L569 224M584 218L577 226M708 218L711 219M104 219L106 220M534 219L535 222L537 221M0 220L2 220M237 220L237 222M541 220L538 222M714 220L717 226L719 224M638 221L630 227M70 222L71 223M173 222L174 230L176 223M233 222L233 224M700 222L699 223M707 222C702.6 225.331 699.825 229.763 694 228M722 222L721 223M529 223L531 227M531 224L534 227M567 223L563 227M691 227L696 223M73 224L78 228C68.8247 232.897 53.2834 230 43 230M572 224L570 228M115 225L120 230L120 228M569 225L567 227M129 226C140.827 233.005 157.663 230 171 230M219 227L221 226M456 226C456.709 229.331 458.743 229.635 462 230M466 226L493 229M580 226L596 227M706 230L716 226M208 227L209 235M598 227L595 238L598 232M613 227C613.048 240.69 632.698 238.982 643 236C639.016 228.81 635.04 224.705 635 236M630 227L633 235M641 227L643 226M715 227C718.919 229.418 721.665 229.428 726 228M79 228C86.6913 231.53 109.931 232.994 117 228M455 228C444.797 233.445 426.463 230 415 230L319 230M557 228L561 228M593 228L595 233M683 228C683.167 242.159 695.261 238.668 704 233M688 228L689 234L695 232M239 229L239 230M260 229C262.181 236.382 260.417 241.797 254 246L258 250L262 243M692 229L692 231M711 229L714 229M0 230L10 230M12 230L41 230M122 230L125 230M177 230L180.039 268L181 281M205 230L207 235M235 231L236 231M233 232L237 238M239 232L239 237M596 232L599 233M726 232C724.907 235.178 717.606 243.872 714 242M88 233L89 234M174 233L174 240M200 233L202 238M229 239L231 233M600 233L603 236L597 238M688 233L689 238L689 235M131 234L138 239C119.902 244.349 94.8757 239.849 76 239.849C67.4175 239.849 58.064 241.417 50 238M205 234L205 237M511 234C515.37 235.148 518.092 235.659 520 240L521 239L521 237M691 234L693 233M711 235C712.07 237.68 711.952 238.338 709 238L713 234M91 235L96 239M193 235L193 243L194 239M199 235L200 237M473 235L476 236M643 235L653 237L657 248C665.964 245.497 681.796 249.606 686 240M685 235L686 235M147 236C154.652 240.611 162.322 240 171 240M234 236L234 239M492 236L493 236M603 236L612 236M654 236L682 236M478 237L478 240L435 240L334 240M495 237L518 240M522 238C545.027 236.183 570.032 235.097 593 238M634 237C634.004 242.292 633.397 251.558 637.523 255.486C645.631 263.206 655.159 257.268 655 248L638 251L638 252L638 253L637 254M656 237L657 243L658 237M697 237L697 239M704 239L702 238L708 239M199 238L199 239M219 238L219 240M481 238L488 240M621 238C622.661 243.33 628.153 245.833 633 248L633 249L633 250L633 251M701 238L698 240M713 238L717 238M1 240L30 240M139 239L141 240M694 239L695 239M724 239L727 239M0 240L1 240M32 240L33 240M40 240L51 240M216 240L219 245M222 241L225 240M324 240L326 240M475 240L476 240M480 240L481 240M103 242L113 249L102 250M212 242L211 250L212 242M645 242L650 248M216 243L216 248M495 243L497 244M625 243C617.427 249.405 605.427 247 596 247C571.813 247 546.605 251.997 523 248M697 243L693 248C697.655 249.96 709.543 249.95 712 244.333C712.654 242.838 707.695 246.229 710 245M175 244C173.917 250.768 169.56 248.951 165 246M207 244L203 254M538 244C541.238 245.211 547.242 245.197 546 249M641 244L641 248M150 245L154 248C146.135 252.197 124.865 252.197 117 248M499 245L514 250M518 246L519 246M521 246L521 247M683 246L692 249M293 260L257 260L238 258L251 247L255 249M548 247L550 247M710 247C714.835 250.041 721.408 249.798 727 249M155 248L160 250M204 248L204 249M257 248L258 248M623 248L628 247M637 248L638 249M657 248L657 254M660 248C660.189 263.904 679.988 251.904 689 258L683 256M706 248L711 249M1 250L74 250M84 250L97 250M114 249L117 250M244 250L244 252L249 248M260 249L271 250M0 250L1 250M77 250L78 250M99 250L100 250M154 250L155 250M321 250L323 250M332 250L501 250M237 258L232 258L243 252M698 252L692 257C701.568 262.673 716.333 259.029 727 259M701 252L700 253M121 253C123.32 254.594 128.765 257.194 126 260M645 253L647 253M694 255L697 254M166 254L173 259C159.63 262.251 143.576 260.047 130 259M522 254L525 255M571 255L616 257.039L637 256M527 256L539 260M656 256L659 256M176 257L173 259M693 260L692 257M223 260L232 260M546 260L580 258M600 258C598.358 268.417 586.564 266.058 582 273L584 271M512 261L532 260M1 260L47 260M58 260L63 260M65 260L69 260M72 260L74 260M83 260L97 260M99 260L100 260M105 260L107 260M109 260L118 260M120 260L124 260M237 260L238 260M328 260L511 260M0 262L4 266L1 268C3.75506 268.735 6.11152 269.352 5 266M136 262L137 263M176 262L174.512 268.972L163 270L133 270M327 270L249 270C244.021 270 218.594 272.23 229 262M610 262C630.895 266.834 655.221 272.002 676 264M211 271L212 267C216.786 269.209 218.076 264.468 222 262M512 263L551 270.092L582 270M139 264L145 268M218 267L226 264M493 270L504 265M213 267L216 268M599 267L612 270M669 267C674.797 271.17 679.427 269.084 686 269.259C699.528 269.62 713.565 270.661 727 269M8 269L9 269M19 270L60 270M70 270L103 270M196 279L193 277L194 276C198.567 279.863 202.248 280.398 208 279L197 276L210 268M329 270L438 270L492 269M107 270L114 270M126 270L129 270M177 270L178 279M588 271L584 273M557 272L559 272M644 272L645 272M15 273C18.5596 276.473 26.1245 283.601 30 277M154 273L155 274M207 273L204 275M218 273L219 279M488 273C469.214 286.493 435.579 280 413 280L229 280M561 273L567 274M582 273L565 286C568.376 289.881 572.07 289.969 577 290M619 273L620 273M647 273L648 273M215 274L216 275M623 274L645 280M650 274L651 274M3 275L4 279L8 276C11.3095 278.284 13.0174 278.916 16 276M157 275L161 278L155 280M227 275L227 280M569 275L570 275M653 275C658.809 276.649 665.154 280.329 671 278M199 277L197 279M31 278C40.0452 282.827 53.0231 279.167 63 280M162 278L175 280M184 281L192 280C187.355 283.304 182.76 286.438 178 282M1 279L2 279M7 279L9 279M16 279L19 279M65 280L91 280M107 280L117 280M136 280L145 280M209 279L213 280M568 283C569.099 279.679 570.59 279.263 574 279M674 281L687 279.87L727 280M94 280L95 280M97 280L105 280M133 280L134 280M562 280L568 280M671 280L673 280M27 282L36 289M169 282L177 290M219 282L220 289C209.392 292.135 190.731 291.663 180 289M677 282L678 282M474 283C461.276 295.574 434.05 290 417 290L294 290C277.793 290 253.998 294.355 239 288M652 283L653 283M680 283L681 283M233 284L236 286M655 284L656 284M683 284L684 284M24 285C27.0585 288.061 28.3548 288.402 32 286M556 285C557.813 288.491 560.325 288.002 564 288M566 285L569 288M658 285L678 290M686 285L708 289M551 289L553 289L555 286M589 286L590 286M592 287L593 287M1 288L25 289M40 290L63 289.999L72 290M128 288L133 290M156 288L170 290M564 288L556 297L554 290M595 288L605 290M31 289L33 289M74 289L85 290M142 289L137 290M227 289L230 290M555 289L556 289M558 289L560 293M560 289L560 291M709 290L727 289M89 290L105 290M108 290L114 290M118 290L119 290M127 290L128 290M144 290L153 290M704 290L705 290M558 291L557 295M220 292C220.175 308.658 201.048 293.918 194 300M469 298L462 298L465 292C472.77 299.742 483.317 299.971 494 300M554 292L556 294M573 292L587 298L577 299L578.603 309.953L590 306.224L617 307L612 310M682 292L683 292M42 293L46 297C36.3568 301.392 12.2362 300.455 2 298L6 297M187 293L194 298M685 293L686 293M713 293L727 297M469 294L471 296M576 311C569.843 311.396 546.788 309.998 557 299L547 298L553 294M688 294L689 294M27 295L26 298M30 298L33 297M228 295C230.327 301.329 236.778 300.787 242 298L239 296M465 295L467 295M691 295L692 295M254 296C268.34 305.329 296.238 300 313 300L458 300M464 296L464 298M553 296L553 297M557 296L566 309M694 296L712 301M47 297L52 300M548 299L550 299M551 297L551 298M584 297L582 299M623 297L624 297M199 298L198 299M535 300L544 299L545 299L546 298L547 298M567 305L576 298M587 298L590 299L589 305M626 298L627 298M54 300L104 300M117 299L124 300M192 299L193 299M244 299L246 300M541 299L542 299M590 299L606 300M629 299L636 300M46 300L48 299M110 300L111 300M113 300L114 300M126 300L127 300M129 300L136 300M138 300L149 300M169 300L177 300M222 300L223 300M557 300L565 308M580 300L581 326C584.912 324.027 592.655 311.475 593 307M584 300L584 308M601 300L598 307M53 302L63 309M202 302L211 310M221 302L223 319M540 302C523.18 315.637 500.032 304.522 480.09 308.558C475.08 309.572 475.847 314.671 472.532 317.227C469.859 319.287 463.122 318.529 460 318L464 318M569 312L567 324C561.025 321.676 558.399 321.431 556 315C550.047 316.585 549.064 313.368 549 308L544 304L547 302M603 302L613 305M252 303L253 304M498 303L499 303M718 303L719 303M501 304L505 306L508 304M721 304L722 304M229 305C231.516 313.289 253.609 311.411 260 308L257 306M531 305L528 308M536 306L540 315C537.709 310.431 539.063 308.002 543 305M724 305L725 305M14 308L18 308L1 308M59 306C50.0192 312.08 28.4436 309.939 18 308M272 306L281 310M462 306L477 309M534 307L538 309M540 307L542 309M542 307L541 308M550 307L553 307M618 307L623 309C616.364 318.216 611.623 330.577 615 342C616.565 336.705 616.62 330.91 614 326C608.536 331.464 602.364 341.551 594 337C594.363 336.211 595.213 334.818 595.372 333.847C597.344 321.821 581.374 339.929 594 338M654 307L655 307M213 309L216 308L220 310M260 308L265 310M283 310L461 308M619 308C615.128 312.235 615.001 315.371 615 321M657 308L667 310M58 309L60 309M67 309L71 310M203 310L209 309M459 309C458.826 323.746 430.012 318 419 318C389.51 318 359.702 320 330 320C315.928 320 300.369 322.562 288 315M468 309L474 313M480 309L478 312M542 309C543.662 311.413 543.444 312.392 541 314M595 309L597 309M606 309C606.026 316.463 608.821 319.802 614 325M609 309L609 318M623 309L653 319L654 337L664 336C659.438 326.849 655.062 327.611 646 328L646 322M73 310L95 310M97 310L109 310M113 310L124 310M131 310L136 310M141 310L149 310M153 310L154 310M159 310L164 310M173 310L179 310M191 310L194 310M612 310L612 321M634 310L638 310M644 310L645 310M648 310L649 310M480 311L488 335L491 331L499 335L498 327L482 329L480 335L475 326C472.6 330.574 473.545 333.617 476 338L486 334M561 311L557 315M583 311L594 318L591 314M564 312L564 322M574 312L573.423 327.509L561 328.159L527 328C526.998 325.528 527.621 321.683 525.972 319.603C523.974 317.082 518.804 318 516 318C506.532 317.999 496.881 317.518 490 325L493 324M597 312L595 316L610 326L599 339M69 313C76.3876 320.208 82.2558 319.649 92 320M220 313L221 314M539 316C534.907 319.85 531.809 316.704 527 316L530 313M561 313L561 322M230 314C230.517 320.618 235.398 319.957 241 319.997C251.459 320.072 267.675 322.977 277 318L272 315M538 314L536 318M544 314L548 316M497 315L487 318L487 323L490 319M594 315L595 316M680 315L681 315M476 316L486 317M497 319L502 318M545 316L539 319M646 316C642.431 320.747 640.57 327.234 634 323L643 319M683 316L684 316M1 318L46 318.745L72 318M474 317L476 319M686 317L698 320M14 318L11 319M94 320L126 320M459 318L460 318M173 320L184 319M279 319L283 320M476 319L477 323L478 319M492 319L492 322M529 319L531 319M645 319L647 319M653 319L681 320M128 320L150 320M152 320L154 320M167 320L168 320M189 320L198 320M206 320L213 320M474 320L475 325L477 323M499 320L501 324L498 323M501 320L501 322M223 322C222.941 327.017 222.411 329.578 217 330M466 322L473 329M81 323L89 329L85 327M237 323L244 330M488 323L490 325M496 323L499 325M547 357L549 359C534.379 353.649 514.77 363.7 500 356L504 347C512.539 347.424 523.536 351.182 531 346C537.347 350.434 553.741 349.502 560 345C565.228 349.67 570.546 347.816 577 348.039C589.662 348.477 602.298 347.744 615 348.014C622.532 348.174 627.859 350.414 634 345L640 349C637.556 340.292 622.759 331.284 634 323M289 324L290 325M467 324C457.932 331.668 439.394 328 428 328C399.881 328 372.158 330 344 330C331.069 330 317.118 332.462 306 325M478 327L483 324M502 324C508.557 332.52 517.869 323.292 524.396 329.742C526.839 332.157 525.319 336.927 526 340L532 335C539.543 340.426 568.882 341.287 576 335L588 339M568 327L573 325M585 324L590 329M593 324L596 330M16 325C18.6219 332.784 33.135 328.54 38 325M20 325L20 328M231 325L231 330M469 325L465 328M573 325L571 329M589 325L589 326M83 326L85 328M292 326L300 330M576 326L579 326M583 326L588 329M592 326L592 328M610 326L612 326M640 326C644.144 329.95 643.629 338.952 650 338L657 349C652.352 353.645 648.873 357.777 642 358L642 352M714 326L715 326M480 327L482 329M490 327L490 329M493 327L494 327M599 328L606 330M617 327L628 328M1 328L15 329M90 329L105 330M499 328L503 329M619 328C619 338.122 619.377 347.409 630 337M712 368L710 373L712 366C708.547 361.177 706.603 350.944 710 346L706 337C702.474 338.042 698.297 337.38 695 339.028C689.497 341.779 686.92 348.379 680 347.861C665.121 346.747 668.893 332.085 681 328.773C689.247 326.517 698.375 331.549 707 329M36 329L82 329M111 330L145 330M155 330L165 330M184 330L195 330M242 329L241 330M246 329L295 330M468 329C471.958 331.579 470.404 334.645 468 338L475 337M503 329L500 344L494 338C492.994 340.784 492.175 344.249 496 343M641 329L637 336L644 339M707 337L714 336C714.983 332.541 722.071 325.741 723.079 333.059C723.764 338.024 718.231 342.939 719.032 349C719.661 353.753 724.51 355.673 725.656 359.981C726.411 362.817 724.047 363.954 722 365L722 357M107 330L108 330M167 330L168 330M171 330L174 330M176 330L181 330M197 330L198 330M237 330L238 330M508 330L512 345C511.939 341.415 511.264 339.564 508 338M708 336L709 330L714 334M494 331L494 332M12 336C15.7409 333.113 17.2591 333.113 21 336L2 337M94 332L105 340M224 332L225 339M252 332L253 333M483 332L485 332M490 332L492 334M592 332L593 332M528 333C529.222 336.497 530.211 338.062 534 338M255 334L258 340L256 340M306 334L318 340M492 335L489 335M530 334L531 335M595 338L600 334M639 334L644 339M232 335L232 340M324 335L334 340M492 335L496 335M499 335L501 337M21 337C35.29 340.929 53.9526 335.737 69 337.17C76.1137 337.847 82.7965 340.458 89 336C92.9833 338.82 95.0167 338.82 99 336M632 336L637 336M653 336L651 338M664 336L668 340M714 336L719 341M203 337L204 337M472 337L472 338M483 337L490 340C490.667 348.67 497.184 345.187 501 350L501 351L501 352L501 353M490 337L493 340M503 337L508 338M654 337L654 345M709 337L709 343M87 338L91 338M261 338L260 340M340 340L468 338M476 338C477.867 343.6 483.543 345.537 489 346M478 338L478 341M482 338L482 343M512 340L523 338M98 339L100 339M263 339L313 340M473 339L477 347L433 348L354 350M491 339L492 339M497 339L500 339M505 339L501 347M575 339L578 338M632 339L623 348M643 339C643.006 347.104 645.396 350.495 654 348M110 340L136 340M140 340L143 340M145 340L150 340M162 340L167 340M177 340L180 340M188 340L189 340M192 340L199 340M203 340L204 340M207 340L210 340M240 340L241 340M245 340L246 340M248 340L254 340M336 340L338 340M526 340L526 347M634 340L628 349M487 341L487 345M108 342L112 346C108.767 348.289 104.999 349.928 104 345M225 342L222 350M270 343L276 350M477 343C480.314 347.706 489.691 362.63 492 348M554 343L559 346M587 343L585 348M617 343L618 343M634 343L634 345M324 344L325 345M394 344L402 348M500 344L503 346M513 344L515 348L515 348M623 344L619 348M669 344C663.629 349.371 657.378 359.722 649 358M101 345C96.9715 352.307 85.4817 349.022 79 347C73.3409 350.998 65.4501 347.013 59 347L3 347M473 345L473 347M521 348L526 347M527 345L530 346M646 345L646 348M75 348L78 346M113 346C115.823 348.237 120.08 351.407 123 348M233 346L233 350M327 346L331 349C316.974 352.41 293.01 352.476 279 349M343 346L352 350M477 346L481 350M518 346L520 348M671 346L657 360M710 346L718 352M126 347C132.63 351.769 142.137 350 150 350M672 347L674 363L676 348M688 347L706 349M82 348L80 350M115 348L111 349M127 348L125 350M507 348L507 356M643 348L641 350M685 348C692.151 355.131 697.505 359.805 708 358M101 349L103 349M155 350L167 350M244 350L272 350M332 349L334 350M495 349L499 356M530 349L532 349M559 349L561 349M658 349L662 349M682 349L681.299 366.593L667 368.401L630 367L633 368M152 350L153 350M169 350L175 350M179 350L182 350M184 350L195 350M204 350L207 350M210 350L211 350M214 350L215 350M218 350L219 350M235 350L241 350M659 350L653 357M226 352L227 359M285 352L286 353M535 352L539 354M547 352C551.182 353.496 552.478 354.487 552 359L554 356M718 352C715.385 356.899 714.066 364.843 721 366M123 353L127 357C120.187 360.636 109.387 359.75 102 358L105 357M581 353L586 355L558 359L557 359L556 359L556 358M288 354L294 360M490 354L498 356M715 354L711 356M58 359L54 357L63.0394 358.567L101 358M87 355L86 358M343 355L347 358C337.869 362.873 308.131 362.873 299 358M416 355L422 358C409.659 364.311 386.779 360 373 360M486 355C480.143 359.213 472.937 358 466 358L422 358M550 355L548 357M587 355C592.747 359.365 598.158 358.003 605 358C616.834 357.995 629.337 356.835 641 359M234 356L234 360M361 356L371 359M492 356L484 358M542 356L538 358M556 356L558 356M691 356L692 366L697 359M2 357L54 357M128 357L134 359M487 357L486 358M50 358L55 362M82 358L80 360M156 360L155 358M213 360L221 358M284 358L285 360M286 358L287 360M348 358L353 360M562 358L560 360M147 360L153 359M236 360L241 360M296 359L299 360M542 359L545 358M389 369C405.763 373.862 425.866 368 443 368L539 368C548.656 368 558.355 367.62 568 367.746C571.656 367.794 576.425 369.425 579.941 368.277C584.624 366.748 584.152 360.359 589 358M127 360L129 359M136 360L138 360M143 360L145 360M158 360L172 360M175 360L190 360M207 360L210 360M220 360L224 360M247 360L251 360M271 360L274 360M279 360L283 360M347 360L348 360M725 360L725 362M561 362L569 366M574 362L586 369L584 366M607 362C615.7 366.662 620.289 368.993 630 367M682 362L677 368M60 363C70.7135 363.007 86.3411 362.187 96 367C82.1707 374.046 57.9717 367.994 44 365.553C40.9316 365.017 37.2162 366.937 34 366.995C23.6741 367.184 13.3278 367 3 367M136 363C149.552 375.385 179.331 369.854 197 370M227 363L225 370M303 363C310.085 368.034 315.331 369.845 324 370M677 363L679 363M359 364L360 365M685 364L687 366L682 369M78 365L78 368M80 365L80 368M83 365L83 368M87 365L87 367M418 365C421.386 365.922 424.309 366.12 424 370M566 365L566 367M582 365L583 366M614 365C612.93 367.68 613.048 368.338 616 368M91 366L91 368M100 366L105 367C102.302 368.277 101.503 368.65 100 366M235 366L235 370M362 366L366 369L327 370M379 366L382 370M577 368L580 366M687 366L690 366M694 366L709 369M712 366L715 366M41 367L47 368M96 367L99 367M105 367L139 369M587 367L611 369M251 368L255 370M589 368L587 372C594.667 374.678 599.473 381.21 607 375L599 369M626 368L630 368M220 369L223 370M367 369L370 370M384 369L386 370M636 369L643 368M216 370L217 370M259 370L264 370M268 370L271 370M286 370L290 370M292 370L297 370M301 370L303 370M318 372L331 378M621 372L620 378L684 378L707 377L708 379L709 379M150 373C154.506 377.396 157.714 379.475 164 380M3 377C12.6091 377 23.3701 378.747 32 374C36.0491 382.272 54.9375 380.748 60 374M182 374L186 374M190 375C200.626 374.469 213.416 375.659 224 377.248C230.761 378.262 237.487 381.408 244 378M593 374C582.821 382.609 558.898 378 546 378C515.334 378 483.551 375.548 453 377.874C434.971 379.247 411.481 385.074 395 375M41 378L42 375L43 378M65 375L58 377M86 375L85 379C95.8186 378.611 108.138 381.206 118 376M378 375L380 380L388 380M442 375L450 378M607 375L615 375M606 376L612 377M29 377L32 379M64 377L83 379M152 377L154 379M381 377L382 378M614 377L619 377M637 377L639 388L642 378M640 377L643 383M62 378L65 379M115 378L120 380M166 380L177 378M591 378L595 378M611 378L615 378M632 378L633 384L634 378M646 378L643 383L643 383M703 378L707 378M121 379L151 379M270 380L282 380M331 380L378 380M605 379L607 379M425 390L550 388L595 388L614.961 387.397L625 379M627 379L628 394L631 387C625.126 385.663 623.777 390.741 627 395M652 379L648 384L653 387L642 388M656 379C655.931 384.845 657.655 389.025 663 384L657 385M727 379L724 387M176 380L190 380M192 380L199 380M201 380L214 380M216 380L219 380M303 380L311 380M315 380L316 380M322 380L323 380M326 380L327 380M660 380L661 381M705 380C706.707 390.6 703.063 402.734 718 398M612 381L619 385M652 381L655 384M2 382L3 382M6 382L7 382M162 382C166.176 385.636 176.874 394.664 182 388M622 382L626 386M11 387L8 389L7 388L11 383C21.0612 386.021 31.1822 391.773 42 386M336 383L342 390M620 383L625 388M634 383L639 383M646 383L647 388M7 388L2 387L5 384M394 384L405 390M633 384L631 386M663 384C666.358 385.631 669.305 385.904 669 390L669 386M13 385L17 388M41 389L57 385M68 388L64 386L65 385L73 388L70 387M73 388L84 385C89.6525 390.711 96.7293 387.773 104 388.104C118.026 388.744 131.924 388.833 146 389.011C152.223 389.089 161.286 390.376 167 388M89 385L89 388M413 385L423 390M54 388L64 386M467 386L473 387M666 386C662.536 389.982 658.781 393.483 660 399C670.189 395.994 685.446 402.556 694 395L690 393M618 388L624 387M631 387L638 387M653 387L656 388M317 388L325 390M345 389L382 390L400 388M656 388L659 394M666 388L667 388M671 388L706 388M62 389L65 389M82 389L85 389M209 390L224 390M621 389C621.384 391.776 621.667 395.221 624.303 396.867C628.336 399.383 632.004 397.323 630 393M633 389L636 397C644.751 391.914 648.316 397.87 651 406C653.959 400.545 652.212 393.514 645 394M636 389L635 394M661 389L663 389M727 389L725 390M184 390L186 390M195 390L207 390M227 390L228 390M231 390L255 390M258 390L260 390M276 390L277 390M280 390L281 390M283 390L291 390M298 390L311 390M339 390L340 390M647 390L647 395M669 390C669.353 394.578 670.906 395.409 675 397M351 392L352 393M649 393L652 396M663 392L667 408C677.084 400.677 685.441 409.613 697 408L694 407M177 393L182 398L170 400M656 393L654 395M4 398L4 394C8.48529 400.582 18.8545 398.981 24 394M354 394L359 400M724 394L720 397M179 395L177 397M413 395L417 398L400 400L362 399M431 395L432 396M489 395L497 398C491.521 400.924 485.081 400 479 400C465.69 400 447.396 403.184 435 398M626 395L626 397M694 395C697.586 397.831 699.702 398.834 704 397M707 396L712 397M38 396L40 398L36 398L38 396M74 398L70 398C78.6323 396.768 86.8954 401.83 95 396C100.538 402.238 118.569 399.064 126.389 398.306C130.774 397.88 133.121 400.374 136 396C144.408 402.048 159.038 399 169 399M637 397L645 400C645.259 403.405 645.595 405.084 649 406M652 397L650 399M1 398L2 398M22 399L36 398M41 398L70 398M138 398L136 400M183 400L186 400M196 398L202 399M239 398L218 400M298 398L309 400M344 398L335 400M418 398L423 400M497 398L622 398M624 398L623.473 406.397L613 408L587 408L461 410M647 398L645 400M94 399L95 399M630 399L634 405L633 402M654 399L658 399L659 404L660 399M670 399L671 404M693 399L696 398M206 400L207 400M214 400L216 400M239 400L243 400M248 400L249 400M259 400L260 400M266 400L294 400M296 400L298 400M356 400L357 400M417 400L418 400M638 400L638 404L635 404M640 400L639 405L645 405M706 400C707.307 413.96 720.258 408.378 727 402M189 402L190 403M629 402L630 403M29 403L30 403M32 403L33 403M369 403C382.845 412.34 397.825 410 414 410C421.131 410 429.132 411.03 436 409L432 406M85 404C84.5081 410.179 113.747 409.873 116 405C122.886 412.15 130.73 407.146 139 406.909C143.622 406.776 146.197 408.445 151 407L148 408M192 404L201 411M429 404L430 405M447 404L448 405M633 404L629 408L634 406M659 404L660 416L664 407L658 407M3 408C10.6127 408 21.774 409.461 28 405C33.2205 408.755 38.8014 408 45 408C57.1814 408 71.4543 410.124 83 406M624 405L625 406M627 405L628 408M677 405L670 406M152 408L162 406C168.019 410.299 181.745 409.715 189 408L186 407M516 406L520 407M639 406L635 409M706 406L708 409M141 407L141 409L136 408M451 407L459 410M643 407L642 413L640 412M647 407C647.03 415.574 650.054 415.999 658 416M653 407L658 407M80 408L84 408M173 408L170 410M190 409L196 409M314 408C318.096 410.183 320.904 410.183 325 408M349 408L360 409M661 408L661 414M667 408L665 413M676 408L681 408M688 408L692 410M697 408L705 409M720 408L726 410M723 408L723 409M27 409L30 408M104 409L107 408M161 409L163 409M203 410L218 410M221 410L251 410M276 410L288 410M625 409L627 409M272 410L273 410M295 410L296 410M299 410L300 410M311 410L314 410M325 410L326 410M330 410L335 410M341 410L344 410M363 410L364 410M368 410L370 410M374 410L376 410M437 410L441 410M718 410L720 410M384 412L385 413M34 413C32.8321 420.644 43.3316 418.24 47 415L53 417L48 415M636 413C639.116 415.63 640.951 416.896 645 416L643 413M3 414L2 418C7.29759 418 11.8415 418.673 16 415L32 418M110 414C111.762 419.803 116.776 419 122 419C132.61 419.001 152.36 422.215 161 416C171.359 423.451 197.517 418.927 210 419L204 414M387 414L393 420M465 414L466 415M670 414C683.25 425.207 710.671 420 727 420M54 418L60 415C65.0865 418.673 69.6708 419.828 74 415L74 415M96 418L106 418L97 418.278L74 419M177 415L177 418M448 415L458 420M543 415L555 418L533 420L485 420M468 416L471 420M661 416L672 418M110 417L107 419M236 417C234.45 421.745 243.592 420 247 420M138 418L141 419M210 418L215 419M401 420L415 420L453 420M555 418L611 418L639 417M15 419L18 418M46 419L49 418M59 419L62 418M160 419L162 419M201 419L203 419M225 420L234 419M331 419L334 420M379 419L372 420M395 419L399 419M473 419L477 420M217 420L219 420M221 420L222 420M250 420L263 420M265 420L280 420M296 420L299 420M301 420L306 420M309 420L310 420M312 420L313 420M338 420L348 420M367 420L370 420M387 420L388 420M479 420L483 420M18 423L18 427L55 427L55 424M88 423L86 427L117 428L113 428M217 423L222 429M402 423L414 428M8 427L9 425C7.37481 428.287 5.5502 428.397 2 428M16 424L9 429M28 426L31 427M52 424L52 427M464 424L471 429L414 430M6 425L3 428M131 425C126.145 429.29 123.092 429.001 117 428M150 425C152.644 432.967 171.054 429.509 176 425M579 425L591 426C592.85 430.627 596.02 430.112 600 428L592 427M11 426L12 427M56 426L70 427L63 429M124 426L149 429M180 426L175 427M195 426C202.666 431.514 209.86 426.838 218 428L215 429M221 426L222 429M486 426C495.526 432.197 508.034 430 519 430L590 430M727 430L682 430C679.799 430 665.522 430.43 670 426M23 427L14 428M125 427L125 429M184 427C186.047 430.838 180.03 429.229 178 428M189 429L187 427L196 429M272 427L287 430M601 428C606.775 426.309 613.017 427.998 619 428C632.739 428.005 655.887 423.587 668 430M666 427L667 427M70 428L85 428M176 428L173 430M381 428L388 430M56 429L59 428M225 429L267 430M345 429L351 430M472 429L476 430M269 430L273 429M295 430L314 430M321 430L324 430M328 430L329 430M339 430L340 430M357 430L361 430M364 430L366 430M368 430L380 430M390 430L398 430M401 430L402 430M405 430L406 430M417 432L418 433M44 433L42 437L68 438.004L110 438.015L133 437L130 438M231 433L240 440M2 438L11 434L17 437L13 435M86 434L88 436M97 434L98 434M420 434L425 440M133 438L140 435C148.317 441.005 162.575 440.189 171 435M164 438C166.352 435.728 169.829 438.678 173 438.941C179.683 439.496 187.435 440.003 193 436L204 440M223 437L225 437L205 439M502 435L513 440M234 436L226 439M485 436C485.465 441.843 476.155 440 472 440C458.051 440 441.561 442.365 428 439M18 438L41 438M272 437C270.574 441.368 276.781 440 280 440M9 438L12 438M237 438L232 439M421 438L416 440M488 438L493 440M125 439L127 439M139 439L142 438M192 439L194 439M252 440L270 439M325 439L331 440M333 440L364 440M283 440L293 440M296 440L309 440M378 440L381 440M400 440L402 440M487 440L488 440M515 440L727 440M435 443C449.672 452.898 466.854 450 484 450C491.427 450 499.848 451.114 507 449L501 445M2 447C7.35003 447.422 13.359 444.985 18 445.593C20.5604 445.928 22.3274 448.307 25 448.374C27.8174 448.445 30.0982 446.294 33 446.438C45.6963 447.07 66.3741 452.986 77 444C81.8145 448.278 88.1314 451.051 94 447L91 448M31 444L31 445M95 444L93 446M137 444C131.329 448.822 126.035 449.461 120 445C112.682 450.324 102.649 448 94 448M149 444L152 445M139 445C143.447 449.588 149.346 449.783 155 447L154 450M150 445L150 448M157 448L161 445L182 449L175 449M246 445L252 448L253 447L254 447M520 445C535.506 455.214 562.945 450 581 450L727 450M136 446L140 449M146 446L146 448M198 446C202.602 449.345 210.903 451.122 216 448L213 448M210 446L210 448M216 449L221 446C226.324 449.83 231.676 449.83 237 446M242 447L244 449L236 449M248 446L249 449M33 447L29 448M74 447L80 448M263 447C273.56 454.596 297.234 449.772 310 450M15 448L20 448M183 448L199 449M264 448L252 449M338 448L346 450M443 448L438 450M33 449L36 448M119 449L121 449M134 449L135 449M160 449L163 448M220 449L222 449M327 449L322 450M361 450L381 450M400 450L418 450M313 450L319 450M349 450L350 450M353 450L355 450M358 450L359 450M383 450L386 450M389 450L390 450M421 450L422 450M424 450L425 450M430 450L436 450M508 450L511 450M2 458C14.012 457.052 31.6497 461.309 41 453C47.2542 461.381 76.6568 460.604 85 455C90.7249 459.118 95.7126 458.472 101 454L109 458L105 457M70 457L73 453L74 457M257 453L263 458C256.126 459.946 245.115 459.83 239 456C235.053 458.652 232.946 458.652 229 456C218.664 465.425 193.61 454.366 181 458L185 459M452 453L458 459M81 454L81 457M122 454L123 454M140 454L141 459L181 458M153 454L152 456M162 454L161 457M217 454L219 457M137 455L138 455M199 455L199 458M213 455L213 458M221 455L221 458M538 455L539 456M216 456L216 458M224 458L228 458M256 458L259 456M392 456L390 460M520 456L528 460M125 458L123 460L121 458L125 458M167 457L165 459M39 458L42 458M99 458L103 458M109 458L121 458M125 458L139 459M170 458L168 460M231 458L229 460M264 460C276.849 453.01 298.086 465.425 312 458M316 458L321 460M422 460L429 458M468 458C478.203 463.445 496.537 460 508 460C513.28 460 518.25 460.535 523 458M542 458C557.475 464.557 582.269 460 599 460L727 460M84 459L87 458M147 459L151 458M204 459L202 459M206 459L208 459M238 459L240 459M368 460L388 459M461 459L468 460M273 460L274 460M314 460L316 460M323 460L327 460M337 460L338 460M340 460L342 460M344 460L349 460M355 460L358 460M362 460L365 460M392 460L397 460M408 460L410 460M416 460L418 460M431 460L434 460M442 460L455 460M270 462L282 470M467 462L468 463M48 463L52 468L40 467L44 463M64 468L63 463C69.035 471.111 72.2293 465.145 80 465.295C85.4904 465.401 88.6511 470.052 94 466L91 463M111 469C108.203 467.007 109.214 465.665 111 463L113 469L139 465C143.866 468.5 149.317 468.68 155 467L152 464M33 467C36.1132 465.188 36.8868 465.188 40 467L3 467M102 467L95 467C99.7243 464.317 102.312 467.427 107 469M112 464L114 464M163 464C166.363 471.652 193.558 470.234 200 466C205.105 469.553 218.857 469.766 225 468L223 465M173 464L173 467M234 464L240 470L241 469L241 468L226 469M470 464L476 468M52 467L61 468M80 465L83 468M161 465L163 468M536 465L540 468L520 470L478 470M555 465C570.73 473.712 592.314 470 610 470L727 470M274 466C265.557 471.672 250.905 469 241 469M57 467L53 469M236 467L234 469M375 467L369 470M77 468L79 468M156 468L162 469M180 469L177 470M208 468L212 468M295 468L310 470L353 470M541 468L544 470M115 469L118 468M138 469L141 468M199 469L201 469M273 469L276 469M284 470L294 469M407 469L423 470M447 470L454 470M374 470L375 470M377 470L378 470M380 470L382 470M443 470L444 470M460 470L467 470M470 470L471 470M540 470L541 470M553 470L554 470M17 472C15.0479 476.127 17.719 477.541 22 477.736C27.5451 477.989 32.8556 475.695 38.1698 475.449C44.409 475.16 49.2984 478.658 56 477L53 473L52 477M2 477L14 475M91 478L89 473C93.6453 477.886 96.6768 478.38 102 474L113 478L115 473C122.153 477.398 132.813 481.349 140 475C147.506 480.395 155.933 477.135 164 475M92 475L94 473L96 477M151 473L150 477M484 473C486.98 474.597 491.384 476.274 491 480M154 476L159 476M187 474C186.916 478.745 191.389 477.186 195 478L191 478M280 474C278.916 479.872 272.944 479.047 268 478.996C257.04 478.884 243.461 476.507 233 478L236 479M285 474C298.562 482.434 328.24 483.658 344 479L342 476M572 474L573 475M226 475L227 475M242 475L243 475M249 475L248 478M115 476L117 476M117 476L120 478M161 476C164.439 480.894 179.158 478 185 478M163 476L163 478M225 479L223 477L233 478M288 476L280 478M555 476L563 480M575 476C586.822 483.691 606.298 480 620 480L727 480M56 477L87 478M112 477L108 479M289 477L287 479M10 478L15 477M37 478L41 478M100 478L102 478M114 478L118 478M195 478L222 478M421 478L428 480M462 478L467 480M558 478L539 480L494 479M139 479L142 478M159 479L160 479M344 479L362 480M365 480L388 480M437 479L433 480M393 480L398 480M402 480L403 480M407 480L408 480M420 480L422 480M440 480L443 480M445 480L455 480M457 480L458 480M461 480L462 480M469 480L471 480M473 480L479 480M481 480L482 480M27 482L27 487C18.0698 487.184 7.45437 490.728 1 483M297 482L309 490M67 486C62.5017 484.396 58.1214 484.528 54 487C60.6044 490.159 69.1397 486.66 75 483L77 487L81 484C88.769 490.57 112.559 490.671 121 485C123.701 486.852 124.858 487.699 127 485L123 488M109 483L108 487M115 483L117 487M7 486L13 487M161 484C159.216 492.761 183.278 486.204 183 486M254 484C253.462 489.983 258.586 490.052 263 488L259 489M503 484C516.621 494.459 539.515 490 556 490C562.834 490 570.416 490.946 577 489L571 485M139 488L131 488L160 487M196 485C202.034 486.55 204.968 489.031 211 486C217.328 491.974 225.523 486.617 233 488L230 489M202 487L206 487M240 485L242 489C246.01 486.754 248.106 486.453 252 489M251 485L253 487M288 485C289.743 490.173 297.589 489.85 302 488M0 486L3 488M135 486L135 488M185 486L184 489M199 486L202 489M292 486L292 488M593 486L596 490M28 488L54 487M76 488L67 488M264 489L287 489M343 487C341.408 491.876 357.636 491.217 359 488M424 487L415 490M436 487L442 490M79 488L83 488M187 488L198 489M233 488L240 489M245 489L251 489M319 488L324 490M504 488L499 490M120 489L122 489M127 489L130 489M209 489L211 489M326 490L341 489M361 490L383 490M598 489L600 490M311 490L314 490M394 490L395 490M400 490L402 490M405 490L406 490M409 490L410 490M412 490L413 490M423 490L437 489M453 490L454 490M459 490L461 490M480 490L482 490M493 490L494 490M508 490L509 490M578 490L581 490M603 490L727 490M97 492L98 492M11 498L6 497L25 497.127L48 496.853L56 494.568L75 497L67 493L66 497M137 493C141.189 498.63 147.503 499.855 153 495C158.074 499.008 163.031 499.406 168 495C170.552 497.111 171.984 498.653 175 497L170 498M292 493L291 494M312 493C316.657 497.544 321.025 501.781 327 497M518 493L525 500L522 500M76 497L82 497L75 496M104 498C106.942 495.912 107.731 495.516 111 497L83 497M122 498L117 497L127 495L128 494L128 496M171 494L171 498M302 494C304.651 499.977 309.78 498.834 314 495M587 494L588 495M70 495L70 497M209 495C215.566 499.723 225.785 500.256 232 495L230 499M239 499L235 498L248 496L261 498.828L296 497.188L304 497M249 495L250 495M306 495L304 497M330 495L330 496M129 496L138 498M201 499L199 497L204 499L205 498L202 497M268 496L268 498M302 496L299 498M332 497C341.526 503.853 361.223 500.755 371 496M590 496L598 500M611 496L620 500M2 497L6 497M111 497L117 497M130 497L125 498M451 497C449.673 501.043 454.85 499.828 458 500M491 497L492 497M19 498C20.5067 504.333 24.4841 507.849 31 506L27 498M53 498L59 497M84 498C84.0368 508.409 87.5107 503.177 94 507L89 508M175 498L198 498M206 498L211 498M233 498L235 498M253 498L256 499M413 498L418 500M494 498L499 500M593 498L573 500L527 499M152 499L155 498M167 499L169 499M245 499L247 499M295 499L298 499M313 499L316 499M367 499L395 500M445 500L449 499M327 500L333 499M404 500L406 500M421 500L428 500M435 500L439 500M441 500L442 500M460 500L462 500M464 500L465 500M486 500L494 500M516 500L520 500M622 500L727 500M19 501C16.3756 504.118 2.81473 512.973 3 504L7 507M148 502L146 506L151 508L150 503M324 502L325 508L336 508M32 507C38.8432 508.488 46.628 507.543 52 503C62.1505 511.591 69.6084 503.917 80 505L81 506L82 507L83 507M126 505L122 507L124 503C128.69 505.495 131.462 508.377 137 507L132 506M141 503L146 506M32 507C35.1132 505.188 35.8868 505.188 39 507M143 504L138 508M173 507L170 508L172 504L179 508L183 504L189 504C192.121 511.217 202.462 508.433 208 505L204 506M192 505L194 507M199 504L197 507M281 504C286.988 510.238 296.428 507.158 304 509L302 507M536 504L542 508M152 506L167 509L168 509L169 509M190 505L192 505M223 508L219 508C225.265 509.061 232.025 509.166 237 505L239 509L243 505L251 508L247 507M251 508L267 510C268.375 507.452 268.232 506.063 271 507L272 506L273 505L274 505M297 505L297 508M324 509L325 506M328 505L330 507M627 505L637 510M106 507L101 508L121 508M209 506C211.399 509.398 215.198 508.571 219 508M245 506L246 509M264 506L264 508M266 506L266 509M272 506C276.572 508.965 280.473 509.074 285 506M311 506C313.772 510.254 317.745 507.392 322 508L319 509M344 506L346 510L338 510M607 506L616 510M16 507L22 507M94 507L100 508M178 507L174 509M386 507L392 509M465 510L479 507M50 508L55 507M76 508L81 507M125 508L128 508M141 508L146 508M151 508L155 508M181 508L186 508M237 508L234 509M387 508C379.297 512.111 367.594 510 359 510M510 508L518 510M6 509L3 517M163 509L165 509M187 509L189 509M200 509L202 509M207 509L208 509M271 509L273 509M283 508L288 509M306 509L310 509M348 509L357 510M419 510L434 510M544 509C564.307 514.039 590.074 510 611 510M400 510L401 510M446 510L452 510M478 510L481 510M483 510L484 510M489 510L491 510M500 510L501 510M528 510L530 510M537 510L538 510M640 510L726 510M26 516C22.4125 516.649 22.6137 514.89 24 512C30.3045 520.473 53.3628 519.722 60 512C67.8703 520.7 74.5168 510.966 83 517L73 518M62 513L65 516M98 512C96.5419 521.985 122.277 517.364 127 513C130.105 518.403 133.552 517.647 138 514C140.315 516.841 141.356 517.861 145 517L140 515M68 513L68 516M83 517C88.427 515.598 90.9015 513.521 96 517M155 517L156 513C157.397 516.595 157.838 518.625 162 518L158 515M339 513L344 518C341.2 518.083 340.736 517.8 341 515M551 513L558 520M132 514L132 517M172 516L173 519L172 515L173 514L181 517L176 516M184 514L183 519L200 515C204.706 518.482 209.305 519.397 215 518L211 517M193 514L194 517M244 514L248 518L249 514M265 514C265.987 518.661 272.098 517.32 276 519L278 515L282 518L277 517M267 514L267 517M316 514L317 519L338 517M79 515L77 517M92 515L87 517M235 515L239 515M253 515L265 518M261 515L261 518M315 519L309 516L311 515M623 515L629 519L580 520L559 518M645 515L646 516M5 516L21 517M184 516L190 518M228 518L225 517L245 518M255 516L249 519M280 516L278 518M290 518L295 518L282 518M303 517L305 519L296 518M135 517L139 519M225 518L221 518L225 517M254 517L257 519M359 517C364.852 521.21 373.578 521.091 380 518M465 517L464 520M648 517L655 520M24 518L26 525L3 527M58 518L63 517M91 518L95 518M124 518L128 518M146 518L154 518M162 518L170 518M215 518L221 518M324 518L318 519M340 518L337 519M345 518L349 520M417 520L428 520M621 518L620 519M11 519L11 525M199 519L202 518M271 519L273 519M306 520L308 519M392 520L412 520M456 520L463 519M527 519L532 520M548 519L538 520M630 519L633 520M353 520L360 519M380 520L390 520M421 520L422 520M430 520L433 520M444 520L448 520M466 520L467 520M486 520L488 520M502 520L508 520M511 520L514 520M657 520L727 520M70 522C78.9273 530.254 83.1758 524.168 92.8302 524.168C95.317 524.168 97.4872 526.469 100.015 526.853C109.7 528.324 131.071 530.766 137 522M351 522C353.483 524.236 355.885 527.884 359.104 529.022C363.85 530.699 370.059 529.642 375 529.71C385.928 529.86 399.144 532.422 409 527M566 522L567 523M135 528L163 523M204 523L205 523M221 524L219 528L227 524M250 524C252.359 527.772 253.354 527.339 256 524L256 524M272 524L274 528L264 528L268 528M282 527L276 527L282 527M294 524C290.781 527.868 286.902 528.826 282 528M297 524L301 529L297 528M158 528C167.338 528 183.452 530.43 191 525L218 528M229 525C230.62 527.941 231.686 528.499 235 528L233 525M261 528C258.265 528.084 257.915 527.735 258 525L264 528M303 525L303 529M89 526L96 527M323 526C321.645 530.15 326.194 529.026 329 528L325 526M330 529L352 527L353 528L354 529L355 529M26 527L73 527M213 527L217 529M305 527L308 528L306 530L304 528M415 527C420.436 530.91 426.557 530 433 530M574 527L581 530M63 528C65.6722 537.802 79.398 540.926 86 533L83 535M91 528L88 535C95.3635 538.945 109.641 538.074 118 537.684C122.154 537.489 123.951 535.176 128 537L129 536L129 534M221 528L225 528M225 528L228 528M235 528L250 528M308 528L321 528M450 528L446 530M499 528L505 530M190 529L193 528M255 529L256 529M293 529L296 529M350 529L352 529M493 529L489 530M583 530L661 530M407 530L416 530M436 530L438 530M443 530L444 530M452 530L454 530M458 530L462 530M469 530L470 530M495 530L500 530M507 530L575 530M663 530L726 530M24 537L17 537L21 532C28.2723 538.814 45.4565 540.303 53 533M86 533L88 535M137 538L135 533C140.966 539.311 150.848 539.116 159 537L154 536M165 533L172 538L176 534L188 538L185 539M190 533L190 534M193 533C199.341 538.862 218.751 542.142 224 533M365 533L370 537C366.328 538.626 363.881 538.821 362 535M165 534L160 538M204 537L207 536M258 534C257.233 542.464 274.21 534.697 280 538M311 534C314.628 538.866 326.718 540.881 330 535M336 534L338 535M224 535C230.514 539.704 241.732 540.542 248 535L256 539M293 535C293.623 540.528 299.254 537.606 302 535M333 535L336 539L342 538L339 539M538 535C531.01 542.828 509.182 540 499 540M129 536L133 538M167 536L167 538L163 538M236 536L236 538M291 536C287.543 538.451 285.822 538.921 282 537M301 539L312 537M355 539L356 536L362 539M355 539L361 536M367 536L367 538M515 536L515 538M519 536L519 538M523 536L523 539M528 536L528 538M544 536C542.172 539.101 540.519 539.454 537 539M16 538L18 543C14.6422 544.773 3.28277 547.352 1.75154 541.791C-0.1004 535.065 12.9335 537.094 16 538M51 538L66 537M173 537L179 537M197 537L188 538M371 537C375.196 540.018 383.903 542.45 387 537M18 538L18 541M28 538C28.6971 546.973 42.6842 547.616 43 538M84 538L89 537M97 538C97.1662 543.078 101.379 547.446 106 543C116.18 547.314 130.053 544.809 141 545.025C146.17 545.127 150.517 545.881 155 543L184 546M123 538L128 538M264 538L274 538M283 538L280 539M311 538L313 540L318 539M343 538L353 539M369 538L372 539M129 539L132 538M168 539L171 538M221 539L226 538M247 539L250 538M290 539L292 539M305 539L308 539M330 539L334 539M390 539L438 540M560 539L560 540M613 539L613 540M631 539L631 540M687 539L684 540M440 540L443 540M447 540L479 540M481 540L482 540M569 540L571 540M580 540L587 540M599 540L602 540M606 540L609 540M618 540L620 540M627 540L628 540M639 540L644 540M650 540L651 540M668 540L669 540M695 540L696 540M707 540L708 540M711 540L712 540M724 540L727 540M103 545L106 543M123 543L125 542M131 542L130 543M161 542L160 543M87 543L96 545M173 544L177 543M199 543L200 543M216 543C224.134 548.834 235.967 545.335 245 544M226 543L225 544M379 543L379 546M18 545L27 544M43 544L86 545M247 546L273 546M262 544L262 545M298 546L314 546M355 544L358 546M186 545L217 545M275 546L283 545M382 545L383 546M242 546L244 546M286 546L287 546M289 546L295 546M318 546L328 546M330 546L337 546M340 546L347 546M352 546L353 546M370 546L374 546M376 546L377 546"/>
</svg>
