<?xml version="1.0" standalone="yes"?>
<svg width="738" height="1000">
<path style="stroke:#000000; fill:none;" d="M182 150.028C190.571 145.742 207.485 149 217 149L303 149C346.914 149 391.878 148.044 435 157.211C454.561 161.369 473.393 167.763 491 177.309C578.34 224.657 578 336.1 578 423L578 475C578 562.839 579.258 679.995 488 725.63C416.674 761.297 328.321 752 251 752L202 752C189.438 752 179.252 753.116 171.603 741C167.743 734.885 170 723.018 170 716L170 655L170 426L170 219C170 200.152 161.852 160.102 182 150.028"/>
</svg>
