<?xml version="1.0" standalone="yes"?>
<svg width="510" height="1000">
<path style="stroke:#000000; fill:none;" d="M106 536C109.382 521.795 108.602 505.595 110.166 491C115.375 442.371 125.611 388.262 171 360.615C211.706 335.82 268.493 334.073 314 344.502C335.284 349.379 356.939 357.683 372.91 373.17C399.97 399.407 409.068 433.895 414.271 470C416.393 484.731 422.667 506.384 419.643 521C414.918 543.837 378.311 537 362 537L177 537L123 537C117.816 537 106.435 534.559 106.098 542.019C105.451 556.323 108.406 571.749 109.831 586C115.553 643.23 129.714 711.304 185 741.688C220.338 761.109 261.808 762.845 301 758.155C320.974 755.765 341.299 751.367 359 741.424C380.268 729.477 403.495 708.35 408 683"/>
</svg>
