<?xml version="1.0" standalone="yes"?>
<svg width="750" height="1000">
<path style="stroke:#000000; fill:none;" d="M432 456L546 456C556.715 456 579.939 451.637 588.981 457.603C594.556 461.282 594 467.122 594 473L594 507C594 548.977 594.873 591.114 593.039 633C592.572 643.672 596.245 668.263 588.682 676.536C569.423 697.602 536.989 699.627 513.089 711.554C506.252 714.967 500.414 721.514 494 725.795C483.176 733.018 471.306 738.717 459 742.921C373.434 772.153 263.96 753.148 210.623 676C185.727 639.99 178.084 595.54 173.831 553C166.755 482.232 166.755 407.768 173.831 337C178.254 292.762 185.435 247.873 210.427 210C251.705 147.45 330.431 134.12 400 138.911C430.398 141.004 460.653 145.352 488 159.703C520.255 176.629 551.88 203.915 563 240M590 676C594.356 682.056 593 689.827 593 697L593 744"/>
</svg>
