<?xml version="1.0" standalone="yes"?>
<svg width="1155" height="1000">
<path style="stroke:#000000; fill:none;" d="M170 740L170 510C170 483.513 168.323 456.351 170.83 430C171.486 423.109 170.048 414.604 172.603 408.04C174.777 402.457 183.156 398.912 188 396C203.395 386.744 219.275 378.769 236 372.203C249.268 366.994 260.808 358.692 274 353.758C290.237 347.684 308.94 345.548 326 342.754C336.849 340.977 351.161 337.038 362 339.76C379.102 344.054 396.851 359.623 410 371C425.781 355.94 445.243 353.72 465 347.405C515.173 331.368 573.013 325.076 624 343.435C642.354 350.044 657.735 361.974 675 370.756C679.785 373.19 685.717 379.48 691 380.046C696.233 380.606 704.134 374.94 709 373C726.508 366.018 742.185 355.209 760 349.079C794.591 337.175 832.143 337.246 868 340.831C894.013 343.432 918.823 349.155 941 363.696C981.951 390.547 990.465 440.24 996.282 485C998.566 502.578 1005.74 526.105 986 535.972C980.897 538.524 972.579 537 967 537L923 537L767 537C750.942 537 735.039 536 719 536C712.8 536 704.235 534.395 699 538.318C694.266 541.865 684.151 550.05 682.813 556C681.792 560.543 685.923 567.683 687.33 572C690.506 581.744 692.874 592.724 692.996 603C693.617 655.188 691.11 719.124 636 742.536C616.912 750.645 597.415 753.778 577 756.285C528.174 762.281 473.458 758.178 435 723.826C422.034 712.245 414.729 698.13 407 683M170 361C170 373.273 165.694 395.844 173 406M410 371C410 397.645 412.13 424.953 418.119 451C420.917 463.167 423.291 474.857 431.039 485C448.199 507.464 479.493 517.453 506 523.425C548.37 532.972 591.237 538.145 634 545.286C649.905 547.941 666.041 553.411 682 555"/>
</svg>
