<?xml version="1.0" standalone="yes"?>
<svg width="515" height="1000">
<path style="stroke:#000000; fill:none;" d="M105 136L105 149M105 536L105 396C105 381.846 99.7452 354.666 110.019 344.001C118.824 334.861 129.182 337 141 337L210 337C259.939 337 320.302 335.021 363 365.042C408.595 397.102 419.35 466.905 419.772 519C419.92 537.255 396.007 537 384 537L258 537L146 537L118 537C114.879 537 109.221 535.954 106.603 538.028C103.649 540.368 105 547.685 105 551L105 588L105 702C105 715.958 100.783 737.925 105.603 751C109.532 761.655 119.391 763 129 763L190 763C243.483 763 310.7 768.555 359 741.424C380.268 729.477 403.495 708.35 408 683"/>
</svg>
