<?xml version="1.0" standalone="yes"?>
<svg width="697" height="1000">
<path style="stroke:#000000; fill:none;" d="M170 457L170 231L170 184C170 177.462 168.324 168.182 170.603 162C172.277 157.461 177.389 153.197 181 150.148C188.04 144.203 202.261 147 211 147L289 147C333.403 147 378.281 147.144 422 155.389C450.759 160.813 479.677 171.464 498.441 195.17C512.636 213.103 518.903 235.857 522.75 258C525.396 273.23 528.973 289.487 527.911 305C525.706 337.197 518.889 376.463 499.511 403C479.84 429.936 449.463 441.414 418 447.807C370.892 457.379 321.946 458 274 458L199 458C192.777 458 176.57 455.094 171.603 459.028C168.061 461.833 170 472.913 170 477L170 528L170 740"/>
</svg>
