<?xml version="1.0" standalone="yes"?>
<svg width="619" height="1000">
<path style="stroke:#000000; fill:none;" d="M295 141.424C314.613 138.849 337.585 143.699 357 146.704C375.357 149.545 392.944 155.686 410 163.001C420.423 167.471 429.749 173.805 439 180.28C522.912 239.016 515 357.285 515 448C515 480.402 515.302 512.725 513.089 545C510.809 578.264 508.45 613.439 496.772 645C490.881 660.918 479.935 673.793 473.39 689C468.046 701.419 469.056 723.987 458.606 733.487C452.103 739.399 437.344 740.201 429 742.119C401.729 748.388 372.719 753.266 345 756.715C315.559 760.378 287.445 759.777 258 756.831C239.368 754.967 221.319 749.473 204 742.601C191.166 737.509 179.118 731.572 168 723.255C78.3047 656.15 90 526.858 90 427C90 354.16 88.5628 262.303 139.289 204C164.99 174.461 201.946 155.36 240 147.513C258.17 143.766 276.703 143.827 295 141.424M459 734C467.545 743.012 468.441 755.352 475.638 764.96C485.121 777.619 507.135 788.619 521 796"/>
</svg>
