<?xml version="1.0" standalone="yes"?>
<svg width="517" height="1000">
<path style="stroke:#000000; fill:none;" d="M127 690C155.899 759.412 244.46 763.968 308 755.13C333.683 751.558 362.503 744.006 382 725.91C396.926 712.056 401.116 693.033 405.873 674C408.75 662.491 413.42 648.938 411.561 637C409.67 624.857 407.529 611.614 400.954 601C389.127 581.904 367.067 570.652 347 562.547C302.963 544.762 255.008 538.653 210 523.748C172.085 511.193 127.962 490.357 130.76 443C131.843 424.681 137.623 396.378 147.825 381C177.254 336.637 245.034 335.469 292 338.911C320.537 341.003 347.206 349.45 370 367.12C379.392 374.4 390.018 385.125 393 397"/>
</svg>
