<?xml version="1.0" standalone="yes"?>
<svg width="714" height="1000">
<path style="stroke:#000000; fill:none;" d="M177 635C188.099 665.215 200.582 693.379 226 714.675C278.57 758.72 354.831 764.664 420 753.321C455.314 747.174 488.784 733.903 512.7 706C536.402 678.347 543.587 635.395 546.011 600C546.761 589.046 544.073 577.709 542 567C539.216 552.618 536.223 538.126 529.382 525C511.918 491.49 477.679 470.821 443 458.655C420.736 450.844 398.584 443.044 376 436.026C313.055 416.465 233.823 398.771 202.959 333C197.205 320.739 195.231 306.303 193.272 293C191.012 277.663 194.382 262.109 197.4 247C201.619 225.873 205.263 204.678 218.514 187C254.472 139.027 316.965 133.877 372 137.911C394.835 139.585 418.901 142.877 440 152.312C469.063 165.31 492.639 185.616 507.514 214C513.01 224.487 515.883 235.974 520 247"/>
</svg>
