<?xml version="1.0" standalone="yes"?>
<svg width="523" height="1000">
<path style="stroke:#000000; fill:none;" d="M114 344C121.739 377.453 137.812 409.698 149.308 442C171.5 504.355 193.066 567.074 216.424 629L229.576 664C231.55 669.234 232.898 676.449 236.51 680.79C241.096 686.302 249.901 689.429 256 693.011C260.916 695.898 270.03 703.826 276 702.216C285.306 699.706 306.475 687.459 312.298 679.815C317.072 673.548 318.263 663.384 320.67 656C326.207 639.013 331.724 622.059 337.025 605C356.126 543.537 375.647 482.06 396 421C404.453 395.642 410.159 368.456 421 344M275 705L275 750"/>
</svg>
