<?xml version="1.0" standalone="yes"?>
<svg width="750" height="1000">
<path style="stroke:#000000; fill:none;" d="M190 151L316.025 580L326.576 615L333.225 631.621L366 652.576L378.972 662.104L380 685L380 741M570 151C534.323 260.681 504.864 372.53 471.72 483C461.528 516.969 451.371 550.959 441.424 585C437.707 597.724 435.8 619.449 427.487 629.816C416.616 643.371 394.026 650.802 380 661"/>
</svg>
