<?xml version="1.0" encoding="UTF-8" standalone="no"?>
<!-- Created with Inkscape (http://www.inkscape.org/) -->

<svg
   version="1.1"
   id="svg2"
   width="607.72174"
   height="455.79129"
   viewBox="0 0 607.72174 455.79129"
   sodipodi:docname="img5.svg"
   inkscape:version="1.1.1 (3bf5ae0d25, 2021-09-20, custom)"
   xmlns:inkscape="http://www.inkscape.org/namespaces/inkscape"
   xmlns:sodipodi="http://sodipodi.sourceforge.net/DTD/sodipodi-0.dtd"
   xmlns="http://www.w3.org/2000/svg"
   xmlns:svg="http://www.w3.org/2000/svg">
  <defs
     id="defs6" />
  <sodipodi:namedview
     id="namedview4"
     pagecolor="#ffffff"
     bordercolor="#eeeeee"
     borderopacity="1"
     inkscape:pageshadow="0"
     inkscape:pageopacity="0"
     inkscape:pagecheckerboard="false"
     showgrid="false"
     inkscape:zoom="2.2641942"
     inkscape:cx="85.019209"
     inkscape:cy="37.540949"
     inkscape:window-width="675"
     inkscape:window-height="364"
     inkscape:window-x="685"
     inkscape:window-y="398"
     inkscape:window-maximized="1"
     inkscape:current-layer="g8" />
  <g
     inkscape:groupmode="layer"
     inkscape:label="Image"
     id="g8">
    <path
       style="fill:none;stroke:#050505;stroke-width:3.77953;stroke-linecap:round;stroke-miterlimit:4;stroke-dasharray:none"
       d="M 2.2390739,2.1412848 H 215.10868 m 6.6782,0 h 1.6696 m 5.0087,0 h 95.99999 m 2.5043,0 h 4.1739 m 2.5044,0 h 1.6696 m 1.6695,0 h 3.3392 m 2.5043,0 h 5.8435 m 1.6695,0 h 1.6696 m 3.3391,0 h 1.6696 m 2.5044,0 h 1.6695 m 1.6696,0 h 246.2609 m -271.3044,5.8434 c 0.01,3.0901002 -0.3164,3.6228002 0.8348,7.5131002 m -77.63479,-1.6696 c -0.052,-3.1776 1.1629,-4.1357002 4.1739,-5.0087002 m 16.6957,0 0.8348,4.1739002 1.6695,-2.5043 m 37.5652,-1.6696002 v 6.6783002 m 10.01739,-1.6696 c -1.9984,-1.9703 -3.3666,-3.2622 -0.8348,-5.0087002 m 20.0348,5.0087002 c 0.4166,-5.3376002 5.1924,-4.9078002 4.1739,0 m 241.2522,-5.0087002 c 1.5753,2.7580002 1.3657,2.8109002 0.8348,5.0087002 m 5.0087,-5.0087002 c -1.5828,2.9651002 -1.2455,3.4578002 0,5.8435002 M 2.2390739,10.489085 H 208.43038 m 6.6783,3.3391 c 0.5117,-1.659 0.2462,-2.0718 2.5043,-2.5043 m 1.6696,2.5043 c 0.9742,-1.5604 1.2246,-2.6069 3.3391,-1.6696 m 3.3391,-1.6695 2.5044,5.0087 m 3.3391,-4.1739 c 2.6037,-0.068 2.7882,0.4537 3.3391,2.5043 m 3.3392,-3.3391 2.5043,0.8348 -3.3391,2.5043 m 6.6783,-1.6696 c 2.2439,-1.2819 2.9885,-0.4625 4.1739,1.6696 m 4.1739,-3.3391 0.8348,1.6695 -2.5044,1.6696 m 16.6957,-0.8348 c 2.036,-1.7254 2.8349,-1.4467 4.1739,0.8348 m 2.5043,0 c 1.4968,-2.5772 2.4727,-2.538 5.0087,-1.6696 m 8.3479,-1.6695 v 3.3391 m 4.1739,-3.3391 0.8347,1.6695 -2.5043,1.6696 m 9.1826,0 c -1.5452,-1.6492 -2.0293,-2.1452 0,-3.3391 m 5.0087,0 4.1739,3.3391 m 2.5044,0 c 1.2663,-2.2779 2.0619,-2.8758 4.1739,-1.6696 m 2.5043,-0.8347 3.3392,-0.8348 m 21.70429,0 0.8348,1.6695 -2.5044,1.6696 m 18.3653,-3.3391 c 6.0455,1.3951 7.2876,-0.6828002 12.5217,0.8348 l -3.3391,2.5043 m 6.6782,-3.3391 h 215.3739 m 1.6696,0 h 0.8348 m 12.5217,0 h 0.8348 m 1.6696,0 h 0.8348 m -301.35659,0.8348 -3.3391,2.5043 m 56.76519,-2.5043 -1.6695,4.1739 m 5.8434,-4.1739 v 2.5043 m -140.24339,0 2.5043,-1.6696 m 134.39999,0 v 3.3392 m -136.06959,0 h 0.8348 m 11.687,0 h 0.8348 m 5.8434,0 h 0.8348 m 6.6783,0 h 0.8348 m 9.1826,0 h 1.6695 m 5.0087,0 h 0.8348 m 5.8435,0 h 0.8348 m 15.0261,0 h 1.6695 m 3.3392,0 h 0.8347 m 7.5131,0 h 0.8348 m 12.5217,0 h 0.8348 m 9.18259,0 h 1.6696 m 12.5217,0 h 0.8348 m 9.1826,0 h 0.8348 m 15.8608,0 h 0.8348 m -121.87819,1.669499 -4.1739,1.6696 m -242.0870061,0 H 219.28258 m 8.3478,0 h 0.8348 m 3.3391,0 h 1.6696 m 5.0087,0 h 2.5043 m 12.5218,0 h 1.6695 m 26.7131,0 h 5.0087 m 5.8434,0 h 10.8522 m 1.6696,0 h 1.6696 m 4.1739,0 h 0.8347 m 2.5044,0 h 0.8348 m 15.02609,0 h 1.6695 m 15.8609,0 h 0.8348 m 2.5043,0 h 0.8348 m 4.1739,0 h 0.8348 m 3.3391,0 h 1.6696 m 2.5044,0 h 0.8347 m 5.8435,0 h 0.8348 m 2.5043,0 h 234.574 M 2.2390739,27.184684 H 609.12607 M 26.447774,50.558589 v 5.0087 m 91.826106,-5.0087 h 0.8348 m 67.6174,0 0.8347,5.0087 5.0087,-0.8347 m -0.8347,-4.174 h 0.8347 m 43.4087,0 h 0.8348 m 143.58259,0 h 0.8348 m 12.5217,4.174 1.6696,-4.174 m 128.5565,0 h 0.8348 m 35.0609,0 v 4.174 m -539.269596,-3.3392 h 3.3391 m 29.217404,0 v 1.6696 m 2.5044,-1.6696 v 3.3392 m 51.756502,-3.3392 3.3391,2.5044 m 115.2,-2.5044 -4.1739,3.3392 m 35.0609,-3.3392 -5.0087,3.3392 m 123.54779,0.8347 3.3392,-4.1739 m 34.226,0 v 0.8348 m 36.7305,-0.8348 -0.8348,4.1739 m -426.573896,-3.3391 v 2.5044 m 20.8695,-2.5044 -0.8347,2.5044 m 102.678206,-2.5044 -0.8348,2.5044 m 55.9305,-2.5044 3.3391,0.8348 m 36.7304,-0.8348 -0.8347,2.5044 m 113.53039,-2.5044 v 2.5044 m 118.5391,-1.6696 h 5.0087 m 50.9218,-0.8348 v 3.3391 m 29.2174,-3.3391 -0.8348,2.5044 m -528.417396,-1.6696 3.3391,1.6696 m 2.5044,0.8347 3.3391,-1.6695 m 9.1826,0.8348 h 4.173904 m 8.3478,0 h 4.1739 m 1.6696,-1.6696 0.8348,0.8348 m 6.6783,-0.8348 -0.8348,1.6696 m 2.5043,-1.6696 v 2.5043 m 3.3392,-1.6695 3.3391,1.6695 m 2.5043,-0.8347 4.1739,0.8347 m 5.0087,-2.5043 0.8348,0.8348 m 6.6783,-0.8348 -0.8348,1.6696 m 2.504302,0.8347 c 1.5828,-1.3949 2.1438,-1.8205 3.3392,0 m 10.8522,0 c -1.2531,-1.5123 -0.9667,-1.6882 0.8347,-2.5043 m 5.8435,2.5043 1.6696,-2.5043 m 1.6695,2.5043 4.174,-0.8347 -1.6696,0.8347 m 3.3391,-0.8347 2.5044,-1.6696 m 7.513,2.5043 -1.6696,-1.6695 5.0087,-0.8348 m 3.3392,2.5043 5.0087,-0.8347 m 2.5043,0 1.6696,-1.6696 m 1.6695,1.6696 4.174,0.8347 m 5.0087,-0.8347 3.3391,-1.6696 m 2.5043,1.6696 h 4.1739 m 2.5044,0 h 4.1739 m 10.8522,0.8347 4.1739,-0.8347 -1.6696,0.8347 m 12.5218,-2.5043 0.8348,1.6696 m 5.0086,-0.8348 3.3392,0.8348 m 13.3565,0.8347 1.6696,-2.5043 m 9.1826,2.5043 c 1.0526,-1.8234 1.526,-1.9173 3.3391,-0.8347 l -1.6696,0.8347 m 14.1913,-2.5043 2.5044,0.8348 m 3.3391,0.8348 c 0.5677,-1.7027 -0.033,-1.102 1.6696,-1.6696 m 2.5043,0 2.5044,0.8348 -2.5044,1.6695 m 8.3479,-0.8347 h 4.1739 m 3.3391,-0.8348 3.3391,1.6695 m 5.0087,-2.5043 0.8348,2.5043 m 3.3391,-2.5043 -0.8347,2.5043 m 2.5043,-0.8347 h 5.0087 m 5.8435,-1.6696 v 2.5043 m 2.5043,-2.5043 h 2.5044 m 5.0087,1.6696 3.33909,-1.6696 m 1.6696,1.6696 h 5.0087 m 1.6695,-1.6696 7.5131,1.6696 m 2.5043,-1.6696 5.0087,1.6696 m 1.6696,-1.6696 h 0.8348 m 6.6782,2.5043 1.6696,-2.5043 m 1.6696,2.5043 3.3391,-1.6695 m 2.5043,0 2.5044,-0.8348 m 15.8609,1.6696 1.6695,-1.6696 m 1.6696,1.6696 h 4.1739 l -1.6696,0.8347 m 7.5131,-0.8347 h 4.1739 m 2.5043,-1.6696 1.6696,2.5043 1.6696,-2.5043 m 10.8521,2.5043 c 1.5828,-1.3948 2.1438,-1.8205 3.3392,0 m 2.5043,0 4.1739,-0.8347 -1.6695,0.8347 m 3.3391,-2.5043 5.0087,1.6696 m 3.3391,0.8347 1.6696,-2.5043 m 5.0087,1.6696 4.1739,-1.6696 m 3.3391,0 2.5044,0.8348 -2.5044,1.6695 m 5.8435,-0.8347 c 0.5677,-1.7027 -0.033,-1.102 1.6696,-1.6696 m 2.5043,0 0.8348,1.6696 m 15.0261,0 h 4.1739 m 2.5043,-1.6696 c 3.1781,0.3086 5.6131,-0.3334 7.5131,2.5043 m 5.0087,-2.5043 0.8348,0.8348 m 5.8434,-0.8348 v 1.6696 m 2.5044,-0.8348 c 1.8774,-0.2406 2.8366,-0.1643 1.6696,1.6695 m 5.0087,-2.5043 3.3391,0.8348 m 3.3391,1.6695 1.6696,-2.5043 m 2.5043,0 v 2.5043 m 6.6783,0 4.1739,-0.8347 -2.5043,0.8347 m 5.8434,0 c -1.253,-1.5123 -0.9666,-1.6882 0.8348,-2.5043 m 5.0087,0 0.8348,0.8348 m 6.6783,-0.8348 -0.8348,1.6696 m 2.5043,-1.6696 v 1.6696 m 7.5131,-1.6696 3.3391,1.6696 m -445.77389,-0.8348 v 0.8348 m 82.6435,-0.8348 1.6695,1.6695 m 173.63479,-1.6695 h 2.5044 m 1.6695,0 h 0.8348 m 166.1217,0 h 0.8348 m -512.556496,1.6695 h 0.8348 m -3.3391,1.6696 0.8347,0.8348 m 15.860904,-0.8348 -0.8348,0.8348 m 9.1826,-0.8348 0.8348,0.8348 m 6.6783,-0.8348 v 0.8348 m 7.513,-0.8348 v 0.8348 m 6.6783,-0.8348 v 0.8348 m 2.5043,-0.8348 1.6696,1.6696 m 2.5043,-1.6696 -4.1739,4.1739 m 10.8522,-4.1739 v 0.8348 m 17.530402,-0.8348 -1.6695,1.6696 m 64.2782,-1.6696 0.8348,0.8348 m 5.8435,-0.8348 3.3391,0.8348 m 3.3392,-0.8348 v 0.8348 m 2.5043,-0.8348 0.8348,0.8348 m 5.0087,-0.8348 0.8348,0.8348 m 19.2,-0.8348 v 0.8348 m 6.6782,-0.8348 0.8348,0.8348 m 11.687,-0.8348 -0.8348,0.8348 m 35.0609,-0.8348 0.8347,0.8348 m 12.5218,-0.8348 -0.8348,0.8348 m 7.513,-0.8348 v 0.8348 m 31.7218,-0.8348 0.8348,0.8348 m 25.04339,-0.8348 -0.8347,0.8348 m 30.0521,-0.8348 v 0.8348 m 25.8783,-0.8348 -1.6696,0.8348 m 15.0261,-0.8348 1.6696,0.8348 m 14.1913,-0.8348 v 2.5043 m 9.1826,-2.5043 -0.8348,0.8348 m 5.8435,-0.8348 0.8348,0.8348 m 5.8434,-0.8348 0.8348,0.8348 m 30.0522,-0.8348 -0.8348,0.8348 m 10.8522,-0.8348 v 0.8348 m 6.6783,-0.8348 v 0.8348 m 17.5304,-0.8348 -0.8348,0.8348 m 8.3478,-0.8348 v 0.8348 m 21.7044,-0.8348 v 0.8348 m 14.1913,-0.8348 v 0.8348 m -513.391296,0 h 0.834804 m 13.3565,0 h 0.8348 m 40.069502,0 h 0.8348 m 4.1739,0 h 0.8348 m 18.3652,0 h 0.8348 m 5.8435,0 h 0.8348 m 15.0261,0 h 0.8347 m 10.0174,0 h 0.8348 m 8.3478,0 h 0.8348 m 6.6783,0 h 0.8348 m 24.2087,0 h 0.8347 m 7.5131,0 h 0.8348 m 14.1913,0 h 1.6695 m 17.5305,0 h 0.8348 m 34.226,0 h 0.8348 m 20.8696,0 h 0.8348 m 11.6869,0 h 0.8348 m 12.52179,0 h 0.8347 m 15.8609,0 v 2.5043 m 6.6783,-2.5043 h 0.8347 m 5.8435,0 h 0.8348 m 5.0087,0 h 0.8348 m 25.0435,0 h 0.8347 m 1.6696,0 h 0.8348 m 27.5478,0 h 0.8348 m 5.0087,0 h 0.8348 m 7.513,0 h 0.8348 m 2.5044,0 h 0.8347 m 20.8696,0 h 0.8348 m 2.5043,0 h 0.8348 m 16.6957,0 h 0.8348 m 29.2173,0 h 0.8348 m 2.5044,0 h 0.8348 m 14.1913,0 h 0.8347 m 10.0174,0 h 0.8348 m 10.0174,0 h 0.8348 m 6.6783,0 h 0.8347 m 5.8435,0 h 0.8348 m -268.79999,0.8348 -1.6696,2.5043 m -181.1478,-0.8348 h 0.8348 m 87.6522,0 h 0.8347 m 9.1827,0 h 0.8347 m 27.5479,0 h 0.8347 m 20.0348,0 h 0.8348 m 89.32169,0 h 0.8348 m 47.5826,0 h 0.8348 m 78.4696,0 h 0.8348 m 39.2348,0 h 0.8347 m -476.660796,10.0174 v 0.8348 m 132.730406,-0.8348 v 0.8348 m 21.7043,-0.8348 h 0.8348 m 28.3826,0 v 0.8348 m 18.3653,-0.8348 v 0.8348 m 30.8869,-0.8348 v 0.8348 m 22.5391,-0.8348 h 0.8348 m 40.06959,0 v 0.8348 m 11.6869,-0.8348 v 0.8348 m 35.8957,-0.8348 v 0.8348 m 55.0957,-0.8348 h 0.8347 m 117.7044,0 h 0.8348 m -307.19999,0.8348 v 0.8348 m -232.904406,1.6696 1.6696,5.0086 2.5043,-5.0086 m 8.3479,0 0.8347,3.3391 m 10.8522,-3.3391 1.6696,5.0086 h -1.6696 m 18.365204,-5.0086 0.8348,3.3391 m 21.7044,-3.3391 c 0.6094,4.1386 -3.122,5.3806 -3.3392,0.8347 m 6.6783,-0.8347 v 4.1739 m 16.695602,-4.1739 c 0,2.4363 0.9342,2.3951 3.3392,1.6695 m 9.1826,-1.6695 c -0.084,2.8999 -0.3949,4.0286 -3.3391,4.1739 v -1.6696 m 6.6782,-2.5043 v 3.3391 m 3.3391,-3.3391 0.8348,3.3391 m 5.8435,-3.3391 v 3.3391 m 8.3478,-3.3391 1.6696,4.1739 1.6696,-3.3392 m 9.1826,-0.8347 1.6695,5.0086 2.5044,-5.0086 m 9.1826,0 c 0.409,2.7769 -1.0994,5.6776 -3.3391,2.5043 m 15.8608,-2.5043 c 0,2.4363 0.9342,2.3951 3.3392,1.6695 m 6.6782,-1.6695 c 0,2.4363 0.9341,2.3951 3.3392,1.6695 m 26.713,-1.6695 0.8348,3.3391 m 15.8608,-3.3391 -2.5043,5.0086 -0.8348,-2.5043 m 15.8609,-2.5043 c 0,2.4363 0.9341,2.3951 3.3391,1.6695 m 2.5044,-1.6695 1.6695,5.0086 m 2.5044,-5.0086 c 0,2.4363 0.9341,2.3951 3.3391,1.6695 m 14.1913,-1.6695 -1.6696,5.0086 -2.5043,-4.1739 m 46.7478,-0.8347 0.8348,3.3391 m 5.00869,-3.3391 1.6696,4.1739 1.6695,-3.3392 3.3392,1.6696 v -2.5043 m 2.5043,0 c 0,2.4363 0.9341,2.3951 3.3391,1.6695 m 9.1827,-1.6695 c 1.687,2.8671 3.8733,3.3308 5.0086,0 m 35.8957,0 v 3.3391 m 3.3391,-3.3391 0.8348,3.3391 m 8.3478,-3.3391 0.8348,4.1739 m 5.8435,-4.1739 c 0.4166,2.7666 -0.049,3.6562 -2.5043,5.0086 l -0.8348,-4.1739 m 10.0174,-0.8347 0.8347,4.1739 m 7.5131,-4.1739 1.6696,5.0086 1.6695,-5.0086 m 3.3391,0 c 0,2.4363 0.9342,2.3951 3.3392,1.6695 m 2.5043,-1.6695 v 4.1739 m 20.8696,-4.1739 c 0,2.4363 0.9341,2.3951 3.3391,1.6695 m 2.5044,-1.6695 v 3.3391 m 3.3391,-3.3391 0.8348,3.3391 m 18.3652,-3.3391 c -0.4166,2.7666 0.049,3.6562 2.5043,5.0086 l 0.8348,-5.0086 m 10.0174,0 -2.5043,5.0086 0.8348,-3.3391 m 8.3478,-1.6695 -1.6696,5.0086 -2.5043,-4.1739 m 7.513,-0.8347 2.5044,5.0086 m 0,-5.0086 -2.5044,2.5043 m 11.687,-2.5043 c -0.2388,2.8343 -0.389,4.0264 -3.3392,4.1739 l 1.6696,-2.5044 m 17.5304,-1.6695 1.6696,5.0086 2.5044,-4.1739 m 14.1913,-0.8347 2.5043,5.0086 m -526.747796,-4.1739 c 0.5398,2.4672 0.7509,3.3059 3.3391,4.1739 m 11.687,-4.1739 v 2.5044 m 17.530404,-2.5044 v 4.1739 m 6.6783,-4.1739 0.8347,3.3392 m 30.887,-3.3392 4.173902,5.8435 m 31.7218,-5.8435 0.8347,2.5044 m 10.8522,-2.5044 c 0.6194,3.6707 2.1195,3.5929 5.0087,1.6696 v 0 m 24.2087,-1.6696 v 3.3392 m 9.1826,-3.3392 1.6696,4.1739 m 10.8521,-4.1739 0.8348,2.5044 m 2.5044,-2.5044 0.8348,4.1739 m 14.1913,-4.1739 v 3.3392 m 10.8521,-3.3392 -4.1739,3.3392 v -1.6696 m 16.6957,-1.6696 c 0.5401,2.4671 0.7513,3.3059 3.3391,4.1739 m 2.5044,-4.1739 0.8347,2.5044 m 17.5305,-2.5044 c 1.3072,2.0997 1.8549,2.7056 0,4.1739 m 21.7043,-4.1739 0.8348,4.1739 m 11.687,-4.1739 0.8347,2.5044 m 10.8522,-2.5044 c -0.7914,2.6067 -2.2055,4.4587 -4.1739,1.6696 m 6.6783,-1.6696 v 3.3392 m 27.54779,-3.3392 1.6696,4.1739 2.5043,-4.1739 m 14.1913,0 c 0.5401,2.4671 0.7513,3.3059 3.3391,4.1739 m 16.6957,-4.1739 -0.8348,2.5044 h -4.1739 m 7.513,-2.5044 v 2.5044 m 15.8609,-2.5044 0.8348,2.5044 m 12.5217,-2.5044 0.8348,2.5044 m 26.7131,-2.5044 0.8347,4.1739 m 6.6783,-4.1739 0.8348,4.1739 m 5.0087,-4.1739 0.8348,2.5044 m 15.8608,-2.5044 0.8348,4.1739 m 10.8522,-4.1739 -5.0087,4.1739 m 72.6261,-4.1739 2.5043,4.1739 m 14.1913,-4.1739 c 1.3073,2.0997 1.8549,2.7057 0,4.1739 m -525.078196,-3.3391 c 1.019,2.0013 1.3613,2.5287 -0.8348,2.5044 m 20.869604,-2.5044 -2.5044,3.3391 h 1.6696 m 16.6956,-3.3391 c 1.5453,1.6492 2.029,2.1452 0,3.3391 m 23.3739,-2.5043 -2.5043,2.5043 c -0.066,-2.1473 0.099,-2.5786 2.5043,-2.5043 m 6.678302,-0.8348 -0.8348,2.5044 m 70.1218,-2.5044 -3.3392,1.6696 3.3392,1.6695 m 39.2347,-3.3391 0.8348,0.8348 -2.5043,2.5043 1.6695,-3.3391 m 68.4522,0 0.8348,0.8348 -2.5044,2.5043 1.6696,-3.3391 m 10.8522,0.8348 -2.5044,2.5043 c -0.071,-2.283 0.2213,-2.5748 2.5044,-2.5043 m 24.2087,-0.8348 v 1.6696 m 47.58259,-1.6696 c 1.5452,1.6492 2.0293,2.1452 0,3.3391 m 110.1913,-3.3391 1.6696,0.8348 m 45.0782,-0.8348 c 1.5452,1.6492 2.0294,2.1452 0,3.3391 m 8.3478,-3.3391 c 1.5452,1.6492 2.0294,2.1452 0,3.3391 m 15.0261,-2.5043 -2.5043,2.5043 c -0.071,-2.2831 0.2212,-2.5748 2.5043,-2.5043 m 11.687,-0.8348 -3.3391,0.8348 m -525.913096,0 1.6696,1.6696 m 0.8348,-1.6696 h 2.5043 m 20.034804,0 v 0.8348 m 28.3826,-0.8348 v 0.8348 m 26.713002,-0.8348 2.5044,2.5043 m 20.0348,-2.5043 0.8348,2.5043 m 49.2521,-2.5043 2.5044,2.5043 m 7.513,-2.5043 2.5044,2.5043 m 48.4174,-2.5043 h 2.5043 m 5.8435,0 2.5043,2.5043 m 7.5131,-2.5043 2.5043,2.5043 m 40.9044,-2.5043 v 0.8348 m 31.72169,-0.8348 2.5044,2.5043 m 7.513,-2.5043 5.8435,0.8348 m 5.0087,-0.8348 v 0.8348 m 4.1739,-0.8348 h 2.5043 m 22.5392,0 v 0.8348 m 32.5565,-0.8348 h 1.6696 m 10.0173,0 2.5044,2.5043 m 12.5217,-2.5043 v 0.8348 m 11.687,-0.8348 2.5043,2.5043 m 32.5566,-2.5043 v 0.8348 m 71.7913,-0.8348 v 0.8348 m -356.45219,0.8348 -0.8348,1.6695 m 146.92169,-1.6695 v 0.8347 m -329.739096,0 v 1.6696 m 399.860896,-1.6696 v 0.8348 m 81.8087,-0.8348 v 0.8348 m 30.8869,-0.8348 v 1.6696 m -490.017396,11.687 v 5.0087 m -5.0086,-3.3392 4.1739,0.8348 m 14.191304,-0.8348 -0.8348,2.5044 m -35.060904,0 4.1739,-0.8348 m 2.5044,0.8348 h 3.3391 m 2.5044,0.8348 3.3391,-0.8348 m 2.5043,-1.6696 v 1.6696 m 6.6783,0.8348 2.504304,-2.5044 m 3.3392,2.5044 4.1739,-2.5044 m -6.6783,1.6696 h 0.8348 m -29.217404,2.5043 v 0.8348 m 4.1739,-0.8348 v 0.8348 m 2.5044,-0.8348 2.5043,0.8348 m 3.3392,-0.8348 3.3391,0.8348 m 6.6782,-0.8348 v 0.8348 m 12.521804,-0.8348 v 0.8348 m -15.860904,0 h 1.6696 m 5.0087,0 h 2.504304 m 4.1739,0 h 0.8348 m 4.1739,0 h 0.8348 M 43.978174,118.17599 v 4.1739 m 546.782596,-4.1739 v 1.6696 m -571.825996,-0.8348 h 0.8347 m 14.1913,1.6696 h 2.5044 m 7.513,3.3391 v 6.6783 m 1.6696,-5.8435 3.339104,4.1739 m 14.1913,-4.1739 v 4.1739 m 18.3652,-4.1739 1.6696,3.3391 c 1.911,-1.4066 2.5252,-1.0443 5.0087,-1.6695 m -15.8609,-0.8348 v 3.3391 m 4.174,-3.3391 v 3.3391 m 20.0347,-3.3391 v 3.3391 m 4.173902,-3.3391 -0.834702,3.3391 m 8.347802,-3.3391 v 3.3391 m -77.634806,-0.8348 5.8435,-0.8348 m 18.365204,-0.8347 -3.3391,0.8347 m 5.8435,0.8348 h 3.3391 m 33.3913,-1.6695 -3.3391,0.8347 m 12.521702,-0.8347 2.5043,2.5043 m 12.5218,-2.5043 -3.3391,2.5043 m 5.8434,-2.5043 2.5044,1.6695 m 467.47819,-1.6695 v 1.6695 m -571.825996,-0.8348 h 0.8347 m 570.991296,7.5131 v 1.6695 m -571.825996,-0.8347 h 0.8347 m 12.5218,23.3739 v 2.5043 m 2.5043,-2.5043 0.8348,2.5043 m 6.6783,-1.6695 -3.3392,0.8347 3.3392,-0.8347 m 216.208706,-0.8348 1.6695,2.5043 m 3.3392,-2.5043 -0.8348,3.3391 m 3.3391,-3.3391 0.8348,2.5043 m 2.5043,-2.5043 0.8348,2.5043 2.5044,-2.5043 m 2.5043,0 v 3.3391 m 4.3133,-2.7823 0.556,1.3907 -0.556,-1.3907 m 4.8693,-0.5568 1.6696,2.5043 m 50.08689,-2.5043 3.3392,2.5043 m 10.0174,-2.5043 0.8347,3.3391 m 9.1827,-3.3391 -1.6696,2.5043 m 13.3565,-2.5043 v 2.5043 m 105.1826,-2.5043 -2.5043,3.3391 m 6.6782,-3.3391 1.6696,3.3391 m 3.3391,-3.3391 v 2.5043 m 6.6783,-2.5043 v 3.3391 m 8.3478,-3.3391 1.6696,3.3391 m 10.0174,-3.3391 -1.6696,3.3391 m -484.173896,-2.5043 3.3391,1.6695 m 323.060896,-1.6695 v 1.6695 m 88.487,-1.6695 h 0.8347 m -193.66949,0.8347 v 0.8348 m 97.66949,-0.8348 -0.8347,0.8348 m 17.5304,-0.8348 -0.8348,0.8348 m 106.8522,-0.8348 v 1.6696 m 28.3826,-1.6696 v 1.6696 m 7.513,-1.6696 h 3.3392 m 6.6782,0 v 0.8348 m 66.7826,18.3652 4.1739,0.8348 m -541.773896,2.50439 v 0.8348 m 2.5044,-0.8348 v 5.0087 m 32.556504,-5.0087 v 5.8434 m 164.452202,-5.0086 3.3391,0.8347 -1.6696,4.1739 m 83.47829,-5.0086 c 2.9835,0.5075 3.5169,1.3181 2.5043,4.1739 v 0.8347 m 6.6783,-5.0086 c 2.946,1.0025 2.8099,2.2956 1.6696,5.0086 m 19.2,-2.5043 1.6695,-2.5043 0.8348,3.3391 -3.3391,1.6695 m 104.3478,-0.8347 -3.3391,-1.6696 3.3391,-2.5043 m -113.5304,0.8347 1.6695,4.1739 m 121.8783,-4.1739 -4.1739,3.3392 m -424.069596,-2.5044 v 3.3391 m 308.869596,-0.8347 1.6696,-2.5044 0.8347,2.5044 m -327.234696,0.8347 c 1.8617,-2.8215 4.406,-2.43 7.513,-1.6695 m 2.5044,-0.8348 h 2.5043 m 10.852204,2.5043 c 1.7203,-1.672 2.2167,-1.9684 4.1739,-0.8347 m 2.5043,0.8347 c 2.0488,-1.9174 2.9599,-1.9174 5.0087,0 m 2.5044,-1.6695 c 4.3936,-0.6745 4.0939,3.4084 0,3.3391 m 5.8435,-2.5043 5.0087,-1.6696 m 6.6782,1.6696 -0.8348,-1.6696 3.3392,1.6696 m 4.1739,0.8347 3.3391,-2.5043 m 1.6696,2.5043 c 1.9909,-1.9767 3.3408,-2.4784 5.0087,0 m 2.504302,0 c 2.0285,-3.0711 4.4636,-2.3073 7.5131,-0.8347 m 237.91299,-1.6696 v 2.5043 m 126.887,-2.5043 3.3391,0.8348 m 2.5043,-0.8348 v 1.6696 m 3.3392,0 h 2.5043 m 0,-1.6696 h 2.5044 m 5.0087,0 3.3391,1.6696 m 2.5043,0 h 4.1739 m 2.5044,0.8347 c 2.0486,-1.9174 2.9601,-1.9174 5.0087,0 m -473.321696,-0.8347 h 0.8347 m 323.060896,0 v 0.8347 m 113.5304,-0.8347 -0.8347,0.8347 m 20.8695,2.5044 v -3.3391 m -467.478196,2.5043 v 0.8348 m 15.8608,-0.8348 v 0.8348 m 8.347904,-0.8348 1.6695,0.8348 m 1.6696,-0.8348 -4.1739,3.3391 m 7.513,-3.3391 h 3.3391 m 10.0174,0 1.6696,0.8348 m 1.6696,-0.8348 -3.3392,3.3391 m 6.6783,-3.3391 v 0.8348 m 3.3391,-0.8348 2.5044,0.8348 m 2.5043,-0.8348 v 0.8348 m 3.3392,-0.8348 2.5043,0.8348 m 2.5044,-0.8348 h 3.3391 m 3.339102,0 v 0.8348 m 141.9131,-0.8348 v 0.8348 m 85.98259,-0.8348 v 0.8348 m 5.0087,-0.8348 v 0.8348 m 12.5217,-0.8348 v 0.8348 m 13.3565,-0.8348 -3.3391,0.8348 m 101.0087,-0.8348 h 3.3391 m 5.8435,0 1.6696,0.8348 m 1.6695,-0.8348 h 0.8348 m 10.0174,0 -2.5043,3.3391 m 20.8695,-3.3391 1.6696,0.8348 m 1.6695,-0.8348 -4.1739,3.3391 m 7.5131,-3.3391 h 3.3391 m -472.486896,0.8348 h 0.8347 m 435.756596,0 h 1.6695 m 10.0174,0 h 0.8348 m 90.1565,2.5043 h 1.6696 m 3.3391,0 h 0.8348 m -540.939096,18.3653 v 1.6695 m 30.052104,-1.6695 v 0.8347 m 20.0348,-0.8347 v 0.8347 m 400.695692,-0.8347 v 1.6695 m -249.59999,0 h 3.3391 m 82.64349,-0.8348 h 0.8348 m 10.8521,0 -0.8347,0.8348 m 20.0347,-0.8348 h 0.8348 m 114.3652,0 v 0.8348 m -435.756496,1.6696 -2.5043,5.0087 h 2.5043 m 2.5044,-5.0087 c 0.5571,3.4961 1.9847,5.1005 5.008704,2.5043 m 10.8521,-2.5043 c -0.2401,2.8491 -0.414,4.0278 -3.3391,4.1739 l 1.6696,-2.5043 m 15.8608,-1.6696 3.3392,5.0087 0.8348,-4.1739 m 3.3391,-0.8348 c -0.4167,2.7665 0.05,3.6563 2.5043,5.0087 l 0.8348,-5.0087 m 3.3391,0 c -0.9057,3.9744 1.127,5.295 4.174,2.5043 m 5.0087,-2.5043 -2.5044,2.5043 2.5044,1.6696 m 5.843402,-4.1739 c -0.4165,2.7665 0.049,3.6563 2.5044,5.0087 m 2.5043,-5.0087 c -0.1845,4.881 4.0462,4.8033 3.3392,0 m 3.3391,0 v 3.3391 m 3.3391,-3.3391 v 5.0087 m 3.3391,-5.0087 v 4.1739 m 127.7218,-4.1739 -2.5044,5.0087 -1.6695,-2.5044 m 104.34779,-2.5043 v 4.1739 m 110.1913,-4.1739 1.6696,4.1739 2.5043,-4.1739 m 2.5044,0 v 3.3391 l 2.5043,-3.3391 m 8.3478,0 v 4.1739 m 6.6783,-4.1739 -2.5043,5.0087 h 2.5043 m 7.513,-5.0087 v 5.0087 l 3.3392,-4.1739 m 11.6869,-0.8348 -1.6695,4.1739 -0.8348,-1.6696 m -474.156496,-1.6695 c 1.6601,1.9233 4.1833,1.9233 5.8434,0 m 27.547904,0 2.5043,4.1739 m 5.8435,-4.1739 -2.5044,4.1739 h 1.6696 m 261.286992,-4.1739 c 2.1963,2.0101 2.1671,3.37 -0.8348,4.1739 m 9.1826,-4.1739 v 2.5043 l 2.5043,-2.5043 m 8.3479,0 1.6695,3.3391 1.6696,-3.3391 m 2.5043,0 v 2.5043 m 3.3392,-2.5043 c 2.198,1.2822 2.3624,1.7438 1.6695,4.1739 l -1.6695,-4.1739 m 111.0261,0 c 1.3072,2.0995 1.8548,2.7055 0,4.1739 m 9.1826,-4.1739 v 0.8348 m 6.6782,0 v 1.6695 m 12.5218,-1.6695 0.8348,0.8347 -2.5044,2.5044 1.6696,-3.3391 m -445.773892,0.8347 v 0.8348 m 285.495592,-0.8348 -2.5043,2.5044 m 5.8434,-0.8348 v 0.8348 m 123.5479,-0.8348 2.5043,0.8348 m 35.0609,1.6696 -0.8348,0.8347 m -444.104292,17.5305 -1.6696,5.8434 m 20.8696,-5.0086 v 6.6782 m 20.0347,-6.6782 0.8348,5.0086 2.5044,-2.5043 m 143.582602,3.3391 2.5043,-5.8434 1.6696,5.0086 m 81.80869,-4.1739 c 2.9585,0.3231 2.8549,1.6713 1.6695,4.1739 m 6.6783,-5.0086 4.1739,0.8347 -2.5043,5.0087 m 18.3652,0 0.8348,-5.8434 h 1.6695 l 1.6696,5.8434 m 110.1913,-5.8434 v 5.8434 m 30.887,-5.8434 v 5.0086 m 3.3391,-5.0086 v 5.0086 m -158.6087,2.5044 0.8348,-5.8435 1.6695,3.3391 m 2.5044,0 1.6696,-3.3391 0.8347,3.3391 m 103.5131,-3.3391 v 3.3391 m -431.582596,-2.5043 0.8348,2.5043 m 5.8434,0 c 0.9575,-2.0902 1.5754,-2.0276 2.5044,0 m 5.8435,-0.8347 2.5043,0.8347 m 15.026104,-2.5043 2.5043,3.3391 m 2.5044,0 3.3391,-3.3391 m 2.5044,1.6696 h 3.3391 m 3.3391,-1.6696 3.3392,2.5043 m 2.5043,-1.6695 4.1739,2.5043 m 2.5044,0 c 1.066,-3.2089 3.1079,-3.2089 4.1739,0 m 10.017402,-1.6695 3.3391,-1.6696 m 2.5044,3.3391 c 1.4366,-2.5427 2.324,-2.7347 5.0087,-1.6695 m 1.6695,0.8347 c 2.4226,-2.2714 5.4695,-2.9968 7.5131,0 m 338.08689,-2.5043 2.5044,3.3391 m 4.1739,-0.8348 c -1.1011,-3.3725 2.7673,-2.5043 5.0087,-2.5043 m 5.0087,2.5043 c 1.8457,-1.5777 2.3282,-1.5777 4.1739,0 m 0,-1.6695 3.3391,2.5043 m 2.5044,0 c 1.4366,-2.5427 2.324,-2.7347 5.0087,-1.6695 m 1.6695,0.8347 c 1.7948,-1.7321 2.6755,-2.137 4.1739,0 m 7.5131,-2.5043 3.3391,1.6696 m -479.999996,-0.8348 h 0.8348 m 8.3478,0 -1.6695,1.6695 m 9.182604,-1.6695 h 0.8347 m 2.5044,0 v 0.8348 m 308.034792,-0.8348 h 1.6695 m -301.356492,1.6695 2.5044,-0.8347 m 399.860792,0.8347 1.6696,-0.8347 m -392.347792,2.5043 2.5043,0.8348 m 25.8783,-0.8348 0.8348,0.8348 m -40.0696,0 h 0.8348 m 5.8435,0 h 0.8347 m 10.8522,0 h 0.8348 m 5.0087,0 h 1.6696 m 5.8434,0 h 0.8348 m 13.356502,0 h 1.6696 m 4.1739,0 h 0.8348 m 131.8957,0 h 1.6695 m 83.47829,0 h 3.3391 m 134.4,0 h 1.6696 m 4.1739,0 h 0.8348 m 16.6956,0 h 0.8348 m -463.304296,21.7043 v 1.6696 m 15.026,-1.6696 v 1.6696 m 4.174004,-1.6696 v 0.8348 m 290.504292,1.6696 4.1739,-0.8348 m 15.8609,0 3.3391,-0.8348 m 103.5131,-0.8348 3.3391,1.6696 m 15.8609,-1.6696 h 0.8347 m 15.0261,0 h 0.8348 m -256.27819,0.8348 h 1.6695 m 4.1739,0 h 1.6696 m 79.30429,0 h 0.8348 m 15.8609,0 v 0.8348 m 111.0261,-0.8348 h 1.6696 m -425.739196,2.5044 1.6696,3.3391 1.6696,-2.5043 m 5.0086,-0.8348 v 3.3391 m 7.513104,-3.3391 3.3391,4.1739 m 3.3392,-4.1739 v 3.3391 m 5.8434,-3.3391 3.3392,4.1739 m 2.5043,-4.1739 c -0.063,3.7022 2.9217,4.5654 4.1739,0.8348 m 2.5044,-0.8348 v 3.3391 m 3.3391,-3.3391 v 4.1739 m 166.956502,-4.1739 v 3.3391 m 5.8435,-3.3391 v 4.1739 m 90.15649,-4.1739 -4.1739,4.1739 m 10.0174,-4.1739 v 4.1739 m 12.5217,-4.1739 1.6696,3.3391 c -2.6187,0.4124 -3.3391,0.03 -4.1739,-2.5043 m 107.6869,-0.8348 h 0.8348 m 7.5131,0 v 3.3391 m 7.513,-3.3391 v 4.1739 m 2.5044,-4.1739 v 3.3391 m 6.6782,-3.3391 v 3.3391 m 2.5044,-3.3391 c 0.95,3.0586 2.5135,3.6488 4.1739,0.8348 v 0 m 6.6782,-0.8348 c 0.5402,2.4668 0.7514,3.3057 3.3392,4.1739 m 0,-4.1739 -2.5044,1.6695 m 25.8783,-1.6695 c 0.6945,4.1672 3.4794,4.1672 4.1739,0 m -487.512992,0.8348 v 2.5043 m 292.173892,-2.5043 h 0.8348 m 10.0173,0 0.8348,2.5043 1.6696,-2.5043 m 2.5043,0 v 2.5043 m 112.6957,-2.5043 -3.3391,3.3391 m 45.0782,-3.3391 2.5044,2.5043 -3.3392,0.8348 m 12.5218,-2.5044 -4.1739,1.6696 4.1739,-1.6696 m 1.6695,-0.8347 c 1.2731,2.2956 2.4418,3.3708 5.0087,1.6695 m -476.660792,-0.8348 h 3.3391 m -20.869604,0.8348 -0.8347,0.8348 m 7.513,-0.8348 v 0.8348 m 42.573904,-0.8348 v 0.8348 m 248.765192,-0.8348 v 0.8348 m 129.3913,-0.8348 v 0.8348 m 25.8783,-0.8348 v 0.8348 m -426.573892,0.8348 h 0.8348 m 273.808692,0 h 0.8347 m -273.808692,21.7043 -0.8347,5.0087 m 28.3826,-5.0087 h 0.8348 m 152.765202,5.8435 2.5043,-5.8435 1.6696,5.0087 m 110.19129,0.8348 0.8348,-5.8435 h 1.6695 l 1.6696,5.8435 m 96.8348,-5.8435 v 5.0087 m 13.3565,-5.0087 v 5.8435 m -142.7478,-4.1739 2.5043,1.6696 m 6.6783,-1.6696 1.6696,3.3391 m 7.513,1.6696 0.8348,-5.0087 1.6695,3.3391 m 2.5044,0 1.6696,-3.3391 0.8347,3.3391 m -328.069496,-2.5043 0.8348,2.5043 m 5.8434,-0.8348 c 1.5032,-1.2455 1.6738,-0.9984 2.5044,0.8348 m 5.8435,-0.8348 c 1.5032,-1.2455 1.6737,-0.9984 2.5043,0.8348 m 11.687004,-2.5043 2.5043,3.3391 m 3.3391,-3.3391 10.0174,0.8348 -1.6695,1.6695 m 4.1739,0.8348 1.6696,-3.3391 5.0086,3.3391 m -2.5043,-2.5043 2.5043,-0.8348 m 2.5044,0 3.3391,1.6695 m 5.8435,1.6696 c 1.2806,-2.2931 2.4885,-3.2256 4.1739,-0.8348 m 5.008702,-0.8348 2.5044,-1.6695 m 2.5043,3.3391 c 1.4367,-2.5427 2.324,-2.7347 5.0087,-1.6696 m 1.6696,0.8348 c 2.7063,-2.6755 6.1615,-3.178 7.513,0.8348 m 340.59129,-3.3391 2.5044,3.3391 m 5.0087,0 -1.6696,-3.3391 h 5.8435 m 9.1826,0 -1.6696,2.5043 m 4.1739,-2.5043 h 1.6696 l 0.8348,0.8348 v 0.8347 h -3.3392 l 0.8348,-1.6695 m 5.8435,0 2.5044,3.3391 m 2.5043,0 2.5044,-3.3391 m -468.313096,0.8348 h 0.8348 m 7.513,0 h 0.8348 m 7.513104,0 h 0.8347 m 2.5044,0 v 0.8347 m 67.617402,-0.8347 v 1.6695 m 240.41739,-1.6695 h 1.6695 m 118.5392,0 v 7.513 m -423.234792,-5.8435 1.6696,-0.8348 m 404.034692,0.8348 2.5044,-0.8348 m 26.713,1.6696 2.5044,-1.6696 m -447.443496,2.5044 v 0.8348 m 25.043504,0 h 0.8348 m 7.513,0 h 0.8348 m 24.208702,0 h 0.8348 m 4.1739,0 h 0.8348 m 135.2347,0 h 0.8348 m -152.765202,0.8348 v 1.6695 m -60.939104,18.3652 v 2.5044 m 5.8435,-2.5044 h 0.8347 m 204.521806,1.6696 4.1739,0.8348 m 81.80869,0 3.3391,-2.5044 m 9.1826,1.6696 h 3.3392 m 12.5217,-0.8348 h 3.3391 m 111.0261,-0.8348 v 2.5044 m -133.5652,-1.6696 v 0.8348 m 16.6956,-0.8348 -1.6695,1.6696 m -251.26959,0 0.8348,0.8348 m 382.33039,-0.8348 c -0.4708,2.8149 -0.2813,4.0595 2.5044,5.0087 m -459.965196,-3.3391 c 1.0664,3.2089 3.1074,3.2089 4.1739,0 m 2.5043,0 v 3.3391 m 6.6783,-3.3391 1.6695,3.3391 0.8348,-2.5044 m 15.860904,-0.8347 -0.8348,5.8434 m 3.3391,-5.8434 c 0.9191,2.7664 2.4613,3.4234 4.174,0.8347 m 9.1826,-0.8347 c 1.1186,3.3658 3.1597,3.0511 4.1739,0 m 19.2,0 c 1.007602,3.0052 2.285602,2.9618 5.008702,1.6695 m 9.1826,-1.6695 v 3.3391 m 134.4,-3.3391 c -1.2806,2.2931 -2.4885,3.2256 -4.1739,0.8347 m 85.98259,-0.8347 c 0.9399,2.8307 3.4184,3.5937 3.3391,0 m 5.8435,0 v 3.3391 m 13.3565,-3.3391 -0.8348,2.5043 m 6.6783,-2.5043 c 0.9191,2.7664 2.4609,3.4234 4.1739,0.8347 m 102.6783,-0.8347 c -0.6754,2.5594 -1.8925,3.3984 -3.3392,0.8347 m 20.8696,-0.8347 -1.6696,3.3391 -0.8347,-2.5044 m 12.5217,-0.8347 -0.8348,3.3391 2.5044,-3.3391 m -454.956596,0.8347 v 1.6696 m 11.687004,0.8348 -3.3391,-0.8348 3.3391,-1.6696 m 5.0087,0 3.3391,2.5044 m 30.0522,0 -4.1739,-1.6696 4.1739,-0.8348 m 20.869602,0 v 2.5044 m 232.06949,-2.5044 3.3392,1.6696 m 122.713,-1.6696 c 1.1186,1.7957 0.2604,2.0052 -1.6696,2.5044 m 5.8435,-2.5044 v 1.6696 m 13.3565,-1.6696 h 2.5044 m 8.3478,0 v 1.6696 m -403.199992,-0.8348 4.1739,1.6696 m 237.913092,-1.6696 h 2.5043 m 15.8609,0 1.6695,1.6696 m -286.330392,-0.8348 h 4.1739 m 9.1826,0 h 0.8348 m 22.539102,0 h 0.8348 m 373.98259,0.8348 -0.8347,2.5043 m -399.860892,-1.6695 -0.8348,1.6695 m -23.3739,0 h 0.8348 m 402.365192,19.2 v 6.6783 m -214.53909,-5.8435 1.6695,5.8435 m 85.98259,-5.8435 0.8348,5.8435 m 18.3652,-5.8435 c 1.132,2.7231 1.4976,3.1897 3.3392,5.8435 m 3.3391,-5.8435 v 5.8435 m -19.2,-5.0087 -1.6696,4.1739 m 17.5305,-4.1739 -1.6696,1.6696 m 8.3478,-1.6696 0.8348,4.1739 m -319.721696,-0.8348 5.843404,-1.6695 m 10.0174,3.3391 -1.6695,-4.1739 h 1.6695 m 2.5044,4.1739 c 1.0327,-3.2114 2.8065,-3.2715 5.8435,-4.1739 l 0.8347,4.1739 m 2.5044,-4.1739 3.3391,0.8348 -3.3391,3.3391 m 8.3478,-0.8348 0.8348,-3.3391 m 2.5043,1.6695 c 0.5676,-1.7029 -0.033,-1.1019 1.6696,-1.6695 l 1.6696,4.1739 m 5.8435,-2.5044 1.6695,-1.6695 1.6696,4.1739 m 2.5043,-0.8348 c 1.7339,-2.9384 3.254,-2.127 4.173902,0.8348 v 0 m 3.3392,-2.5044 c 3.0678,-1.657 5.5989,-0.8498 6.6782,2.5044 m 2.5044,-4.1739 3.3391,4.1739 m 2.5044,-0.8348 c 1.7338,-2.9384 3.2539,-2.127 4.1739,0.8348 v 0 m 2.5043,-4.1739 3.3392,0.8348 -3.3392,3.3391 m 5.8435,-4.1739 0.8348,3.3391 m 7.513,0.8348 1.6696,-4.1739 2.5043,4.1739 m 2.5044,-2.5044 3.3391,-0.8347 -3.3391,3.3391 m 8.3478,0 3.3391,-4.1739 m 1.6696,3.3391 c 1.713,-3.0102 4.2382,-2.9059 4.1739,0.8348 m 3.3392,-2.5044 c 3.1872,-1.7597 6.0254,-1.298 6.6782,2.5044 v 0 m 170.29569,-4.1739 0.8348,0.8348 -2.5044,2.5043 1.6696,-3.3391 m 116.8695,0 3.3392,4.1739 m 5.0087,0 -1.6696,-4.1739 h 1.6696 m 3.3391,0 -0.8348,4.1739 m 12.5217,-2.5044 3.3392,-0.8347 -3.3392,3.3391 m 5.8435,-4.1739 3.3392,4.1739 m 2.5043,0 2.5044,-4.1739 m -470.817396,0.8348 4.1739,0.8347 v 0.8348 0.8348 l 0.8348,0.8348 m 0.8347,-1.6696 3.3392,1.6696 m 2.5043,-3.3391 -1.6695,1.6695 m 12.521704,-1.6695 v 0.8347 m 37.5652,-0.8347 -0.8348,2.5043 m 50.087002,-2.5043 v 3.3391 m 191.99999,-3.3391 h 2.5043 m 26.7131,0 h 1.6695 m 103.5131,0 -2.5044,3.3391 m 17.5305,-3.3391 1.6695,3.3391 1.6696,-3.3391 m -418.226092,0.8347 v 2.5044 m 43.408702,-2.5044 v 2.5044 m 5.8435,0 2.5043,-2.5044 m 55.0957,0 v 2.5044 m 180.31299,-2.5044 v 2.5044 m 139.4087,0 2.5044,-2.5044 m -363.13049,0.8348 -0.8347,1.6696 m -88.487006,-0.8348 0.8348,0.8348 m 8.347804,-0.8348 v 0.8348 m 50.921702,1.6696 -4.173902,1.6695 m 383.999992,-1.6695 -1.6695,2.5043 m -355.61739,-1.6696 -3.3392,1.6696 m 465.80869,-1.6696 c -2.3156,1.43 -2.4167,1.6012 -5.0087,0.8348 m -561.808596,18.3652 h 0.8347 m 111.860906,0 h 0.8348 m 73.4609,0 h 0.8347 m -19.2,5.0087 -0.8347,2.5044 c 2.3858,0.788 2.5252,0.6878 2.5043,-0.8348 m 4.1739,-1.6696 v 5.8435 m -107.686902,-5.0087 v 4.1739 m 60.104302,-4.1739 -3.3391,2.5044 m 5.8435,-0.8348 3.3391,-0.8348 -2.5044,4.1739 h 0.8348 0.8348 0.8348 m 3.3391,-1.6696 0.8348,-3.3391 2.5043,5.0087 m 0,-4.1739 c 2.7565,0.5201 3.0854,1.4893 3.3392,4.1739 m 5.8435,-5.0087 c 1.1611,4.0162 -1.1495,5.2658 -4.174,2.5044 l 4.174,-2.5044 m 3.3391,0 1.6696,4.1739 7.513,-3.3391 -2.5044,4.1739 h 0.8348 0.8348 0.8348 m -146.087006,-4.1739 v 3.3391 m 22.539204,-3.3391 v 2.5043 m 2.5043,-2.5043 1.6696,3.3391 1.6695,-2.5043 m 5.8435,-0.8348 -4.1739,1.6696 m 19.2,-1.6696 -3.3391,1.6696 m 9.1826,-1.6696 3.3391,1.6696 m -52.591304,-0.8348 -2.5043,3.3391 m 5.0087,-3.3391 v 2.5043 m 4.1739,-2.5043 v 0.8348 m 3.339104,-0.8348 v 0.8348 m 25.0435,-0.8348 2.5043,2.5043 m 30.052202,-2.5043 -3.3391,0.8348 m 10.0174,-0.8348 v 3.3391 m 82.6434,-3.3391 v 1.6695 m -166.121706,-0.8347 h 1.6696 m 99.339106,0 h 0.8348 m 73.4609,0 h 0.8347 m -60.9391,0.8347 0.8348,1.6696 m 39.2348,-1.6696 v 1.6696 m 5.0087,-1.6696 v 1.6696 m -42.5739,2.5044 h 4.1739 m -133.565206,3.3391 h 0.8347 m 111.860906,0 h 0.8348 m 73.4609,0 h 0.8347 m 216.20869,16.6956 h 0.8348 m 70.9565,0 h 0.8348 m 6.6783,0 h 0.8348 m 43.4087,0 h 0.8347 m -101.0087,2.5044 -1.6695,0.8348 m 97.6695,-0.8348 -0.8347,0.8348 m 5.0087,-0.8348 v 0.8348 m -102.6783,1.6695 c -0.1294,3.6572 1.3482,5.1456 5.0087,5.0087 m 2.5043,-5.0087 2.5044,2.5044 -3.3391,1.6696 1.6695,1.6695 2.5044,-2.5043 m 4.1739,-3.3392 1.6696,5.0087 m 5.0086,0.8348 c -2.2489,-2.1312 -2.2447,-3.1112 -0.8347,-5.8435 h 0.8347 0.8348 m 3.3392,0 2.5043,2.5044 -0.8348,0.8348 -1.6695,-3.3392 m 5.0087,0 v 4.174 m 45.0782,-4.174 2.5044,2.5044 -4.1739,1.6696 5.0086,-0.8348 m 5.0087,-3.3392 -1.6695,4.174 -1.6696,-3.3392 m 6.6783,-0.8348 h 1.6695 l 0.8348,0.8348 -1.6695,2.5044 -0.8348,-3.3392 m 8.3478,0 c -0.3598,3.7173 1.4133,4.9244 5.0087,5.0087 m 4.1739,-5.0087 1.6696,4.174 m 3.3391,-4.174 c 2.6254,1.875 1.602,3.3717 0,5.8435 l 1.6696,-3.3391 m 14.1913,-0.8348 -2.5044,4.1739 v -5.8435 m 5.0087,1.6696 c 1.4909,-0.9241 1.9601,-1.2388 3.3392,0.8348 -2.173,0.6277 -2.5261,0.46 -2.5044,2.5043 l 0.8348,0.8348 h 0.8348 m 2.5043,-0.8348 h 3.3391 l -2.5043,-4.1739 0.8348,-0.8348 h 0.8348 0.8347 m -21.7043,0.8348 v 4.1739 m -101.8435,-3.3391 v 2.5044 m 56.7652,-2.5044 3.3392,1.6696 m 30.0521,-1.6696 v 1.6696 m 15.8609,-1.6696 v 2.5044 m -140.2435,-0.8348 h 0.8348 m 45.0783,0 3.3391,1.6695 m 22.5391,-1.6695 h 0.8348 m 6.6783,0 h 0.8348 m 14.1913,0 -4.1739,2.5043 m 17.5304,-2.5043 3.3391,1.6695 m -90.9913,1.6696 h 1.6696 m 73.4609,0 h 0.8347 m -96,5.0087 h 0.8348 m 32.5565,0 h 152.7653 m -158.6087,8.3478 h 10.8521 7.5131 18.3652 m 9.1826,0 h 0.8348 m 3.3391,0 h 0.8348 m 3.3391,0 h 0.8348 m 2.5044,0 h 0.8347 m 5.8435,0 h 4.1739 m 3.3392,0 h 0.8347 m 6.6783,0 h 3.3391 m 12.5218,0 h 0.8348 m 12.5217,0 h 2.5043 m 3.3392,0 h 5.0087 m 3.3391,0 h 0.8348 m 5.8435,0 h 0.8347 m 8.3479,0 h 1.6695 m 5.0087,0 h 0.8348 m 5.8435,0 h 0.8348 m 2.5043,0 h 3.3392 m -165.287,8.3478 h 165.287"
       id="path280" />
  </g>
</svg>
