<?xml version="1.0" encoding="UTF-8" standalone="no"?>
<!-- Created with Inkscape (http://www.inkscape.org/) -->

<svg
   version="1.1"
   id="svg2"
   width="607.72174"
   height="455.79129"
   viewBox="0 0 607.72174 455.79129"
   sodipodi:docname="img3.svg"
   inkscape:version="1.1.1 (3bf5ae0d25, 2021-09-20, custom)"
   xmlns:inkscape="http://www.inkscape.org/namespaces/inkscape"
   xmlns:sodipodi="http://sodipodi.sourceforge.net/DTD/sodipodi-0.dtd"
   xmlns="http://www.w3.org/2000/svg"
   xmlns:svg="http://www.w3.org/2000/svg">
  <defs
     id="defs6" />
  <sodipodi:namedview
     id="namedview4"
     pagecolor="#ffffff"
     bordercolor="#eeeeee"
     borderopacity="1"
     inkscape:pageshadow="0"
     inkscape:pageopacity="0"
     inkscape:pagecheckerboard="false"
     showgrid="false"
     inkscape:zoom="0.80051354"
     inkscape:cx="131.7904"
     inkscape:cy="138.66099"
     inkscape:window-width="675"
     inkscape:window-height="364"
     inkscape:window-x="685"
     inkscape:window-y="398"
     inkscape:window-maximized="1"
     inkscape:current-layer="g8" />
  <g
     inkscape:groupmode="layer"
     inkscape:label="Image"
     id="g8">
    <path
       style="fill:none;stroke:#040404;stroke-width:3.77953;stroke-linecap:round;stroke-miterlimit:4;stroke-dasharray:none"
       d="m 12.186655,2.6952136 -3.3391999,3.33913 m 52.5914039,-2.50434 -0.8348,3.33913 m -22.539204,-0.83479 5.0087,-1.66956 m 24.208704,0 h 0.8348 m -20.8696,2.50435 h 3.3392 m 3.3391,0 h 3.3391 m 5.8435,0 1.6696,-0.83479 m 6.6782,0 h 2.5044 m 3.3391,0.83479 h 3.3392 m -34.2261,1.66956 c 1.2722,2.2787144 2.4515,3.2782844 4.1739,0.83479 m 7.513,-0.83479 c -1.2722,2.2787144 -2.4515,3.2782844 -4.1739,0.83479 m 7.5131,1.6695644 0.8347,-2.5043544 1.6696,2.5043544 m 6.6783,-2.5043544 3.3391,3.3391344 m 4.1739,-3.3391344 h 0.8348 m -70.1218039,0.83479 3.3391999,2.5043444 m 25.8782,-2.5043444 c 2.4567,1.6254044 3.0091,1.9522244 5.8435,0.8347804 m 36.730504,0 -3.3392,0.834784 m 490.852171,51.75652 h 6.6783 m -560.973975,1.66957 v 0.83478 m 2.5044,-0.83478 v 0.83478 m 263.791305,-0.83478 v 0.83478 m 15.0261,-0.83478 0.8348,0.83478 M 8.0127551,66.138698 h 0.8347 m 5.0086999,0.83478 v 4.17392 m 2.5044,-4.17392 v 5.0087 m 200.347805,-5.0087 v 5.0087 m -209.5304049,-4.17391 4.1738999,3.33913 m -1.6695999,-3.33913 v 1.66956 m 10.8521999,-1.66956 c 2.4466,1.55353 2.1617,2.54942 0.8348,5.00869 l -0.8348,-5.00869 m 11.687,0 c -1.3982,2.25057 -3.0384,2.91506 -5.8435,1.66956 m 14.1913,-0.83478 -1.6696,1.66956 1.6696,-1.66956 m 5.843504,-0.83478 0.8347,3.33913 m 3.3392,-1.66957 3.3391,-0.83478 -3.3391,2.50435 0.8348,0.83478 0.8347,0.83478 0.8348,-0.83478 h 0.8348 m 2.5044,-2.50435 2.5043,-1.66956 0.8348,0.83478 -3.3391,2.50435 1.6695,1.66956 0.8348,-2.50435 m 6.6783,-2.50434 0.8347,3.33913 m 3.3392,-3.33913 3.3391,1.66956 -2.5043,3.33913 -0.8348,-5.00869 m 11.6869,0.83478 -1.6695,1.66956 1.6695,-1.66956 m 3.3392,-0.83478 h 0.8347 m 1.6696,0 -1.6696,4.17391 1.6696,-1.66957 m 3.3391,-2.50434 1.6696,3.33913 1.6696,-3.33913 m 2.5043,1.66956 3.3392,-0.83478 -3.3392,2.50435 0.8348,0.83478 0.8348,0.83478 0.8348,-0.83478 h 0.8348 m 5.843401,-4.17391 3.3392,0.83478 -2.5044,4.17391 1.6696,-2.50435 m 10.8522,-2.50434 3.3391,1.66956 -2.5044,3.33913 -0.8347,-5.00869 m 12.5217,1.66956 3.3391,-0.83478 -3.3391,2.50435 0.8348,0.83478 0.8348,0.83478 0.8347,-0.83478 h 0.8348 m 3.3392,-4.17391 3.3391,1.66956 -2.5044,3.33913 1.6696,-2.50435 m 4.1739,-2.50434 3.3391,1.66956 -2.5043,3.33913 -0.8348,-5.00869 m 11.687,4.17391 c -3.1171,-0.60605 -3.2123,-2.98769 0,-3.33913 m 4.1739,-0.83478 c 2.4467,1.55353 2.1612,2.54942 0.8348,5.00869 l -0.8348,-5.00869 m 6.6782,0 3.3392,2.50434 -3.3392,1.66957 v -4.17391 m 5.0087,0 2.5044,2.50434 0.8348,-2.50434 m 5.8434,1.66956 3.3392,-0.83478 -3.3392,2.50435 0.8348,0.83478 0.8348,0.83478 h 0.8348 m 10.8522,-3.33913 -2.5044,3.33913 v -5.00869 m 5.0087,0 3.3391,0.83478 -2.5043,4.17391 1.6696,-2.50435 m 4.1739,-2.50434 0.8348,5.00869 m 2.5043,-5.00869 c 3.2056,0.86734 2.9643,2.24473 1.6696,5.00869 -0.7739,-2.23054 -0.6211,-1.73969 0.8348,-2.50435 m 10.8521,0.83479 1.6696,-3.33913 m 2.5043,1.66956 2.5044,-0.83478 -1.6696,3.33913 0.8348,0.83478 0.8348,-0.83478 h 0.8348 m 5.8435,0 c -2.8308,-0.93997 -3.5938,-3.41844 0,-3.33913 m 3.3391,-0.83478 c 2.4651,1.43081 2.582,2.3449 1.6695,5.00869 l -1.6695,-5.00869 m 5.8435,4.17391 0.8347,-4.17391 3.3392,3.33913 m 10.0174,0 0.8347,-3.33913 h 1.6696 l 0.8348,4.17391 m 3.3391,-2.50435 3.3392,-0.83478 -3.3392,2.50435 0.8348,0.83478 0.8348,0.83478 0.8348,-0.83478 h 0.8348 m 2.5043,-0.83478 0.8348,-3.33913 3.3391,3.33913 m 3.3391,-3.33913 h 1.6696 l -0.8348,5.00869 -0.8348,-5.00869 m 5.8435,1.66956 3.3392,-0.83478 -3.3392,2.50435 0.8348,0.83478 0.8348,0.83478 0.8348,-0.83478 h 0.8348 m 6.6782,-2.50435 -3.3391,2.50435 0.8348,-4.17391 m 5.8434,0 0.8348,2.50434 M 43.908355,68.643048 v 2.50435 m 68.452205,-2.50435 v 2.50435 m 15.8609,-2.50435 v 2.50435 m 50.9217,-2.50435 v 2.50435 m 74.2957,-2.50435 v 3.33913 m -137.7392,-2.50435 v 0.83478 m 135.2348,-0.83478 v 1.66957 M 6.3431551,70.312608 v 0.83479 m 34.2260999,0 h -3.3391 c 1.6573,-1.10526 0.7867,-0.83479 2.5043,-0.83479 m 41.739104,0.83479 h -3.3391 c 1.657,-1.10526 0.7864,-0.83479 2.5044,-0.83479 m 470.817271,0 h 0.8348 m 4.1739,0 h 2.5044 m 2.5043,0 h 0.8348 m 2.5044,0 h 14.1913 M 207.52576,108.71261 v 7.51305 M 66.447459,109.5474 v 5.84347 m 35.060901,-5.84347 v 5.84347 m 28.3826,-5.84347 v 0.83478 m 2.5044,-0.83478 v 5.00869 m 40.0695,-5.00869 3.3392,6.67826 M 10.517055,110.38218 v 5.84348 m -4.1738999,-5.0087 v 3.33913 m 29.2173999,-3.33913 -0.8348,3.33913 m 22.539104,-3.33913 v 1.66957 m 69.287001,-1.66957 v 1.66957 m -111.860905,-0.83479 0.8348,1.66957 -2.5043,0.83478 v 0.83478 l 0.8347,0.83479 m 6.9565,-3.61712 c 0.3362,-0.16862 0.7631,0.31388 0.2784,0.55597 -0.3362,0.16862 -0.7631,-0.31388 -0.2784,-0.55597 m 4.7305,2.78233 c 1.4008,-2.91255 3.2829,-3.32744 4.1739,0 v 0 m 8.3478,0 c 0.351,-3.18803 2.9882,-3.18803 3.3392,0 m 2.5043,-0.83478 3.339104,-2.50435 m 3.3392,3.33913 0.8348,-3.33913 h 1.6695 l 0.8348,4.17392 m 9.1826,0 2.5044,-4.17392 m 3.3391,0.83479 h 3.3391 l -2.5043,3.33913 m 6.6782,0 0.8348,-4.17392 m 2.5044,0 2.5043,0.83479 -2.5043,3.33913 m 8.3478,-1.66957 c 2.0102,-2.19631 3.37,-2.16709 4.1739,0.83478 m 3.3391,-3.33913 3.3392,4.17392 m 5.008701,-4.17392 1.6695,4.17392 m 1.6696,-4.17392 v 1.66957 m 5.8435,-1.66957 v 1.66957 m 3.3391,-1.66957 v 4.17392 m 2.5044,-0.83479 c 1.3456,-2.41085 2.5627,-3.12041 4.1739,-0.83478 m 14.1913,-2.50435 1.6695,4.17392 m 2.5044,-4.17392 -0.8348,1.66957 m 2.5043,0.83478 c 2.0102,-2.19631 3.3701,-2.16709 4.174,0.83478 m 2.5043,-3.33913 0.8348,4.17392 m 8.3478,-1.66957 c 2.4342,-2.33322 3.6447,-1.48007 4.1739,1.66957 v 0 m 2.5044,-4.17392 0.8348,4.17392 m 15.026,-4.17392 1.6696,3.33913 1.6696,-2.50434 m 2.5043,2.50434 0.8348,-3.33913 3.3391,3.33913 m 2.5044,-3.33913 0.8348,4.17392 m 3.3391,-4.17392 -0.8348,4.17392 m 3.3391,-1.66957 1.6696,-2.50435 m 3.3391,0 5.8435,2.50435 m 2.5044,0 1.6695,-2.50435 m 1.6696,2.50435 c 2.0102,-2.19631 3.37,-2.16709 4.1739,0.83478 m 5.0087,-2.50434 h 1.6696 m 1.6695,0 c 3.1839,-0.50755 4.6406,-0.12355 6.6783,2.50434 m 2.5043,-2.50434 h 3.3392 l -2.5044,3.33913 m 5.0087,-1.66957 c 0.9066,-2.14038 0.571,-1.68543 2.5044,-2.50435 m 315.54777,0 h 11.687 m -444.93917,0.83479 v 3.33913 m 95.1652,-3.33913 0.8348,2.50434 M 51.421459,113.72131 h 1.6695 m 119.373901,0 v 1.66956 m 61.774,-1.66956 h 0.8347 m -5.8434,1.66956 v 0.83479 M 25.543155,117.89522 V 118.73 m 80.139105,-0.83478 -1.6695,0.83478 m 35.0608,-0.83478 -1.6695,0.83478 m 25.8782,-0.83478 V 118.73 m 388.17387,1.66957 h 8.3479 m -530.921775,30.88695 1.6696,5.0087 1.6696,-1.66957 m 9.1826,-3.33913 V 157.13 m -32.5565999,-1.66956 -2.5043,-2.50435 c 4.7860999,-0.0818 3.9776999,5.4361 0,6.67826 M 48.082259,152.12131 V 157.13 m 70.956601,-5.00869 V 157.13 m -105.182705,-4.17391 -0.8347,4.17391 m 45.913004,-4.17391 -4.1739,3.33913 m 58.434801,-3.33913 c 0.4733,1.83068 0.6419,2.82991 2.5043,1.66956 m -100.173905,1.66957 4.1739,-0.83478 m 2.5044,1.66956 4.1739,-1.66956 m 10.0174,-0.83479 1.6695,2.50435 m 4.174,-2.50435 3.339104,1.66957 m 5.8435,-1.66957 h 1.6695 m 10.8522,0 4.1739,1.66957 m 2.5044,-0.83478 h 3.3391 l -1.6696,0.83478 m 5.8435,-1.66957 c 3.5036,0.0125 5.7876,-0.15693 7.513,2.50435 m 2.5044,-2.50435 v 1.66957 m 5.0087,0.83478 4.1739,-1.66956 m 2.5044,0.83478 4.173901,0.83478 m 2.5043,-0.83478 4.1739,0.83478 m 12.5218,-2.50435 2.5043,0.83479 -4.1739,0.83478 m 6.6783,0 2.5043,-1.66957 m -70.121701,1.66957 h 1.6695 m 68.452201,0.83478 0.8348,0.83478 m -100.173905,0 0.8348,1.66957 m 38.400004,-1.66957 0.8347,1.66957 m -55.095604,-0.83478 h 3.3391 m 3.3392,0 h 2.5043 m 12.5217,0 0.8348,0.83478 m 15.860904,-0.83478 0.8348,0.83478 m 9.1826,-0.83478 v 2.50435 m 3.3391,-2.50435 -0.8348,0.83478 m 19.2,-0.83478 -0.8348,2.50435 m 8.3479,-2.50435 1.6695,0.83478 m 5.008701,-0.83478 h 2.5044 m 6.6782,0 -1.6695,0.83478 m 8.3478,-0.83478 v 0.83478 m 2.5044,-0.83478 v 0.83478 m 3.3391,-0.83478 2.5043,0.83478 m 3.3392,-0.83478 1.6695,0.83478 m 433.25217,2.50435 h 10.8522 m -11.687,7.51304 -2.5043,0.83478 M 6.3431551,173.82565 c 0.8499,-2.5586 1.8692,-3.2448 4.1738999,-1.66956 m 41.739104,-1.66957 v 0.83479 m 16.6957,-0.83479 v 2.50435 m 23.3739,-2.50435 v 2.50435 m 26.713101,-2.50435 v 2.50435 m 35.0608,-2.50435 v 2.50435 m 80.1392,-2.50435 v 2.50435 m 25.8782,-2.50435 v 2.50435 m 40.9044,-2.50435 v 2.50435 m 21.7043,-2.50435 v 1.66957 m 226.22607,-1.66957 h 2.5043 m -502.539071,0.83479 v 0.83478 m 82.643501,-0.83478 h 0.8348 m 2.5043,0 v 1.66956 m 197.0087,-1.66956 v 1.66956 m -316.382605,-0.83478 -1.6696,0.83478 m 4.174,-0.83478 h 1.6695 m 10.8522,0 1.6696,0.83478 m 5.0087,-0.83478 0.8347,0.83478 m 15.860904,-0.83478 1.6696,0.83478 m 7.513,-0.83478 -1.6695,0.83478 m 5.0086,-0.83478 -0.8347,0.83478 m 9.1826,0 h 3.3391 m 3.3391,0 1.6696,-0.83478 m 15.8609,0 v 0.83478 m 11.686901,-0.83478 v 0.83478 m 3.3392,-0.83478 h 0.8347 m 6.6783,0 0.8348,0.83478 m 3.3391,0.83478 2.5044,-0.83478 m 11.6869,-0.83478 1.6696,0.83478 m 3.3391,0 h 2.5044 m 11.6869,-0.83478 -1.6695,0.83478 m 4.1739,0 h 2.5043 m 5.8435,-0.83478 1.6696,0.83478 m 1.6695,-0.83478 1.6696,0.83478 m 6.6782,0 h 2.5044 m 3.3391,0 1.6696,-0.83478 m 7.513,0 v 0.83478 m 5.0087,0 h 3.3392 m 13.3565,0 h 2.5043 m 10.8522,-0.83478 -0.8348,0.83478 m 10.8522,-0.83478 -1.6696,0.83478 m 4.1739,0 h 2.5044 m 3.3391,0 2.5044,-0.83478 m 5.0087,0 -0.8348,0.83478 m 10.8522,-0.83478 1.6695,0.83478 m 4.1739,-0.83478 -0.8347,0.83478 m 9.1826,0 h 2.5043 m 3.3391,0.83478 3.3392,-0.83478 m 4.1739,0 h 2.5043 m 6.6783,-0.83478 -0.8348,0.83478 m 6.6783,0 h 2.5043 m 7.5131,-0.83478 -0.8348,0.83478 m 5.8435,0 2.5043,-0.83478 m 8.3478,0.83478 h 2.5044 m -303.860905,0 h 0.8348 m 22.539104,0 h 0.8348 m 29.2174,0 h 0.8348 m 186.156501,0 h 0.8348 M 6.3431551,176.33 v 1.66957 M 24.708355,176.33 v 0.83478 m 10.0174,-0.83478 v 1.66957 m 4.1739,-1.66957 v 1.66957 M 55.595359,176.33 v 1.66957 m 5.8435,-1.66957 v 1.66957 m 3.3391,-1.66957 4.1739,0.83478 m 10.0174,-0.83478 -3.3391,0.83478 m 21.7043,-0.83478 -1.6696,3.33913 M 109.02146,176.33 v 0.83478 m 14.1913,-0.83478 -4.1739,0.83478 m 19.2,-0.83478 2.5043,1.66957 m 3.3391,-1.66957 h 4.1739 m 5.8435,0 v 1.66957 m 3.3392,-1.66957 v 1.66957 m 14.1913,-1.66957 v 1.66957 m 15.026,-1.66957 4.174,1.66957 m 8.3478,-1.66957 v 1.66957 m 2.5043,-1.66957 v 1.66957 m 54.2609,-1.66957 4.1739,0.83478 m 9.1826,-0.83478 v 0.83478 m 2.5044,-0.83478 2.5043,3.33913 -1.6695,-0.83478 m 21.7043,-2.50435 2.5043,1.66957 m 6.6783,-1.66957 0.8348,1.66957 m 2.5043,-1.66957 v 1.66957 m 11.687,-1.66957 4.1739,0.83478 m -309.704305,0 h 0.8347 m 3.3392,0 2.5043,0.83479 m 9.1826,-0.83479 2.5044,0.83479 m 20.034804,-0.83479 h 0.8347 m 29.2174,0 h 3.3392 m 2.5043,0 h 0.8348 m 4.1739,0 0.8348,0.83479 m 11.686901,-0.83479 h 0.8348 m 7.5131,0 2.5043,0.83479 m 10.0174,-0.83479 h 3.3391 m 2.5044,0 v 0.83479 m 3.3391,-0.83479 0.8348,0.83479 m 25.8783,-0.83479 h 3.3391 m 10.8522,0 v 0.83479 m 5.0087,-0.83479 h 3.3391 m 10.8522,0 v 0.83479 m 10.0174,-0.83479 h 0.8347 m 2.5044,0 h 2.5043 m 6.6783,0 h 3.3391 m 10.8522,0.83479 2.5044,-0.83479 m 10.8521,0.83479 2.5044,-0.83479 m 2.5043,0 h 3.3392 m 9.1826,0 v 0.83479 m 19.2,-0.83479 h 3.3391 m 2.5043,0 2.5044,0.83479 m 35.0609,-0.83479 h 3.3391 m 3.3391,0 0.8348,0.83479 m 2.5043,-0.83479 h 4.174 m -297.182605,0.83479 h 0.8347 m 267.965305,0 h 1.6695 m -103.513,0.83478 0.8348,0.83478 M 6.3431551,214.73 10.517055,213.89522 m 24.2087,-1.66957 V 214.73 m 2.5044,-2.50435 V 214.73 m 25.043404,-2.50435 V 214.73 m 40.904401,-2.50435 -0.8348,2.50435 m 31.7217,-2.50435 -0.8347,2.50435 m -65.113101,-1.66956 h 0.8348 m 499.199971,0 0.8348,1.66956 m -451.61737,-0.83478 h 0.8348 M 20.534455,214.73 h 0.8348 m 7.513,0 h 1.6696 m 13.3565,0 h 1.669604 m 5.0087,0 2.5043,0.83478 m 4.1739,-0.83478 h 1.6696 m 13.3565,0 h 1.6696 m 3.3391,0.83478 2.5044,-0.83478 m 7.513,0 h 0.8348 m 4.1739,0 h 0.8348 m 1.6696,0 h 0.8347 m 4.174,0 h 0.834701 m 10.0174,0 h 0.8348 m 10.8522,0 h 1.6695 m 6.6783,0 h 0.8348 m 5.8435,0 h 0.8348 m 9.1826,0 h 2.5043 m -144.4174049,3.33913 5.0086999,0.83478 m 8.3478,-0.83478 3.3392,1.66957 m 12.5217,-1.66957 v 1.66957 m 2.5044,-1.66957 v 1.66957 m 18.365204,-1.66957 4.1739,0.83478 m 2.5043,-0.83478 v 1.66957 m 18.3653,-1.66957 -2.5044,1.66957 m 7.513,-1.66957 4.174,0.83478 m 2.5043,-0.83478 v 1.66957 m 6.6783,-1.66957 4.173901,1.66957 m 8.3478,-1.66957 -2.5043,1.66957 m 5.8434,-1.66957 v 1.66957 m 15.0261,-1.66957 4.1739,1.66957 m -121.043405,-0.83479 3.3391,0.83479 m 11.6869,-0.83479 4.174,0.83479 m 10.8521,-0.83479 h 3.339204 m 3.3391,0 h 3.3391 m 21.7044,0 -2.5044,0.83479 m 24.2087,-0.83479 v 0.83479 m 25.043501,-0.83479 h 3.3391 m 11.687,0 4.1739,0.83479 m 2.5043,-0.83479 0.8348,0.83479 m 2.5044,-0.83479 4.1739,0.83479 m 391.51297,50.08695 -0.8347,0.83478 m 5.8434,1.66957 1.6696,-0.83478 m 5.0087,0.83478 1.6696,-0.83478 m -549.2869749,1.66956 4.1738999,0.83478 m -4.1738999,2.50435 c 0.8981,2.70303 2.4078,3.50442 4.1738999,0.83478 l -1.6695999,-0.83478 m 7.5130999,0 c 1.4716,2.49684 2.7023,2.49684 4.1739,0 m 2.5044,0 c 0.7945,2.42838 1.2384,2.56779 3.3391,2.50435 m 3.3391,0 h 2.5044 m -18.3653,-0.83478 v 0.83478 m 90.156605,34.22608 v 1.66957 m 12.5217,-1.66957 h 0.8348 m -75.130405,0.83478 v 0.83479 m 5.008604,-0.83479 v 0.83479 m 18.3653,-0.83479 h 0.8347 m -24.208604,4.17392 v 1.66956 m 7.513004,-1.66956 4.1739,1.66956 m 6.6783,-1.66956 2.5043,1.66956 -3.3391,0.83478 m 5.8435,-2.50434 v 1.66956 m 3.3391,-1.66956 0.8348,3.33913 m 5.8435,-0.83479 -3.3392,-1.66956 3.3392,-0.83478 m 15.8608,2.50434 -4.1739,-0.83478 3.3391,-1.66956 m 9.1827,0 c 1.489201,2.37078 2.699601,2.38497 4.173901,0 v 0 m 3.3391,0 c 0,2.43422 0.8748,2.52521 3.3391,2.50434 m -1.6695,-2.50434 h 1.6695 m -29.217401,1.66956 -3.3391,0.83478 m 15.8609,-0.83478 h 3.3391 m 15.860901,0 h 4.1739 m 460.79997,42.57391 h 0.8348 m -37.5652,8.34783 1.6695,0.83478 m 11.687,0.83479 h 0.8348 m -541.773975,0.83478 v 0.83478 m -5.8433999,0 h 1.6695 m -3.3391,1.66957 c 0.4644,2.9209 1.1516,4.22566 4.1738999,4.17391 m 3.3391,-3.33913 v 2.50435 m 15.8609,0.83478 1.6696,-3.33913 m 5.8435,0 3.3391,1.66956 v 0.83479 l -3.3391,1.66956 v -4.17391 m 5.8434,3.33913 0.8348,-3.33913 3.339104,3.33913 m 14.1914,-3.33913 c -0.8127,2.48014 -0.8127,1.69377 0,4.17391 m -41.739204,-3.33913 -2.5043,2.50435 3.3391,0.83478 m 5.8435,-3.33913 -3.3391,2.50435 c 1.6868,1.12445 0.8175,1.12445 2.5043,0 m 26.713004,-2.50435 3.3392,2.50435 c -2.7816,1.85405 -1.1495,0.90323 -2.5044,0 m 2.5044,-2.50435 v 0.83478 m 12.5217,-0.83478 v 1.66957 m -3.3391,-0.83479 v 1.66957 m 454.956501,7.51304 h 57.59997 m -473.32167,26.71304 v 0.83479 m -59.269605,3.33913 c 0.957504,2.09029 1.575504,2.02768 2.504304,0 m 3.3392,0 2.5043,4.17391 0.8348,-4.17391 m 11.687,0 0.8347,2.50434 m 11.687,-2.50434 3.3391,3.33913 h -3.3391 m 19.2,-3.33913 c -0.2671,2.59617 -0.7246,3.22059 -3.3391,3.33913 v -1.66957 m 6.678201,-1.66956 2.5044,4.17391 0.8348,-4.17391 m 9.1826,0 0.8348,4.17391 c 2.2063,-1.21795 2.5744,-1.62198 2.5043,-4.17391 m -56.765201,0.83478 c 0.756,2.61621 0.7621,2.52271 2.5043,2.50435 l -0.8347,-1.66957 m 7.513,-0.83478 0.8348,2.50435 m 20.0348,-2.50435 1.6695,1.66956 -2.5043,1.66957 0.8348,-3.33913 m 20.034701,3.33913 -2.5043,-2.50435 3.3391,-0.83478 m -34.226101,2.50435 h -3.3391 l 2.5044,-1.66957 m 365.634701,0.83478 h 152.76527 m -159.44347,8.34783 h 11.6869 l 7.5131,8.4e-4 5.8435,0.19116 12.5217,-0.192 m 9.1826,0 h 0.8348 m 3.3391,0 h 0.8348 m 3.3391,0 h 0.8348 m 2.5044,0 h 0.8347 m 5.8435,0 h 4.1739 m 3.3392,0 h 0.8347 m 6.6783,0 h 3.3391 m 12.5218,0 h 0.8348 m 12.52167,0 h 2.5043 m 3.3392,0 h 5.0087 m 3.3391,0 h 0.8348 m 5.8435,0 h 0.8347 m 8.3479,0 h 1.6695 m 5.0087,0 h 0.8348 m 5.8435,0 h 0.8348 m 2.5043,0 h 3.3392 m -165.28697,8.34783 h 165.28697"
       id="path300" />
  </g>
</svg>
