<?xml version="1.0" encoding="UTF-8" standalone="no"?>
<!-- Created with Inkscape (http://www.inkscape.org/) -->

<svg
   version="1.1"
   id="svg2"
   width="607.72174"
   height="455.79129"
   viewBox="0 0 607.72174 455.79129"
   sodipodi:docname="img2.svg"
   inkscape:version="1.1.1 (3bf5ae0d25, 2021-09-20, custom)"
   xmlns:inkscape="http://www.inkscape.org/namespaces/inkscape"
   xmlns:sodipodi="http://sodipodi.sourceforge.net/DTD/sodipodi-0.dtd"
   xmlns="http://www.w3.org/2000/svg"
   xmlns:svg="http://www.w3.org/2000/svg">
  <defs
     id="defs6" />
  <sodipodi:namedview
     id="namedview4"
     pagecolor="#ffffff"
     bordercolor="#eeeeee"
     borderopacity="1"
     inkscape:pageshadow="0"
     inkscape:pageopacity="0"
     inkscape:pagecheckerboard="false"
     showgrid="false"
     inkscape:zoom="0.56604855"
     inkscape:cx="177.54661"
     inkscape:cy="141.33063"
     inkscape:window-width="675"
     inkscape:window-height="364"
     inkscape:window-x="685"
     inkscape:window-y="398"
     inkscape:window-maximized="1"
     inkscape:current-layer="g8" />
  <g
     inkscape:groupmode="layer"
     inkscape:label="Image"
     id="g8">
    <path
       style="fill:none;stroke:#020202;stroke-width:3.77953;stroke-linecap:round;stroke-miterlimit:4;stroke-dasharray:none"
       d="m 379.07023,7.3482115 21.7043,-3.93558 8.3478,-0.25052 11.687,-0.82259 11.6869,0.82259 9.1827,0.25052 21.7043,3.93558 m -50.087,0 h 0.8348 m -90.1565,24.2087005 c 4.5095,-3.21049 7.5873,-4.40607 12.5217,-7.47055 12.4099,-7.70772 26.5478,-12.61215 40.9044,-15.9033605 m 20.0348,6.6782605 c 4.0612,-3.61144 7.9421,-5.1334105 13.3565,-6.6782605 m 54.2609,0 23.3739,7.5130405 m -61.7739,-6.6782605 c 4.8609,2.3632705 20.1675,4.1969505 24.2087,5.8434805 m 39.2347,1.66956 c 28.0362,11.50239 53.8285,31.23732 72.6261,55.93044 m -165.2869,-55.09565 1.6695,5.84347 m 55.0957,-5.84347 5.8435,5.84347 m -41.7392,-1.66956 c 8.7853,-5.87161 19.1633,-2.49458 28.3827,1.66956 m -65.1131,0 h 15.8609 m 12.5217,-0.83478 -4.1739,0.83478 m -25.8783,0.83479 -5.8434,8.34782 m 75.9652,-7.51304 1.6695,6.67826 m -63.4434,0 c 3.5428,-2.91097 6.3844,-4.32225 10.8521,-5.84348 m 14.1913,0 3.3392,2.50435 0.8348,-2.50435 m 42.5739,0 v 2.50435 m -0.8348,2.50435 c 7.498,-1.17271 12.8523,4.23844 16.6956,9.1826 m -154.4347,-6.67826 c -7.9397,5.77336 -20.2894,15.52771 -27.7858,23.44863 -11.5166,12.16754 -22.2803,26.68925 -29.8393,41.664424 -3.9836,7.891204 -7.6174,16.643894 -10.3321,25.043474 -0.7171,2.21969 -0.7922,4.42936 -2.5937,5.96202 -2.1729,1.84904 -5.6314,1.79729 -8.7535,2.38581 m 143.5826,-98.504358 -2.5043,6.67826 m 68.4521,-6.67826 c 1.6955,2.15591 10.0867,3.58715 13.3566,6.67826 m -91.8261,-5.84347 -0.8348,10.85217 5.0087,-1.66956 m 42.5739,-7.51305 v 1.66957 m 22.5391,1.66956 8.3479,-3.33913 m -40.0696,0.83478 h 1.6696 m -25.0435,1.66957 c 2.9518,-0.49386 4.0186,0.066 6.6782,1.66956 m 2.5044,1.66957 2.5043,1.66957 m 40.9044,-1.66957 -6.6783,6.67826 m -48.4174,-5.84348 c 5.0271,4.25188 12.5376,4.85393 20.0348,5.0087 m 15.8609,-5.0087 0.8348,2.50435 m 56.7652,-1.66956 1.6696,3.33913 m -93.4957,-2.50435 c -5.0938,2.47279 -11.2287,5.04025 -15.0261,1.66956 m 96,-1.66956 1.6696,4.17391 m -66.7826,-3.33913 h 0.8348 m 14.1913,0 h 0.8347 m 10.0174,0 -0.8347,0.83478 m 42.5739,4.17392 v 6.67826 m 10.8521,-6.67826 c 0,2.06116 0,1.39968 0,4.17391 m -110.1913,-3.33913 -2.5043,4.17391 m 45.0782,-4.17391 5.8435,2.50435 m -41.7391,-1.66957 v 3.33913 m 61.7739,-0.83478 5.0087,-1.66957 m -76.8,5.84348 v 5.0087 m 101.8435,-5.0087 -5.8435,6.67826 m -25.0435,-4.17391 7.5131,-1.66957 m 34.2261,0 -4.174,4.17392 m -97.6695,-2.50435 0.8348,1.66956 m 20.8695,1.66957 c 6.5639,-1.34759 7.3503,-1.41663 14.1913,-3.33913 m 10.8522,0.83478 h 0.8348 m 6.6782,0 5.0087,2.50435 m -11.6869,-0.83478 v 1.66956 m 14.1913,1.66957 6.6783,5.00869 m 9.1826,-5.00869 h 0.8347 m 1.6696,0 h 1.6696 m 15.0261,0.83478 3.3391,5.84348 m -111.0261,-5.0087 0.8348,4.17392 m 12.5217,-4.17392 -6.6782,4.17392 m 19.2,-2.50435 c -0.8899,-0.98872 -0.859,-0.71516 0,-1.66957 m 33.3913,0 2.5043,4.17392 m -42.5739,0 5.0087,-3.33913 m 6.6783,0.83478 3.3391,0.83478 -1.6696,1.66957 m 1.6696,-1.66957 h 5.0087 l -1.6696,2.50435 m 43.4087,-3.33913 h 0.8348 m 2.5043,0 h 0.8348 m -67.6174,6.67826 9.1826,-1.66957 m 81.8087,0 c -0.7655,2.98268 -1.5451,4.07708 -3.3391,6.67826 m 8.3478,-6.67826 c 4.6523,1.9943 7.3169,3.59792 11.687,5.84348 m -128.5565,-5.00869 c -3.1705,2.15624 -5.0371,3.47269 -8.3479,5.84347 m 13.3566,-5.84347 4.1739,2.50434 -3.3391,3.33913 m 60.9391,-5.84347 3.3391,2.50434 m 130.2261,-2.50434 c 5.8577,6.51047 13.3473,21.454744 18.3652,30.052178 m -179.4782,-29.217398 -2.5044,2.50435 m 24.2087,-0.83479 3.3391,0.83479 m 21.7044,-0.83479 4.1739,0.83479 m -80.9739,-0.83479 4.1739,1.66957 m 32.5565,-1.66957 h 1.6696 m 10.0174,0 h 0.8348 m 10.0173,0 v 2.50435 m 7.5131,-2.50435 h 2.5043 m 33.3913,1.66957 4.174,1.66956 m -112.6957,1.66957 c -3.1914,2.87416 -5.2466,4.10212 -8.3478,6.678264 m 123.5478,-6.678264 c 3.4794,2.86163 5.7583,3.8617 9.1826,6.678264 m -138.5739,-5.843484 c -2.8641,2.32988 -4.0629,3.33997 -6.6783,5.843484 m 31.7218,-5.843484 c 1.4442,2.50351 1.8924,3.21892 3.3391,5.843484 m 115.2,-5.843484 c 3.0962,2.11451 4.6823,3.25983 7.5131,5.843484 m -105.1827,-5.008704 -0.8347,1.66957 m 56.7652,-1.66957 -6.6783,1.66873 -16.6956,8.4e-4 m 39.2347,-1.66957 -5.0086,4.17392 m -37.5653,0.834784 1.6696,-3.339134 m 28.3826,0 h 1.6696 m 3.3391,0 3.3391,0.83478 m -109.3565,4.173924 -7.513,6.67826 m 112.6956,-6.67826 c -3.5436,1.5385 -5.6665,2.01182 -9.1826,0.83478 l -0.8348,5.84348 m 11.687,-6.67826 h 0.8348 m 4.1739,0 6.6782,5.84347 -5.8434,7.513054 m 24.2087,-13.356524 5.8434,5.84347 m -155.2695,-5.00869 -5.8435,5.84348 m 44.2435,-5.84348 c 2.966,3.12292 5.396,4.93106 9.1826,2.50435 m 33.3913,3.33913 c 4.9561,-5.22157 6.9988,-1.92668 14.1913,-2.6471 3.7782,-0.37732 9.4714,-2.32236 12.5217,-1.52682 m 53.4261,-1.66956 5.0087,5.84348 m -112.6956,-4.17392 5.8434,4.17392 m 52.5913,-4.17392 v 2.50435 m -32.5565,-1.66956 h 0.8348 m -167.7913,3.33913 6.6783,-0.83479 m -5.0087,5.843484 c -5.1515,0 -10.8472,0.4007 -15.0261,-0.83478 l 8.3478,-2.50435 m 158.6087,0 c 4.5805,1.28724 8.5064,2.3783 12.5217,0 m 28.3826,0 c -3.2656,4.18226 -5.5713,5.57051 -10.8521,6.67826 m 16.6956,-6.67826 0.8348,5.84348 m 16.6957,-5.84348 5.0087,5.84348 m 21.7043,-5.84348 9.1826,13.35652 m 0.8348,-13.35652 4.1739,5.84348 m -178.6435,-5.0087 -5.0087,5.84348 m 15.8609,-5.84348 -5.0087,5.84348 m -125.2174,0 25.8783,-4.17391 m 150.2608,0 4.174,4.17391 m 27.5478,-4.17391 6.6782,4.17391 m -35.0608,-3.33913 -0.8348,0.83478 m 20.8696,-0.83478 h 0.8347 m 2.5044,0 -3.3391,3.33913 m 10.8521,-3.33913 -0.8347,0.83478 m 10.8521,-0.83478 h 0.8348 m 4.1739,0 h 0.8348 m -228.7304,4.17391 h 0.8348 m -36.7305,7.51305 34.2261,-6.67826 m 116.8696,0 -5.0087,6.67826 m 75.9652,-6.67826 8.3478,0.83478 m 2.5044,-0.83478 h 0.8347 m 40.0696,0 c 3.8242,1.73801 6.9128,5.00118 11.4482,5.05544 4.2157,0.0509 9.0232,-3.27986 12.7605,-5.05544 m -136.0696,0.83478 -5.0087,5.00869 m 181.1479,-5.00869 4.1739,5.84348 m -96,-2.50435 10.0174,-0.87903 10.8522,0.87903 m 137.7391,-2.50435 1.6695,5.0087 m -163.6173,-4.17392 -4.174,4.17392 m -192.8347,-3.33913 c 8.8904,0 24.5659,-2.14873 31.7217,1.66956 m 208.6957,0.83478 1.6695,1.66957 m 20.8696,0 7.513,-0.83478 m -318.8869,0.83478 h 0.8348 m -36.7305,7.51304 33.3913,-6.67826 m 150.2609,0 -1.6696,3.33913 m 94.3305,-3.33913 c -3.3208,5.40188 -11.3815,17.36598 -15.0261,23.37391 m 67.6174,-22.53912 8.3478,9.1826 8.3478,-10.01739 m -151.0956,0.83479 -4.1739,5.00869 m 125.2173,-5.00869 2.5044,1.66956 -3.3391,0.83478 m 56.7652,-2.50434 2.5043,5.00869 m 7.5131,-5.00869 2.5043,5.84347 m -29.2174,-3.33913 c 4.2641,-2.35742 10.3346,-0.17029 13.3565,3.33913 m 78.4696,-5.00869 5.8435,21.70434 m -161.9478,-20.03478 c 6.3944,-0.004 8.9797,-0.61523 14.1913,0 m 14.1913,-0.83478 6.6782,4.17391 m -299.6869,-3.33913 h 1.6695 m 56.7653,0 h 1.6695 m 1.6696,0 c 8.4154,0 18.0989,0 25.8783,0 m 170.2956,0 h 2.5044 m 73.4608,0 v 2.50435 m -124.3826,0.83478 h 15.8609 m 26.713,0 1.6696,-0.83478 m -55.9304,1.66957 h 0.8347 m 4.174,0 h 0.8347 m -205.3565,4.17391 c -9.7736,0 -30.6799,1.44751 -38.4,-0.83478 l 8.3478,-2.50435 m 242.087,20.03478 c -1.9676,3.07951 -4.633,1.95339 -7.3711,-0.86316 -5.0588,-5.2032 -10.419,-11.29712 -13.4985,-17.50206 l 5.8435,-1.66956 m 11.687,0 h 2.5043 m 15.8609,0 c -0.7104,2.84995 -1.4233,3.92515 -2.5044,6.67826 m 94.3305,-6.67826 1.6695,4.17391 m -16.6956,-3.33913 c 2.8508,2.21718 4.3016,3.18303 6.6782,5.84348 m 23.374,-5.84348 -1.6696,5.0087 m 19.2,-5.0087 2.5043,5.84348 m 6.6783,-5.84348 1.6696,5.84348 m -301.3566,0 10.8522,-2.24557 15.0261,-1.09356 m 67.6174,-1.66957 -3.3391,4.17392 m 13.3565,-4.17392 -3.3391,5.0087 m 42.5739,-5.0087 0.8348,2.50435 m 108.5217,-2.50435 c 1.243,3.75486 4.8735,9.10748 8.3478,11.68696 m 23.3739,-11.68696 c -3.9944,3.25315 -11.5926,8.75103 -12.5217,14.19131 m -395.68701,-9.18261 25.04351,-4.17391 m 302.1913,0.83478 h 20.0348 m 22.5391,-0.83478 -7.513,0.83728 -10.0174,-0.003 m 34.2261,-0.83478 v 3.33913 m -262.1218,-2.50435 h 0.8348 m 1.6696,0 h 2.5043 m 185.3218,3.33913 v -3.33913 h 5.8435 m -259.6174,8.34782 h -53.4261 c -6.53721,0 -16.427706,0.7246 -21.704406,-0.83478 l 8.3479,-2.50435 m 91.826006,6.67826 33.3913,-6.67826 m 104.3479,0 -2.5044,5.84348 m 155.2696,-5.84348 c 0.8531,2.55694 1.8891,3.52863 5.0087,3.33913 m 36.7304,-3.33913 1.6696,5.0087 m -132.7304,-4.17391 -2.5044,5.00869 m 35.8957,-1.66956 -11.687,-1.66957 5.0087,-1.66956 m 112.6956,0 3.3392,12.52174 m -216.2087,-11.68696 -3.3391,5.00869 m 68.4521,-5.00869 0.8348,2.50435 m 102.6783,-0.83479 h 7.513 m -428.243506,3.33913 c 7.1617,-1.38907 18.492,-3.92765 24.2087,-4.17391 m 318.887006,4.17391 4.1739,-4.17391 m 27.5478,0.83478 c 4.3359,-0.003 8.9965,-0.41321 13.3565,-0.0593 3.9394,0.31973 6.0113,0.8448 10.8522,0.29719 6.2058,-0.70289 8.3044,-0.23792 15.0261,-0.23792 m -273.8087,3.33913 c 11.1085,-2.0928 18.0956,-3.33829 29.2174,-3.33913 2.6863,0 11.121,-0.36313 13.233,0.26547 1.9383,0.57683 2.3132,1.35819 2.3207,3.12292 0.013,2.93175 -1.208,3.84083 -1.3949,6.90365 l 0.033,1.39492 m 131.0609,-11.68696 0.8348,3.33913 m 45.913,-3.33913 h 0.8348 m -240.4174,4.17392 h 0.8348 m -30.887,4.17391 H 83.557624 l -35.0609,-0.83478 9.1827,-2.50435 m 92.660806,6.67826 10.8522,-2.24556 22.5391,-4.4327 m 137.7392,0 -1.6696,6.67826 m 81.8087,-6.67826 -4.1739,6.67826 m 8.3478,-6.67826 c 1.127,3.52946 1.5009,4.53621 -1.6696,6.67826 v 0 m 46.7479,-6.67826 c -4.6974,4.34087 -10.353,3.34247 -15.8609,3.33913 m 64.2783,-3.33913 c 5.5037,3.91096 11.4565,7.71172 15.026,12.52174 -4.724,0.69788 -8.1549,-1.77976 -12.5217,-4.17391 m 92.6609,-8.34783 0.8348,6.67826 m -282.9913,-5.84348 -1.6696,4.17392 m 75.1304,-4.17392 c -2.0544,2.25976 -3.8867,3.73565 -5.8435,0.83479 m 73.4609,3.33913 9.1826,-2.1863 7.5131,-1.98762 m 53.4261,0.83479 2.5043,13.35652 m -501.704306,-8.34783 15.8608,-2.86664 7.5131,-1.30727 m 416.556506,0.83478 5.8451,0.0676 10.0158,-0.35979 7.513,0.80556 9.1826,1.99096 m -331.4087,0.83478 c 11.3831,-2.12118 18.2767,-3.33496 29.2174,-3.33913 3.0445,-8.3e-4 7.3569,0 10.8522,0 h 40.9043 m 166.9565,2.50435 c -0.7078,-2.16793 1.4275,-2.69551 4.174,-2.43506 2.8633,0.27214 2.6446,0.93913 5.8434,-0.0693 m 4.174,0 h 5.8434 m -48.4174,0.83478 0.8348,2.50435 m 22.5392,-2.50435 h 3.3391 m -34.2261,0.83479 h 1.6696 m -260.4522,6.67826 H 40.148924 c -8.1684,0 -23.5321,1.09273 -30.0522,-0.83479 l 8.3479,-2.50434 m 227.060806,3.33913 h -88.4869 c -7.8303,8.3e-4 -17.0029,2.89669 -23.3739,0 l 11.6869,-3.33913 m 13.3566,0 h 0.8347 m 150.2609,0 -1.6696,5.00869 m 88.487,-5.00869 c -0.068,3.92598 4.2624,3.67387 5.8435,1.66956 m 129.3913,-1.66956 0.8348,4.17391 m -213.7044,-3.33913 -0.8348,5.84348 m 66.7826,-5.84348 -12.5217,3.33913 3.3391,-3.33913 m 10.8522,0.83478 8.3478,1.66957 m 50.087,-1.66957 -1.6696,3.33913 m 152.7652,-3.33913 c 0.8949,3.75652 1.2906,7.52891 1.5953,11.68696 0.1519,2.06608 0.2062,3.78908 0.3965,5.84348 0.2121,2.29314 0.092,4.23318 0.2296,6.67826 0.2212,3.94768 0.2438,7.9296 -0.1035,11.68695 -2.1053,22.80125 -7.9029,46.95485 -17.1439,67.61739 M 7.5924235,152.59983 h 2.5043005 m 102.678306,4.17392 9.1826,-2.19465 11.687,-1.14448 m 282.9913,3.33913 c -5.4311,-1.78226 -5.9136,-2.34491 -7.5131,-3.33913 1.6871,-0.2855 2.5553,-0.20035 7.5131,0 m 35.0608,-0.83479 9.1827,0.87736 5.0087,-0.0209 5.007,-0.57266 5.8451,0.55096 m -73.4608,0.83478 5.8434,-0.83478 m 9.1826,0 c 3.4677,0.23457 6.3093,-0.25211 8.3479,1.66956 m 0.8348,-0.83478 15.8608,-0.83478 m 41.7392,0 c 3.865,0.13356 4.926,0.29634 10.0173,0 m 1.6696,0 h 5.0087 m 1.6696,0 h 1.6695 m -138.5739,3.33913 5.0087,-1.66957 m 142.7478,0 1.6696,1.66957 m -387.3391,0 5.8435,-1.66957 m 230.4,2.50435 -11.687,7.51304 m -316.382606,8.34783 c 3.8011,-0.74797 5.0543,-1.39075 8.3478,-2.12452 2.3245,-0.51757 4.2386,-0.48084 6.6783,-0.89072 4.3964,-0.73878 10.0202,0.57433 14.192,0.49837 5.012,-0.0918 7.5825,-0.82226 13.3558,-0.82226 10.0016,-8.4e-4 21.490596,0 31.721706,0 h 81.8087 37.5653 c 3.5661,0 10.9832,0.63944 12.9499,-0.85816 0.6737,-0.51256 1.2773,-1.44835 1.2773,-3.31576 0,-2.53857 -0.8966,-3.63213 -3.4035,-4.05036 -7.3043,-1.21878 -22.0173,-0.12355 -30.0237,-0.12355 -30.8645,0 -61.9192,-0.002 -92.6609,0 -7.7259,8.4e-4 -12.11601,0.83478 -20.034806,0.83478 1.600296,-2.61871 3.580396,-3.18636 8.347796,-4.17391 m 294.67831,3.33913 c -8.6292,0 -10.9206,0.91075 -18.3652,0.7271 -3.5729,-0.0885 -6.6249,-0.55012 -10.0174,-1.56188 l 14.1913,-2.50435 m 31.7217,0 2.5044,3.33913 c -3.4852,-0.0943 -4.7015,0.0192 -7.5131,0 m 118.5392,-3.33913 0.8347,5.84348 m -227.0608,-5.0087 -0.8348,5.84348 m 11.6869,-5.84348 v 3.33913 m 102.6783,-3.33913 c -2.43,1.18122 -2.3674,1.05684 -5.0087,2.50435 m 32.5565,-2.50435 c 0.4466,3.71813 4.7015,2.53941 10.0174,2.50435 3.0403,-0.02 4.3459,-0.34727 5.8435,-0.83478 l -2.5043,-1.66957 m 56.7652,0 c -0.6144,-1.95923 1.4266,1.31896 0.3247,2.06359 -4.8885,3.30407 -20.8637,0.44076 -28.7073,0.44076 m 37.5652,-1.66956 v 4.17391 m -452.452206,0.83478 9.1826,-2.29064 14.1913,0.62108 m -1.6695,-2.50435 h 2.5043 m 262.121706,4.17391 12.5218,-4.17391 m 66.7826,0 c -1.4868,0.44243 -3.7807,0.82727 -5.8452,0.9408 -5.3776,0.29468 -6.7984,-1.2455 -9.1809,2.39833 m 21.7044,-3.33913 -1.6696,1.66956 M 7.5924235,161.78241 H 80.218524 m 342.260906,0 1.6695,1.66957 m 40.0696,-1.66957 c 4.1146,0.62525 6.225,0.0584 13.3565,0 m -387.339106,2.50435 5.8435,-0.83478 m -27.5479,3.33913 h 0.8348 m 247.095706,0 -0.8348,6.67826 m 41.7391,-6.67826 -3.3391,2.50435 c 5.9094,1.74302 6.3744,0.46998 11.6869,0.27798 2.5278,-0.091 3.5846,0.25294 5.8435,0.3865 1.9442,0.11437 3.1588,-0.0993 5.0087,-0.0718 2.3157,0.0342 4.2182,0.14191 6.6783,0.38317 8.3929,0.82226 12.328,-0.14108 19.2,-0.14108 m 125.2174,-3.33913 0.8347,5.00869 m 5.8435,-5.00869 1.6696,6.67826 m -474.991306,-5.0087 5.0087,-0.83478 m 283.826106,0 -3.3392,4.17391 m 96.8348,-4.17391 c 5.6398,4.38595 7.0247,2.50852 13.3565,2.50435 m -151.0956,-1.66957 -0.8348,5.0087 m 115.2,-5.0087 -2.5043,2.50435 4.1739,2.50435 m 17.5304,-5.0087 -1.6696,4.17392 m -88.4869,0.83478 5.0087,-4.17391 m 73.4609,0 c 3.319,1.51429 5.3576,1.35067 9.1826,0.83478 m 78.4695,3.33913 -0.8348,-3.33913 c 2.0828,0.0676 2.0828,0.20285 5.0087,-0.83478 1.88,6.36187 -0.5659,21.29613 -5.0087,29.21739 M 7.5924235,170.13023 H 42.653324 m 15.0261,0 1.6695,1.66956 m 355.617406,-0.83478 -0.8348,2.50435 m 46.7479,-3.33913 c 8.0464,0.46915 12.8289,0.91075 20.0347,0 m 6.6783,0 c 7.9605,0 19.1457,0.83478 25.8783,0.83478 m -20.0348,0.83478 h 0.8348 m -442.434806,1.66957 5.0087,-0.83478 m -48.4174004,5.84347 14.1913004,1.66957 c 1.3809,-3.53781 3.3749,-3.97857 8.3478,-5.0087 m 273.808706,0 -0.8348,6.67826 m 11.687,-6.67826 -0.8348,6.67826 m 33.3913,-6.67826 v 3.33913 c 4.0253,0 9.5332,0 13.3565,0 3.2173,0 4.7332,0 8.3479,0 12.2546,0 21.2827,0.48418 32.5565,0 m 41.7391,-3.33913 c -0.036,2.02185 1.4408,3.38755 5.8435,3.54366 4.113,0.14608 5.2683,-0.16112 9.1826,-0.20119 3.5854,-0.0367 5.8852,-0.0184 9.1826,-0.003 4.3,0.0209 5.7233,0.57349 9.1826,0.74963 2.4776,0.12606 4.9169,-0.28633 7.5131,-0.75047 m 30.8869,-3.33913 c 0.1553,2.97684 0.1277,3.78908 -0.8348,6.67826 m 13.3565,-6.67826 v 5.84348 m 7.5131,-5.84348 v 6.67826 m -192,-5.84347 -0.8348,4.17391 m 93.4957,-4.17391 -2.5044,5.84347 M 20.114124,177.64277 h 2.5044 m 391.513006,0.83478 c 3.8008,0.0209 8.1058,-1.31227 12.5218,0.83479 m 2.5043,-1.66957 5.0087,1.66957 m 9.1826,-1.66957 c -3.8467,4.87346 -1.9959,5.91861 0,10.85217 l -0.8348,0.83479 h -0.8347 l -0.8348,0.83478 M 7.5924235,178.47755 h 0.8348001 m 15.0261004,0.83479 15.8608,-0.52174 15.8609,-0.31221 36.7304,-8.4e-4 H 243.83593 m 250.4348,0 c 1.4041,0.11437 3.5912,0.2112 5.8451,0.17948 1.9643,-0.0284 3.7949,0.0584 5.007,0.10602 4.5663,0.17948 7.5732,0.10184 10.8522,-0.2855 m -168.6261,0.83479 v 0.83478 M 13.435924,180.9819 h 5.8435 m 452.452106,0 h 0.8348 m -168.6261,2.50435 0.8348,15.02609 m 10.0174,-15.02609 v 6.67826 m 27.5478,-6.67826 0.8348,14.1913 m 20.8696,-14.1913 h 1.6695 m -18.3652,0.83478 c 3.9586,1.20459 4.8718,1.12028 6.6783,1.66957 l -4.1739,4.17391 m 132.7304,-5.84348 3.3391,0.83478 m 28.3826,-0.83478 c -3.7264,3.90428 -8.7134,2.86414 -14.1913,2.58365 -3.6029,-0.18448 -5.1865,-0.0793 -9.1826,-0.0793 m -57.6,-1.66957 -0.8348,5.0087 m 96.8348,-5.0087 -0.8348,5.0087 m 8.3479,-5.0087 v 13.35653 M 354.02723,185.9906 c 6.1532,0.0167 6.2049,0.68786 11.6869,0.82226 6.7618,0.16612 9.4281,0.19617 15.0261,-0.0501 3.2924,-0.14442 4.613,-0.19283 7.5131,0.0242 3.158,0.23624 9.0031,0.18198 12.5217,0.0384 m 43.4087,0.83478 c 9.2786,-0.39819 14.3174,-0.51422 23.3739,-0.86734 4.3451,-0.16862 6.4479,-0.13106 10.8522,0.0877 3.3241,0.16445 6.25,-0.0292 8.3478,-0.0551 m -479.1652065,0 h 4.1945005 8.3272 25.8783 6.6783 12.5217 179.478306 m 159.4434,0 h 0.8348 m 3.3392,0 13.3565,1.66956 m 1.6695,-0.83478 1.6696,-0.83478 m 8.3478,5.00869 1.6696,5.0087 m 77.6348,-5.0087 v 6.67827 m 15.8608,-6.67827 0.8348,5.0087 m -73.4608,-4.17391 h 1.6695 m -141.913,0.83478 1.6695,12.52174 m 31.7218,-12.52174 c 0.116,2.07944 0.116,1.25969 0,3.33913 m 68.4522,-1.66956 v -1.66957 l 3.3391,1.66957 m 16.6956,3.33913 c 1.6012,-2.78067 4.4361,-3.30073 8.3479,-3.33663 6.523,-0.0593 13.7447,-0.25878 20.0348,0.4416 1.9041,0.21203 3.1062,0.21871 5.0086,0.0342 2.1546,-0.21037 3.5704,-0.3022 5.8435,-0.35896 4.4068,-0.11103 9.7403,-0.61691 14.1913,-0.11937 m -141.0782,0 c 5.1155,0.19533 7.917,0.18866 13.3565,-0.12021 2.6521,-0.14943 4.0979,0.14441 6.6783,0.15777 8.0347,0.0417 24.2153,-0.22956 32.5565,-0.025 5.4979,0.1344 8.1141,0.0459 14.1913,-0.84731 m 11.6869,0 3.3392,4.17392 m 7.513,-4.17392 v 0.83479 m 62.6087,-0.83479 c 3.8909,1.15033 5.932,0.83479 10.0174,0.83479 m -504.2087065,0 h 4.1945005 7.4925 23.3739 7.513 14.1913 138.573906 26.7131 l 11.6711,0.12354 3.7039,2.50435 0.6962,5.68237 0.6244,3.37669 m 176.9739,-11.68695 h 0.8348 m 1.6696,0 h 0.8348 m 44.2434,0.83478 4.174,1.66956 m 1.6695,0.83479 h 0.8348 m -146.0869,5.84347 c -0.7564,-3.264 1.1954,-3.6914 4.1739,-4.17391 m 8.3478,0 1.6696,6.67826 m 92.6608,-6.67826 c 7.3653,6.22998 19.8962,3.33913 31.7218,3.33913 3.3291,0 6.1206,-0.0351 9.1826,0.0693 4.1263,0.14108 4.5704,0.22038 8.3478,0.19367 2.8575,-0.02 5.8785,-0.23124 8.3478,-0.26129 5.7475,-0.0701 9.2152,-0.2137 11.687,2.50268 m 29.2174,-5.84348 v 4.17391 m -231.2348,-3.33913 0.8348,3.33913 m 42.5739,-3.33913 c 5.2675,3.48772 9.873,2.50519 16.6956,2.50435 2.85,0 7.4872,0.0384 10.0174,-0.004 3.7774,-0.0626 4.9611,-0.79889 9.1826,-1.66539 m 1.6696,-0.83479 h 2.5044 m 43.4086,0 c -2.0852,3.21642 -6.5138,2.50435 -10.8521,2.50435 m 14.1913,-2.50435 1.6695,4.17392 3.3392,-2.50435 m 50.0869,-1.66957 h 0.8348 m 20.8696,4.17392 c 2.4108,-4.28327 7.0088,-4.59381 7.513,0 m -191.1652,0 -2.5043,-2.50435 3.3391,-0.83478 m 180.313,0 -3.3391,0.83478 m 22.5391,-0.83478 -0.8348,5.00869 m -210.3652,-3.33913 8.3479,-0.83478 m 192,0 1.6695,1.66956 m 0.8348,-1.66956 7.513,1.66956 M 7.5924235,203.52124 h 4.1945005 7.4925 21.7043 7.513 15.8609 180.313106 m 137.7391,0 11.6869,0.83478 m 5.0087,-0.83478 9.1827,0.46414 11.6869,-0.46414 m -63.4435,0.83478 -2.5043,2.50435 m -50.9218,0 h 0.8348 m -5.0087,1.66957 v 6.67826 m 19.2,-6.67826 c 0.7422,3.63381 2.1412,5.25829 5.8435,5.84347 m 184.487,-5.84347 c 0.1168,0.68118 -0.076,2.14372 1.0818,4.05871 1.1946,1.97676 2.4384,2.05774 4.765,1.97343 5.8293,-0.2112 16.4711,-1.03764 21.701,-4.36258 m -25.0435,-1.66956 -0.8348,2.50434 m 18.3652,-2.50434 v 3.33913 m 9.1827,-3.33913 c 3.2715,1.44083 4.6288,2.39582 6.6782,5.00869 m -238.7478,-4.17391 12.5217,4.17391 m 27.5479,-4.17391 c -0.4066,3.24981 -15.6489,4.21565 -20.0348,5.84348 m 106.8521,-5.84348 1.6696,5.84348 m 26.7131,-5.84348 h 1.6695 m -109.3565,0.83478 v 3.33913 m 80.1391,-1.66956 -9.1826,-1.66957 m 14.1913,0 c 1.834,2.51854 12.3064,1.66957 18.3652,1.66957 10.5125,0 22.262,0.39068 32.5566,-0.0626 5.1748,-0.22706 7.2868,0.0626 13.3548,0.0626 3.2757,0 4.4035,0 5.8452,0 m -89.3218,1.66956 c -2.4467,-0.81558 -1.5844,0.58018 -0.8348,-1.66956 l 4.174,-0.83479 M 7.5924235,211.86907 h 4.1945005 10.8316 14.1913 16.6956 142.747906 35.0608 l 13.3073,0.26128 3.3884,3.07785 m 61.7739,-3.33913 v 2.50434 m 44.2435,-2.50434 c 7.5765,0 16.8125,-0.288 24.2087,0.0325 3.0711,0.13357 4.5904,0.61607 7.513,0.52425 7.4004,-0.23124 24.9926,0.13941 31.7218,0.27798 m -106.0174,0 v 1.66956 m 35.8956,-1.66956 v 2.50435 m 131.8957,-2.50435 3.3391,1.66956 m 44.2435,-0.83478 1.6695,1.66957 m -229.5652,1.66956 c 1.2806,4.0103 3.0695,6.83771 6.6908,9.30449 4.9628,3.38087 12.384,4.11631 18.3527,4.88682 m 11.687,-8.34783 -0.8348,-5.00869 13.3565,0.75965 6.6783,0.42908 23.3739,1.31561 7.513,-0.21955 7.5131,-2.28479 m 40.9043,-0.83479 c -2.8858,4.63054 -6.0054,4.32084 -12.5217,4.16139 -2.3967,-0.0584 -4.1522,-0.53843 -6.6783,-0.53843 -2.0293,-8.4e-4 -3.1237,0.38066 -5.0087,0.44661 -1.8206,0.0634 -3.188,-0.16279 -5.0087,-0.13774 -6.1724,0.0843 -10.4673,0.24209 -16.6956,0.24209 m 50.9217,-4.17392 c 6.6098,7.84696 19.7977,-0.86233 27.5478,5.0087 m 30.887,-5.0087 h 0.8348 m 45.0782,0 -2.5043,5.84348 m -231.2348,-5.00869 v 3.33913 m 28.3826,-3.33913 0.8348,4.17391 m 128.5565,-2.50435 c 5.1431,0.26963 7.2059,0.28466 11.687,-0.14191 7.3344,-0.69788 14.2113,-3.58623 19.2,3.48104 m 31.7217,-5.00869 1.6696,2.50434 m -219.5478,-1.66956 v 1.66956 m 186.9913,-0.83478 1.6695,1.66957 m 27.5478,-1.66957 0.8348,1.66957 M 7.5924235,220.21684 c 0.9472001,0 1.4084001,0 4.1945005,0 2.2583,0 8.1269,0 10.8316,0 4.4403,0 9.8626,0 14.1913,0 2.7433,0 4.1988,0 6.6783,0 3.2404,0 8.2032,0 11.6869,0 h 146.087006 30.8869 c 3.759,0 9.858,-0.42991 13.3524,0.12355 5.2382,0.83061 4.7674,2.75228 5.8476,8.22428 -12.0259,0 -37.4041,0 -52.5913,0 H 63.522824 c -7.181,0 -15.4749,0 -22.5391,0 -3.1202,0 -4.6673,0 -7.513,0 -7.0535,0 -21.4769,0 -25.0435004,0 M 432.49673,220.21684 c 3.4727,1.76473 4.977,1.62783 8.3479,0 m 28.3826,0 v 1.66957 m 62.6087,10.01739 c 1.2705,-3.49023 3.2239,-4.46024 6.6782,-5.84348 m -171.9652,0.83478 0.8348,2.50435 m 2.5044,-2.50435 0.8347,1.66957 m 30.887,-1.66957 0.8348,2.50435 m 2.5043,-2.50435 0.8348,1.66957 m 30.0522,-1.66957 1.6695,2.50435 m 1.6696,-2.50435 1.6696,2.50435 m 29.2174,-2.50435 0.8347,1.66957 m -133.5652,-0.83478 v 0.83478 m -329.7391065,0 H 8.4272236 M 502.61853,231.9038 c 4.0721,-0.32139 9.4898,-0.83896 13.3565,-1.46421 5.1114,-0.82643 11.3121,-1.7639 16.6957,-1.87492 m -280.487,0.83478 v 1.66957 m 73.4609,0.83478 h 2.5043 m -11.6869,1.66956 3.3391,5.84348 m 16.6956,-5.84348 h 0.8348 m 154.4348,0 h 3.3391 m 35.8957,0 c -1.4058,4.416 -8.0774,3.7056 -12.5217,4.02032 -2.5728,0.18114 -5.0037,-0.43492 -7.5131,-0.60606 -9.3245,-0.6386 -26.4209,0.65698 -31.7217,-0.90991 2.87,-0.87235 4.7465,-1.25384 10.0174,-1.66956 m -149.4261,0 c 4.9728,0.39318 6.518,0.82727 9.1826,1.66956 -4.6957,1.66122 -19.6825,0.83979 -28.3826,0.83478 m -66.7826,-1.66956 c -2.4067,1.82316 -4.7441,1.66789 -8.3479,1.66956 -11.0725,0.005 -26.2764,0 -39.2347,0 H 105.26202 c -15.007596,0 -32.507896,0 -46.747896,0 -4.9026,0 -13.5947,0 -18.3652,0 -2.6376,0 -4.1317,0 -6.6782,0 -7.0535,0 -21.4769,0 -25.0435004,0 m 340.5913064,-0.83478 10.8522,0.0751 5.8434,0.68452 7.5131,0.0877 10.0174,0.81892 45.0782,0.83812 8.3479,-0.59687 9.1826,-0.25043 7.513,-0.74714 7.5131,-0.21704 5.8434,-0.66031 12.5218,-0.0326 M 7.5924235,236.91246 h 0.8348001 m 245.4261064,0 1.6695,1.66957 m 101.8435,0 v 1.66956 m 0,1.66957 c 1.2781,3.85169 4.5454,3.33913 8.3478,3.33913 6.7501,8.4e-4 17.5538,0 23.374,0 m -132.7305,-2.50435 c 1.7055,4.69315 3.0678,6.19576 4.1739,10.85218 -6.2834,0 -14.8524,0 -20.8695,0 -3.5696,0 -5.1807,0 -9.1826,0 -53.452,0 -108.3632,0 -161.947906,0 -9.5555,0 -20.6567,0 -30.0521,0 -3.1203,0 -4.6673,0 -7.5131,0 -6.8111,0 -19.1053,0 -22.5391004,0 M 320.63593,242.75594 c 4.3292,4.35673 19.4963,3.26233 25.0435,2.61621 4.8534,-0.56431 5.8167,-0.11186 10.8521,-0.11186 m -25.8782,-2.50435 v 1.66957 m 15.0261,-0.83478 v 0.83478 m 182.8173,0 -1.6695,4.17391 M 7.5924235,245.26029 c 0.9472001,0 1.4084001,0 4.1945005,0 2.7784,0 15.9753,0.005 19.1794,0.16362 2.8556,0.14108 4.3848,-0.0902 7.5131,-0.15193 9.1296,-0.17948 19.9306,-0.0117 29.2173,-0.0117 54.690006,0 110.733106,0 165.287006,0 4.002,0 5.6131,0 9.1826,0 3.9352,0 9.2603,0 13.3565,0 m 136.0696,0 c 35.8623,0 72.0184,0 107.687,0 9.3996,0 19.2726,0.20285 28.3826,0 m -204.5218,0.83478 v 2.50435 m 37.5652,-1.66956 5.8435,0.83478 m 146.9218,0 5.8434,-0.83478 m -195.3391,3.33913 2.5044,6.67826 m 199.513,-6.67826 -2.5043,6.67826 m -188.6609,-5.84348 c 2.4025,3.95019 11.1986,2.02935 15.0261,0.83478 l -1.6696,1.66957 m -1.6696,-2.50435 v 0.83478 m 150.2609,0 7.5131,-0.83478 m -128.5566,5.00869 -0.6027,-1.94754 -3.5712,-0.5568 -14.1445,-0.0467 -2.5511,-0.78804 2.5043,-0.83478 m 153.6,1.66957 h -90.1565 c -8.8078,0 -26.39,1.23464 -33.3913,-0.83479 l 2.5043,-0.83478 m 123.5479,0 v 1.66957 m -162.7826,-0.83479 h 4.1739 m 21.7043,0 h 10.8522 M 7.5924235,253.60816 h 0.8348001 m 252.1043064,0 6.6783,11.68695 m 60.9391,-11.68695 h 5.8435 m 181.1478,0 h 10.0174 m -162.7826,0.83478 v 1.66956 m -26.713,-0.83478 v 0.83478 m -9.1826,3.33913 c 4.4886,4.22651 12.4023,2.48098 18.3652,2.5102 3.2406,0.0159 6.1732,0.72542 9.1826,0.78386 1.9809,0.0384 3.2732,-0.22039 5.0087,-0.42658 3.1095,-0.36897 10.9114,-0.3289 14.1913,-0.40487 1.8073,-0.0417 3.1655,-0.13022 5.0087,0.0868 2.5152,0.29718 4.7741,0.87235 7.513,0.64445 8.9906,-0.74796 18.4621,-0.68953 27.5478,-0.68953 31.1166,0 63.7324,2.41837 94.3305,0 m 71.7913,-2.50435 c -4.1898,5.58553 -10.2754,17.04209 -14.9126,23.37392 -8.6633,11.8297 -18.7817,22.68605 -30.1657,31.72173 m -10.8521,-54.26086 -1.6696,5.00869 M 7.5924235,261.95596 h 4.1945005 18.3446 7.5131 23.3739 8.3478 156.939106 10.0174 27.5479 m 246.2608,3.33913 c 1.3966,-4.20814 6.0263,-3.33913 10.0174,-3.33913 m -21.7043,1.66957 v 1.66956 m -169.4609,1.66957 2.5044,6.67826 m 166.9565,-5.84348 v 4.17391 m 11.6869,-4.17391 5.8435,2.50435 m 5.0087,-1.66957 -1.6696,5.0087 M 8.4272236,270.30379 c 3.2827004,0 13.4831004,0 20.0348004,0 2.8457,0 4.3928,0 7.513,0 9.7862,0 21.0865,0 30.887,0 34.164296,0 68.498906,0 102.678206,0 h 37.5652 c 5.4595,0 12.2146,0 17.5305,0 3.0019,0 4.6038,0 7.513,0 9.711,0 31.1608,-2.98101 38.4,0.83478 l 0.8348,0.83478 0.8348,1.66957 v 0 M 7.5924235,270.30379 h 0.8348001 m 324.7304064,0 h 0.8348 m 1.6696,0 h 0.8347 m 1.6696,0 h 159.4435 m 2.5043,0 h 7.5131 m -156.1044,0.83478 v 1.66957 m 10.0174,-1.66957 v 1.66957 m -20.8695,2.50434 4.1739,2.50435 -8.3479,0.83478 m 174.4696,-3.33913 h 0.8348 m 6.6783,0 -2.5044,6.67826 m -242.9217,-5.84347 4.1739,5.00869 m 218.713,-5.00869 c 1.9275,2.93927 6.4679,1.68459 10.8522,0.83478 m -173.6348,0 1.6696,5.00869 m 17.5304,-5.00869 -6.6782,0.83478 m 15.8608,-0.83478 c 6.0731,4.97113 23.5968,1.66956 31.7218,1.66956 h 90.9913 m -210.3652,-0.83478 c -3.719,1.29391 -6.0514,0.83645 -10.0174,0.83478 -10.3455,-0.003 -21.5082,0 -31.7218,0 -4.2749,0 -6.1598,0 -10.8522,0 -49.9976,0 -100.2406,0 -150.260806,0 -11.0214,0 -24.1315,0 -35.0609,0 -3.1202,0 -4.6673,0 -7.513,0 -6.5517,0 -16.7521,0 -20.0348004,0 m -0.8348001,0 h 0.8348001 m 344.7652064,0.83479 7.513,-0.83479 m 128.5566,0 h 4.1739 m 11.6869,0 h 12.5218 m -8.3479,0.83479 v 1.66956 m -230.4,3.33913 c 6.1774,6.47291 14.8149,17.16313 21.8463,24.06428 2.1304,2.09113 6.154,4.97614 8.1734,6.89447 1.6128,1.53182 2.5928,2.84995 4.4443,4.19979 1.9718,1.43583 4.9687,3.05948 6.4404,4.07624 m 175.3043,-39.23478 -0.8347,3.33913 m 14.1913,-3.33913 c 1.9968,3.11291 4.7841,3.12543 7.513,0.83478 m -180.313,0 2.5043,5.0087 M 7.5924235,286.99944 c 0.9632001,0 1.4695001,0 5.0126005,0 8.385,0 13.9337,0 20.8657,0 11.9854,0 26.2063,0 38.4,0 48.889806,0 98.987606,0 147.756506,0 4.209,0 6.0747,0 10.0174,0 10.2578,0 21.5282,0 31.7217,0 4.9586,0 6.8786,0.33475 12.5218,0 m 64.2782,0.83478 c 6.912,-2.04355 15.3542,-0.83478 22.5391,-0.83478 h 44.2435 c 5.8026,0 17.6924,-2.42254 20.8696,3.33913 m 0,-2.50435 20.0348,-0.83478 h 37.5652 m 4.1739,0 h 5.0087 m 4.1739,1.66956 10.8522,-1.66956 m -70.1218,0.83478 v 1.66957 m -98.5043,2.50434 1.6696,4.17392 m 85.1478,-3.33913 c -2.8082,4.33252 -15.6555,2.50435 -20.8696,2.50435 h -62.6087 m 96,-2.50435 -0.8348,3.33913 -9.1826,-0.83478 m 66.7826,-2.50435 -2.5043,5.84348 m 20.8696,-5.84348 -2.5044,5.84348 m -18.3652,-2.50435 -8.3478,-1.66957 2.5043,-0.83478 m -12.5217,0.83478 -0.8348,3.33913 m 2.5043,-2.50434 8.3479,-0.83479 m 19.2,3.33913 c 1.2321,-2.0736 1.7071,-2.27895 4.1739,-2.50434 m -500.0348065,0 c 0.9632001,0 1.4695001,0 5.0126005,0 8.3867,0 13.9335,0.0517 20.8657,0.002 11.7252,-0.0826 25.6362,-0.002 37.5652,-0.002 h 98.504306 c 15.6789,0 32.8946,-0.27882 48.4174,0.0209 3.7332,0.0718 5.5413,0.0342 9.1826,-0.0117 10.2545,-0.12939 21.5307,-0.009 31.7218,-0.009 5.2883,0 7.2993,0 13.3565,0 m 167.7913,0 h 31.7217 m 26.7131,0 h 3.3391 m -20.8696,0.83478 v 1.66956 m -54.2608,2.50435 h 0.8348 m -85.9827,0.83478 c 3.6873,3.71061 12.0677,2.50435 17.5305,2.50435 h 47.5826 m 15.0261,-2.50435 c -2.1387,3.29823 -6.998,2.50435 -10.8522,2.50435 m 99.3391,-2.50435 -2.5043,5.0087 m -68.4522,-4.17391 v 2.50434 m 32.5565,-2.50434 c 2.5044,1.89913 6.2384,2.68215 8.3479,0 m -32.5566,0.83478 -0.8347,3.33913 m 33.3913,-3.33913 17.5304,0.83478 m -490.0174065,0 c 0.9632001,0 1.4695001,0 5.0126005,0 7.8988,0 12.6799,0 19.1961,0 12.2443,0 26.7773,0 39.2348,0 h 97.669506 c 15.6873,0 32.883,0 48.4174,0 3.7265,0 5.548,0 9.1826,0 9.9899,0 20.9598,0 30.887,0 4.972,0 6.8536,0 12.5217,0 m 139.4087,0 v 0.83478 m 12.5218,1.66957 4.1739,-2.50435 m 1.6696,0 h 8.3478 m 6.6782,0 h 2.5044 m 4.1739,0 h 20.0348 m 1.6695,0 v 0.83478 m 29.2174,0 3.3392,-0.83478 m -11.687,2.50435 5.8435,-0.83478 m 8.3478,4.17391 c -1.4141,2.84327 -2.4334,3.39506 -4.1739,5.84348 m -156.1043,-5.0087 4.1739,5.0087 m 72.6261,-5.0087 1.6695,1.66957 m 14.1913,-1.66957 4.1739,1.66957 m 2.5044,-1.66957 c 6.3143,4.78331 23.0333,1.66957 30.8869,1.66957 m 4.174,-1.66957 -0.8348,3.33913 m -52.5913,-2.50435 10.8521,0.83479 m 50.9218,-0.83479 13.3565,0.83479 m -494.1913065,0 c 0.9632001,0 1.4695001,0 5.0126005,0 7.8988,0 12.6799,0 19.1961,0 11.9854,0 26.2063,0 38.4,0 h 96.834806 c 15.4176,0 32.3161,0 47.5826,0 3.7265,0 5.548,0 9.1826,0 9.9898,0 20.9597,0 30.887,0 5.2883,0 7.2993,0 13.3565,0 m 80.1391,0.83478 3.3391,-0.83478 m 1.6696,0 h 3.3391 m 1.6696,0 h 32.5565 m 2.5044,0.83478 9.1826,-0.83478 m 2.5043,0.83478 3.3392,-0.83478 m 1.6695,0 h 2.5044 m 2.5043,0 h 3.3391 m 1.6696,0 h 0.8348 m 62.6087,0 h 2.5043 m -77.6347,1.66956 h 7.513 m 6.6783,0 v 0.83478 m -68.4522,2.50435 c 6.0046,4.59381 12.5994,5.71409 20.0348,6.67826 m 48.4174,-6.67826 c 1.1945,3.59792 3.9719,3.32661 7.513,3.33913 m 69.287,-3.33913 c -7.827,4.86011 -13.7205,3.34581 -22.5392,3.33913 m -83.4782,-2.50435 11.6869,4.17392 m 29.2174,-4.17392 v 2.50435 m 96.8348,-2.50435 c -3.8934,2.65628 -5.9453,4.48863 -10.0174,7.33941 -8.5816,6.00626 -18.2625,12.28466 -28.3826,15.19972 M 7.5924235,320.39094 c 0.9632001,0 1.4695001,0 5.0126005,0 7.8988,0 12.6799,0 19.1961,0 11.9854,0 26.2063,0 38.4,0 h 96.000006 c 15.1471,0 31.7484,0 46.7478,0 3.7265,0 5.548,0 9.1826,0 10.0258,0 20.817,-0.0317 30.887,8.4e-4 5.017,0.0159 7.9037,0.0292 13.3565,-8.4e-4 m 35.8957,0 h 9.1826 m 56.7652,0 h 23.3739 m 15.0261,0 h 12.5217 m 1.6696,0 h 0.8348 m 15.0261,0 h 38.4 m 10.0174,0.83479 -6.6783,2.50434 m -99.3391,1.66957 25.8782,2.50435 8.3478,0.0326 6.6783,0.7271 9.1826,0.0718 10.8522,-0.8281 9.1826,-0.003 20.0348,-1.66957 m -59.2696,-0.83478 h 2.5044 m 58.4347,0 h 3.3392 m -175.3044,3.33913 c 2.9159,0.10518 4.6364,0.11269 7.5131,0.0417 2.4542,-0.0601 5.0546,-0.0417 7.513,-0.0417 2.3307,0 4.7633,0.0442 7.5131,-0.0292 3.3332,-0.0885 4.7891,-0.0968 6.6782,0.76299 3.4919,1.58859 7.1566,4.28828 10.8522,6.77927 l -9.1826,0.83478 M 7.5924235,328.73919 c 0.9632001,0 1.4695001,0 5.0126005,0 7.6374,0 12.063,0 18.3613,0 11.4674,0 25.0644,0 36.7304,0 h 99.339206 c 14.1078,0 32.2192,0 45.913,0 3.2724,0 4.9812,0 8.3478,0 15.446,0 29.2483,0.672 43.4087,0 m 74.2957,7.51304 11.687,4.82505 10.8521,4.57293 21.7044,6.3335 11.6869,2.02518 14.1913,1.44 38.4,-1.44 11.687,-2.00431 21.7043,-6.2951 9.1826,-3.61377 M 7.5924235,337.08701 c 0.9632001,0 1.4695001,0 5.0126005,0 7.6374,0 12.063,0 18.3613,0 11.7264,0 25.6354,0 37.5652,0 h 96.834806 c 13.8532,0 31.6308,0 45.0783,0 3.2723,0 4.9811,0 8.3478,0 10.2879,0 21.3846,-0.2112 31.7217,0.0209 4.2549,0.096 8.3654,0.0326 12.5218,-0.0209 m 33.3913,0 c 9.3754,0 19.579,0.007 30.0522,0 m 16.6956,0.83479 c 0.3289,2.21634 0.3648,2.78567 1.6696,5.84347 l -11.687,1.66957 m -325.5652065,0 c 0.9632001,0 1.4695001,0 5.0126005,0 7.6393,0 12.062,0.0467 18.3613,0.002 11.7252,-0.0826 25.6363,-0.002 37.5652,-0.002 h 94.330506 c 15.1471,0 31.7484,0 46.7478,0 3.7265,0 5.548,0 9.1826,0 10.0199,0 20.8178,-0.17363 30.887,0.0209 4.4126,0.0851 8.0539,-0.0184 12.5217,-0.0209 m 30.887,0 h 8.3478 l 9.1826,0.0626 6.6782,0.0459 12.5218,-0.10852 m 15.8609,0 0.8347,1.66957 m 0.8348,3.33913 2.5044,6.67826 M 7.5924235,353.78265 c 0.9632001,0 1.4695001,0 5.0126005,0 7.8988,0 12.6799,0 19.1961,0 11.4674,0 25.0644,0 36.7304,0 h 95.165206 c 13.5987,0 31.0423,0 44.2435,0 3.2724,0 4.9812,0 8.3479,0 11.3313,0 23.8013,0 35.0608,0 3.608,0 5.4478,0 9.1826,0 m 28.3826,0 c 4.6172,0 6.013,0 10.0174,0 2.663,0 5.6674,-0.0601 8.3479,0.12939 2.6754,0.18949 4.0946,0.18281 6.6782,0 3.5862,-0.25294 9.5558,-0.16529 13.3565,-0.12605 5.4495,0.0559 5.6607,0.28633 9.1826,0.10518 2.3207,-0.11854 7.1266,-0.10852 10.0174,-0.10852 m 4.174,5.00869 1.6695,5.84348 M 7.5924235,362.13047 c 0.9632001,0 1.4695001,0 5.0126005,0 7.8988,0 12.6799,0 19.1961,0 5.6641,0 11.1814,0 16.6956,0 6.2916,0 13.5163,0 20.0348,0 h 92.660906 c 14.607,0 30.6131,0 45.0783,0 3.7264,0 5.5479,0 9.1826,0 11.0633,0 23.2328,0 34.2261,0 4.3024,0 6.058,0 10.8521,0 m 25.0435,0 24.2087,0.0668 25.0435,-0.0668 m 3.3391,0 h 10.8522 m 5.0087,5.84348 1.6695,5.84348 M 7.5924235,370.4783 c 2.8151005,0 9.3700005,-0.32306 19.2000005,0.16361 2.8555,0.14108 4.3848,-0.0901 7.513,-0.15193 10.4838,-0.20619 23.4222,-0.0117 34.2261,-0.0117 h 92.660906 c 14.5995,0 30.6232,-0.25795 45.0783,0.0209 3.7331,0.0718 5.5412,0.0342 9.1826,-0.0117 10.5232,-0.13273 22.0992,-0.009 32.5565,-0.009 4.972,0 6.8536,0 12.5217,0 m 20.8696,0 c 9.1534,0 15.6497,0.73461 24.2087,0.12939 7.6733,-0.54178 18.7342,-0.16445 26.713,-0.12856 6.1515,0.0267 6.0497,0.31221 10.0174,0.10769 2.4459,-0.12522 7.7944,-0.10852 10.8522,-0.10852 m -78.4696,8.34782 c 3.4827,0 8.4814,-0.0184 11.687,0.0668 5.1623,0.13774 10.964,0.0643 16.6956,-0.0459 8.0465,-0.15527 16.9194,-0.0209 25.0435,-0.0209 2.8316,0 7.4262,-0.0518 10.0174,0.0626 3.7115,0.16278 4.0262,0.1536 7.5131,0 4.6839,-0.20619 11.752,-1.89078 13.3565,3.27652 M 7.5924235,378.82629 c 2.9434005,0 10.7184005,0 20.8696005,0 2.8457,0 4.3928,0 7.513,0 10.1862,0 22.8613,0 33.3913,0 h 91.826106 c 14.607,0 30.6131,0 45.0783,0 3.7264,0 5.5479,0 9.1826,0 9.9898,0 20.9597,0 30.8869,0 6.1808,0 8.746,0 15.8609,0 m 65.9478,11.68696 c 0.7647,-0.64696 1.3841,-1.84404 4.1948,-2.85913 2.8842,-1.04264 10.7804,-0.864 13.3357,-0.62191 4.4076,0.41822 11.6644,-0.31973 15.8608,0.14191 l 0.8348,2.50435 M 7.5924235,387.17412 c 0.9632001,0 1.4695001,0 5.0126005,0 8.8338,0 15.2068,0 22.5352,0 4.5514,0 8.9121,0 13.3565,0 12.1112,0 24.5003,0 36.7305,0 h 80.973906 c 12.7171,0 26.6404,0 39.2348,0 3.7264,0 5.5479,0 9.1826,0 9.1901,0 19.1048,0 28.3826,0 3.7907,0 5.548,0 9.1826,0 8.0072,0 17.7166,-0.01 25.8783,0 7.8177,0.009 14.1604,0.16612 21.7043,0.0209 9.0107,-0.17447 20.7185,-0.0209 30.0522,-0.0209 m -5.8435,5.00869 c -5.775,2.68467 -8.9021,3.12293 -14.1913,3.39423 -2.9092,0.14859 -8.4822,-0.096 -11.687,-0.0342 -6.6156,0.12689 -12.9057,-0.0209 -19.2,-0.0209 -6.76,0 -21.3988,0 -28.3826,0 -3.6346,0 -5.3918,0 -9.1826,0 -8.6667,0 -19.1874,0 -27.5478,0 -3.2172,0 -4.8568,0 -8.3478,0 -12.8615,0 -27.082,0 -40.0696,0 H 83.557624 c -15.8856,0 -34.4774,-0.10769 -50.0869,0.002 -3.3697,0.0242 -5.0724,0.15193 -8.3479,0.0643 -6.4689,-0.1728 -13.4526,-0.0668 -16.6956004,-0.0668 m -0.8348001,0 h 0.8348001 m 312.2087064,0 28.3826,0.18365 13.3565,-0.1511 15.8609,0.10936 6.6782,0.68035 10.0174,0.0876 6.6783,0.73878 14.1913,0.85565 m -68.4522,0.83479 4.1739,-1.66957 m 65.9479,1.66957 h 3.3391 m -141.9131,9.1826 7.5131,-3.35165 14.1913,-4.16139 m 131.0609,0 c 3.5353,0.53259 4.3024,2.13955 8.3478,3.07784 7.2025,1.6704 13.1954,0.93663 19.2,1.08355 3.2014,0.0785 6.8485,-0.12939 10.0174,0.0877 2.5953,0.17698 4.047,0.58352 6.6782,0.73044 4.1372,0.22956 9.8396,0.86316 14.1913,0.864 M 7.5924235,403.86926 c 0.9632001,0 1.4695001,0 5.0126005,0 7.8988,0 12.6799,0 19.1961,0 11.9854,0 26.2063,0 38.4,0 43.642406,0 88.361706,0 131.895606,0 4.002,0 5.6131,0 9.1827,0 5.5471,0 13.4166,0 19.2,0 15.764,0 41.1163,0.58435 53.426,0 m 30.0522,0 15.0261,0.23791 12.5217,-0.0893 8.3479,-0.14859 h 86.8174 m -105.1826,0.83478 -5.8435,2.50435 m 166.1217,0 h 3.3391 m -486.6782064,5.0087 c 3.0841004,0 8.8139004,0 15.0261004,0 3.2723,0 4.981,0 8.3478,0 12.5033,0 27.3483,0 40.0696,0 h 89.321706 c 14.0602,0 29.4879,-0.24793 43.4087,0.0209 3.4977,0.0668 5.1239,0.0618 8.3478,0 7.6132,-0.14693 17.1548,-0.0209 25.0435,-0.0209 3.7907,0 5.548,0 9.1826,0 6.3652,0 13.3607,1.53683 19.2,0.43909 3.7014,-0.69537 7.2835,-2.32236 10.8522,-3.77822 m 45.0782,0 -1.6695,3.33913 c 6.8444,0 30.4128,-0.20703 40.0695,0.10351 2.8475,0.0918 4.6848,0.48918 7.5131,0.40236 3.4184,-0.10518 6.2425,-0.50003 10.0174,-0.50587 27.289,-0.0443 55.306,-0.65781 82.6435,0.0125 15.0311,0.36814 35.5717,3.44348 50.0869,-0.84731 l -5.0087,-2.50434 M 7.5924235,412.21709 h 0.8348001 m 296.3478064,3.33913 c 7.2142,-2.08696 11.1936,-3.15214 15.0261,-2.50435 m 192,-0.83478 52.5913,2.50434 m -307.2,0.83479 5.8435,-1.66957 m 303.0261,1.66957 h 3.3391 m -309.7044,5.00869 -10.8521,-0.83478 5.0087,-2.50435 m 325.5652,0 c 3.4401,0.5184 4.0921,1.73802 7.513,2.85162 7.4989,2.44174 19.9664,1.3223 27.5479,1.3223 m -380.6609,2.50434 c 5.4161,-2.40167 8.4079,-3.20055 15.0261,-4.17391 M 7.5924235,420.56491 c 0.9472001,0 1.4084001,0 4.1945005,0 5.8854,0 12.7544,0 17.5098,0 4.8937,0 10.1755,0 15.0261,0 5.4767,0 11.1151,0 16.6957,0 H 192.91413 c 4.9328,0 11.0634,-0.23123 15.8609,0.0743 2.7715,0.17614 4.1622,0.46748 6.6783,0.24709 4.9102,-0.42991 17.5229,-0.32139 21.7043,-0.32139 m 24.2087,0 h 0.8348 m 20.8696,3.33913 c 8.584,-1.98594 8.7911,-2.99603 15.8608,-3.30657 2.1145,-0.0927 4.5488,-0.0326 6.6783,-0.0326 5.0337,0 10.7595,0 15.8609,0 6.2934,0 14.8583,0.25712 20.8695,0.0326 5.8034,-0.21704 9.2611,0.28883 15.8609,0 2.9635,-0.12939 7.2017,-0.0326 10.0174,-0.0326 2.8458,0 4.3926,0 7.513,0 8.3646,0 18.3076,0 26.7131,0 60.6761,0 121.4191,0 181.9826,0 m -319.7218,8.34783 c -10.196,0 -33.9689,0.72125 -39.2347,-0.83478 l 5.0087,-2.50435 m 49.2521,0 -1.1353,1.26469 c -2.8274,2.59033 -9.6476,3.46185 -16.3951,5.41357 M 8.4272236,428.9127 c 6.3533004,0 15.1878004,0 23.3739004,0 8.6438,0 19.4625,0 28.3826,0 47.736196,0 95.888106,-0.84898 143.582606,0.004 7.9263,0.14108 13.45,-0.18198 21.7044,-0.83895 m 53.426,1.66956 c 4.8501,-1.43332 15.0044,-0.83478 22.5392,-0.83478 6.4295,0 13.7514,0.78636 20.0348,0.83061 3.1045,0.0225 4.5846,-0.37899 7.513,-0.45079 8.7961,-0.21453 23.3121,-0.37982 32.5565,-0.37982 3.4911,0 5.1306,0 8.3479,0 8.3962,0 18.3176,0 26.713,0 5.8886,0 10.0416,0 15.8609,0 19.8786,0 40.9494,0 60.9391,0 29.9587,0 60.2287,0.0484 90.1565,0 3.2815,-0.005 5.5037,-0.35812 8.3478,-0.35812 2.6121,0 4.6314,0.34393 7.5131,0.35728 11.4666,0.0551 23.5375,8.4e-4 35.0609,8.4e-4 m -606.8870065,0 h 0.8348001 m 202.0174064,0 h 1.6695 m 29.2174,11.68695 5.0087,-2.50434 -4.1948,-0.8064 -10.8313,-0.0284 -25.0226,-0.0284 -4.1948,-0.8064 5.0087,-2.50435 m 51.7566,0 v 4.17392 c 3.7114,-1.09691 7.9354,-0.83479 12.5217,-0.83479 9.817,0 21.2594,-0.11269 30.887,0.21287 3.3174,0.11186 4.9886,0.21454 8.3478,0.27047 14.4651,0.23792 35.8289,-0.48334 50.0869,-0.48334 3.2724,0 4.9812,0 8.3479,0 8.0823,0 17.0487,0 25.0434,0 3.2632,0 4.9603,0 8.3479,0 4.1998,0 5.6289,0 9.1826,0 2.8174,0 4.8567,-0.0275 7.513,0.003 8.5799,0.0985 13.6754,-0.003 19.2,-0.003 m -250.4348,3.33913 1.395,-1.26219 c 3.1563,-2.30567 6.8452,-2.78901 12.7963,-2.91172 m 284.6609,0 3.3391,1.66957 M 7.5924235,437.26032 c 0.4041001,0 1.3537001,0 2.6383005,0 5.7963,0 15.9056,0 21.5704,0 6.287,0 13.6454,0 20.0348,0 H 189.57503 m 56.7652,0.83479 10.0174,-0.83479 m 189.4957,0 h 0.8348 m 1.6695,0 2.5044,0.83479 m 7.513,-0.83479 h 3.3391 m 3.3392,0 4.1739,0.83479 m 10.0174,-0.83479 5.0087,0.83479 m 8.3478,0 5.0087,-0.83479 m 2.5043,0 v 0.83479 m 7.5131,0 c 3.3149,-0.71541 4.1472,-0.62359 8.3478,-0.83479 m 2.5044,0 h 2.5043 m 3.3391,0 h 5.0087 m 14.1913,0 v 0.83479 m 2.5044,-0.83479 c 4.3308,0.25628 6.4554,0.003 10.8522,0 m 2.5043,0 h 3.3391 m 2.5044,0 1.6695,0.83479 m 1.6696,-0.83479 h 1.6696 m 3.3391,0 h 0.8348 m 2.5043,0 v 0.83479 m 2.5044,-0.83479 h 3.3391 m 3.3391,0 v 0.83479 m 6.6783,-0.83479 v 0.83479 m 2.5044,-0.83479 h 1.6695 m 4.1739,0 h 4.1739 m 1.6696,0 h 7.5131 m -173.6348,0.83479 h 1.6695 m 32.5566,0 h 1.6695 m 26.7131,0 h 1.6695 m 27.5479,0 h 1.6695 m 5.0087,0 h 1.6696 m 47.5826,0 h 0.8348 m 25.0435,7.51304 c -70.9774,0 -142.813,0 -213.7044,0 -4.5379,0 -6.5272,0 -10.8522,0 -31.3569,0 -65.2466,0 -96.8347,0 -18.7968,0 -38.9393,0 -57.6,0 -3.5654,0 -5.1223,0 -8.3479,0 -5.0045,0 -12.2896,0 -17.5304,0 -8.3286,0 -24.2463,1.12863 -30.887,-0.83478 l 5.0087,-2.50435 m 51.7566,3.33913 2.5043,-3.33913 M 8.4272236,445.60815 h 126.0522064 30.8869 c 5.1698,0 9.6351,0.0509 13.3565,-0.83478 M 7.5924235,445.60815 h 0.8348001"
       id="path340" />
  </g>
</svg>
