<?xml version="1.0" standalone="yes"?>
<svg width="938" height="1000">
<path style="stroke:#000000; fill:none;" d="M512 524C516.225 501.254 516.323 477.579 521.364 455C525.912 434.627 534.211 413.525 541.575 394C546.645 380.555 550.57 362.052 560.532 351.225C564.56 346.848 571.481 346.297 577 345.2C591.785 342.26 606.949 341 622 341C677.505 341 742.984 337.083 786.996 377.171C817.768 405.199 824.192 447.931 829.282 487C831.625 504.986 837.456 522.352 821 534.682C815.765 538.605 807.2 537 801 537L752 537L563 537C551.918 537 537.747 539.376 527 536.682C514.46 533.538 516.046 521.22 502.001 530.439C490.178 538.199 488.249 559.253 484 572C475.355 597.933 467.853 624.26 458.692 650C452.575 667.188 451.628 679.222 435 688.989C428.853 692.6 417.197 702.782 410 702.471C400.51 702.061 382.624 688.779 375.055 683.096C369.881 679.211 368.469 671.816 366.319 666C361.627 653.31 356.776 640.677 352.05 628C333.62 578.564 316 528.71 298.308 479C294.516 468.347 290.582 457.726 287 447C285.27 441.821 283.837 434.443 279.722 430.61C273.125 424.463 262.829 420.183 255 415.719C230.147 401.551 196.413 387.043 180.603 362C177.094 356.44 178.909 346.337 178.989 340C179.212 322.291 178.702 304.648 179.91 287C181.965 257.001 181.961 227.517 189.13 198C192.288 184.995 194.755 171.293 206.001 162.684C221.306 150.967 249.54 151 268 151M104 346L178 346M204 387C196.863 394.137 183.128 403.44 179.603 413C176.605 421.133 179.593 432.599 179.961 441C180.804 460.255 180 479.725 180 499L180 740M411 705L411 750"/>
</svg>
