<?xml version="1.0" standalone="yes"?>
<svg width="757" height="1000">
<path style="stroke:#000000; fill:none;" d="M105 136L105 149M105 536L105 392C105 374.709 99.5726 350.878 115 339.318C122.048 334.036 137.516 337 146 337L226 337L533 337L622 337C633.738 337 648.27 335.096 653.397 349C657.748 360.801 654 380.413 654 393L654 493C654 510.531 655.962 524.689 639 535.397C631.611 540.061 615.557 537 607 537L526 537L224 537L141 537C132.167 537 115.247 533.702 107.318 537.603C103.635 539.416 105 546.667 105 550L105 589L105 716C105 731.093 100.206 752.057 115 761.397C121.115 765.257 132.982 763 140 763L201 763L430 763"/>
</svg>
