<?xml version="1.0" standalone="yes"?>
<svg width="665" height="1000">
<path style="stroke:#000000; fill:none;" d="M99 135L99 150M261 536C264.382 521.795 263.602 505.595 265.166 491C270.372 442.401 280.639 388.245 326 360.615C366.706 335.82 423.493 334.073 469 344.502C490.257 349.373 511.963 357.706 527.911 373.17C554.97 399.407 564.068 433.895 569.271 470C571.393 484.731 577.667 506.384 574.643 521C569.918 543.837 533.311 537 517 537L332 537L277 537C272.137 537 261 534.737 261.032 542.019C261.097 556.554 263.383 571.521 264.831 586C270.549 643.184 284.394 708.591 338 740.547C373.09 761.465 416.548 762.876 456 758.155C475.961 755.766 496.339 751.402 514 741.424C535.257 729.415 558.488 708.391 563 683M102 358L102 480C102 502.737 98.9527 521.478 121 535.397C129.817 540.963 150.705 537 161 537C194.277 537 227.056 537.906 260 540"/>
</svg>
