<?xml version="1.0" standalone="yes"?>
<svg width="1155" height="1000">
<path style="stroke:#000000; fill:none;" d="M170 740L170 510C170 483.513 168.323 456.351 170.83 430C171.486 423.109 170.048 414.604 172.603 408.04C174.777 402.457 183.156 398.912 188 396C203.395 386.744 219.275 378.769 236 372.203C249.268 366.994 260.808 358.692 274 353.758C290.237 347.684 308.94 345.548 326 342.754C336.849 340.977 351.161 337.038 362 339.76C379.102 344.054 396.851 359.623 410 371C425.379 356.324 444.457 353.734 464 348.254C514.161 334.188 571.042 327.742 621 347.061C631.715 351.205 642.873 356.464 652 363.529C661.633 370.985 674.769 384.087 688 384.777C695.527 385.169 703.252 379.508 710 376.8C729.369 369.029 746.521 357.937 766 350.461C815.228 331.567 886.593 332.97 933 358.862C979.029 384.543 990.383 435.762 996.155 484C998.287 501.816 1006.09 525.925 986 535.972C980.897 538.524 972.579 537 967 537L923 537L767 537C750.942 537 735.039 536 719 536C712.8 536 704.235 534.395 699 538.318C694.266 541.865 684.151 550.05 682.813 556C681.792 560.543 685.923 567.683 687.33 572C690.506 581.744 692.874 592.724 692.996 603C693.272 626.22 691.257 649.092 687.414 672C685.643 682.555 684.346 694.336 679.483 704C670.719 721.417 654.48 734.108 637 742.1C618.347 750.627 598.217 754.001 578 756.166C528.448 761.471 474.244 758.88 435 723.826C422.034 712.245 414.729 698.13 407 683M170 361C170 373.273 165.694 395.844 173 406M410 371C410 397.645 412.13 424.953 418.119 451C420.917 463.167 423.291 474.857 431.039 485C448.199 507.464 479.493 517.453 506 523.425C548.37 532.972 591.237 538.145 634 545.286C649.905 547.941 666.041 553.411 682 555"/>
</svg>
