<?xml version="1.0" standalone="yes"?>
<svg width="610" height="1000">
<path style="stroke:#000000; fill:none;" d="M105 136L105 149M105 536L105 392C105 374.709 99.5726 350.878 115 339.318C120.055 335.53 128.02 337 134 337L179 337L354 337C370.821 337 392.713 333.235 409 337.318C414.01 338.574 420.426 344.99 421.682 350C423.498 357.244 422 366.544 422 374L422 425L422 493C422 500.803 424.506 513.933 420.972 521C408.465 546.015 367.151 537 344 537L169 537L124 537C119.68 537 110.148 535.221 106.603 538.028C102.058 541.628 105 560.479 105 566L105 649L105 725C105 733.731 102.2 747.97 108.148 755C116.135 764.439 124.682 763 136 763L191 763L430 763"/>
</svg>
