<?xml version="1.0" standalone="yes"?>
<svg width="830" height="1000">
<path style="stroke:#000000; fill:none;" d="M164 156L350 156L397 156C402.77 156 411.177 154.408 415.941 158.318C424.039 164.964 420 186.409 420 196L420 303L420 740M420 161C426.807 154.706 434.251 156 443 156L488 156L675 156"/>
</svg>
